{"request": {"country": "uk", "language": "en", "location": "somerset", "num_res": "15", "offset": 1485, "output": "json_xs", "page": 100, "product_type": "realestate", "property_type": "property", "size_type": "net", "size_unit": "m2", "sort": "nestoria_rank", "listing_type": "buy"}, "response": {"application_response_code": "100", "application_response_text": "listings returned for one unambiguous location", "attribution": {"img_height": 22, "img_url": "https://resources.nestimg.com/nestoria/img/pbr_v1.png", "img_width": 183, "link_to_img": "http://www.nestoria.com"}, "created_http": "Tue, 18 Jun 2019 17:31:11 GMT", "created_unix": 1560879071, "link_to_url": "https://www.nestoria.co.uk/somerset/property/buy/100", "listings": [{"bathroom_number": 2, "bedroom_number": 4, "car_spaces": 0, "commission": 0, "construction_year": 0, "datasource_name": "OnTheMarket.com", "img_height": 300, "img_url": "https://imgs.nestimg.com/4_bedroom_detached_house_for_sale_111717691680055367.jpg", "img_width": 400, "keywords": "Detached, Garden, Kitchen, Parking", "latitude": 50.9993, "lister_name": "Stags", "lister_url": "https://www.nestoria.co.uk/detail/0000000111717691680055367/title/5/100-1?serpUid=&pt=1&ot=1&l=somerset&did=105_high1&t_sec=9&t_or=45&t_pvid=null&utm_source=api&utm_medium=external", "listing_type": "buy", "location_accuracy": 9, "longitude": -3.6652, "price": 495000, "price_currency": "\u00a3", "price_formatted": "\u00a3495,000", "price_high": 495000, "price_low": 495000, "price_type": "fixed", "property_type": "house", "size": 0, "size_type": "net", "summary": "A detached village house with superb accommodation. Sitting room, f...", "thumb_height": 60, "thumb_url": "https://imgs.nestimg.com/medium/4_bedroom_detached_house_for_sale_111717691680055367.jpg", "thumb_width": 80, "title": "Knowstone, South Molton, Devon, EX36", "updated_in_days": 2, "updated_in_days_formatted": "first seen 2 days ago"}, {"bathroom_number": "", "bedroom_number": 3, "car_spaces": 0, "commission": 0, "construction_year": 0, "datasource_name": "OnTheMarket.com", "img_height": 300, "img_url": "https://imgs.nestimg.com/3_bedroom_detached_house_for_sale_111309467218619782.jpg", "img_width": 400, "keywords": "Detached", "latitude": 51.2367, "lister_name": "Roderick Thomas", "lister_url": "https://www.nestoria.co.uk/detail/0000000111309467218619782/title/5/100-2?serpUid=&pt=1&ot=1&l=somerset&did=105_high1&t_sec=9&t_or=45&t_pvid=null&utm_source=api&utm_medium=external", "listing_type": "buy", "location_accuracy": 9, "longitude": -2.72103, "price": 500000, "price_currency": "\u00a3", "price_formatted": "\u00a3500,000", "price_high": 500000, "price_low": 500000, "price_type": "fixed", "property_type": "house", "size": 0, "size_type": "net", "summary": "An brand new house in this village between wells, wedmore and chedd...", "thumb_height": 60, "thumb_url": "https://imgs.nestimg.com/medium/3_bedroom_detached_house_for_sale_111309467218619782.jpg", "thumb_width": 80, "title": "Westbury Sub Mendip, Nr. Wells", "updated_in_days": 3, "updated_in_days_formatted": "first seen 3 days ago"}, {"bathroom_number": "", "bedroom_number": 4, "car_spaces": 0, "commission": 0, "construction_year": 0, "datasource_name": "OnTheMarket.com", "img_height": 300, "img_url": "https://imgs.nestimg.com/4_bedroom_detached_bungalow_for_sale_111711532350939761.jpg", "img_width": 400, "keywords": "Detached, Bungalow", "latitude": 51.3109, "lister_url": "https://www.nestoria.co.uk/detail/0000000111711532350939761/title/5/100-3?serpUid=&pt=1&ot=1&l=somerset&did=105_high1&t_sec=9&t_or=45&t_pvid=null&utm_source=api&utm_medium=external", "listing_type": "buy", "location_accuracy": 9, "longitude": -2.8338, "price": 415000, "price_currency": "\u00a3", "price_formatted": "\u00a3415,000", "price_high": 415000, "price_low": 415000, "price_type": "fixed", "property_type": "house", "size": 0, "size_type": "net", "summary": "A detached family residence occupying a plot, situated in a quiet a...", "thumb_height": 60, "thumb_url": "https://imgs.nestimg.com/medium/4_bedroom_detached_bungalow_for_sale_111711532350939761.jpg", "thumb_width": 80, "title": "Stylish detached family home", "updated_in_days": 3, "updated_in_days_formatted": "first seen 3 days ago"}, {"bathroom_number": "", "bedroom_number": 6, "car_spaces": 0, "commission": 0, "construction_year": 0, "datasource_name": "OnTheMarket.com", "img_height": 300, "img_url": "https://imgs.nestimg.com/6_bedroom_property_for_sale_111557531141761208.jpg", "img_width": 400, "keywords": "Garden, Conversion", "latitude": 51.1456, "lister_name": "Roderick Thomas", "lister_url": "https://www.nestoria.co.uk/detail/0000000111557531141761208/title/5/100-4?serpUid=&pt=1&ot=1&l=somerset&did=105_high1&t_sec=9&t_or=45&t_pvid=null&utm_source=api&utm_medium=external", "listing_type": "buy", "location_accuracy": 9, "longitude": -2.6438, "price": 725000, "price_currency": "\u00a3", "price_formatted": "\u00a3725,000", "price_high": 725000, "price_low": 725000, "price_type": "fixed", "property_type": "property", "size": 0, "size_type": "net", "summary": "A barn conversion, bags of great living space, large garden and a c...", "thumb_height": 60, "thumb_url": "https://imgs.nestimg.com/medium/6_bedroom_property_for_sale_111557531141761208.jpg", "thumb_width": 80, "title": "West Pennard, near Glastonbury", "updated_in_days": 3, "updated_in_days_formatted": "first seen 3 days ago"}, {"bathroom_number": "", "bedroom_number": 4, "car_spaces": 0, "commission": 0, "construction_year": 0, "datasource_name": "OnTheMarket.com", "img_height": 300, "img_url": "https://imgs.nestimg.com/4_bedroom_house_for_sale_111711523756003991.jpg", "img_width": 400, "keywords": "Detached, Freehold, Cottage", "latitude": 50.8205, "lister_name": "Greenslade Taylor Hunt", "lister_url": "https://www.nestoria.co.uk/detail/0000000111711523756003991/title/5/100-5?serpUid=&pt=1&ot=1&l=somerset&did=105_high1&t_sec=9&t_or=45&t_pvid=null&utm_source=api&utm_medium=external", "listing_type": "buy", "location_accuracy": 9, "longitude": -3.17158, "price": 950000, "price_currency": "\u00a3", "price_formatted": "\u00a3950,000", "price_high": 950000, "price_low": 950000, "price_type": "fixed", "property_type": "house", "size": 0, "size_type": "net", "summary": "A unique detached family home offering , flexible accommodation ide...", "thumb_height": 60, "thumb_url": "https://imgs.nestimg.com/medium/4_bedroom_house_for_sale_111711523756003991.jpg", "thumb_width": 80, "title": "Shaugh, Luppitt, Honiton, Devon, EX14", "updated_in_days": 3, "updated_in_days_formatted": "first seen 3 days ago"}, {"bathroom_number": "", "bedroom_number": 4, "car_spaces": 0, "commission": 0, "construction_year": 0, "datasource_name": "OnTheMarket.com", "img_height": 300, "img_url": "https://imgs.nestimg.com/4_bedroom_detached_bungalow_for_sale_111717699683234766.jpg", "img_width": 400, "keywords": "Detached, Bungalow", "latitude": 50.8261, "lister_url": "https://www.nestoria.co.uk/detail/0000000111717699683234766/title/5/100-6?serpUid=&pt=1&ot=1&l=somerset&did=105_high1&t_sec=9&t_or=45&t_pvid=null&utm_source=api&utm_medium=external", "listing_type": "buy", "location_accuracy": 9, "longitude": -3.39037, "price": 465000, "price_currency": "\u00a3", "price_formatted": "\u00a3465,000", "price_high": 465000, "price_low": 465000, "price_type": "fixed", "property_type": "house", "size": 0, "size_type": "net", "summary": "Opportunity of offering such an bungalow skilfully designed and exe...", "thumb_height": 60, "thumb_url": "https://imgs.nestimg.com/medium/4_bedroom_detached_bungalow_for_sale_111717699683234766.jpg", "thumb_width": 80, "title": "Westcott, Cullompton, EX15 - Detached", "updated_in_days": 2, "updated_in_days_formatted": "first seen 2 days ago"}, {"bathroom_number": "", "bedroom_number": 2, "car_spaces": 0, "commission": 0, "construction_year": 0, "datasource_name": "OnTheMarket.com", "img_height": 300, "img_url": "https://imgs.nestimg.com/2_bedroom_flat_for_sale_111477754179843262.jpg", "img_width": 400, "keywords": "Shared Garden, Needs Modernisation, No Chain, Conversion, Parking", "latitude": 51.0395, "lister_url": "https://www.nestoria.co.uk/detail/0000000111477754179843262/title/5/100-7?serpUid=&pt=1&ot=1&l=somerset&did=105_high1&t_sec=9&t_or=45&t_pvid=null&utm_source=api&utm_medium=external", "listing_type": "buy", "location_accuracy": 9, "longitude": -3.55119, "price": 120000, "price_currency": "\u00a3", "price_formatted": "\u00a3120,000", "price_high": 120000, "price_low": 120000, "price_type": "fixed", "property_type": "flat", "size": 0, "size_type": "net", "summary": "A two bedroom, second floor apartment in need of refurbishment conv...", "thumb_height": 60, "thumb_url": "https://imgs.nestimg.com/medium/2_bedroom_flat_for_sale_111477754179843262.jpg", "thumb_width": 80, "title": "Flat for sale, Dulverton - No Chain", "updated_in_days": 3, "updated_in_days_formatted": "first seen 3 days ago"}, {"bathroom_number": "", "bedroom_number": 2, "car_spaces": 0, "commission": 0, "construction_year": 0, "datasource_name": "OnTheMarket.com", "img_height": 300, "img_url": "https://imgs.nestimg.com/2_bedroom_maisonette_for_sale_111705541409519432.jpg", "img_width": 400, "keywords": "Garden, Maisonette, Victorian, Parking", "latitude": 51.121, "lister_name": "Cooper & Tanner", "lister_url": "https://www.nestoria.co.uk/detail/0000000111705541409519432/title/5/100-8?serpUid=&pt=1&ot=1&l=somerset&did=105_high1&t_sec=9&t_or=45&t_pvid=null&utm_source=api&utm_medium=external", "listing_type": "buy", "location_accuracy": 9, "longitude": -2.74065, "price": 189950, "price_currency": "\u00a3", "price_formatted": "\u00a3189,950", "price_high": 189950, "price_low": 189950, "price_type": "fixed", "property_type": "flat", "size": 0, "size_type": "net", "summary": "If you're looking for that 'special place', a little haven in the c...", "thumb_height": 60, "thumb_url": "https://imgs.nestimg.com/medium/2_bedroom_maisonette_for_sale_111705541409519432.jpg", "thumb_width": 80, "title": "Middle Leigh, Street - Garden", "updated_in_days": 4, "updated_in_days_formatted": "first seen 4 days ago"}, {"bathroom_number": "", "bedroom_number": 4, "car_spaces": 0, "commission": 0, "construction_year": 0, "datasource_name": "OnTheMarket.com", "img_height": 300, "img_url": "https://imgs.nestimg.com/4_bedroom_terraced_house_for_sale_111457712037682115.jpg", "img_width": 400, "keywords": "Garden, Grade II, Terraced, Listed", "latitude": 50.78108, "lister_name": "Strutt & Parker", "lister_url": "https://www.nestoria.co.uk/detail/0000000111457712037682115/title/5/100-9?serpUid=&pt=1&ot=1&l=somerset&did=105_high1&t_sec=9&t_or=45&t_pvid=null&utm_source=api&utm_medium=external", "listing_type": "buy", "location_accuracy": 9, "longitude": -2.99614, "price": 550000, "price_currency": "\u00a3", "price_formatted": "\u00a3550,000", "price_high": 550000, "price_low": 550000, "price_type": "fixed", "property_type": "house", "size": 0, "size_type": "net", "summary": "An historic four/five bedroom grade ii listed house with walled gar...", "thumb_height": 60, "thumb_url": "https://imgs.nestimg.com/medium/4_bedroom_terraced_house_for_sale_111457712037682115.jpg", "thumb_width": 80, "title": "Coombe Lane, Axminster, Devon", "updated_in_days": 3, "updated_in_days_formatted": "first seen 3 days ago"}, {"bathroom_number": "", "bedroom_number": 3, "car_spaces": 0, "commission": 0, "construction_year": 0, "datasource_name": "OnTheMarket.com", "img_height": 300, "img_url": "https://imgs.nestimg.com/3_bedroom_terraced_house_for_sale_111693438314610444.jpg", "img_width": 400, "keywords": "Detached, No Chain, Detached Garage, Terraced", "latitude": 51.1186, "lister_url": "https://www.nestoria.co.uk/detail/0000000111693438314610444/title/5/100-10?serpUid=&pt=1&ot=1&l=somerset&did=105_high1&t_sec=9&t_or=45&t_pvid=null&utm_source=api&utm_medium=external", "listing_type": "buy", "location_accuracy": 9, "longitude": -3.00256, "price": 149950, "price_currency": "\u00a3", "price_formatted": "\u00a3149,950", "price_high": 149950, "price_low": 149950, "price_type": "fixed", "property_type": "house", "size": 0, "size_type": "net", "summary": "No onward chain. Parking and garage to rear. Conveniently positione...", "thumb_height": 60, "thumb_url": "https://imgs.nestimg.com/medium/3_bedroom_terraced_house_for_sale_111693438314610444.jpg", "thumb_width": 80, "title": "Rhode Lane, Bridgwater - Detached", "updated_in_days": 6, "updated_in_days_formatted": "first seen 6 days ago"}, {"bathroom_number": "", "bedroom_number": 1, "car_spaces": 0, "commission": 0, "construction_year": 0, "datasource_name": "OnTheMarket.com", "img_height": 300, "img_url": "https://imgs.nestimg.com/1_bedroom_retirement_property_for_sale_111043909696632194.jpg", "img_width": 400, "keywords": "No Chain, Kitchen", "latitude": 50.9403, "lister_url": "https://www.nestoria.co.uk/detail/0000000111043909696632194/title/5/100-11?serpUid=&pt=1&ot=1&l=somerset&did=105_high1&t_sec=9&t_or=45&t_pvid=null&utm_source=api&utm_medium=external", "listing_type": "buy", "location_accuracy": 9, "longitude": -2.63319, "price": 140000, "price_currency": "\u00a3", "price_formatted": "\u00a3140,000", "price_high": 140000, "price_low": 140000, "price_type": "fixed", "property_type": "property", "size": 0, "size_type": "net", "summary": "This ground floor retirement flat lies in the heart of yeovil town ...", "thumb_height": 60, "thumb_url": "https://imgs.nestimg.com/medium/1_bedroom_retirement_property_for_sale_111043909696632194.jpg", "thumb_width": 80, "title": "South Street, Yeovil - No Chain", "updated_in_days": 3, "updated_in_days_formatted": "first seen 3 days ago"}, {"bathroom_number": "", "bedroom_number": 1, "car_spaces": 0, "commission": 0, "construction_year": 0, "datasource_name": "OnTheMarket.com", "img_height": 300, "img_url": "https://imgs.nestimg.com/1_bedroom_apartment_for_sale_111136757388225547.jpg", "img_width": 400, "keywords": "No Chain, Double Bedroom, Kitchen, Gas Central Heating", "latitude": 50.8788, "lister_url": "https://www.nestoria.co.uk/detail/0000000111136757388225547/title/5/100-12?serpUid=&pt=1&ot=1&l=somerset&did=105_high1&t_sec=9&t_or=45&t_pvid=null&utm_source=api&utm_medium=external", "listing_type": "buy", "location_accuracy": 9, "longitude": -2.95081, "price": 83000, "price_currency": "\u00a3", "price_formatted": "\u00a383,000", "price_high": 83000, "price_low": 83000, "price_type": "fixed", "property_type": "flat", "size": 0, "size_type": "net", "summary": "A one bedroom ground floor flat which has been recently redecorated...", "thumb_height": 60, "thumb_url": "https://imgs.nestimg.com/medium/1_bedroom_apartment_for_sale_111136757388225547.jpg", "thumb_width": 80, "title": "Henson Park, Chard - No Chain", "updated_in_days": 4, "updated_in_days_formatted": "first seen 4 days ago"}, {"bathroom_number": "", "bedroom_number": "", "car_spaces": 0, "commission": 0, "construction_year": 0, "datasource_name": "OnTheMarket.com", "img_height": 300, "img_url": "https://imgs.nestimg.com/3_bedroom_property_with_land_for_sale_111711535854281658.jpg", "img_width": 400, "keywords": "Garden, Conversion, Garage, Kitchen", "latitude": 50.8599, "lister_name": "Stags", "lister_url": "https://www.nestoria.co.uk/detail/0000000111711535854281658/title/5/100-13?serpUid=&pt=1&ot=1&l=somerset&did=105_high1&t_sec=9&t_or=45&t_pvid=null&utm_source=api&utm_medium=external", "listing_type": "buy", "location_accuracy": 9, "longitude": -3.12024, "price": 450000, "price_currency": "\u00a3", "price_formatted": "\u00a3450,000", "price_high": 450000, "price_low": 450000, "price_type": "fixed", "property_type": "land", "size": 0, "size_type": "net", "summary": "3 bed bungalow with pp for large extension, loft conversion & annex...", "thumb_height": 60, "thumb_url": "https://imgs.nestimg.com/medium/3_bedroom_property_with_land_for_sale_111711535854281658.jpg", "thumb_width": 80, "title": "Sandys Lane, Upottery, Honiton, Devon, EX14", "updated_in_days": 3, "updated_in_days_formatted": "first seen 3 days ago"}, {"bathroom_number": "", "bedroom_number": 3, "car_spaces": 0, "commission": 0, "construction_year": 0, "datasource_name": "OnTheMarket.com", "img_height": 300, "img_url": "https://imgs.nestimg.com/3_bedroom_retirement_property_for_sale_111711532602193731.jpg", "img_width": 400, "keywords": "", "latitude": 51.2083, "lister_url": "https://www.nestoria.co.uk/detail/0000000111711532602193731/title/5/100-14?serpUid=&pt=1&ot=1&l=somerset&did=105_high1&t_sec=9&t_or=45&t_pvid=null&utm_source=api&utm_medium=external", "listing_type": "buy", "location_accuracy": 9, "longitude": -2.6493, "price": 225000, "price_currency": "\u00a3", "price_formatted": "\u00a3225,000", "price_high": 225000, "price_low": 225000, "price_type": "fixed", "property_type": "property", "size": 0, "size_type": "net", "summary": "Unusually this ground floor apartment offers 3 bedrooms with a show...", "thumb_height": 60, "thumb_url": "https://imgs.nestimg.com/medium/3_bedroom_retirement_property_for_sale_111711532602193731.jpg", "thumb_width": 80, "title": "Union Street, Wells", "updated_in_days": 3, "updated_in_days_formatted": "first seen 3 days ago"}, {"bathroom_number": "", "bedroom_number": 3, "car_spaces": 0, "commission": 0, "construction_year": 0, "datasource_name": "OnTheMarket.com", "img_height": 300, "img_url": "https://imgs.nestimg.com/3_bedroom_cottage_for_sale_111717688264283841.jpg", "img_width": 400, "keywords": "Cottage", "latitude": 51.224, "lister_name": "Cooper & Tanner", "lister_url": "https://www.nestoria.co.uk/detail/0000000111717688264283841/title/5/100-15?serpUid=&pt=1&ot=1&l=somerset&did=105_high1&t_sec=9&t_or=45&t_pvid=null&utm_source=api&utm_medium=external", "listing_type": "buy", "location_accuracy": 9, "longitude": -2.53259, "price": 350000, "price_currency": "\u00a3", "price_formatted": "\u00a3350,000", "price_high": 350000, "price_low": 350000, "price_type": "fixed", "property_type": "house", "size": 0, "size_type": "net", "summary": "A three bedroom country cottage set within the heart of oakhill dat...", "thumb_height": 60, "thumb_url": "https://imgs.nestimg.com/medium/3_bedroom_cottage_for_sale_111717688264283841.jpg", "thumb_width": 80, "title": "Little London, Oakhill - Cottage", "updated_in_days": 2, "updated_in_days_formatted": "first seen 2 days ago"}], "locations": [{"center_lat": 51.080967, "center_long": -3.045432, "long_title": "Somerset, county", "place_name": "somerset", "title": "Somerset"}], "page": 100, "sort": "nestoria_rank", "status_code": "200", "status_text": "OK", "thanks": "For using the Nestoria API.", "total_pages": 410, "total_results": 6149, "_cu5t0mP434m_": "remove"}}