{"request": {"country": "uk", "language": "en", "location": "somerset", "num_res": "15", "offset": 135, "output": "json_xs", "page": 10, "product_type": "realestate", "property_type": "property", "size_type": "net", "size_unit": "m2", "sort": "nestoria_rank", "listing_type": "buy"}, "response": {"application_response_code": "100", "application_response_text": "listings returned for one unambiguous location", "attribution": {"img_height": 22, "img_url": "https://resources.nestimg.com/nestoria/img/pbr_v1.png", "img_width": 183, "link_to_img": "http://www.nestoria.com"}, "created_http": "Tue, 18 Jun 2019 17:28:47 GMT", "created_unix": 1560878927, "link_to_url": "https://www.nestoria.co.uk/somerset/property/buy/10", "listings": [{"bathroom_number": "", "bedroom_number": 2, "car_spaces": 0, "commission": 0, "construction_year": 0, "datasource_name": "OnTheMarket.com", "img_height": 300, "img_url": "https://imgs.nestimg.com/2_bedroom_apartment_for_sale_111457719216972547.jpg", "img_width": 400, "keywords": "Leasehold, No Chain, Modern, Parking", "latitude": 51.023266, "lister_name": "Greenslade Taylor Hunt", "lister_url": "https://www.nestoria.co.uk/detail/0000000111457719216972547/title/5/10-1?serpUid=&pt=1&ot=1&l=somerset&did=105_high1&t_sec=9&t_or=45&t_pvid=null&utm_source=api&utm_medium=external", "listing_type": "buy", "location_accuracy": 9, "longitude": -3.0959473, "price": 159000, "price_currency": "\u00a3", "price_formatted": "\u00a3159,000", "price_high": 159000, "price_low": 159000, "price_type": "fixed", "property_type": "flat", "size": 0, "size_type": "net", "summary": "A ly presented, modern, second floor apartment with parking and enj...", "thumb_height": 60, "thumb_url": "https://imgs.nestimg.com/medium/2_bedroom_apartment_for_sale_111457719216972547.jpg", "thumb_width": 80, "title": "Cunningham Court, Taunton, Somerset, TA1", "updated_in_days": 44, "updated_in_days_formatted": "first seen over a month ago"}, {"bathroom_number": "", "bedroom_number": 6, "car_spaces": 0, "commission": 0, "construction_year": 0, "datasource_name": "OnTheMarket.com", "img_height": 300, "img_url": "https://imgs.nestimg.com/6_bedroom_detached_house_for_sale_111080748888520576.jpg", "img_width": 400, "keywords": "Detached, Freehold, Garden, No Chain, Parking", "latitude": 51.0262, "lister_name": "Greenslade Taylor Hunt", "lister_url": "https://www.nestoria.co.uk/detail/0000000111080748888520576/title/5/10-2?serpUid=&pt=1&ot=1&l=somerset&did=105_high1&t_sec=9&t_or=45&t_pvid=null&utm_source=api&utm_medium=external", "listing_type": "buy", "location_accuracy": 9, "longitude": -3.15366, "price": 375000, "price_currency": "\u00a3", "price_formatted": "\u00a3375,000", "price_high": 375000, "price_low": 375000, "price_type": "fixed", "property_type": "house", "size": 0, "size_type": "net", "summary": "A period farmhouse with just over 3,000sqft of accommodation togeth...", "thumb_height": 60, "thumb_url": "https://imgs.nestimg.com/medium/6_bedroom_detached_house_for_sale_111080748888520576.jpg", "thumb_width": 80, "title": "Norton Fitzwarren, Taunton, Somerset, TA2", "updated_in_days": 28, "updated_in_days_formatted": "first seen last month"}, {"bathroom_number": "", "bedroom_number": 4, "car_spaces": 0, "commission": 0, "construction_year": 0, "datasource_name": "OnTheMarket.com", "img_height": 300, "img_url": "https://imgs.nestimg.com/4_bedroom_detached_bungalow_for_sale_111600423661829000.jpg", "img_width": 400, "keywords": "Detached, Freehold, Garden, No Chain, Bungalow", "latitude": 51.154, "lister_name": "Greenslade Taylor Hunt", "lister_url": "https://www.nestoria.co.uk/detail/0000000111600423661829000/title/5/10-3?serpUid=&pt=1&ot=1&l=somerset&did=105_high1&t_sec=9&t_or=45&t_pvid=null&utm_source=api&utm_medium=external", "listing_type": "buy", "location_accuracy": 9, "longitude": -3.12527, "price": 350000, "price_currency": "\u00a3", "price_formatted": "\u00a3350,000", "price_high": 350000, "price_low": 350000, "price_type": "fixed", "property_type": "house", "size": 0, "size_type": "net", "summary": "A large 4 bed detached bungalow occupying an , rural location with ...", "thumb_height": 60, "thumb_url": "https://imgs.nestimg.com/medium/4_bedroom_detached_bungalow_for_sale_111600423661829000.jpg", "thumb_width": 80, "title": "Whitnell, Nether Stowey, Bridgwater, Somerset, TA5", "updated_in_days": 21, "updated_in_days_formatted": "first seen 3 weeks ago"}, {"bathroom_number": "", "bedroom_number": 3, "car_spaces": 0, "commission": 0, "construction_year": 0, "datasource_name": "OnTheMarket.com", "img_height": 300, "img_url": "https://imgs.nestimg.com/3_bedroom_semi_detached_house_for_sale_111687586001610761.jpg", "img_width": 400, "keywords": "Semi-Detached, Double Bedroom", "latitude": 51.1943, "lister_url": "https://www.nestoria.co.uk/detail/0000000111687586001610761/title/5/10-4?serpUid=&pt=1&ot=1&l=somerset&did=105_high1&t_sec=9&t_or=45&t_pvid=null&utm_source=api&utm_medium=external", "listing_type": "buy", "location_accuracy": 9, "longitude": -2.962, "price": 395000, "price_currency": "\u00a3", "price_formatted": "\u00a3395,000", "price_high": 395000, "price_low": 395000, "price_type": "fixed", "property_type": "house", "size": 0, "size_type": "net", "summary": "This three double bedroom property has been upgraded and improved t...", "thumb_height": 60, "thumb_url": "https://imgs.nestimg.com/medium/3_bedroom_semi_detached_house_for_sale_111687586001610761.jpg", "thumb_width": 80, "title": "1 Withy Grove Cottages, Withy Grove, EAST HUNTSPILL, Somerset", "updated_in_days": 7, "updated_in_days_formatted": "first seen last week"}, {"bathroom_number": "", "bedroom_number": 3, "car_spaces": 0, "commission": 0, "construction_year": 0, "datasource_name": "OnTheMarket.com", "img_height": 300, "img_url": "https://imgs.nestimg.com/3_bedroom_detached_house_for_sale_110802581349597963.jpg", "img_width": 400, "keywords": "Shared Garden, Detached, Conservatory, Garage, Kitchen, Reception", "latitude": 51.0008, "lister_name": "Stags", "lister_url": "https://www.nestoria.co.uk/detail/0000000110802581349597963/title/5/10-5?serpUid=&pt=1&ot=1&l=somerset&did=105_high1&t_sec=9&t_or=45&t_pvid=null&utm_source=api&utm_medium=external", "listing_type": "buy", "location_accuracy": 9, "longitude": -3.08643, "price": 269000, "price_currency": "\u00a3", "price_formatted": "\u00a3269,000", "price_high": 269000, "price_low": 269000, "price_type": "fixed", "property_type": "house", "size": 0, "size_type": "net", "summary": "An two bedroom house situated in fullands court, this prestigious r...", "thumb_height": 60, "thumb_url": "https://imgs.nestimg.com/medium/3_bedroom_detached_house_for_sale_110802581349597963.jpg", "thumb_width": 80, "title": "Shoreditch Road, Taunton, Somerset, TA1", "updated_in_days": 75, "updated_in_days_formatted": "first seen over a month ago"}, {"bathroom_number": "", "bedroom_number": 3, "car_spaces": 0, "commission": 0, "construction_year": 0, "datasource_name": "OnTheMarket.com", "img_height": 300, "img_url": "https://imgs.nestimg.com/3_bedroom_detached_bungalow_for_sale_110926357778028830.jpg", "img_width": 400, "keywords": "Detached, No Chain, Bungalow, Cul-de-Sac", "latitude": 51.0366, "lister_url": "https://www.nestoria.co.uk/detail/0000000110926357778028830/title/5/10-6?serpUid=&pt=1&ot=1&l=somerset&did=105_high1&t_sec=9&t_or=45&t_pvid=null&utm_source=api&utm_medium=external", "listing_type": "buy", "location_accuracy": 9, "longitude": -3.10453, "price": 310000, "price_currency": "\u00a3", "price_formatted": "\u00a3310,000", "price_high": 310000, "price_low": 310000, "price_type": "fixed", "property_type": "house", "size": 0, "size_type": "net", "summary": "The property:standing in a small cul de sac on the far northern out...", "thumb_height": 60, "thumb_url": "https://imgs.nestimg.com/medium/3_bedroom_detached_bungalow_for_sale_110926357778028830.jpg", "thumb_width": 80, "title": "Glenwood Gardens, Taunton, Somerset", "updated_in_days": 102, "updated_in_days_formatted": "first seen over a month ago"}, {"bathroom_number": "", "bedroom_number": 4, "car_spaces": 0, "commission": 0, "construction_year": 0, "datasource_name": "OnTheMarket.com", "img_height": 300, "img_url": "https://imgs.nestimg.com/3_bedroom_detached_house_for_sale_111631124688733035.jpg", "img_width": 400, "keywords": "Detached, Garden, Kitchen, Reception", "latitude": 50.9913, "lister_name": "Stags", "lister_url": "https://www.nestoria.co.uk/detail/0000000111631124688733035/title/5/10-7?serpUid=&pt=1&ot=1&l=somerset&did=105_high1&t_sec=9&t_or=45&t_pvid=null&utm_source=api&utm_medium=external", "listing_type": "buy", "location_accuracy": 9, "longitude": -3.12103, "price": 485000, "price_currency": "\u00a3", "price_formatted": "\u00a3485,000", "price_high": 485000, "price_low": 485000, "price_type": "fixed", "property_type": "house", "size": 0, "size_type": "net", "summary": "A fully renovated & modernised chalet style property, situated in a...", "thumb_height": 60, "thumb_url": "https://imgs.nestimg.com/medium/3_bedroom_detached_house_for_sale_111631124688733035.jpg", "thumb_width": 80, "title": "Trull, Taunton, Somerset, TA3", "updated_in_days": 16, "updated_in_days_formatted": "first seen 2 weeks ago"}, {"bathroom_number": "", "bedroom_number": 4, "car_spaces": 0, "commission": 0, "construction_year": 0, "datasource_name": "OnTheMarket.com", "img_height": 300, "img_url": "https://imgs.nestimg.com/4_bedroom_house_for_sale_111687585943705124.jpg", "img_width": 400, "keywords": "Detached, Garden, Grade II, Modern", "latitude": 50.9527, "lister_name": "Greenslade Taylor Hunt", "lister_url": "https://www.nestoria.co.uk/detail/0000000111687585943705124/title/5/10-8?serpUid=&pt=1&ot=1&l=somerset&did=105_high1&t_sec=9&t_or=45&t_pvid=null&utm_source=api&utm_medium=external", "listing_type": "buy", "location_accuracy": 9, "longitude": -2.92171, "price": 595000, "price_currency": "\u00a3", "price_formatted": "\u00a3595,000", "price_high": 595000, "price_low": 595000, "price_type": "fixed", "property_type": "house", "size": 0, "size_type": "net", "summary": "Situated in a village location with ly stocked and landscaped sunny...", "thumb_height": 60, "thumb_url": "https://imgs.nestimg.com/medium/4_bedroom_house_for_sale_111687585943705124.jpg", "thumb_width": 80, "title": "Frost Lane, Ilton, Ilminster, Somerset, TA19", "updated_in_days": 7, "updated_in_days_formatted": "first seen last week"}, {"bathroom_number": "", "bedroom_number": 3, "car_spaces": 0, "commission": 0, "construction_year": 0, "datasource_name": "OnTheMarket.com", "img_height": 300, "img_url": "https://imgs.nestimg.com/3_bedroom_semi_detached_house_for_sale_110765478413722821.jpg", "img_width": 400, "keywords": "Semi-Detached", "latitude": 50.9335, "lister_name": "Greenslade Taylor Hunt", "lister_url": "https://www.nestoria.co.uk/detail/0000000110765478413722821/title/5/10-9?serpUid=&pt=1&ot=1&l=somerset&did=105_high1&t_sec=9&t_or=45&t_pvid=null&utm_source=api&utm_medium=external", "listing_type": "buy", "location_accuracy": 9, "longitude": -2.84169, "price": 350000, "price_currency": "\u00a3", "price_formatted": "\u00a3350,000", "price_high": 350000, "price_low": 350000, "price_type": "fixed", "property_type": "house", "size": 0, "size_type": "net", "summary": "Horseshoes is situated in a central position within this developmen...", "thumb_height": 60, "thumb_url": "https://imgs.nestimg.com/medium/3_bedroom_semi_detached_house_for_sale_110765478413722821.jpg", "thumb_width": 80, "title": "Seavington St Michael, Ilminster, Somerset, TA19", "updated_in_days": 6, "updated_in_days_formatted": "first seen 6 days ago"}, {"bathroom_number": "", "bedroom_number": 6, "car_spaces": 0, "commission": 0, "construction_year": 0, "datasource_name": "OnTheMarket.com", "img_height": 300, "img_url": "https://imgs.nestimg.com/6_bedroom_detached_house_for_sale_111699718454865451.jpg", "img_width": 400, "keywords": "Detached, Garden, En suite, Double Bedroom, Garage", "latitude": 51.1752, "lister_name": "Greenslade Taylor Hunt", "lister_url": "https://www.nestoria.co.uk/detail/0000000111699718454865451/title/5/10-10?serpUid=&pt=1&ot=1&l=somerset&did=105_high1&t_sec=9&t_or=45&t_pvid=null&utm_source=api&utm_medium=external", "listing_type": "buy", "location_accuracy": 9, "longitude": -2.53574, "price": 599500, "price_currency": "\u00a3", "price_formatted": "\u00a3599,500", "price_high": 599500, "price_low": 599500, "price_type": "fixed", "property_type": "house", "size": 0, "size_type": "net", "summary": "A country farmhouse with six double bedrooms , annexe with two furt...", "thumb_height": 60, "thumb_url": "https://imgs.nestimg.com/medium/6_bedroom_detached_house_for_sale_111699718454865451.jpg", "thumb_width": 80, "title": "Cannards Grave, Shepton Mallet, Somerset, BA4", "updated_in_days": 5, "updated_in_days_formatted": "first seen 5 days ago"}, {"bathroom_number": "", "bedroom_number": 3, "car_spaces": 0, "commission": 0, "construction_year": 0, "datasource_name": "OnTheMarket.com", "img_height": 300, "img_url": "https://imgs.nestimg.com/3_bedroom_semi_detached_house_for_sale_111161512147701917.jpg", "img_width": 400, "keywords": "Semi-Detached, Balcony, Garage", "latitude": 51.1225, "lister_name": "Greenslade Taylor Hunt", "lister_url": "https://www.nestoria.co.uk/detail/0000000111161512147701917/title/5/10-11?serpUid=&pt=1&ot=1&l=somerset&did=105_high1&t_sec=9&t_or=45&t_pvid=null&utm_source=api&utm_medium=external", "listing_type": "buy", "location_accuracy": 9, "longitude": -3.02582, "price": 330000, "price_currency": "\u00a3", "price_formatted": "\u00a3330,000", "price_high": 330000, "price_low": 330000, "price_type": "fixed", "property_type": "house", "size": 0, "size_type": "net", "summary": "Come and see our show home and view homenow open thursday evenings ...", "thumb_height": 60, "thumb_url": "https://imgs.nestimg.com/medium/3_bedroom_semi_detached_house_for_sale_111161512147701917.jpg", "thumb_width": 80, "title": "Bridgwater, Somerset, TA6 - Balcony", "updated_in_days": 92, "updated_in_days_formatted": "first seen over a month ago"}, {"bathroom_number": "", "bedroom_number": 3, "car_spaces": 0, "commission": 0, "construction_year": 0, "datasource_name": "OnTheMarket.com", "img_height": 300, "img_url": "https://imgs.nestimg.com/3_bedroom_detached_house_for_sale_111186361452594116.jpg", "img_width": 400, "keywords": "Detached, Freehold, Refurbished, Cottage", "latitude": 51.0207, "lister_name": "Greenslade Taylor Hunt", "lister_url": "https://www.nestoria.co.uk/detail/0000000111186361452594116/title/5/10-12?serpUid=&pt=1&ot=1&l=somerset&did=105_high1&t_sec=9&t_or=45&t_pvid=null&utm_source=api&utm_medium=external", "listing_type": "buy", "location_accuracy": 9, "longitude": -3.05166, "price": 350000, "price_currency": "\u00a3", "price_formatted": "\u00a3350,000", "price_high": 350000, "price_low": 350000, "price_type": "fixed", "property_type": "house", "size": 0, "size_type": "net", "summary": "A most recently refurbished 3 bedroom detached cottage located on t...", "thumb_height": 60, "thumb_url": "https://imgs.nestimg.com/medium/3_bedroom_detached_house_for_sale_111186361452594116.jpg", "thumb_width": 80, "title": "Church Lane, Ruishton, Taunton, Somerset, TA3", "updated_in_days": 53, "updated_in_days_formatted": "first seen over a month ago"}, {"bathroom_number": "", "bedroom_number": 3, "car_spaces": 0, "commission": 0, "construction_year": 0, "datasource_name": "OnTheMarket.com", "img_height": 300, "img_url": "https://imgs.nestimg.com/3_bedroom_semi_detached_house_for_sale_111080759203096285.jpg", "img_width": 400, "keywords": "Semi-Detached, Garage", "latitude": 51.1225, "lister_name": "Greenslade Taylor Hunt", "lister_url": "https://www.nestoria.co.uk/detail/0000000111080759203096285/title/5/10-13?serpUid=&pt=1&ot=1&l=somerset&did=105_high1&t_sec=9&t_or=45&t_pvid=null&utm_source=api&utm_medium=external", "listing_type": "buy", "location_accuracy": 9, "longitude": -3.02582, "price": 295000, "price_currency": "\u00a3", "price_formatted": "\u00a3295,000", "price_high": 295000, "price_low": 295000, "price_type": "fixed", "property_type": "house", "size": 0, "size_type": "net", "summary": "Come and see our show home and view homenow open thursday evenings ...", "thumb_height": 60, "thumb_url": "https://imgs.nestimg.com/medium/3_bedroom_semi_detached_house_for_sale_111080759203096285.jpg", "thumb_width": 80, "title": "Bridgwater, Somerset, TA6", "updated_in_days": 105, "updated_in_days_formatted": "first seen over a month ago"}, {"bathroom_number": "", "bedroom_number": 3, "car_spaces": 0, "commission": 0, "construction_year": 0, "datasource_name": "OnTheMarket.com", "img_height": 300, "img_url": "https://imgs.nestimg.com/3_bedroom_semi_detached_house_for_sale_110981945808468908.jpg", "img_width": 400, "keywords": "Garden, Semi-Detached, Conservatory, Kitchen, Parking", "latitude": 51.0127, "lister_name": "Stags", "lister_url": "https://www.nestoria.co.uk/detail/0000000110981945808468908/title/5/10-14?serpUid=&pt=1&ot=1&l=somerset&did=105_high1&t_sec=9&t_or=45&t_pvid=null&utm_source=api&utm_medium=external", "listing_type": "buy", "location_accuracy": 9, "longitude": -3.11103, "price": 345000, "price_currency": "\u00a3", "price_formatted": "\u00a3345,000", "price_high": 345000, "price_low": 345000, "price_type": "fixed", "property_type": "house", "size": 0, "size_type": "net", "summary": "A ly designed three bedroom semi-detached house specifically for th...", "thumb_height": 60, "thumb_url": "https://imgs.nestimg.com/medium/3_bedroom_semi_detached_house_for_sale_110981945808468908.jpg", "thumb_width": 80, "title": "Compass Hill, Compass Hill, Taunton, Somerset, TA1", "updated_in_days": 35, "updated_in_days_formatted": "first seen over a month ago"}, {"bathroom_number": "", "bedroom_number": 2, "car_spaces": 0, "commission": 0, "construction_year": 0, "datasource_name": "OnTheMarket.com", "img_height": 300, "img_url": "https://imgs.nestimg.com/3_bedroom_detached_house_for_sale_110981938930863459.jpg", "img_width": 400, "keywords": "Detached, Freehold, Garden, No Chain", "latitude": 51.1527, "lister_name": "Greenslade Taylor Hunt", "lister_url": "https://www.nestoria.co.uk/detail/0000000110981938930863459/title/5/10-15?serpUid=&pt=1&ot=1&l=somerset&did=105_high1&t_sec=9&t_or=45&t_pvid=null&utm_source=api&utm_medium=external", "listing_type": "buy", "location_accuracy": 9, "longitude": -3.06457, "price": 375000, "price_currency": "\u00a3", "price_formatted": "\u00a3375,000", "price_high": 375000, "price_low": 375000, "price_type": "fixed", "property_type": "house", "size": 0, "size_type": "net", "summary": "A ly presented detached 'old folly' with gardens & carport. Accommo...", "thumb_height": 60, "thumb_url": "https://imgs.nestimg.com/medium/3_bedroom_detached_house_for_sale_110981938930863459.jpg", "thumb_width": 80, "title": "Rodway, Cannington, Bridgwater, Somerset, TA5", "updated_in_days": 31, "updated_in_days_formatted": "first seen over a month ago"}], "locations": [{"center_lat": 51.080967, "center_long": -3.045432, "long_title": "Somerset, county", "place_name": "somerset", "title": "Somerset"}], "page": 10, "sort": "nestoria_rank", "status_code": "200", "status_text": "OK", "thanks": "For using the Nestoria API.", "total_pages": 410, "total_results": 6149, "_cu5t0mP434m_": "remove"}}