{"request": {"country": "uk", "language": "en", "location": "somerset", "num_res": "15", "offset": 150, "output": "json_xs", "page": 11, "product_type": "realestate", "property_type": "property", "size_type": "net", "size_unit": "m2", "sort": "nestoria_rank", "listing_type": "buy"}, "response": {"application_response_code": "100", "application_response_text": "listings returned for one unambiguous location", "attribution": {"img_height": 22, "img_url": "https://resources.nestimg.com/nestoria/img/pbr_v1.png", "img_width": 183, "link_to_img": "http://www.nestoria.com"}, "created_http": "Tue, 18 Jun 2019 17:28:49 GMT", "created_unix": 1560878929, "link_to_url": "https://www.nestoria.co.uk/somerset/property/buy/11", "listings": [{"bathroom_number": "", "bedroom_number": 4, "car_spaces": 0, "commission": 0, "construction_year": 0, "datasource_name": "OnTheMarket.com", "img_height": 300, "img_url": "https://imgs.nestimg.com/4_bedroom_detached_house_for_sale_111656084228750401.jpg", "img_width": 400, "keywords": "Detached, Conversion", "latitude": 50.9973, "lister_name": "Newton King", "lister_url": "https://www.nestoria.co.uk/detail/0000000111656084228750401/title/5/11-1?serpUid=&pt=1&ot=1&l=somerset&did=105_high1&t_sec=9&t_or=45&t_pvid=null&utm_source=api&utm_medium=external", "listing_type": "buy", "location_accuracy": 9, "longitude": -2.99349, "price": 525000, "price_currency": "\u00a3", "price_formatted": "\u00a3525,000", "price_high": 525000, "price_low": 525000, "price_type": "fixed", "property_type": "house", "size": 0, "size_type": "net", "summary": "Ly converted and ly restored detached chapel conversion situated in...", "thumb_height": 60, "thumb_url": "https://imgs.nestimg.com/medium/4_bedroom_detached_house_for_sale_111656084228750401.jpg", "thumb_width": 80, "title": "Deaconsbrook, Wrantage, Taunton, Somerset", "updated_in_days": 12, "updated_in_days_formatted": "first seen last week"}, {"bathroom_number": "", "bedroom_number": 4, "car_spaces": 0, "commission": 0, "construction_year": 0, "datasource_name": "OnTheMarket.com", "img_height": 300, "img_url": "https://imgs.nestimg.com/4_bedroom_semi_detached_house_for_sale_111105675164806039.jpg", "img_width": 400, "keywords": "Freehold, Garden, Semi-Detached, Garage", "latitude": 51.157, "lister_name": "Greenslade Taylor Hunt", "lister_url": "https://www.nestoria.co.uk/detail/0000000111105675164806039/title/5/11-2?serpUid=&pt=1&ot=1&l=somerset&did=105_high1&t_sec=9&t_or=45&t_pvid=null&utm_source=api&utm_medium=external", "listing_type": "buy", "location_accuracy": 9, "longitude": -3.06466, "price": 455000, "price_currency": "\u00a3", "price_formatted": "\u00a3455,000", "price_high": 455000, "price_low": 455000, "price_type": "fixed", "property_type": "house", "size": 0, "size_type": "net", "summary": "A particularly well presented 4 bed semi-detached house occupying a...", "thumb_height": 60, "thumb_url": "https://imgs.nestimg.com/medium/4_bedroom_semi_detached_house_for_sale_111105675164806039.jpg", "thumb_width": 80, "title": "Rodway, Cannington, Bridgwater, Somerset, TA5", "updated_in_days": 28, "updated_in_days_formatted": "first seen last month"}, {"bathroom_number": "", "bedroom_number": 3, "car_spaces": 0, "commission": 0, "construction_year": 0, "datasource_name": "OnTheMarket.com", "img_height": 300, "img_url": "https://imgs.nestimg.com/3_bedroom_semi_detached_house_for_sale_111668296849093829.jpg", "img_width": 400, "keywords": "Garden, Semi-Detached, No Chain, Victorian, Parking", "latitude": 51.2104, "lister_name": "Greenslade Taylor Hunt", "lister_url": "https://www.nestoria.co.uk/detail/0000000111668296849093829/title/5/11-3?serpUid=&pt=1&ot=1&l=somerset&did=105_high1&t_sec=9&t_or=45&t_pvid=null&utm_source=api&utm_medium=external", "listing_type": "buy", "location_accuracy": 9, "longitude": -2.98494, "price": 269950, "price_currency": "\u00a3", "price_formatted": "\u00a3269,950", "price_high": 269950, "price_low": 269950, "price_type": "fixed", "property_type": "house", "size": 0, "size_type": "net", "summary": "This characterful, late victorian built, semi detached 2/3 bedroom ...", "thumb_height": 60, "thumb_url": "https://imgs.nestimg.com/medium/3_bedroom_semi_detached_house_for_sale_111668296849093829.jpg", "thumb_width": 80, "title": "Main Road, West Huntspill, Highbridge, Somerset, TA9", "updated_in_days": 10, "updated_in_days_formatted": "first seen last week"}, {"bathroom_number": "", "bedroom_number": 5, "car_spaces": 0, "commission": 0, "construction_year": 0, "datasource_name": "OnTheMarket.com", "img_height": 300, "img_url": "https://imgs.nestimg.com/5_bedroom_detached_house_for_sale_111477755805096136.jpg", "img_width": 400, "keywords": "Detached, En suite, Conservatory, Garage, Kitchen, Modern, Reception", "latitude": 51.0623, "lister_name": "Stags", "lister_url": "https://www.nestoria.co.uk/detail/0000000111477755805096136/title/5/11-4?serpUid=&pt=1&ot=1&l=somerset&did=105_high1&t_sec=9&t_or=45&t_pvid=null&utm_source=api&utm_medium=external", "listing_type": "buy", "location_accuracy": 9, "longitude": -3.20218, "price": 899950, "price_currency": "\u00a3", "price_formatted": "\u00a3899,950", "price_high": 899950, "price_low": 899950, "price_type": "fixed", "property_type": "house", "size": 0, "size_type": "net", "summary": "A ly presented modern detached house with home office and grounds e...", "thumb_height": 60, "thumb_url": "https://imgs.nestimg.com/medium/5_bedroom_detached_house_for_sale_111477755805096136.jpg", "thumb_width": 80, "title": "Lethbridge Park, Bishops Lydeard, Taunton, Somerset, TA4", "updated_in_days": 41, "updated_in_days_formatted": "first seen over a month ago"}, {"bathroom_number": "", "bedroom_number": 5, "car_spaces": 0, "commission": 0, "construction_year": 0, "datasource_name": "OnTheMarket.com", "img_height": 300, "img_url": "https://imgs.nestimg.com/5_bedroom_detached_house_for_sale_111569517888579136.jpg", "img_width": 400, "keywords": "Detached, Conversion", "latitude": 51.1069, "lister_url": "https://www.nestoria.co.uk/detail/0000000111569517888579136/title/5/11-5?serpUid=&pt=1&ot=1&l=somerset&did=105_high1&t_sec=9&t_or=45&t_pvid=null&utm_source=api&utm_medium=external", "listing_type": "buy", "location_accuracy": 9, "longitude": -3.12556, "price": 1350000, "price_currency": "\u00a3", "price_formatted": "\u00a31,350,000", "price_high": 1350000, "price_low": 1350000, "price_type": "fixed", "property_type": "house", "size": 0, "size_type": "net", "summary": "A ly presented seventeenth century country house with converted bar...", "thumb_height": 60, "thumb_url": "https://imgs.nestimg.com/medium/5_bedroom_detached_house_for_sale_111569517888579136.jpg", "thumb_width": 80, "title": "Merridge, Bridgwater, Somerset, TA5", "updated_in_days": 26, "updated_in_days_formatted": "first seen 3 weeks ago"}, {"bathroom_number": "", "bedroom_number": 5, "car_spaces": 0, "commission": 0, "construction_year": 0, "datasource_name": "OnTheMarket.com", "img_height": 300, "img_url": "https://imgs.nestimg.com/5_bedroom_detached_house_for_sale_111359015917529466.jpg", "img_width": 400, "keywords": "Detached, Garden, Kitchen, Reception", "latitude": 51.0202, "lister_name": "Stags", "lister_url": "https://www.nestoria.co.uk/detail/0000000111359015917529466/title/5/11-6?serpUid=&pt=1&ot=1&l=somerset&did=105_high1&t_sec=9&t_or=45&t_pvid=null&utm_source=api&utm_medium=external", "listing_type": "buy", "location_accuracy": 9, "longitude": -3.02056, "price": 695000, "price_currency": "\u00a3", "price_formatted": "\u00a3695,000", "price_high": 695000, "price_low": 695000, "price_type": "fixed", "property_type": "house", "size": 0, "size_type": "net", "summary": "A high quality detached house with adaptable outbuildings and matur...", "thumb_height": 60, "thumb_url": "https://imgs.nestimg.com/medium/5_bedroom_detached_house_for_sale_111359015917529466.jpg", "thumb_width": 80, "title": "Ham, Somerset, TA3 - Detached, Garden", "updated_in_days": 60, "updated_in_days_formatted": "first seen over a month ago"}, {"bathroom_number": "", "bedroom_number": 4, "car_spaces": 0, "commission": 0, "construction_year": 0, "datasource_name": "OnTheMarket.com", "img_height": 300, "img_url": "https://imgs.nestimg.com/4_bedroom_detached_house_for_sale_111291601633636849.jpg", "img_width": 400, "keywords": "Detached, Freehold, Garden, Detached Garage, Modern, Cottage", "latitude": 51.0804, "lister_name": "Greenslade Taylor Hunt", "lister_url": "https://www.nestoria.co.uk/detail/0000000111291601633636849/title/5/11-7?serpUid=&pt=1&ot=1&l=somerset&did=105_high1&t_sec=9&t_or=45&t_pvid=null&utm_source=api&utm_medium=external", "listing_type": "buy", "location_accuracy": 9, "longitude": -2.88085, "price": 405000, "price_currency": "\u00a3", "price_formatted": "\u00a3405,000", "price_high": 405000, "price_low": 405000, "price_type": "fixed", "property_type": "house", "size": 0, "size_type": "net", "summary": "A cottage-style modern 4 bedroom detached house with good sized gar...", "thumb_height": 60, "thumb_url": "https://imgs.nestimg.com/medium/4_bedroom_detached_house_for_sale_111291601633636849.jpg", "thumb_width": 80, "title": "Fore Street, Othery, Bridgwater, Somerset, TA7", "updated_in_days": 71, "updated_in_days_formatted": "first seen over a month ago"}, {"bathroom_number": "", "bedroom_number": 2, "car_spaces": 0, "commission": 0, "construction_year": 0, "datasource_name": "OnTheMarket.com", "img_height": 300, "img_url": "https://imgs.nestimg.com/2_bedroom_apartment_for_sale_111544375026801403.jpg", "img_width": 400, "keywords": "Parking", "latitude": 51.1347, "lister_name": "Greenslade Taylor Hunt", "lister_url": "https://www.nestoria.co.uk/detail/0000000111544375026801403/title/5/11-8?serpUid=&pt=1&ot=1&l=somerset&did=105_high1&t_sec=9&t_or=45&t_pvid=null&utm_source=api&utm_medium=external", "listing_type": "buy", "location_accuracy": 9, "longitude": -3.01216, "price": 139950, "price_currency": "\u00a3", "price_formatted": "\u00a3139,950", "price_high": 139950, "price_low": 139950, "price_type": "fixed", "property_type": "flat", "size": 0, "size_type": "net", "summary": "A well presented two bed coach house enjoying an open outlook over ...", "thumb_height": 60, "thumb_url": "https://imgs.nestimg.com/medium/2_bedroom_apartment_for_sale_111544375026801403.jpg", "thumb_width": 80, "title": "Rambler Way, Bridgwater, Somerset, TA6", "updated_in_days": 30, "updated_in_days_formatted": "first seen over a month ago"}, {"bathroom_number": "", "bedroom_number": 3, "car_spaces": 0, "commission": 0, "construction_year": 0, "datasource_name": "OnTheMarket.com", "img_height": 300, "img_url": "https://imgs.nestimg.com/3_bedroom_detached_house_for_sale_111402754940072644.jpg", "img_width": 400, "keywords": "Detached, Freehold, Garden, Grade II, No Chain, Conversion, Listed", "latitude": 51.0019, "lister_name": "Greenslade Taylor Hunt", "lister_url": "https://www.nestoria.co.uk/detail/0000000111402754940072644/title/5/11-9?serpUid=&pt=1&ot=1&l=somerset&did=105_high1&t_sec=9&t_or=45&t_pvid=null&utm_source=api&utm_medium=external", "listing_type": "buy", "location_accuracy": 9, "longitude": -2.94281, "price": 565000, "price_currency": "\u00a3", "price_formatted": "\u00a3565,000", "price_high": 565000, "price_low": 565000, "price_type": "fixed", "property_type": "house", "size": 0, "size_type": "net", "summary": "An 3 4 bedroom barn conversion with enclosed gardens, grade ii list...", "thumb_height": 60, "thumb_url": "https://imgs.nestimg.com/medium/3_bedroom_detached_house_for_sale_111402754940072644.jpg", "thumb_width": 80, "title": "Cathanger Lane, Fivehead, Taunton, Somerset, TA3", "updated_in_days": 47, "updated_in_days_formatted": "first seen over a month ago"}, {"bathroom_number": "", "bedroom_number": 4, "car_spaces": 0, "commission": 0, "construction_year": 0, "datasource_name": "OnTheMarket.com", "img_height": 300, "img_url": "https://imgs.nestimg.com/4_bedroom_house_for_sale_111693434149815604.jpg", "img_width": 400, "keywords": "Detached, Garden, Double Bedroom, Parking, Cul-de-Sac", "latitude": 50.94247, "lister_url": "https://www.nestoria.co.uk/detail/0000000111693434149815604/title/5/11-10?serpUid=&pt=1&ot=1&l=somerset&did=105_high1&t_sec=9&t_or=45&t_pvid=null&utm_source=api&utm_medium=external", "listing_type": "buy", "location_accuracy": 9, "longitude": -2.680597, "price": 239950, "price_currency": "\u00a3", "price_formatted": "\u00a3239,950", "price_high": 239950, "price_low": 239950, "price_type": "fixed", "property_type": "house", "size": 0, "size_type": "net", "summary": "A well-presented, detached, three/four double bedroom house situate...", "thumb_height": 60, "thumb_url": "https://imgs.nestimg.com/medium/4_bedroom_house_for_sale_111693434149815604.jpg", "thumb_width": 80, "title": "Fennel Way, YEOVIL, Somerset, BA22", "updated_in_days": 6, "updated_in_days_formatted": "first seen 6 days ago"}, {"bathroom_number": "", "bedroom_number": 4, "car_spaces": 0, "commission": 0, "construction_year": 0, "datasource_name": "OnTheMarket.com", "img_height": 300, "img_url": "https://imgs.nestimg.com/4_bedroom_link_detached_house_for_sale_111482787594965031.jpg", "img_width": 400, "keywords": "Detached, Reception", "latitude": 51.056, "lister_name": "Newton King", "lister_url": "https://www.nestoria.co.uk/detail/0000000111482787594965031/title/5/11-11?serpUid=&pt=1&ot=1&l=somerset&did=105_high1&t_sec=9&t_or=45&t_pvid=null&utm_source=api&utm_medium=external", "listing_type": "buy", "location_accuracy": 9, "longitude": -2.95168, "price": 365000, "price_currency": "\u00a3", "price_formatted": "\u00a3365,000", "price_high": 365000, "price_low": 365000, "price_type": "fixed", "property_type": "house", "size": 0, "size_type": "net", "summary": "Ly renovated and extended four bedroom link detached period propert...", "thumb_height": 60, "thumb_url": "https://imgs.nestimg.com/medium/4_bedroom_link_detached_house_for_sale_111482787594965031.jpg", "thumb_width": 80, "title": "Three Ways, East Lyng, Taunton, Somerset", "updated_in_days": 40, "updated_in_days_formatted": "first seen over a month ago"}, {"bathroom_number": "", "bedroom_number": 2, "car_spaces": 0, "commission": 0, "construction_year": 0, "datasource_name": "OnTheMarket.com", "img_height": 300, "img_url": "https://imgs.nestimg.com/2_bedroom_semi_detached_bungalow_for_sale_111544378641999731.jpg", "img_width": 400, "keywords": "Semi-Detached, Double Bedroom, Bungalow, Gas Central Heating", "latitude": 51.2257, "lister_url": "https://www.nestoria.co.uk/detail/0000000111544378641999731/title/5/11-12?serpUid=&pt=1&ot=1&l=somerset&did=105_high1&t_sec=9&t_or=45&t_pvid=null&utm_source=api&utm_medium=external", "listing_type": "buy", "location_accuracy": 9, "longitude": -2.98686, "price": 229500, "price_currency": "\u00a3", "price_formatted": "\u00a3229,500", "price_high": 229500, "price_low": 229500, "price_type": "fixed", "property_type": "house", "size": 0, "size_type": "net", "summary": "A 2 double bedroom semi detached bungalow with gas central heating,...", "thumb_height": 60, "thumb_url": "https://imgs.nestimg.com/medium/2_bedroom_semi_detached_bungalow_for_sale_111544378641999731.jpg", "thumb_width": 80, "title": "Apex Drive, Highbridge, Somerset", "updated_in_days": 10, "updated_in_days_formatted": "first seen last week"}, {"bathroom_number": "", "bedroom_number": 4, "car_spaces": 0, "commission": 0, "construction_year": 0, "datasource_name": "OnTheMarket.com", "img_height": 300, "img_url": "https://imgs.nestimg.com/4_bedroom_detached_house_for_sale_110833955066143506.jpg", "img_width": 400, "keywords": "Detached, Garden, Kitchen, Cul-de-Sac", "latitude": 50.9966, "lister_name": "Newton King", "lister_url": "https://www.nestoria.co.uk/detail/0000000110833955066143506/title/5/11-13?serpUid=&pt=1&ot=1&l=somerset&did=105_high1&t_sec=9&t_or=45&t_pvid=null&utm_source=api&utm_medium=external", "listing_type": "buy", "location_accuracy": 9, "longitude": -3.08904, "price": 307500, "price_currency": "\u00a3", "price_formatted": "\u00a3307,500", "price_high": 307500, "price_low": 307500, "price_type": "fixed", "property_type": "house", "size": 0, "size_type": "net", "summary": "Four bedroom detached property in the killhams development offering...", "thumb_height": 60, "thumb_url": "https://imgs.nestimg.com/medium/4_bedroom_detached_house_for_sale_110833955066143506.jpg", "thumb_width": 80, "title": "Killams Green, Taunton, Somerset", "updated_in_days": 34, "updated_in_days_formatted": "first seen over a month ago"}, {"bathroom_number": "", "bedroom_number": 4, "car_spaces": 0, "commission": 0, "construction_year": 0, "datasource_name": "OnTheMarket.com", "img_height": 300, "img_url": "https://imgs.nestimg.com/4_bedroom_semi_detached_house_for_sale_111587835349960251.jpg", "img_width": 400, "keywords": "Semi-Detached", "latitude": 51.1263, "lister_url": "https://www.nestoria.co.uk/detail/0000000111587835349960251/title/5/11-14?serpUid=&pt=1&ot=1&l=somerset&did=105_high1&t_sec=9&t_or=45&t_pvid=null&utm_source=api&utm_medium=external", "listing_type": "buy", "location_accuracy": 9, "longitude": -3.0983, "price": 450000, "price_currency": "\u00a3", "price_formatted": "\u00a3450,000", "price_high": 450000, "price_low": 450000, "price_type": "fixed", "property_type": "house", "size": 0, "size_type": "net", "summary": "A village house located in a peaceful and secluded area set within ...", "thumb_height": 60, "thumb_url": "https://imgs.nestimg.com/medium/4_bedroom_semi_detached_house_for_sale_111587835349960251.jpg", "thumb_width": 80, "title": "Barford Close, Spaxton, Bridgwater, Somerset, TA5", "updated_in_days": 23, "updated_in_days_formatted": "first seen 3 weeks ago"}, {"bathroom_number": "", "bedroom_number": 2, "car_spaces": 0, "commission": 0, "construction_year": 0, "datasource_name": "OnTheMarket.com", "img_height": 300, "img_url": "https://imgs.nestimg.com/2_bedroom_flat_for_sale_111581694910489396.jpg", "img_width": 400, "keywords": "Purpose Built, Lift", "latitude": 51.0116, "lister_name": "Newton King", "lister_url": "https://www.nestoria.co.uk/detail/0000000111581694910489396/title/5/11-15?serpUid=&pt=1&ot=1&l=somerset&did=105_high1&t_sec=9&t_or=45&t_pvid=null&utm_source=api&utm_medium=external", "listing_type": "buy", "location_accuracy": 9, "longitude": -3.10628, "price": 99995, "price_currency": "\u00a3", "price_formatted": "\u00a399,995", "price_high": 99995, "price_low": 99995, "price_type": "fixed", "property_type": "flat", "size": 0, "size_type": "net", "summary": "Purpose built first floor apartment with lift system. In a convenie...", "thumb_height": 60, "thumb_url": "https://imgs.nestimg.com/medium/2_bedroom_flat_for_sale_111581694910489396.jpg", "thumb_width": 80, "title": "Portland Grange, Upper High Street, Taunton, Somerset", "updated_in_days": 24, "updated_in_days_formatted": "first seen 3 weeks ago"}], "locations": [{"center_lat": 51.080967, "center_long": -3.045432, "long_title": "Somerset, county", "place_name": "somerset", "title": "Somerset"}], "page": 11, "sort": "nestoria_rank", "status_code": "200", "status_text": "OK", "thanks": "For using the Nestoria API.", "total_pages": 410, "total_results": 6149, "_cu5t0mP434m_": "remove"}}