{"request": {"country": "uk", "language": "en", "location": "somerset", "num_res": "15", "offset": 165, "output": "json_xs", "page": 12, "product_type": "realestate", "property_type": "property", "size_type": "net", "size_unit": "m2", "sort": "nestoria_rank", "listing_type": "buy"}, "response": {"application_response_code": "100", "application_response_text": "listings returned for one unambiguous location", "attribution": {"img_height": 22, "img_url": "https://resources.nestimg.com/nestoria/img/pbr_v1.png", "img_width": 183, "link_to_img": "http://www.nestoria.com"}, "created_http": "Tue, 18 Jun 2019 17:28:51 GMT", "created_unix": 1560878931, "link_to_url": "https://www.nestoria.co.uk/somerset/property/buy/12", "listings": [{"bathroom_number": 2, "bedroom_number": 2, "car_spaces": 0, "commission": 0, "construction_year": 0, "datasource_name": "OnTheMarket.com", "img_height": 300, "img_url": "https://imgs.nestimg.com/2_bedroom_semi_detached_house_for_sale_111569518924731740.jpg", "img_width": 400, "keywords": "Garden, Semi-Detached, En suite, Kitchen, Parking, Cottage, Reception", "latitude": 50.999, "lister_name": "Stags", "lister_url": "https://www.nestoria.co.uk/detail/0000000111569518924731740/title/5/12-1?serpUid=&pt=1&ot=1&l=somerset&did=105_high1&t_sec=9&t_or=45&t_pvid=null&utm_source=api&utm_medium=external", "listing_type": "buy", "location_accuracy": 9, "longitude": -3.26919, "price": 275000, "price_currency": "\u00a3", "price_formatted": "\u00a3275,000", "price_high": 275000, "price_low": 275000, "price_type": "fixed", "property_type": "house", "size": 0, "size_type": "net", "summary": "A & 2 bed character cottage with large garden and parking. 2 recept...", "thumb_height": 60, "thumb_url": "https://imgs.nestimg.com/medium/2_bedroom_semi_detached_house_for_sale_111569518924731740.jpg", "thumb_width": 80, "title": "Langford Budville, Wellington, Somerset, TA21", "updated_in_days": 26, "updated_in_days_formatted": "first seen 3 weeks ago"}, {"bathroom_number": "", "bedroom_number": 5, "car_spaces": 0, "commission": 0, "construction_year": 0, "datasource_name": "OnTheMarket.com", "img_height": 300, "img_url": "https://imgs.nestimg.com/5_bedroom_detached_house_for_sale_111563231346108623.jpg", "img_width": 400, "keywords": "Detached, Freehold, Garden, No Chain, Modern, Parking", "latitude": 51.1661, "lister_name": "Greenslade Taylor Hunt", "lister_url": "https://www.nestoria.co.uk/detail/0000000111563231346108623/title/5/12-2?serpUid=&pt=1&ot=1&l=somerset&did=105_high1&t_sec=9&t_or=45&t_pvid=null&utm_source=api&utm_medium=external", "listing_type": "buy", "location_accuracy": 9, "longitude": -2.93872, "price": 257000, "price_currency": "\u00a3", "price_formatted": "\u00a3257,000", "price_high": 257000, "price_low": 257000, "price_type": "fixed", "property_type": "house", "size": 0, "size_type": "net", "summary": "A well presented and modern detached residencetractive garden and p...", "thumb_height": 60, "thumb_url": "https://imgs.nestimg.com/medium/5_bedroom_detached_house_for_sale_111563231346108623.jpg", "thumb_width": 80, "title": "Meadway, Woolavington, Somerset, TA7", "updated_in_days": 27, "updated_in_days_formatted": "first seen 3 weeks ago"}, {"bathroom_number": "", "bedroom_number": 5, "car_spaces": 0, "commission": 0, "construction_year": 0, "datasource_name": "OnTheMarket.com", "img_height": 300, "img_url": "https://imgs.nestimg.com/5_bedroom_detached_house_for_sale_111681015183112672.jpg", "img_width": 400, "keywords": "Detached, Freehold, Garden, Parking", "latitude": 51.0362, "lister_name": "Greenslade Taylor Hunt", "lister_url": "https://www.nestoria.co.uk/detail/0000000111681015183112672/title/5/12-3?serpUid=&pt=1&ot=1&l=somerset&did=105_high1&t_sec=9&t_or=45&t_pvid=null&utm_source=api&utm_medium=external", "listing_type": "buy", "location_accuracy": 9, "longitude": -2.81242, "price": 425000, "price_currency": "\u00a3", "price_formatted": "\u00a3425,000", "price_high": 425000, "price_low": 425000, "price_type": "fixed", "property_type": "house", "size": 0, "size_type": "net", "summary": "Five bedroom family home with ample garden and parking within walki...", "thumb_height": 60, "thumb_url": "https://imgs.nestimg.com/medium/5_bedroom_detached_house_for_sale_111681015183112672.jpg", "thumb_width": 80, "title": "Portland Road, Huish Episcopi, Langport, Somerset, TA10", "updated_in_days": 8, "updated_in_days_formatted": "first seen last week"}, {"bathroom_number": "", "bedroom_number": 5, "car_spaces": 0, "commission": 0, "construction_year": 0, "datasource_name": "OnTheMarket.com", "img_height": 300, "img_url": "https://imgs.nestimg.com/5_bedroom_detached_house_for_sale_111575827365362461.jpg", "img_width": 400, "keywords": "Detached, Garden, Grade II, Conversion, Reception, Listed", "latitude": 50.9668, "lister_name": "Stags", "lister_url": "https://www.nestoria.co.uk/detail/0000000111575827365362461/title/5/12-4?serpUid=&pt=1&ot=1&l=somerset&did=105_high1&t_sec=9&t_or=45&t_pvid=null&utm_source=api&utm_medium=external", "listing_type": "buy", "location_accuracy": 9, "longitude": -3.12335, "price": 1350000, "price_currency": "\u00a3", "price_formatted": "\u00a31,350,000", "price_high": 1350000, "price_low": 1350000, "price_type": "fixed", "property_type": "house", "size": 0, "size_type": "net", "summary": "A period farmhouse set in gardens with separate converted barn, sta...", "thumb_height": 60, "thumb_url": "https://imgs.nestimg.com/medium/5_bedroom_detached_house_for_sale_111575827365362461.jpg", "thumb_width": 80, "title": "Sellicks Green, Taunton, Somerset, TA3", "updated_in_days": 25, "updated_in_days_formatted": "first seen 3 weeks ago"}, {"bathroom_number": "", "bedroom_number": 4, "car_spaces": 0, "commission": 0, "construction_year": 0, "datasource_name": "OnTheMarket.com", "img_height": 300, "img_url": "https://imgs.nestimg.com/4_bedroom_detached_house_for_sale_111693433663199267.jpg", "img_width": 400, "keywords": "Detached, Modern", "latitude": 50.9548, "lister_name": "Stags", "lister_url": "https://www.nestoria.co.uk/detail/0000000111693433663199267/title/5/12-5?serpUid=&pt=1&ot=1&l=somerset&did=105_high1&t_sec=9&t_or=45&t_pvid=null&utm_source=api&utm_medium=external", "listing_type": "buy", "location_accuracy": 9, "longitude": -2.75216, "price": 435000, "price_currency": "\u00a3", "price_formatted": "\u00a3435,000", "price_high": 435000, "price_low": 435000, "price_type": "fixed", "property_type": "house", "size": 0, "size_type": "net", "summary": "Modern 4 bedroom home in village location with far reaching country...", "thumb_height": 60, "thumb_url": "https://imgs.nestimg.com/medium/4_bedroom_detached_house_for_sale_111693433663199267.jpg", "thumb_width": 80, "title": "Brocks Mount, Stoke-sub-hamdon, Somerset, TA14", "updated_in_days": 6, "updated_in_days_formatted": "first seen 6 days ago"}, {"bathroom_number": "", "bedroom_number": 3, "car_spaces": 0, "commission": 0, "construction_year": 0, "datasource_name": "OnTheMarket.com", "img_height": 300, "img_url": "https://imgs.nestimg.com/3_bedroom_semi_detached_house_for_sale_111662469285998744.jpg", "img_width": 400, "keywords": "Garden, Semi-Detached, En suite, Conversion, Garage, Kitchen, Reception", "latitude": 50.9716, "lister_name": "Stags", "lister_url": "https://www.nestoria.co.uk/detail/0000000111662469285998744/title/5/12-6?serpUid=&pt=1&ot=1&l=somerset&did=105_high1&t_sec=9&t_or=45&t_pvid=null&utm_source=api&utm_medium=external", "listing_type": "buy", "location_accuracy": 9, "longitude": -3.28156, "price": 385000, "price_currency": "\u00a3", "price_formatted": "\u00a3385,000", "price_high": 385000, "price_low": 385000, "price_type": "fixed", "property_type": "house", "size": 0, "size_type": "net", "summary": "An three bedroom barn conversion in rural setting with parking and ...", "thumb_height": 60, "thumb_url": "https://imgs.nestimg.com/medium/3_bedroom_semi_detached_house_for_sale_111662469285998744.jpg", "thumb_width": 80, "title": "Chitterwell, Wellington, Somerset, TA21", "updated_in_days": 11, "updated_in_days_formatted": "first seen last week"}, {"bathroom_number": "", "bedroom_number": 2, "car_spaces": 0, "commission": 0, "construction_year": 0, "datasource_name": "OnTheMarket.com", "img_height": 300, "img_url": "https://imgs.nestimg.com/2_bedroom_flat_for_sale_111575824981182772.jpg", "img_width": 400, "keywords": "Kitchen", "latitude": 51.0156, "lister_name": "Newton King", "lister_url": "https://www.nestoria.co.uk/detail/0000000111575824981182772/title/5/12-7?serpUid=&pt=1&ot=1&l=somerset&did=105_high1&t_sec=9&t_or=45&t_pvid=null&utm_source=api&utm_medium=external", "listing_type": "buy", "location_accuracy": 9, "longitude": -3.09737, "price": 135000, "price_currency": "\u00a3", "price_formatted": "\u00a3135,000", "price_high": 135000, "price_low": 135000, "price_type": "fixed", "property_type": "flat", "size": 0, "size_type": "net", "summary": "Two bedroom retirement apartment in the centre of taunton within cl...", "thumb_height": 60, "thumb_url": "https://imgs.nestimg.com/medium/2_bedroom_flat_for_sale_111575824981182772.jpg", "thumb_width": 80, "title": "Eastgate Gardens, Taunton, Somerset", "updated_in_days": 25, "updated_in_days_formatted": "first seen 3 weeks ago"}, {"bathroom_number": "", "bedroom_number": 2, "car_spaces": 0, "commission": 0, "construction_year": 0, "datasource_name": "OnTheMarket.com", "img_height": 300, "img_url": "https://imgs.nestimg.com/2_bedroom_apartment_for_sale_111105673252561295.jpg", "img_width": 400, "keywords": "Refurbished, Kitchen", "latitude": 51.0154, "lister_name": "Greenslade Taylor Hunt", "lister_url": "https://www.nestoria.co.uk/detail/0000000111105673252561295/title/5/12-8?serpUid=&pt=1&ot=1&l=somerset&did=105_high1&t_sec=9&t_or=45&t_pvid=null&utm_source=api&utm_medium=external", "listing_type": "buy", "location_accuracy": 9, "longitude": -3.0945, "price": 195000, "price_currency": "\u00a3", "price_formatted": "\u00a3195,000", "price_high": 195000, "price_low": 195000, "price_type": "fixed", "property_type": "flat", "size": 0, "size_type": "net", "summary": "Prominent location fronting busy thoroughfare. Well maintained refu...", "thumb_height": 60, "thumb_url": "https://imgs.nestimg.com/medium/2_bedroom_apartment_for_sale_111105673252561295.jpg", "thumb_width": 80, "title": "East Reach, Taunton, Somerset, TA1", "updated_in_days": 88, "updated_in_days_formatted": "first seen over a month ago"}, {"bathroom_number": 2, "bedroom_number": 5, "car_spaces": 0, "commission": 0, "construction_year": 0, "datasource_name": "OnTheMarket.com", "img_height": 300, "img_url": "https://imgs.nestimg.com/5_bedroom_semi_detached_house_for_sale_111192285393155657.jpg", "img_width": 400, "keywords": "Garden, Semi-Detached, No Chain, Refurbished, Garage, Kitchen, Reception", "latitude": 51.0037, "lister_name": "Stags", "lister_url": "https://www.nestoria.co.uk/detail/0000000111192285393155657/title/5/12-9?serpUid=&pt=1&ot=1&l=somerset&did=105_high1&t_sec=9&t_or=45&t_pvid=null&utm_source=api&utm_medium=external", "listing_type": "buy", "location_accuracy": 9, "longitude": -3.26302, "price": 595000, "price_currency": "\u00a3", "price_formatted": "\u00a3595,000", "price_high": 595000, "price_low": 595000, "price_type": "fixed", "property_type": "house", "size": 0, "size_type": "net", "summary": "The major part of a refurbished period farmhouse with separate barn...", "thumb_height": 60, "thumb_url": "https://imgs.nestimg.com/medium/5_bedroom_semi_detached_house_for_sale_111192285393155657.jpg", "thumb_width": 80, "title": "Lower Chipley, Wellington, Somerset, TA21", "updated_in_days": 87, "updated_in_days_formatted": "first seen over a month ago"}, {"bathroom_number": "", "bedroom_number": 3, "car_spaces": 0, "commission": 0, "construction_year": 0, "datasource_name": "OnTheMarket.com", "img_height": 300, "img_url": "https://imgs.nestimg.com/3_bedroom_terraced_house_for_sale_111532300032180267.jpg", "img_width": 400, "keywords": "Freehold, Garden, Terraced, Garage, Modern", "latitude": 51.1573, "lister_name": "Greenslade Taylor Hunt", "lister_url": "https://www.nestoria.co.uk/detail/0000000111532300032180267/title/5/12-10?serpUid=&pt=1&ot=1&l=somerset&did=105_high1&t_sec=9&t_or=45&t_pvid=null&utm_source=api&utm_medium=external", "listing_type": "buy", "location_accuracy": 9, "longitude": -2.91747, "price": 225000, "price_currency": "\u00a3", "price_formatted": "\u00a3225,000", "price_high": 225000, "price_low": 225000, "price_type": "fixed", "property_type": "house", "size": 0, "size_type": "net", "summary": "A ly presented modern property built by stongvox in 2010tractive lo...", "thumb_height": 60, "thumb_url": "https://imgs.nestimg.com/medium/3_bedroom_terraced_house_for_sale_111532300032180267.jpg", "thumb_width": 80, "title": "Middle Road, Cossington, Bridgwater, Somerset, TA7", "updated_in_days": 32, "updated_in_days_formatted": "first seen over a month ago"}, {"bathroom_number": "", "bedroom_number": 6, "car_spaces": 0, "commission": 0, "construction_year": 0, "datasource_name": "OnTheMarket.com", "img_height": 300, "img_url": "https://imgs.nestimg.com/6_bedroom_detached_house_for_sale_110740869026408544.jpg", "img_width": 400, "keywords": "Detached", "latitude": 51.06227, "lister_name": "Savills", "lister_url": "https://www.nestoria.co.uk/detail/0000000110740869026408544/title/5/12-11?serpUid=&pt=1&ot=1&l=somerset&did=105_high1&t_sec=9&t_or=45&t_pvid=null&utm_source=api&utm_medium=external", "listing_type": "buy", "location_accuracy": 9, "longitude": -3.11182, "price": 1200000, "price_currency": "\u00a3", "price_formatted": "\u00a31,200,000", "price_high": 1200000, "price_low": 1200000, "price_type": "fixed", "property_type": "house", "size": 0, "size_type": "net", "summary": "A and versatile family home in prime west somerset village, close t...", "thumb_height": 60, "thumb_url": "https://imgs.nestimg.com/medium/6_bedroom_detached_house_for_sale_110740869026408544.jpg", "thumb_width": 80, "title": "Lodes Lane, Kingston St. Mary, Taunton, Somerset, TA2", "updated_in_days": 68, "updated_in_days_formatted": "first seen over a month ago"}, {"bathroom_number": 2, "bedroom_number": 3, "car_spaces": 0, "commission": 0, "construction_year": 0, "datasource_name": "OnTheMarket.com", "img_height": 300, "img_url": "https://imgs.nestimg.com/3_bedroom_bungalow_for_sale_111043908900061082.jpg", "img_width": 400, "keywords": "Detached, Freehold, Garden, Garage, Bungalow", "latitude": 51.2018, "lister_name": "Greenslade Taylor Hunt", "lister_url": "https://www.nestoria.co.uk/detail/0000000111043908900061082/title/5/12-12?serpUid=&pt=1&ot=1&l=somerset&did=105_high1&t_sec=9&t_or=45&t_pvid=null&utm_source=api&utm_medium=external", "listing_type": "buy", "location_accuracy": 9, "longitude": -2.94235, "price": 399950, "price_currency": "\u00a3", "price_formatted": "\u00a3399,950", "price_high": 399950, "price_low": 399950, "price_type": "fixed", "property_type": "house", "size": 0, "size_type": "net", "summary": "This and tastefully presented, detached 3 bedroom, 2 bathroom, exte...", "thumb_height": 60, "thumb_url": "https://imgs.nestimg.com/medium/3_bedroom_bungalow_for_sale_111043908900061082.jpg", "thumb_width": 80, "title": "Church Lane, East Huntspill, Highbridge, Somerset, TA9", "updated_in_days": 111, "updated_in_days_formatted": "first seen over a month ago"}, {"bathroom_number": "", "bedroom_number": 3, "car_spaces": 0, "commission": 0, "construction_year": 0, "datasource_name": "OnTheMarket.com", "img_height": 300, "img_url": "https://imgs.nestimg.com/3_bedroom_detached_bungalow_for_sale_111136753603837576.jpg", "img_width": 400, "keywords": "Detached, Garden, No Chain, Garage, Bungalow", "latitude": 51.1624, "lister_url": "https://www.nestoria.co.uk/detail/0000000111136753603837576/title/5/12-13?serpUid=&pt=1&ot=1&l=somerset&did=105_high1&t_sec=9&t_or=45&t_pvid=null&utm_source=api&utm_medium=external", "listing_type": "buy", "location_accuracy": 9, "longitude": -3.32168, "price": 239950, "price_currency": "\u00a3", "price_formatted": "\u00a3239,950", "price_high": 239950, "price_low": 239950, "price_type": "fixed", "property_type": "house", "size": 0, "size_type": "net", "summary": "A well presented 3 bedroom bungalow in quiet location only a few mi...", "thumb_height": 60, "thumb_url": "https://imgs.nestimg.com/medium/3_bedroom_detached_bungalow_for_sale_111136753603837576.jpg", "thumb_width": 80, "title": "North Street, Williton, Taunton, Somerset, TA4", "updated_in_days": 7, "updated_in_days_formatted": "first seen last week"}, {"bathroom_number": "", "bedroom_number": 5, "car_spaces": 0, "commission": 0, "construction_year": 0, "datasource_name": "OnTheMarket.com", "img_height": 300, "img_url": "https://imgs.nestimg.com/5_bedroom_detached_house_for_sale_111173869801657131.jpg", "img_width": 400, "keywords": "Detached, Grade II, Cottage, Listed", "latitude": 51.0608, "lister_url": "https://www.nestoria.co.uk/detail/0000000111173869801657131/title/5/12-14?serpUid=&pt=1&ot=1&l=somerset&did=105_high1&t_sec=9&t_or=45&t_pvid=null&utm_source=api&utm_medium=external", "listing_type": "buy", "location_accuracy": 9, "longitude": -2.89957, "price": 1100000, "price_currency": "\u00a3", "price_formatted": "\u00a31,100,000", "price_high": 1100000, "price_low": 1100000, "price_type": "fixed", "property_type": "house", "size": 0, "size_type": "net", "summary": "A particularly period farmhouse, listed grade ii with guest cottage...", "thumb_height": 60, "thumb_url": "https://imgs.nestimg.com/medium/5_bedroom_detached_house_for_sale_111173869801657131.jpg", "thumb_width": 80, "title": "Stathe, Bridgwater, Somerset, TA7", "updated_in_days": 90, "updated_in_days_formatted": "first seen over a month ago"}, {"bathroom_number": "", "bedroom_number": 3, "car_spaces": 0, "commission": 0, "construction_year": 0, "datasource_name": "OnTheMarket.com", "img_height": 300, "img_url": "https://imgs.nestimg.com/3_bedroom_detached_house_for_sale_111093420377193542.jpg", "img_width": 400, "keywords": "Detached, Garden, Refurbished, Kitchen, Cottage", "latitude": 51.0585, "lister_name": "Stags", "lister_url": "https://www.nestoria.co.uk/detail/0000000111093420377193542/title/5/12-15?serpUid=&pt=1&ot=1&l=somerset&did=105_high1&t_sec=9&t_or=45&t_pvid=null&utm_source=api&utm_medium=external", "listing_type": "buy", "location_accuracy": 9, "longitude": -3.213, "price": 340000, "price_currency": "\u00a3", "price_formatted": "\u00a3340,000", "price_high": 340000, "price_low": 340000, "price_type": "fixed", "property_type": "house", "size": 0, "size_type": "net", "summary": "A newly renovated detached stone cottage situated in a village loca...", "thumb_height": 60, "thumb_url": "https://imgs.nestimg.com/medium/3_bedroom_detached_house_for_sale_111093420377193542.jpg", "thumb_width": 80, "title": "Ash Priors, Taunton, Somerset, TA4", "updated_in_days": 88, "updated_in_days_formatted": "first seen over a month ago"}], "locations": [{"center_lat": 51.080967, "center_long": -3.045432, "long_title": "Somerset, county", "place_name": "somerset", "title": "Somerset"}], "page": 12, "sort": "nestoria_rank", "status_code": "200", "status_text": "OK", "thanks": "For using the Nestoria API.", "total_pages": 410, "total_results": 6149, "_cu5t0mP434m_": "remove"}}