{"request": {"country": "uk", "language": "en", "location": "somerset", "num_res": "15", "offset": 180, "output": "json_xs", "page": 13, "product_type": "realestate", "property_type": "property", "size_type": "net", "size_unit": "m2", "sort": "nestoria_rank", "listing_type": "buy"}, "response": {"application_response_code": "100", "application_response_text": "listings returned for one unambiguous location", "attribution": {"img_height": 22, "img_url": "https://resources.nestimg.com/nestoria/img/pbr_v1.png", "img_width": 183, "link_to_img": "http://www.nestoria.com"}, "created_http": "Tue, 18 Jun 2019 17:28:52 GMT", "created_unix": 1560878932, "link_to_url": "https://www.nestoria.co.uk/somerset/property/buy/13", "listings": [{"bathroom_number": "", "bedroom_number": 3, "car_spaces": 0, "commission": 0, "construction_year": 0, "datasource_name": "OnTheMarket.com", "img_height": 300, "img_url": "https://imgs.nestimg.com/3_bedroom_semi_detached_house_for_sale_111411510681032049.jpg", "img_width": 400, "keywords": "Semi-Detached, Kitchen", "latitude": 51.0129, "lister_name": "Newton King", "lister_url": "https://www.nestoria.co.uk/detail/0000000111411510681032049/title/5/13-1?serpUid=&pt=1&ot=1&l=somerset&did=105_high1&t_sec=9&t_or=45&t_pvid=null&utm_source=api&utm_medium=external", "listing_type": "buy", "location_accuracy": 9, "longitude": -3.08772, "price": 265000, "price_currency": "\u00a3", "price_formatted": "\u00a3265,000", "price_high": 265000, "price_low": 265000, "price_type": "fixed", "property_type": "house", "size": 0, "size_type": "net", "summary": "3 bedroom semi detached family home located in a central location w...", "thumb_height": 60, "thumb_url": "https://imgs.nestimg.com/medium/3_bedroom_semi_detached_house_for_sale_111411510681032049.jpg", "thumb_width": 80, "title": "Westleigh Road, Taunton, Somerset", "updated_in_days": 51, "updated_in_days_formatted": "first seen over a month ago"}, {"bathroom_number": "", "bedroom_number": 4, "car_spaces": 0, "commission": 0, "construction_year": 0, "datasource_name": "OnTheMarket.com", "img_height": 300, "img_url": "https://imgs.nestimg.com/4_bedroom_detached_house_for_sale_111705542745367166.jpg", "img_width": 400, "keywords": "Detached", "latitude": 51.238045, "lister_name": "Knight Frank", "lister_url": "https://www.nestoria.co.uk/detail/0000000111705542745367166/title/5/13-2?serpUid=&pt=1&ot=1&l=somerset&did=105_high1&t_sec=9&t_or=45&t_pvid=null&utm_source=api&utm_medium=external", "listing_type": "buy", "location_accuracy": 9, "longitude": -2.448858, "price": 450000, "price_currency": "\u00a3", "price_formatted": "\u00a3450,000", "price_high": 450000, "price_low": 450000, "price_type": "fixed", "property_type": "house", "size": 0, "size_type": "net", "summary": "A period 4 bedroom home with rural views. For sale, situated in the...", "thumb_height": 60, "thumb_url": "https://imgs.nestimg.com/medium/4_bedroom_detached_house_for_sale_111705542745367166.jpg", "thumb_width": 80, "title": "Church Street, Coleford, Radstock, Somerset, BA3", "updated_in_days": 4, "updated_in_days_formatted": "first seen 4 days ago"}, {"bathroom_number": "", "bedroom_number": 1, "car_spaces": 0, "commission": 0, "construction_year": 0, "datasource_name": "OnTheMarket.com", "img_height": 300, "img_url": "https://imgs.nestimg.com/1_bedroom_flat_for_sale_110908086551376793.jpg", "img_width": 400, "keywords": "Grade II, Conversion, Listed", "latitude": 51.0114, "lister_name": "Newton King", "lister_url": "https://www.nestoria.co.uk/detail/0000000110908086551376793/title/5/13-3?serpUid=&pt=1&ot=1&l=somerset&did=105_high1&t_sec=9&t_or=45&t_pvid=null&utm_source=api&utm_medium=external", "listing_type": "buy", "location_accuracy": 9, "longitude": -3.09569, "price": 169995, "price_currency": "\u00a3", "price_formatted": "\u00a3169,995", "price_high": 169995, "price_low": 169995, "price_type": "fixed", "property_type": "flat", "size": 0, "size_type": "net", "summary": ", grade ii listed apartment conversion set in an gated development ...", "thumb_height": 60, "thumb_url": "https://imgs.nestimg.com/medium/1_bedroom_flat_for_sale_110908086551376793.jpg", "thumb_width": 80, "title": "Annecy Court, St Josephs Field, Taunton, Somerset", "updated_in_days": 128, "updated_in_days_formatted": "first seen over a month ago"}, {"bathroom_number": "", "bedroom_number": 2, "car_spaces": 0, "commission": 0, "construction_year": 0, "datasource_name": "OnTheMarket.com", "img_height": 300, "img_url": "https://imgs.nestimg.com/2_bedroom_semi_detached_bungalow_for_sale_111013113323558572.jpg", "img_width": 400, "keywords": "Semi-Detached, Bungalow, Modern, Gas Central Heating", "latitude": 51.1679, "lister_url": "https://www.nestoria.co.uk/detail/0000000111013113323558572/title/5/13-4?serpUid=&pt=1&ot=1&l=somerset&did=105_high1&t_sec=9&t_or=45&t_pvid=null&utm_source=api&utm_medium=external", "listing_type": "buy", "location_accuracy": 9, "longitude": -2.97651, "price": 204950, "price_currency": "\u00a3", "price_formatted": "\u00a3204,950", "price_high": 204950, "price_low": 204950, "price_type": "fixed", "property_type": "house", "size": 0, "size_type": "net", "summary": "A modern, 2 bedroom, gas centrally heated, double glazed semi-detac...", "thumb_height": 60, "thumb_url": "https://imgs.nestimg.com/medium/2_bedroom_semi_detached_bungalow_for_sale_111013113323558572.jpg", "thumb_width": 80, "title": "Webbers Way, Puriton, Somerset", "updated_in_days": 116, "updated_in_days_formatted": "first seen over a month ago"}, {"bathroom_number": "", "bedroom_number": 2, "car_spaces": 0, "commission": 0, "construction_year": 0, "datasource_name": "OnTheMarket.com", "img_height": 300, "img_url": "https://imgs.nestimg.com/2_bedroom_detached_bungalow_for_sale_111693435270369261.jpg", "img_width": 400, "keywords": "Detached, Garage, Bungalow", "latitude": 51.3197, "lister_url": "https://www.nestoria.co.uk/detail/0000000111693435270369261/title/5/13-5?serpUid=&pt=1&ot=1&l=somerset&did=105_high1&t_sec=9&t_or=45&t_pvid=null&utm_source=api&utm_medium=external", "listing_type": "buy", "location_accuracy": 9, "longitude": -2.9623, "price": 230000, "price_currency": "\u00a3", "price_formatted": "\u00a3230,000", "price_high": 230000, "price_low": 230000, "price_type": "fixed", "property_type": "house", "size": 0, "size_type": "net", "summary": "Situated on bleadon hill. Detached bungalow. Two bedrooms. In need ...", "thumb_height": 60, "thumb_url": "https://imgs.nestimg.com/medium/2_bedroom_detached_bungalow_for_sale_111693435270369261.jpg", "thumb_width": 80, "title": "Brockley Crescent, Bleadon, Weston-super-Mare, North Somerset. BS24", "updated_in_days": 6, "updated_in_days_formatted": "first seen 6 days ago"}, {"bathroom_number": "", "bedroom_number": 4, "car_spaces": 0, "commission": 0, "construction_year": 0, "datasource_name": "OnTheMarket.com", "img_height": 300, "img_url": "https://imgs.nestimg.com/4_bedroom_semi_detached_house_for_sale_111526292747694645.jpg", "img_width": 400, "keywords": "Freehold, Semi-Detached, Double Garage, Conversion", "latitude": 51.1929, "lister_name": "Greenslade Taylor Hunt", "lister_url": "https://www.nestoria.co.uk/detail/0000000111526292747694645/title/5/13-6?serpUid=&pt=1&ot=1&l=somerset&did=105_high1&t_sec=9&t_or=45&t_pvid=null&utm_source=api&utm_medium=external", "listing_type": "buy", "location_accuracy": 9, "longitude": -3.10906, "price": 575000, "price_currency": "\u00a3", "price_formatted": "\u00a3575,000", "price_high": 575000, "price_low": 575000, "price_type": "fixed", "property_type": "house", "size": 0, "size_type": "net", "summary": "A semi-detached barn conversion. With just under 3 acres, 4 stables...", "thumb_height": 60, "thumb_url": "https://imgs.nestimg.com/medium/4_bedroom_semi_detached_house_for_sale_111526292747694645.jpg", "thumb_width": 80, "title": "Stolford, Stogursey, Bridgwater, Somerset, TA5", "updated_in_days": 33, "updated_in_days_formatted": "first seen over a month ago"}, {"bathroom_number": "", "bedroom_number": 4, "car_spaces": 0, "commission": 0, "construction_year": 0, "datasource_name": "OnTheMarket.com", "img_height": 300, "img_url": "https://imgs.nestimg.com/4_bedroom_detached_house_for_sale_111587832591130375.jpg", "img_width": 400, "keywords": "Detached, Garden, Reception", "latitude": 51.1118, "lister_name": "Stags", "lister_url": "https://www.nestoria.co.uk/detail/0000000111587832591130375/title/5/13-7?serpUid=&pt=1&ot=1&l=somerset&did=105_high1&t_sec=9&t_or=45&t_pvid=null&utm_source=api&utm_medium=external", "listing_type": "buy", "location_accuracy": 9, "longitude": -3.22968, "price": 1600000, "price_currency": "\u00a3", "price_formatted": "\u00a31,600,000", "price_high": 1600000, "price_low": 1600000, "price_type": "fixed", "property_type": "house", "size": 0, "size_type": "net", "summary": "A four bedroom, five reception room period property with private ga...", "thumb_height": 60, "thumb_url": "https://imgs.nestimg.com/medium/4_bedroom_detached_house_for_sale_111587832591130375.jpg", "thumb_width": 80, "title": "Crowcombe, Taunton, Somerset, TA4", "updated_in_days": 23, "updated_in_days_formatted": "first seen 3 weeks ago"}, {"bathroom_number": "", "bedroom_number": 4, "car_spaces": 0, "commission": 0, "construction_year": 0, "datasource_name": "OnTheMarket.com", "img_height": 300, "img_url": "https://imgs.nestimg.com/4_bedroom_semi_detached_house_for_sale_111587836032592010.jpg", "img_width": 400, "keywords": "Semi-Detached, En suite, Garage, Kitchen", "latitude": 51.0474, "lister_name": "Stags", "lister_url": "https://www.nestoria.co.uk/detail/0000000111587836032592010/title/5/13-8?serpUid=&pt=1&ot=1&l=somerset&did=105_high1&t_sec=9&t_or=45&t_pvid=null&utm_source=api&utm_medium=external", "listing_type": "buy", "location_accuracy": 9, "longitude": -3.24583, "price": 400000, "price_currency": "\u00a3", "price_formatted": "\u00a3400,000", "price_high": 400000, "price_low": 400000, "price_type": "fixed", "property_type": "house", "size": 0, "size_type": "net", "summary": "A ly presented and ly extended village house. Kitchen, dining room ...", "thumb_height": 60, "thumb_url": "https://imgs.nestimg.com/medium/4_bedroom_semi_detached_house_for_sale_111587836032592010.jpg", "thumb_width": 80, "title": "Fitzhead, Taunton, Somerset, TA4", "updated_in_days": 23, "updated_in_days_formatted": "first seen 3 weeks ago"}, {"bathroom_number": "", "bedroom_number": 4, "car_spaces": 0, "commission": 0, "construction_year": 0, "datasource_name": "OnTheMarket.com", "img_height": 300, "img_url": "https://imgs.nestimg.com/4_bedroom_terraced_house_for_sale_111662468923109385.jpg", "img_width": 400, "keywords": "Freehold, Garden, Grade II, Terraced, Cottage, Listed", "latitude": 50.9267, "lister_name": "Greenslade Taylor Hunt", "lister_url": "https://www.nestoria.co.uk/detail/0000000111662468923109385/title/5/13-9?serpUid=&pt=1&ot=1&l=somerset&did=105_high1&t_sec=9&t_or=45&t_pvid=null&utm_source=api&utm_medium=external", "listing_type": "buy", "location_accuracy": 9, "longitude": -2.90364, "price": 275000, "price_currency": "\u00a3", "price_formatted": "\u00a3275,000", "price_high": 275000, "price_low": 275000, "price_type": "fixed", "property_type": "house", "size": 0, "size_type": "net", "summary": "Situated on the eastern fringe of ilminster with one of the most ou...", "thumb_height": 60, "thumb_url": "https://imgs.nestimg.com/medium/4_bedroom_terraced_house_for_sale_111662468923109385.jpg", "thumb_width": 80, "title": "Bay Hill, Ilminster, Somerset, TA19", "updated_in_days": 11, "updated_in_days_formatted": "first seen last week"}, {"bathroom_number": "", "bedroom_number": 4, "car_spaces": 0, "commission": 0, "construction_year": 0, "datasource_name": "OnTheMarket.com", "img_height": 300, "img_url": "https://imgs.nestimg.com/4_bedroom_detached_house_for_sale_111278480084145161.jpg", "img_width": 400, "keywords": "Detached, Cul-de-Sac", "latitude": 51.0311, "lister_name": "Stags", "lister_url": "https://www.nestoria.co.uk/detail/0000000111278480084145161/title/5/13-10?serpUid=&pt=1&ot=1&l=somerset&did=105_high1&t_sec=9&t_or=45&t_pvid=null&utm_source=api&utm_medium=external", "listing_type": "buy", "location_accuracy": 9, "longitude": -3.11243, "price": 450000, "price_currency": "\u00a3", "price_formatted": "\u00a3450,000", "price_high": 450000, "price_low": 450000, "price_type": "fixed", "property_type": "house", "size": 0, "size_type": "net", "summary": "In this sought after cul-de-sac, this 1930s detached house is ly pr...", "thumb_height": 60, "thumb_url": "https://imgs.nestimg.com/medium/4_bedroom_detached_house_for_sale_111278480084145161.jpg", "thumb_width": 80, "title": "Wyndham Road, Wyndham Road, Taunton, Somerset, TA2", "updated_in_days": 73, "updated_in_days_formatted": "first seen over a month ago"}, {"bathroom_number": "", "bedroom_number": 1, "car_spaces": 0, "commission": 0, "construction_year": 0, "datasource_name": "OnTheMarket.com", "img_height": 300, "img_url": "https://imgs.nestimg.com/1_bedroom_house_for_sale_111687587020371800.jpg", "img_width": 400, "keywords": "Leasehold, Conversion", "latitude": 50.9287, "lister_name": "Greenslade Taylor Hunt", "lister_url": "https://www.nestoria.co.uk/detail/0000000111687587020371800/title/5/13-11?serpUid=&pt=1&ot=1&l=somerset&did=105_high1&t_sec=9&t_or=45&t_pvid=null&utm_source=api&utm_medium=external", "listing_type": "buy", "location_accuracy": 9, "longitude": -2.91398, "price": 145000, "price_currency": "\u00a3", "price_formatted": "\u00a3145,000", "price_high": 145000, "price_low": 145000, "price_type": "fixed", "property_type": "house", "size": 0, "size_type": "net", "summary": "A one bedroom ground floor conversion from a former coach house, pr...", "thumb_height": 60, "thumb_url": "https://imgs.nestimg.com/medium/1_bedroom_house_for_sale_111687587020371800.jpg", "thumb_width": 80, "title": "Rutters Lane, Ilminster, Somerset, TA19", "updated_in_days": 7, "updated_in_days_formatted": "first seen last week"}, {"bathroom_number": 2, "bedroom_number": 3, "car_spaces": 0, "commission": 0, "construction_year": 0, "datasource_name": "OnTheMarket.com", "img_height": 300, "img_url": "https://imgs.nestimg.com/3_bedroom_detached_house_for_sale_111136751842885011.jpg", "img_width": 400, "keywords": "Detached, Freehold, Garden", "latitude": 50.93, "lister_name": "Greenslade Taylor Hunt", "lister_url": "https://www.nestoria.co.uk/detail/0000000111136751842885011/title/5/13-12?serpUid=&pt=1&ot=1&l=somerset&did=105_high1&t_sec=9&t_or=45&t_pvid=null&utm_source=api&utm_medium=external", "listing_type": "buy", "location_accuracy": 9, "longitude": -2.9692, "price": 445000, "price_currency": "\u00a3", "price_formatted": "\u00a3445,000", "price_high": 445000, "price_low": 445000, "price_type": "fixed", "property_type": "house", "size": 0, "size_type": "net", "summary": "A detached, well-appointed individual house situated on a quiet lan...", "thumb_height": 60, "thumb_url": "https://imgs.nestimg.com/medium/3_bedroom_detached_house_for_sale_111136751842885011.jpg", "thumb_width": 80, "title": "Horton, Ilminster, Somerset, TA19", "updated_in_days": 20, "updated_in_days_formatted": "first seen 2 weeks ago"}, {"bathroom_number": "", "bedroom_number": 3, "car_spaces": 0, "commission": 0, "construction_year": 0, "datasource_name": "OnTheMarket.com", "img_height": 300, "img_url": "https://imgs.nestimg.com/3_bedroom_semi_detached_house_for_sale_111445537119004596.jpg", "img_width": 400, "keywords": "Garden, Semi-Detached, Grade II, Listed", "latitude": 51.07438, "lister_name": "Strutt & Parker", "lister_url": "https://www.nestoria.co.uk/detail/0000000111445537119004596/title/5/13-13?serpUid=&pt=1&ot=1&l=somerset&did=105_high1&t_sec=9&t_or=45&t_pvid=null&utm_source=api&utm_medium=external", "listing_type": "buy", "location_accuracy": 9, "longitude": -3.21287, "price": 650000, "price_currency": "\u00a3", "price_formatted": "\u00a3650,000", "price_high": 650000, "price_low": 650000, "price_type": "fixed", "property_type": "house", "size": 0, "size_type": "net", "summary": "An ly presented grade ii listed property with landscaped gardens, i...", "thumb_height": 60, "thumb_url": "https://imgs.nestimg.com/medium/3_bedroom_semi_detached_house_for_sale_111445537119004596.jpg", "thumb_width": 80, "title": "Combe Florey, Taunton, Somerset", "updated_in_days": 46, "updated_in_days_formatted": "first seen over a month ago"}, {"bathroom_number": "", "bedroom_number": 4, "car_spaces": 0, "commission": 0, "construction_year": 0, "datasource_name": "OnTheMarket.com", "img_height": 300, "img_url": "https://imgs.nestimg.com/4_bedroom_detached_bungalow_for_sale_111693436974701117.jpg", "img_width": 400, "keywords": "Detached, Garden, Double Garage, No Chain, Conservatory, Bungalow", "latitude": 51.3791, "lister_url": "https://www.nestoria.co.uk/detail/0000000111693436974701117/title/5/13-14?serpUid=&pt=1&ot=1&l=somerset&did=105_high1&t_sec=9&t_or=45&t_pvid=null&utm_source=api&utm_medium=external", "listing_type": "buy", "location_accuracy": 9, "longitude": -2.95943, "price": 425000, "price_currency": "\u00a3", "price_formatted": "\u00a3425,000", "price_high": 425000, "price_low": 425000, "price_type": "fixed", "property_type": "house", "size": 0, "size_type": "net", "summary": "Three/four beds. Two/three recs. Conservatory. If you are looking f...", "thumb_height": 60, "thumb_url": "https://imgs.nestimg.com/medium/4_bedroom_detached_bungalow_for_sale_111693436974701117.jpg", "thumb_width": 80, "title": "Sand Farm Lane, Sandbay, Weston-super-Mare, North Somerset. BS22", "updated_in_days": 6, "updated_in_days_formatted": "first seen 6 days ago"}, {"bathroom_number": "", "bedroom_number": 2, "car_spaces": 0, "commission": 0, "construction_year": 0, "datasource_name": "OnTheMarket.com", "img_height": 300, "img_url": "https://imgs.nestimg.com/2_bedroom_detached_house_for_sale_111681016480267502.jpg", "img_width": 400, "keywords": "Detached, Freehold, Garage", "latitude": 50.927, "lister_name": "Greenslade Taylor Hunt", "lister_url": "https://www.nestoria.co.uk/detail/0000000111681016480267502/title/5/13-15?serpUid=&pt=1&ot=1&l=somerset&did=105_high1&t_sec=9&t_or=45&t_pvid=null&utm_source=api&utm_medium=external", "listing_type": "buy", "location_accuracy": 9, "longitude": -2.92014, "price": 175000, "price_currency": "\u00a3", "price_formatted": "\u00a3175,000", "price_high": 175000, "price_low": 175000, "price_type": "fixed", "property_type": "house", "size": 0, "size_type": "net", "summary": "Set within the heart of the lower meadow development, this 2 bedroo...", "thumb_height": 60, "thumb_url": "https://imgs.nestimg.com/medium/2_bedroom_detached_house_for_sale_111681016480267502.jpg", "thumb_width": 80, "title": "Lower Meadow, Ilminster, Somerset, TA19", "updated_in_days": 8, "updated_in_days_formatted": "first seen last week"}], "locations": [{"center_lat": 51.080967, "center_long": -3.045432, "long_title": "Somerset, county", "place_name": "somerset", "title": "Somerset"}], "page": 13, "sort": "nestoria_rank", "status_code": "200", "status_text": "OK", "thanks": "For using the Nestoria API.", "total_pages": 410, "total_results": 6149, "_cu5t0mP434m_": "remove"}}