{"request": {"country": "uk", "language": "en", "location": "somerset", "num_res": "15", "offset": 195, "output": "json_xs", "page": 14, "product_type": "realestate", "property_type": "property", "size_type": "net", "size_unit": "m2", "sort": "nestoria_rank", "listing_type": "buy"}, "response": {"application_response_code": "100", "application_response_text": "listings returned for one unambiguous location", "attribution": {"img_height": 22, "img_url": "https://resources.nestimg.com/nestoria/img/pbr_v1.png", "img_width": 183, "link_to_img": "http://www.nestoria.com"}, "created_http": "Tue, 18 Jun 2019 17:28:54 GMT", "created_unix": 1560878934, "link_to_url": "https://www.nestoria.co.uk/somerset/property/buy/14", "listings": [{"bathroom_number": "", "bedroom_number": 5, "car_spaces": 0, "commission": 0, "construction_year": 0, "datasource_name": "OnTheMarket.com", "img_height": 300, "img_url": "https://imgs.nestimg.com/5_bedroom_semi_detached_house_for_sale_110184703713051490.jpg", "img_width": 400, "keywords": "Freehold, Grade II, Listed", "latitude": 51.0158, "lister_name": "Greenslade Taylor Hunt", "lister_url": "https://www.nestoria.co.uk/detail/0000000110184703713051490/title/5/14-1?serpUid=&pt=1&ot=1&l=somerset&did=105_high1&t_sec=9&t_or=45&t_pvid=null&utm_source=api&utm_medium=external", "listing_type": "buy", "location_accuracy": 9, "longitude": -3.10155, "price": 795000, "price_currency": "\u00a3", "price_formatted": "\u00a3795,000", "price_high": 795000, "price_low": 795000, "price_type": "fixed", "property_type": "house", "size": 0, "size_type": "net", "summary": "A landmark grade ii listed town house affording and accommodation o...", "thumb_height": 60, "thumb_url": "https://imgs.nestimg.com/medium/5_bedroom_semi_detached_house_for_sale_110184703713051490.jpg", "thumb_width": 80, "title": "Church Square, Taunton, Somerset, TA1", "updated_in_days": 147, "updated_in_days_formatted": "first seen over a month ago"}, {"bathroom_number": "", "bedroom_number": 4, "car_spaces": 0, "commission": 0, "construction_year": 0, "datasource_name": "OnTheMarket.com", "img_height": 300, "img_url": "https://imgs.nestimg.com/4_bedroom_detached_house_for_sale_111056513858957062.jpg", "img_width": 400, "keywords": "Detached, Freehold, Garden, Garage, Cottage", "latitude": 51.1661, "lister_name": "Greenslade Taylor Hunt", "lister_url": "https://www.nestoria.co.uk/detail/0000000111056513858957062/title/5/14-2?serpUid=&pt=1&ot=1&l=somerset&did=105_high1&t_sec=9&t_or=45&t_pvid=null&utm_source=api&utm_medium=external", "listing_type": "buy", "location_accuracy": 9, "longitude": -3.20615, "price": 475000, "price_currency": "\u00a3", "price_formatted": "\u00a3475,000", "price_high": 475000, "price_low": 475000, "price_type": "fixed", "property_type": "house", "size": 0, "size_type": "net", "summary": "An intriguing 16th century detached cottage with large gardens, sum...", "thumb_height": 60, "thumb_url": "https://imgs.nestimg.com/medium/4_bedroom_detached_house_for_sale_111056513858957062.jpg", "thumb_width": 80, "title": "Holford, Bridgwater, Somerset, TA5", "updated_in_days": 25, "updated_in_days_formatted": "first seen 3 weeks ago"}, {"bathroom_number": "", "bedroom_number": 2, "car_spaces": 0, "commission": 0, "construction_year": 0, "datasource_name": "OnTheMarket.com", "img_height": 300, "img_url": "https://imgs.nestimg.com/2_bedroom_semi_detached_house_for_sale_111693434664123755.jpg", "img_width": 400, "keywords": "Semi-Detached, No Chain, Conservatory, Parking", "latitude": 51.3387, "lister_url": "https://www.nestoria.co.uk/detail/0000000111693434664123755/title/5/14-3?serpUid=&pt=1&ot=1&l=somerset&did=105_high1&t_sec=9&t_or=45&t_pvid=null&utm_source=api&utm_medium=external", "listing_type": "buy", "location_accuracy": 9, "longitude": -2.96806, "price": 175000, "price_currency": "\u00a3", "price_formatted": "\u00a3175,000", "price_high": 175000, "price_low": 175000, "price_type": "fixed", "property_type": "house", "size": 0, "size_type": "net", "summary": "Well presented semi detached house. Two beds. Lounge & conservatory...", "thumb_height": 60, "thumb_url": "https://imgs.nestimg.com/medium/2_bedroom_semi_detached_house_for_sale_111693434664123755.jpg", "thumb_width": 80, "title": "Norfolk Road, Off Drove Road, Weston-super-Mare, North Somerset. BS23", "updated_in_days": 6, "updated_in_days_formatted": "first seen 6 days ago"}, {"bathroom_number": "", "bedroom_number": 3, "car_spaces": 0, "commission": 0, "construction_year": 0, "datasource_name": "OnTheMarket.com", "img_height": 300, "img_url": "https://imgs.nestimg.com/3_bedroom_semi_detached_house_for_sale_110666712402683451.jpg", "img_width": 400, "keywords": "Semi-Detached", "latitude": 51.0225, "lister_name": "Greenslade Taylor Hunt", "lister_url": "https://www.nestoria.co.uk/detail/0000000110666712402683451/title/5/14-4?serpUid=&pt=1&ot=1&l=somerset&did=105_high1&t_sec=9&t_or=45&t_pvid=null&utm_source=api&utm_medium=external", "listing_type": "buy", "location_accuracy": 9, "longitude": -3.09675, "price": 299950, "price_currency": "\u00a3", "price_formatted": "\u00a3299,950", "price_high": 299950, "price_low": 299950, "price_type": "fixed", "property_type": "house", "size": 0, "size_type": "net", "summary": "A contemporary three storey town house presented in order throughou...", "thumb_height": 60, "thumb_url": "https://imgs.nestimg.com/medium/3_bedroom_semi_detached_house_for_sale_110666712402683451.jpg", "thumb_width": 80, "title": "Firepool View, Taunton, Somerset, TA1", "updated_in_days": 97, "updated_in_days_formatted": "first seen over a month ago"}, {"bathroom_number": "", "bedroom_number": 3, "car_spaces": 0, "commission": 0, "construction_year": 0, "datasource_name": "OnTheMarket.com", "img_height": 300, "img_url": "https://imgs.nestimg.com/3_bedroom_bungalow_for_sale_111569521665054108.jpg", "img_width": 400, "keywords": "Detached, Garden, No Chain, Garage, Bungalow", "latitude": 51.2079, "lister_name": "Greenslade Taylor Hunt", "lister_url": "https://www.nestoria.co.uk/detail/0000000111569521665054108/title/5/14-5?serpUid=&pt=1&ot=1&l=somerset&did=105_high1&t_sec=9&t_or=45&t_pvid=null&utm_source=api&utm_medium=external", "listing_type": "buy", "location_accuracy": 9, "longitude": -2.98766, "price": 229950, "price_currency": "\u00a3", "price_formatted": "\u00a3229,950", "price_high": 229950, "price_low": 229950, "price_type": "fixed", "property_type": "house", "size": 0, "size_type": "net", "summary": "This well presented 2/3 bedroom, semi detached dormer style bungalo...", "thumb_height": 60, "thumb_url": "https://imgs.nestimg.com/medium/3_bedroom_bungalow_for_sale_111569521665054108.jpg", "thumb_width": 80, "title": "Church Road, West Huntspill, Highbridge, Somerset, TA9", "updated_in_days": 26, "updated_in_days_formatted": "first seen 3 weeks ago"}, {"bathroom_number": "", "bedroom_number": 3, "car_spaces": 0, "commission": 0, "construction_year": 0, "datasource_name": "OnTheMarket.com", "img_height": 300, "img_url": "https://imgs.nestimg.com/3_bedroom_detached_bungalow_for_sale_111457715835336957.jpg", "img_width": 400, "keywords": "Detached, Freehold, Bungalow, Modern", "latitude": 51.0237, "lister_name": "Greenslade Taylor Hunt", "lister_url": "https://www.nestoria.co.uk/detail/0000000111457715835336957/title/5/14-6?serpUid=&pt=1&ot=1&l=somerset&did=105_high1&t_sec=9&t_or=45&t_pvid=null&utm_source=api&utm_medium=external", "listing_type": "buy", "location_accuracy": 9, "longitude": -2.86416, "price": 375000, "price_currency": "\u00a3", "price_formatted": "\u00a3375,000", "price_high": 375000, "price_low": 375000, "price_type": "fixed", "property_type": "house", "size": 0, "size_type": "net", "summary": "A particularly modern detached bungalow occupying a pleasant positi...", "thumb_height": 60, "thumb_url": "https://imgs.nestimg.com/medium/3_bedroom_detached_bungalow_for_sale_111457715835336957.jpg", "thumb_width": 80, "title": "Drayton Lane, Curry Rivel, Langport, Somerset, TA10", "updated_in_days": 17, "updated_in_days_formatted": "first seen 2 weeks ago"}, {"bathroom_number": "", "bedroom_number": 6, "car_spaces": 0, "commission": 0, "construction_year": 0, "datasource_name": "OnTheMarket.com", "img_height": 300, "img_url": "https://imgs.nestimg.com/6_bedroom_detached_house_for_sale_111365742499756290.jpg", "img_width": 400, "keywords": "Detached, Garden, Georgian", "latitude": 50.9656, "lister_name": "Stags", "lister_url": "https://www.nestoria.co.uk/detail/0000000111365742499756290/title/5/14-7?serpUid=&pt=1&ot=1&l=somerset&did=105_high1&t_sec=9&t_or=45&t_pvid=null&utm_source=api&utm_medium=external", "listing_type": "buy", "location_accuracy": 9, "longitude": -2.68328, "price": 900000, "price_currency": "\u00a3", "price_formatted": "\u00a3900,000", "price_high": 900000, "price_low": 900000, "price_type": "fixed", "property_type": "house", "size": 0, "size_type": "net", "summary": "An georgian parsonage with versatile accommodation. Not listed. Set...", "thumb_height": 60, "thumb_url": "https://imgs.nestimg.com/medium/6_bedroom_detached_house_for_sale_111365742499756290.jpg", "thumb_width": 80, "title": "Tintinhull Road, Chilthorne Domer, Somerset, BA22", "updated_in_days": 6, "updated_in_days_formatted": "first seen 6 days ago"}, {"bathroom_number": "", "bedroom_number": 3, "car_spaces": 0, "commission": 0, "construction_year": 0, "datasource_name": "OnTheMarket.com", "img_height": 300, "img_url": "https://imgs.nestimg.com/3_bedroom_detached_house_for_sale_111489637494802277.jpg", "img_width": 400, "keywords": "Detached, En suite, Garage, Modern", "latitude": 51.1577, "lister_url": "https://www.nestoria.co.uk/detail/0000000111489637494802277/title/5/14-8?serpUid=&pt=1&ot=1&l=somerset&did=105_high1&t_sec=9&t_or=45&t_pvid=null&utm_source=api&utm_medium=external", "listing_type": "buy", "location_accuracy": 9, "longitude": -2.91758, "price": 277500, "price_currency": "\u00a3", "price_formatted": "\u00a3277,500", "price_high": 277500, "price_low": 277500, "price_type": "fixed", "property_type": "house", "size": 0, "size_type": "net", "summary": "Located within the much sought-after village of cossington is this ...", "thumb_height": 60, "thumb_url": "https://imgs.nestimg.com/medium/3_bedroom_detached_house_for_sale_111489637494802277.jpg", "thumb_width": 80, "title": "Trivetts Way, Cossington, Somerset, TA7 8", "updated_in_days": 39, "updated_in_days_formatted": "first seen over a month ago"}, {"bathroom_number": "", "bedroom_number": 3, "car_spaces": 0, "commission": 0, "construction_year": 0, "datasource_name": "OnTheMarket.com", "img_height": 300, "img_url": "https://imgs.nestimg.com/3_bedroom_semi_detached_bungalow_for_sale_111624984877365533.jpg", "img_width": 400, "keywords": "Semi-Detached, En suite, Bungalow", "latitude": 51.1545, "lister_name": "Newton King", "lister_url": "https://www.nestoria.co.uk/detail/0000000111624984877365533/title/5/14-9?serpUid=&pt=1&ot=1&l=somerset&did=105_high1&t_sec=9&t_or=45&t_pvid=null&utm_source=api&utm_medium=external", "listing_type": "buy", "location_accuracy": 9, "longitude": -2.89615, "price": 230000, "price_currency": "\u00a3", "price_formatted": "\u00a3230,000", "price_high": 230000, "price_low": 230000, "price_type": "fixed", "property_type": "house", "size": 0, "size_type": "net", "summary": "3 bedroom semi detached bungalow located within the sought after an...", "thumb_height": 60, "thumb_url": "https://imgs.nestimg.com/medium/3_bedroom_semi_detached_bungalow_for_sale_111624984877365533.jpg", "thumb_width": 80, "title": "Church Lane, Chilton Polden, Somerset", "updated_in_days": 17, "updated_in_days_formatted": "first seen 2 weeks ago"}, {"bathroom_number": "", "bedroom_number": 4, "car_spaces": 0, "commission": 0, "construction_year": 0, "datasource_name": "OnTheMarket.com", "img_height": 300, "img_url": "https://imgs.nestimg.com/4_bedroom_end_of_terrace_house_for_sale_111284652538236627.jpg", "img_width": 400, "keywords": "Terraced, Cul-de-Sac", "latitude": 51.0118, "lister_name": "Newton King", "lister_url": "https://www.nestoria.co.uk/detail/0000000111284652538236627/title/5/14-10?serpUid=&pt=1&ot=1&l=somerset&did=105_high1&t_sec=9&t_or=45&t_pvid=null&utm_source=api&utm_medium=external", "listing_type": "buy", "location_accuracy": 9, "longitude": -3.09143, "price": 325000, "price_currency": "\u00a3", "price_formatted": "\u00a3325,000", "price_high": 325000, "price_low": 325000, "price_type": "fixed", "property_type": "house", "size": 0, "size_type": "net", "summary": "Four bedroom end of terrace property tucked away in a quiet cul-de-...", "thumb_height": 60, "thumb_url": "https://imgs.nestimg.com/medium/4_bedroom_end_of_terrace_house_for_sale_111284652538236627.jpg", "thumb_width": 80, "title": "Holland Mews, Holway Avenue, Taunton, Somerset", "updated_in_days": 72, "updated_in_days_formatted": "first seen over a month ago"}, {"bathroom_number": "", "bedroom_number": 3, "car_spaces": 0, "commission": 0, "construction_year": 0, "datasource_name": "OnTheMarket.com", "img_height": 300, "img_url": "https://imgs.nestimg.com/3_bedroom_detached_bungalow_for_sale_110938660028675584.jpg", "img_width": 400, "keywords": "Detached, Double Bedroom, Bungalow, Gas Central Heating", "latitude": 51.2493, "lister_url": "https://www.nestoria.co.uk/detail/0000000110938660028675584/title/5/14-11?serpUid=&pt=1&ot=1&l=somerset&did=105_high1&t_sec=9&t_or=45&t_pvid=null&utm_source=api&utm_medium=external", "listing_type": "buy", "location_accuracy": 9, "longitude": -3.00125, "price": 315000, "price_currency": "\u00a3", "price_formatted": "\u00a3315,000", "price_high": 315000, "price_low": 315000, "price_type": "fixed", "property_type": "house", "size": 0, "size_type": "net", "summary": "A 3 double bedroom, detached bungalow, with gas central heating, do...", "thumb_height": 60, "thumb_url": "https://imgs.nestimg.com/medium/3_bedroom_detached_bungalow_for_sale_110938660028675584.jpg", "thumb_width": 80, "title": "Brightstowe Road, Burnham-on-Sea, Somerset", "updated_in_days": 10, "updated_in_days_formatted": "first seen last week"}, {"bathroom_number": "", "bedroom_number": 3, "car_spaces": 0, "commission": 0, "construction_year": 0, "datasource_name": "OnTheMarket.com", "img_height": 300, "img_url": "https://imgs.nestimg.com/3_bedroom_detached_bungalow_for_sale_111501252501238358.jpg", "img_width": 400, "keywords": "Detached, Freehold, Garden, No Chain, Garage, Bungalow", "latitude": 51.2577, "lister_name": "Greenslade Taylor Hunt", "lister_url": "https://www.nestoria.co.uk/detail/0000000111501252501238358/title/5/14-12?serpUid=&pt=1&ot=1&l=somerset&did=105_high1&t_sec=9&t_or=45&t_pvid=null&utm_source=api&utm_medium=external", "listing_type": "buy", "location_accuracy": 9, "longitude": -3.00153, "price": 279950, "price_currency": "\u00a3", "price_formatted": "\u00a3279,950", "price_high": 279950, "price_low": 279950, "price_type": "fixed", "property_type": "house", "size": 0, "size_type": "net", "summary": "This extended, 3 bedroom detached bungalow occupies a good size cor...", "thumb_height": 60, "thumb_url": "https://imgs.nestimg.com/medium/3_bedroom_detached_bungalow_for_sale_111501252501238358.jpg", "thumb_width": 80, "title": "Martins Close, Burnham-on-Sea, Somerset, TA8", "updated_in_days": 13, "updated_in_days_formatted": "first seen last week"}, {"bathroom_number": "", "bedroom_number": 6, "car_spaces": 0, "commission": 0, "construction_year": 0, "datasource_name": "OnTheMarket.com", "img_height": 300, "img_url": "https://imgs.nestimg.com/6_bedroom_equestrian_facility_for_sale_111575825358060697.jpg", "img_width": 400, "keywords": "", "latitude": 51.1132, "lister_url": "https://www.nestoria.co.uk/detail/0000000111575825358060697/title/5/14-13?serpUid=&pt=1&ot=1&l=somerset&did=105_high1&t_sec=9&t_or=45&t_pvid=null&utm_source=api&utm_medium=external", "listing_type": "buy", "location_accuracy": 9, "longitude": -3.15234, "price": 2250000, "price_currency": "\u00a3", "price_formatted": "\u00a32,250,000", "price_high": 2250000, "price_low": 2250000, "price_type": "fixed", "property_type": "property", "size": 0, "size_type": "net", "summary": "A superb country property, ly restored and extended in an enchantin...", "thumb_height": 60, "thumb_url": "https://imgs.nestimg.com/medium/6_bedroom_equestrian_facility_for_sale_111575825358060697.jpg", "thumb_width": 80, "title": "Aisholt, Bridgwater, Somerset, TA5", "updated_in_days": 25, "updated_in_days_formatted": "first seen 3 weeks ago"}, {"bathroom_number": "", "bedroom_number": 3, "car_spaces": 0, "commission": 0, "construction_year": 0, "datasource_name": "OnTheMarket.com", "img_height": 300, "img_url": "https://imgs.nestimg.com/3_bedroom_detached_house_for_sale_111624985830142804.jpg", "img_width": 400, "keywords": "Detached, Freehold, Conservatory, Garage, Modern, Cul-de-Sac", "latitude": 51.2431, "lister_name": "Greenslade Taylor Hunt", "lister_url": "https://www.nestoria.co.uk/detail/0000000111624985830142804/title/5/14-14?serpUid=&pt=1&ot=1&l=somerset&did=105_high1&t_sec=9&t_or=45&t_pvid=null&utm_source=api&utm_medium=external", "listing_type": "buy", "location_accuracy": 9, "longitude": -2.98313, "price": 265000, "price_currency": "\u00a3", "price_formatted": "\u00a3265,000", "price_high": 265000, "price_low": 265000, "price_type": "fixed", "property_type": "house", "size": 0, "size_type": "net", "summary": "This well presented, 3 bedroom link-detached modern residence is si...", "thumb_height": 60, "thumb_url": "https://imgs.nestimg.com/medium/3_bedroom_detached_house_for_sale_111624985830142804.jpg", "thumb_width": 80, "title": "Meadowcroft Drive, Burnham-on-Sea, Somerset, TA8", "updated_in_days": 17, "updated_in_days_formatted": "first seen 2 weeks ago"}, {"bathroom_number": "", "bedroom_number": 7, "car_spaces": 0, "commission": 0, "construction_year": 0, "datasource_name": "OnTheMarket.com", "img_height": 300, "img_url": "https://imgs.nestimg.com/7_bedroom_terraced_house_for_sale_111662470880942557.jpg", "img_width": 400, "keywords": "Terraced", "latitude": 51.28745, "lister_name": "Savills", "lister_url": "https://www.nestoria.co.uk/detail/0000000111662470880942557/title/5/14-15?serpUid=&pt=1&ot=1&l=somerset&did=105_high1&t_sec=9&t_or=45&t_pvid=null&utm_source=api&utm_medium=external", "listing_type": "buy", "location_accuracy": 9, "longitude": -2.81856, "price": 650000, "price_currency": "\u00a3", "price_formatted": "\u00a3650,000", "price_high": 650000, "price_low": 650000, "price_type": "fixed", "property_type": "house", "size": 0, "size_type": "net", "summary": "An important and period home in the heart of axbridge", "thumb_height": 60, "thumb_url": "https://imgs.nestimg.com/medium/7_bedroom_terraced_house_for_sale_111662470880942557.jpg", "thumb_width": 80, "title": "High Street, Axbridge, Somerset, BS26", "updated_in_days": 6, "updated_in_days_formatted": "first seen 6 days ago"}], "locations": [{"center_lat": 51.080967, "center_long": -3.045432, "long_title": "Somerset, county", "place_name": "somerset", "title": "Somerset"}], "page": 14, "sort": "nestoria_rank", "status_code": "200", "status_text": "OK", "thanks": "For using the Nestoria API.", "total_pages": 410, "total_results": 6149, "_cu5t0mP434m_": "remove"}}