{"request": {"country": "uk", "language": "en", "location": "somerset", "num_res": "15", "offset": 210, "output": "json_xs", "page": 15, "product_type": "realestate", "property_type": "property", "size_type": "net", "size_unit": "m2", "sort": "nestoria_rank", "listing_type": "buy"}, "response": {"application_response_code": "100", "application_response_text": "listings returned for one unambiguous location", "attribution": {"img_height": 22, "img_url": "https://resources.nestimg.com/nestoria/img/pbr_v1.png", "img_width": 183, "link_to_img": "http://www.nestoria.com"}, "created_http": "Tue, 18 Jun 2019 17:28:56 GMT", "created_unix": 1560878936, "link_to_url": "https://www.nestoria.co.uk/somerset/property/buy/15", "listings": [{"bathroom_number": 2, "bedroom_number": 2, "car_spaces": 0, "commission": 0, "construction_year": 0, "datasource_name": "OnTheMarket.com", "img_height": 300, "img_url": "https://imgs.nestimg.com/2_bedroom_detached_bungalow_for_sale_111507739487350238.jpg", "img_width": 400, "keywords": "Detached, Freehold, Double Garage, No Chain, Refurbished, Bungalow", "latitude": 51.2651, "lister_name": "Greenslade Taylor Hunt", "lister_url": "https://www.nestoria.co.uk/detail/0000000111507739487350238/title/5/15-1?serpUid=&pt=1&ot=1&l=somerset&did=105_high1&t_sec=9&t_or=45&t_pvid=null&utm_source=api&utm_medium=external", "listing_type": "buy", "location_accuracy": 9, "longitude": -2.94162, "price": 350000, "price_currency": "\u00a3", "price_formatted": "\u00a3350,000", "price_high": 350000, "price_low": 350000, "price_type": "fixed", "property_type": "house", "size": 0, "size_type": "net", "summary": "This well presented and tastefully refurbished 2 bedroom, 2 bathroo...", "thumb_height": 60, "thumb_url": "https://imgs.nestimg.com/medium/2_bedroom_detached_bungalow_for_sale_111507739487350238.jpg", "thumb_width": 80, "title": "Brent Road, East Brent, Highbridge, Somerset, TA9", "updated_in_days": 36, "updated_in_days_formatted": "first seen over a month ago"}, {"bathroom_number": 2, "bedroom_number": 3, "car_spaces": 0, "commission": 0, "construction_year": 0, "datasource_name": "OnTheMarket.com", "img_height": 300, "img_url": "https://imgs.nestimg.com/3_bedroom_detached_bungalow_for_sale_111618953553578055.jpg", "img_width": 400, "keywords": "Detached, Garden, Double Garage, Bungalow, Reception", "latitude": 50.949, "lister_name": "Greenslade Taylor Hunt", "lister_url": "https://www.nestoria.co.uk/detail/0000000111618953553578055/title/5/15-2?serpUid=&pt=1&ot=1&l=somerset&did=105_high1&t_sec=9&t_or=45&t_pvid=null&utm_source=api&utm_medium=external", "listing_type": "buy", "location_accuracy": 9, "longitude": -2.81125, "price": 565000, "price_currency": "\u00a3", "price_formatted": "\u00a3565,000", "price_high": 565000, "price_low": 565000, "price_type": "fixed", "property_type": "house", "size": 0, "size_type": "net", "summary": "An outstanding and well situated detached bungalow in order through...", "thumb_height": 60, "thumb_url": "https://imgs.nestimg.com/medium/3_bedroom_detached_bungalow_for_sale_111618953553578055.jpg", "thumb_width": 80, "title": "Crown Lane, South Petherton, Somerset, TA13", "updated_in_days": 18, "updated_in_days_formatted": "first seen 2 weeks ago"}, {"bathroom_number": "", "bedroom_number": 3, "car_spaces": 0, "commission": 0, "construction_year": 0, "datasource_name": "OnTheMarket.com", "img_height": 300, "img_url": "https://imgs.nestimg.com/3_bedroom_semi_detached_house_for_sale_111371189087075192.jpg", "img_width": 400, "keywords": "Freehold, Semi-Detached, Conversion", "latitude": 51.1677, "lister_name": "Greenslade Taylor Hunt", "lister_url": "https://www.nestoria.co.uk/detail/0000000111371189087075192/title/5/15-3?serpUid=&pt=1&ot=1&l=somerset&did=105_high1&t_sec=9&t_or=45&t_pvid=null&utm_source=api&utm_medium=external", "listing_type": "buy", "location_accuracy": 9, "longitude": -3.10404, "price": 250000, "price_currency": "\u00a3", "price_formatted": "\u00a3250,000", "price_high": 250000, "price_low": 250000, "price_type": "fixed", "property_type": "house", "size": 0, "size_type": "net", "summary": "A semi-detached, converted former chapel. And modernised accommodat...", "thumb_height": 60, "thumb_url": "https://imgs.nestimg.com/medium/3_bedroom_semi_detached_house_for_sale_111371189087075192.jpg", "thumb_width": 80, "title": "Fiddington, Bridgwater, Somerset, TA5", "updated_in_days": 58, "updated_in_days_formatted": "first seen over a month ago"}, {"bathroom_number": "", "bedroom_number": 5, "car_spaces": 0, "commission": 0, "construction_year": 0, "datasource_name": "OnTheMarket.com", "img_height": 300, "img_url": "https://imgs.nestimg.com/5_bedroom_detached_house_for_sale_111514309009179933.jpg", "img_width": 400, "keywords": "Detached, Grade II, Listed", "latitude": 50.9846, "lister_url": "https://www.nestoria.co.uk/detail/0000000111514309009179933/title/5/15-4?serpUid=&pt=1&ot=1&l=somerset&did=105_high1&t_sec=9&t_or=45&t_pvid=null&utm_source=api&utm_medium=external", "listing_type": "buy", "location_accuracy": 9, "longitude": -3.08971, "price": 850000, "price_currency": "\u00a3", "price_formatted": "\u00a3850,000", "price_high": 850000, "price_low": 850000, "price_type": "fixed", "property_type": "house", "size": 0, "size_type": "net", "summary": "A 16th century grade ii listed farmhouse for renovation together wi...", "thumb_height": 60, "thumb_url": "https://imgs.nestimg.com/medium/5_bedroom_detached_house_for_sale_111514309009179933.jpg", "thumb_width": 80, "title": "Duddlestone Farm, Duddlestone, Taunton, Somerset, TA3", "updated_in_days": 35, "updated_in_days_formatted": "first seen over a month ago"}, {"bathroom_number": "", "bedroom_number": 2, "car_spaces": 0, "commission": 0, "construction_year": 0, "datasource_name": "OnTheMarket.com", "img_height": 300, "img_url": "https://imgs.nestimg.com/2_bedroom_flat_for_sale_111457724525760175.jpg", "img_width": 400, "keywords": "", "latitude": 51.0385, "lister_name": "Newton King", "lister_url": "https://www.nestoria.co.uk/detail/0000000111457724525760175/title/5/15-5?serpUid=&pt=1&ot=1&l=somerset&did=105_high1&t_sec=9&t_or=45&t_pvid=null&utm_source=api&utm_medium=external", "listing_type": "buy", "location_accuracy": 9, "longitude": -3.18777, "price": 124995, "price_currency": "\u00a3", "price_formatted": "\u00a3124,995", "price_high": 124995, "price_low": 124995, "price_type": "fixed", "property_type": "flat", "size": 0, "size_type": "net", "summary": "2 bedroom first floor apartment situated in the heart of cotford st...", "thumb_height": 60, "thumb_url": "https://imgs.nestimg.com/medium/2_bedroom_flat_for_sale_111457724525760175.jpg", "thumb_width": 80, "title": "Grenville View, Cotford St Luke, Somerset", "updated_in_days": 20, "updated_in_days_formatted": "first seen 2 weeks ago"}, {"bathroom_number": "", "bedroom_number": 4, "car_spaces": 0, "commission": 0, "construction_year": 0, "datasource_name": "OnTheMarket.com", "img_height": 300, "img_url": "https://imgs.nestimg.com/4_bedroom_detached_house_for_sale_111587835376655587.jpg", "img_width": 400, "keywords": "Detached, En suite", "latitude": 51.1556, "lister_url": "https://www.nestoria.co.uk/detail/0000000111587835376655587/title/5/15-6?serpUid=&pt=1&ot=1&l=somerset&did=105_high1&t_sec=9&t_or=45&t_pvid=null&utm_source=api&utm_medium=external", "listing_type": "buy", "location_accuracy": 9, "longitude": -3.16005, "price": 325000, "price_currency": "\u00a3", "price_formatted": "\u00a3325,000", "price_high": 325000, "price_low": 325000, "price_type": "fixed", "property_type": "house", "size": 0, "size_type": "net", "summary": "Four bedroom executive detached property situated within the hartle...", "thumb_height": 60, "thumb_url": "https://imgs.nestimg.com/medium/4_bedroom_detached_house_for_sale_111587835376655587.jpg", "thumb_width": 80, "title": "Ferguson Close, Nether Stowey, Somerset, TA5", "updated_in_days": 23, "updated_in_days_formatted": "first seen 3 weeks ago"}, {"bathroom_number": "", "bedroom_number": 4, "car_spaces": 0, "commission": 0, "construction_year": 0, "datasource_name": "OnTheMarket.com", "img_height": 300, "img_url": "https://imgs.nestimg.com/4_bedroom_house_for_sale_111668298272129177.jpg", "img_width": 400, "keywords": "Freehold, Garden", "latitude": 50.9886, "lister_name": "Greenslade Taylor Hunt", "lister_url": "https://www.nestoria.co.uk/detail/0000000111668298272129177/title/5/15-7?serpUid=&pt=1&ot=1&l=somerset&did=105_high1&t_sec=9&t_or=45&t_pvid=null&utm_source=api&utm_medium=external", "listing_type": "buy", "location_accuracy": 9, "longitude": -2.86349, "price": 425000, "price_currency": "\u00a3", "price_formatted": "\u00a3425,000", "price_high": 425000, "price_low": 425000, "price_type": "fixed", "property_type": "house", "size": 0, "size_type": "net", "summary": "Set at the end of a no through lane off the centre of a south somer...", "thumb_height": 60, "thumb_url": "https://imgs.nestimg.com/medium/4_bedroom_house_for_sale_111668298272129177.jpg", "thumb_width": 80, "title": "Hawkers Lane, Hambridge, Langport, Somerset, TA10", "updated_in_days": 10, "updated_in_days_formatted": "first seen last week"}, {"bathroom_number": "", "bedroom_number": 3, "car_spaces": 0, "commission": 0, "construction_year": 0, "datasource_name": "OnTheMarket.com", "img_height": 300, "img_url": "https://imgs.nestimg.com/3_bedroom_terraced_house_for_sale_111656080896061953.jpg", "img_width": 400, "keywords": "Freehold, Garden, Terraced, Victorian", "latitude": 51.2352, "lister_name": "Greenslade Taylor Hunt", "lister_url": "https://www.nestoria.co.uk/detail/0000000111656080896061953/title/5/15-8?serpUid=&pt=1&ot=1&l=somerset&did=105_high1&t_sec=9&t_or=45&t_pvid=null&utm_source=api&utm_medium=external", "listing_type": "buy", "location_accuracy": 9, "longitude": -2.99591, "price": 209000, "price_currency": "\u00a3", "price_formatted": "\u00a3209,000", "price_high": 209000, "price_low": 209000, "price_type": "fixed", "property_type": "house", "size": 0, "size_type": "net", "summary": "This , well presented 3 bedroom victorian terrace house offers good...", "thumb_height": 60, "thumb_url": "https://imgs.nestimg.com/medium/3_bedroom_terraced_house_for_sale_111656080896061953.jpg", "thumb_width": 80, "title": "Summerville Terrace, Burnham-on-Sea, Somerset, TA8", "updated_in_days": 12, "updated_in_days_formatted": "first seen last week"}, {"bathroom_number": "", "bedroom_number": 4, "car_spaces": 0, "commission": 0, "construction_year": 0, "datasource_name": "OnTheMarket.com", "img_height": 300, "img_url": "https://imgs.nestimg.com/4_bedroom_detached_house_for_sale_110964061308746444.jpg", "img_width": 400, "keywords": "Detached, Freehold", "latitude": 51.1476, "lister_name": "Greenslade Taylor Hunt", "lister_url": "https://www.nestoria.co.uk/detail/0000000110964061308746444/title/5/15-9?serpUid=&pt=1&ot=1&l=somerset&did=105_high1&t_sec=9&t_or=45&t_pvid=null&utm_source=api&utm_medium=external", "listing_type": "buy", "location_accuracy": 9, "longitude": -2.98351, "price": 295000, "price_currency": "\u00a3", "price_formatted": "\u00a3295,000", "price_high": 295000, "price_low": 295000, "price_type": "fixed", "property_type": "house", "size": 0, "size_type": "net", "summary": "A well-presented detached residence constructed in 2016 by david wi...", "thumb_height": 60, "thumb_url": "https://imgs.nestimg.com/medium/4_bedroom_detached_house_for_sale_110964061308746444.jpg", "thumb_width": 80, "title": "Regal Walk, Bridgwater, Somerset, TA6", "updated_in_days": 124, "updated_in_days_formatted": "first seen over a month ago"}, {"bathroom_number": "", "bedroom_number": 3, "car_spaces": 0, "commission": 0, "construction_year": 0, "datasource_name": "OnTheMarket.com", "img_height": 300, "img_url": "https://imgs.nestimg.com/3_bedroom_detached_house_for_sale_111118066978582569.jpg", "img_width": 400, "keywords": "Detached, Freehold, Garden, No Chain", "latitude": 51.1501, "lister_name": "Greenslade Taylor Hunt", "lister_url": "https://www.nestoria.co.uk/detail/0000000111118066978582569/title/5/15-10?serpUid=&pt=1&ot=1&l=somerset&did=105_high1&t_sec=9&t_or=45&t_pvid=null&utm_source=api&utm_medium=external", "listing_type": "buy", "location_accuracy": 9, "longitude": -3.16211, "price": 325000, "price_currency": "\u00a3", "price_formatted": "\u00a3325,000", "price_high": 325000, "price_low": 325000, "price_type": "fixed", "property_type": "house", "size": 0, "size_type": "net", "summary": "An extended and modernized detached property which is presented in ...", "thumb_height": 60, "thumb_url": "https://imgs.nestimg.com/medium/3_bedroom_detached_house_for_sale_111118066978582569.jpg", "thumb_width": 80, "title": "Channel Close, Nether Stowey, Bridgwater, Somerset, TA5", "updated_in_days": 99, "updated_in_days_formatted": "first seen over a month ago"}, {"bathroom_number": "", "bedroom_number": 3, "car_spaces": 0, "commission": 0, "construction_year": 0, "datasource_name": "OnTheMarket.com", "img_height": 300, "img_url": "https://imgs.nestimg.com/3_bedroom_detached_house_for_sale_111668297312534491.jpg", "img_width": 400, "keywords": "Detached, Freehold, Garden, Modern", "latitude": 50.928, "lister_name": "Greenslade Taylor Hunt", "lister_url": "https://www.nestoria.co.uk/detail/0000000111668297312534491/title/5/15-11?serpUid=&pt=1&ot=1&l=somerset&did=105_high1&t_sec=9&t_or=45&t_pvid=null&utm_source=api&utm_medium=external", "listing_type": "buy", "location_accuracy": 9, "longitude": -2.92838, "price": 280000, "price_currency": "\u00a3", "price_formatted": "\u00a3280,000", "price_high": 280000, "price_low": 280000, "price_type": "fixed", "property_type": "house", "size": 0, "size_type": "net", "summary": "Benefiting from a size garden and no properties overlooking the rea...", "thumb_height": 60, "thumb_url": "https://imgs.nestimg.com/medium/3_bedroom_detached_house_for_sale_111668297312534491.jpg", "thumb_width": 80, "title": "Swanmead Drive, Ilminster, Somerset, TA19", "updated_in_days": 10, "updated_in_days_formatted": "first seen last week"}, {"bathroom_number": "", "bedroom_number": 5, "car_spaces": 0, "commission": 0, "construction_year": 0, "datasource_name": "OnTheMarket.com", "img_height": 300, "img_url": "https://imgs.nestimg.com/5_bedroom_detached_house_for_sale_109942642082258150.jpg", "img_width": 400, "keywords": "Detached, Garden, Kitchen, Reception", "latitude": 51.0848, "lister_name": "Stags", "lister_url": "https://www.nestoria.co.uk/detail/0000000109942642082258150/title/5/15-12?serpUid=&pt=1&ot=1&l=somerset&did=105_high1&t_sec=9&t_or=45&t_pvid=null&utm_source=api&utm_medium=external", "listing_type": "buy", "location_accuracy": 9, "longitude": -2.8765, "price": 665000, "price_currency": "\u00a3", "price_formatted": "\u00a3665,000", "price_high": 665000, "price_low": 665000, "price_type": "fixed", "property_type": "house", "size": 0, "size_type": "net", "summary": "A period farmhouse with a range of traditional outbuildings and app...", "thumb_height": 60, "thumb_url": "https://imgs.nestimg.com/medium/5_bedroom_detached_house_for_sale_109942642082258150.jpg", "thumb_width": 80, "title": "Othery, Othery, Bridgwater, Somerset, TA7", "updated_in_days": 289, "updated_in_days_formatted": "first seen over a month ago"}, {"bathroom_number": "", "bedroom_number": 4, "car_spaces": 0, "commission": 0, "construction_year": 0, "datasource_name": "OnTheMarket.com", "img_height": 300, "img_url": "https://imgs.nestimg.com/4_bedroom_detached_house_for_sale_111025254825946885.jpg", "img_width": 400, "keywords": "Detached, Garden, Double Bedroom, Garage, Kitchen, Reception", "latitude": 50.9774, "lister_name": "Stags", "lister_url": "https://www.nestoria.co.uk/detail/0000000111025254825946885/title/5/15-13?serpUid=&pt=1&ot=1&l=somerset&did=105_high1&t_sec=9&t_or=45&t_pvid=null&utm_source=api&utm_medium=external", "listing_type": "buy", "location_accuracy": 9, "longitude": -3.17686, "price": 445000, "price_currency": "\u00a3", "price_formatted": "\u00a3445,000", "price_high": 445000, "price_low": 445000, "price_type": "fixed", "property_type": "house", "size": 0, "size_type": "net", "summary": "A four bedroom detached house set within large gardens with ample p...", "thumb_height": 60, "thumb_url": "https://imgs.nestimg.com/medium/4_bedroom_detached_house_for_sale_111025254825946885.jpg", "thumb_width": 80, "title": "West Buckland, Wellington, Somerset, TA21", "updated_in_days": 114, "updated_in_days_formatted": "first seen over a month ago"}, {"bathroom_number": "", "bedroom_number": 4, "car_spaces": 0, "commission": 0, "construction_year": 0, "datasource_name": "OnTheMarket.com", "img_height": 300, "img_url": "https://imgs.nestimg.com/4_bedroom_detached_house_for_sale_109651664256179218.jpg", "img_width": 400, "keywords": "Detached, Garden, En suite, No Chain, Conversion, Detached Garage, Double Bedroom, Bungalow, Modern, Reception", "latitude": 51.0517, "lister_name": "Stags", "lister_url": "https://www.nestoria.co.uk/detail/0000000109651664256179218/title/5/15-14?serpUid=&pt=1&ot=1&l=somerset&did=105_high1&t_sec=9&t_or=45&t_pvid=null&utm_source=api&utm_medium=external", "listing_type": "buy", "location_accuracy": 9, "longitude": -2.67762, "price": 650000, "price_currency": "\u00a3", "price_formatted": "\u00a3650,000", "price_high": 650000, "price_low": 650000, "price_type": "fixed", "property_type": "house", "size": 0, "size_type": "net", "summary": "A single storey barn conversion located in a rural location with vi...", "thumb_height": 60, "thumb_url": "https://imgs.nestimg.com/medium/4_bedroom_detached_house_for_sale_109651664256179218.jpg", "thumb_width": 80, "title": "West Charlton, Charlton Mackrell, Somerton, Somerset, TA11", "updated_in_days": 12, "updated_in_days_formatted": "first seen last week"}, {"bathroom_number": "", "bedroom_number": 5, "car_spaces": 0, "commission": 0, "construction_year": 0, "datasource_name": "OnTheMarket.com", "img_height": 300, "img_url": "https://imgs.nestimg.com/5_bedroom_detached_house_for_sale_111699717779440136.jpg", "img_width": 400, "keywords": "Detached, Modern", "latitude": 51.2337, "lister_name": "Crisp Cowley", "lister_url": "https://www.nestoria.co.uk/detail/0000000111699717779440136/title/5/15-15?serpUid=&pt=1&ot=1&l=somerset&did=105_high1&t_sec=9&t_or=45&t_pvid=null&utm_source=api&utm_medium=external", "listing_type": "buy", "location_accuracy": 9, "longitude": -2.5349, "price": 850000, "price_currency": "\u00a3", "price_formatted": "\u00a3850,000", "price_high": 850000, "price_low": 850000, "price_type": "fixed", "property_type": "house", "size": 0, "size_type": "net", "summary": "A most extraordinary opportunity to acquire a development site with...", "thumb_height": 60, "thumb_url": "https://imgs.nestimg.com/medium/5_bedroom_detached_house_for_sale_111699717779440136.jpg", "thumb_width": 80, "title": "Ashwick, Oakhill, Somerset, BA3", "updated_in_days": 5, "updated_in_days_formatted": "first seen 5 days ago"}], "locations": [{"center_lat": 51.080967, "center_long": -3.045432, "long_title": "Somerset, county", "place_name": "somerset", "title": "Somerset"}], "page": 15, "sort": "nestoria_rank", "status_code": "200", "status_text": "OK", "thanks": "For using the Nestoria API.", "total_pages": 410, "total_results": 6149, "_cu5t0mP434m_": "remove"}}