{"request": {"country": "uk", "language": "en", "location": "somerset", "num_res": "15", "offset": 225, "output": "json_xs", "page": 16, "product_type": "realestate", "property_type": "property", "size_type": "net", "size_unit": "m2", "sort": "nestoria_rank", "listing_type": "buy"}, "response": {"application_response_code": "100", "application_response_text": "listings returned for one unambiguous location", "attribution": {"img_height": 22, "img_url": "https://resources.nestimg.com/nestoria/img/pbr_v1.png", "img_width": 183, "link_to_img": "http://www.nestoria.com"}, "created_http": "Tue, 18 Jun 2019 17:28:57 GMT", "created_unix": 1560878937, "link_to_url": "https://www.nestoria.co.uk/somerset/property/buy/16", "listings": [{"bathroom_number": "", "bedroom_number": 4, "car_spaces": 0, "commission": 0, "construction_year": 0, "datasource_name": "OnTheMarket.com", "img_height": 300, "img_url": "https://imgs.nestimg.com/4_bedroom_detached_house_for_sale_111260124898159647.jpg", "img_width": 400, "keywords": "Detached, Garden, En suite, Double Garage, Conservatory, Kitchen", "latitude": 50.934, "lister_name": "Stags", "lister_url": "https://www.nestoria.co.uk/detail/0000000111260124898159647/title/5/16-1?serpUid=&pt=1&ot=1&l=somerset&did=105_high1&t_sec=9&t_or=45&t_pvid=null&utm_source=api&utm_medium=external", "listing_type": "buy", "location_accuracy": 9, "longitude": -2.96576, "price": 435000, "price_currency": "\u00a3", "price_formatted": "\u00a3435,000", "price_high": 435000, "price_low": 435000, "price_type": "fixed", "property_type": "house", "size": 0, "size_type": "net", "summary": "A well-proportioned four bedroom detached village house with good s...", "thumb_height": 60, "thumb_url": "https://imgs.nestimg.com/medium/4_bedroom_detached_house_for_sale_111260124898159647.jpg", "thumb_width": 80, "title": "Tanyard, Broadway, Ilminster, Somerset, TA19", "updated_in_days": 47, "updated_in_days_formatted": "first seen over a month ago"}, {"bathroom_number": "", "bedroom_number": 1, "car_spaces": 0, "commission": 0, "construction_year": 0, "datasource_name": "OnTheMarket.com", "img_height": 300, "img_url": "https://imgs.nestimg.com/1_bedroom_apartment_for_sale_111569516325815449.jpg", "img_width": 400, "keywords": "Leasehold, Shared Garden, Parking", "latitude": 51.0444, "lister_name": "Greenslade Taylor Hunt", "lister_url": "https://www.nestoria.co.uk/detail/0000000111569516325815449/title/5/16-2?serpUid=&pt=1&ot=1&l=somerset&did=105_high1&t_sec=9&t_or=45&t_pvid=null&utm_source=api&utm_medium=external", "listing_type": "buy", "location_accuracy": 9, "longitude": -2.81755, "price": 115000, "price_currency": "\u00a3", "price_formatted": "\u00a3115,000", "price_high": 115000, "price_low": 115000, "price_type": "fixed", "property_type": "flat", "size": 0, "size_type": "net", "summary": "One bedroom first floor apartment in period country house with allo...", "thumb_height": 60, "thumb_url": "https://imgs.nestimg.com/medium/1_bedroom_apartment_for_sale_111569516325815449.jpg", "thumb_width": 80, "title": "Redwood Grange, Bartletts Elm, Langport, Somerset, TA10", "updated_in_days": 26, "updated_in_days_formatted": "first seen 3 weeks ago"}, {"bathroom_number": "", "bedroom_number": 3, "car_spaces": 0, "commission": 0, "construction_year": 0, "datasource_name": "OnTheMarket.com", "img_height": 300, "img_url": "https://imgs.nestimg.com/3_bedroom_end_of_terrace_house_for_sale_111668299493907441.jpg", "img_width": 400, "keywords": "Garden, No Chain, Fireplace, Terraced, Kitchen, Off Street Parking, Gas Central Heating", "latitude": 50.9525, "lister_url": "https://www.nestoria.co.uk/detail/0000000111668299493907441/title/5/16-3?serpUid=&pt=1&ot=1&l=somerset&did=105_high1&t_sec=9&t_or=45&t_pvid=null&utm_source=api&utm_medium=external", "listing_type": "buy", "location_accuracy": 9, "longitude": -2.75253, "price": 213000, "price_currency": "\u00a3", "price_formatted": "\u00a3213,000", "price_high": 213000, "price_low": 213000, "price_type": "fixed", "property_type": "house", "size": 0, "size_type": "net", "summary": "Three bedroom end of terrace house situated in the sought after vil...", "thumb_height": 60, "thumb_url": "https://imgs.nestimg.com/medium/3_bedroom_end_of_terrace_house_for_sale_111668299493907441.jpg", "thumb_width": 80, "title": "West Street, Stoke-Sub-Hamdon, Somerset, TA14", "updated_in_days": 10, "updated_in_days_formatted": "first seen last week"}, {"bathroom_number": "", "bedroom_number": 4, "car_spaces": 0, "commission": 0, "construction_year": 0, "datasource_name": "OnTheMarket.com", "img_height": 300, "img_url": "https://imgs.nestimg.com/4_bedroom_house_for_sale_111514311125580414.jpg", "img_width": 400, "keywords": "Detached, Freehold, Garden", "latitude": 51.1585, "lister_name": "Greenslade Taylor Hunt", "lister_url": "https://www.nestoria.co.uk/detail/0000000111514311125580414/title/5/16-4?serpUid=&pt=1&ot=1&l=somerset&did=105_high1&t_sec=9&t_or=45&t_pvid=null&utm_source=api&utm_medium=external", "listing_type": "buy", "location_accuracy": 9, "longitude": -2.91944, "price": 685000, "price_currency": "\u00a3", "price_formatted": "\u00a3685,000", "price_high": 685000, "price_low": 685000, "price_type": "fixed", "property_type": "house", "size": 0, "size_type": "net", "summary": "A ly presented detached residence surrounded by gardens and situate...", "thumb_height": 60, "thumb_url": "https://imgs.nestimg.com/medium/4_bedroom_house_for_sale_111514311125580414.jpg", "thumb_width": 80, "title": "Bell Lane, Cossington, Bridgwater, Somerset, TA7", "updated_in_days": 35, "updated_in_days_formatted": "first seen over a month ago"}, {"bathroom_number": "", "bedroom_number": 4, "car_spaces": 0, "commission": 0, "construction_year": 0, "datasource_name": "OnTheMarket.com", "img_height": 300, "img_url": "https://imgs.nestimg.com/4_bedroom_detached_house_for_sale_111266577305792440.jpg", "img_width": 400, "keywords": "Detached, Freehold, Garden, No Chain", "latitude": 51.1874, "lister_name": "Greenslade Taylor Hunt", "lister_url": "https://www.nestoria.co.uk/detail/0000000111266577305792440/title/5/16-5?serpUid=&pt=1&ot=1&l=somerset&did=105_high1&t_sec=9&t_or=45&t_pvid=null&utm_source=api&utm_medium=external", "listing_type": "buy", "location_accuracy": 9, "longitude": -3.08334, "price": 450000, "price_currency": "\u00a3", "price_formatted": "\u00a3450,000", "price_high": 450000, "price_low": 450000, "price_type": "fixed", "property_type": "house", "size": 0, "size_type": "net", "summary": "A detached house which was built to a high specification in 2014 an...", "thumb_height": 60, "thumb_url": "https://imgs.nestimg.com/medium/4_bedroom_detached_house_for_sale_111266577305792440.jpg", "thumb_width": 80, "title": "Stockland Bristol, Bridgwater, Somerset, TA5", "updated_in_days": 75, "updated_in_days_formatted": "first seen over a month ago"}, {"bathroom_number": "", "bedroom_number": 4, "car_spaces": 0, "commission": 0, "construction_year": 0, "datasource_name": "OnTheMarket.com", "img_height": 300, "img_url": "https://imgs.nestimg.com/4_bedroom_detached_house_for_sale_111247955059904700.jpg", "img_width": 400, "keywords": "Detached, Freehold, Garden, Refurbished, Garage", "latitude": 51.0237, "lister_name": "Greenslade Taylor Hunt", "lister_url": "https://www.nestoria.co.uk/detail/0000000111247955059904700/title/5/16-6?serpUid=&pt=1&ot=1&l=somerset&did=105_high1&t_sec=9&t_or=45&t_pvid=null&utm_source=api&utm_medium=external", "listing_type": "buy", "location_accuracy": 9, "longitude": -2.86169, "price": 295000, "price_currency": "\u00a3", "price_formatted": "\u00a3295,000", "price_high": 295000, "price_low": 295000, "price_type": "fixed", "property_type": "house", "size": 0, "size_type": "net", "summary": "A refurbished four bedroom detached house with garage, parking and ...", "thumb_height": 60, "thumb_url": "https://imgs.nestimg.com/medium/4_bedroom_detached_house_for_sale_111247955059904700.jpg", "thumb_width": 80, "title": "Abbey Close, Curry Rivel, Langport, Somerset, TA10", "updated_in_days": 78, "updated_in_days_formatted": "first seen over a month ago"}, {"bathroom_number": "", "bedroom_number": 2, "car_spaces": 0, "commission": 0, "construction_year": 0, "datasource_name": "OnTheMarket.com", "img_height": 300, "img_url": "https://imgs.nestimg.com/2_bedroom_semi_detached_house_for_sale_111544380707902003.jpg", "img_width": 400, "keywords": "Garden, Semi-Detached, Grade II, Terraced, Double Bedroom, Kitchen, Georgian, Listed", "latitude": 50.9764, "lister_name": "Stags", "lister_url": "https://www.nestoria.co.uk/detail/0000000111544380707902003/title/5/16-7?serpUid=&pt=1&ot=1&l=somerset&did=105_high1&t_sec=9&t_or=45&t_pvid=null&utm_source=api&utm_medium=external", "listing_type": "buy", "location_accuracy": 9, "longitude": -3.25309, "price": 300000, "price_currency": "\u00a3", "price_formatted": "\u00a3300,000", "price_high": 300000, "price_low": 300000, "price_type": "fixed", "property_type": "house", "size": 0, "size_type": "net", "summary": "A ly appointed grade ii listed georgian house with terraced gardens...", "thumb_height": 60, "thumb_url": "https://imgs.nestimg.com/medium/2_bedroom_semi_detached_house_for_sale_111544380707902003.jpg", "thumb_width": 80, "title": "Westford Court, Wellington, Somerset, TA21", "updated_in_days": 30, "updated_in_days_formatted": "first seen over a month ago"}, {"bathroom_number": "", "bedroom_number": 8, "car_spaces": 0, "commission": 0, "construction_year": 0, "datasource_name": "OnTheMarket.com", "img_height": 300, "img_url": "https://imgs.nestimg.com/8_bedroom_house_for_sale_111204813412249105.jpg", "img_width": 400, "keywords": "Detached, Freehold, Garden", "latitude": 51.1874, "lister_name": "Greenslade Taylor Hunt", "lister_url": "https://www.nestoria.co.uk/detail/0000000111204813412249105/title/5/16-8?serpUid=&pt=1&ot=1&l=somerset&did=105_high1&t_sec=9&t_or=45&t_pvid=null&utm_source=api&utm_medium=external", "listing_type": "buy", "location_accuracy": 9, "longitude": -3.08334, "price": 650000, "price_currency": "\u00a3", "price_formatted": "\u00a3650,000", "price_high": 650000, "price_low": 650000, "price_type": "fixed", "property_type": "house", "size": 0, "size_type": "net", "summary": "A detached period house with large gardens, outbuildings and situat...", "thumb_height": 60, "thumb_url": "https://imgs.nestimg.com/medium/8_bedroom_house_for_sale_111204813412249105.jpg", "thumb_width": 80, "title": "Stockland Bristol, Bridgwater, Somerset, TA5", "updated_in_days": 85, "updated_in_days_formatted": "first seen over a month ago"}, {"bathroom_number": "", "bedroom_number": 4, "car_spaces": 0, "commission": 0, "construction_year": 0, "datasource_name": "OnTheMarket.com", "img_height": 300, "img_url": "https://imgs.nestimg.com/4_bedroom_detached_house_for_sale_111402754800134439.jpg", "img_width": 400, "keywords": "Detached, Garden", "latitude": 51.1124, "lister_url": "https://www.nestoria.co.uk/detail/0000000111402754800134439/title/5/16-9?serpUid=&pt=1&ot=1&l=somerset&did=105_high1&t_sec=9&t_or=45&t_pvid=null&utm_source=api&utm_medium=external", "listing_type": "buy", "location_accuracy": 9, "longitude": -3.20762, "price": 750000, "price_currency": "\u00a3", "price_formatted": "\u00a3750,000", "price_high": 750000, "price_low": 750000, "price_type": "fixed", "property_type": "house", "size": 0, "size_type": "net", "summary": "A ly situated country property set within ly stocked gardens on the...", "thumb_height": 60, "thumb_url": "https://imgs.nestimg.com/medium/4_bedroom_detached_house_for_sale_111402754800134439.jpg", "thumb_width": 80, "title": "Triscombe, Bishops Lydeard, Taunton, Somerset, TA4", "updated_in_days": 27, "updated_in_days_formatted": "first seen 3 weeks ago"}, {"bathroom_number": "", "bedroom_number": 3, "car_spaces": 0, "commission": 0, "construction_year": 0, "datasource_name": "OnTheMarket.com", "img_height": 300, "img_url": "https://imgs.nestimg.com/3_bedroom_semi_detached_house_for_sale_111427151450450853.jpg", "img_width": 400, "keywords": "Semi-Detached, Bungalow", "latitude": 51.0405, "lister_name": "Greenslade Taylor Hunt", "lister_url": "https://www.nestoria.co.uk/detail/0000000111427151450450853/title/5/16-10?serpUid=&pt=1&ot=1&l=somerset&did=105_high1&t_sec=9&t_or=45&t_pvid=null&utm_source=api&utm_medium=external", "listing_type": "buy", "location_accuracy": 9, "longitude": -3.18289, "price": 230000, "price_currency": "\u00a3", "price_formatted": "\u00a3230,000", "price_high": 230000, "price_low": 230000, "price_type": "fixed", "property_type": "house", "size": 0, "size_type": "net", "summary": "Now launchedquantock view, cotford st luke, coming soon! A select a...", "thumb_height": 60, "thumb_url": "https://imgs.nestimg.com/medium/3_bedroom_semi_detached_house_for_sale_111427151450450853.jpg", "thumb_width": 80, "title": "Quantock View, Cotford St. Luke, Taunton, Somerset, TA4", "updated_in_days": 49, "updated_in_days_formatted": "first seen over a month ago"}, {"bathroom_number": "", "bedroom_number": 2, "car_spaces": 0, "commission": 0, "construction_year": 0, "datasource_name": "OnTheMarket.com", "img_height": 300, "img_url": "https://imgs.nestimg.com/2_bedroom_detached_bungalow_for_sale_111681015066845761.jpg", "img_width": 400, "keywords": "Detached, Freehold, Garden, Terraced, Bungalow", "latitude": 51.1793, "lister_url": "https://www.nestoria.co.uk/detail/0000000111681015066845761/title/5/16-11?serpUid=&pt=1&ot=1&l=somerset&did=105_high1&t_sec=9&t_or=45&t_pvid=null&utm_source=api&utm_medium=external", "listing_type": "buy", "location_accuracy": 9, "longitude": -3.33107, "price": 215000, "price_currency": "\u00a3", "price_formatted": "\u00a3215,000", "price_high": 215000, "price_low": 215000, "price_type": "fixed", "property_type": "house", "size": 0, "size_type": "net", "summary": "A ly presented two bedroom bungalow with a large terraced garden fr...", "thumb_height": 60, "thumb_url": "https://imgs.nestimg.com/medium/2_bedroom_detached_bungalow_for_sale_111681015066845761.jpg", "thumb_width": 80, "title": "Brendon Road, Watchet, Somerset, TA23", "updated_in_days": 8, "updated_in_days_formatted": "first seen last week"}, {"bathroom_number": "", "bedroom_number": 4, "car_spaces": 0, "commission": 0, "construction_year": 0, "datasource_name": "OnTheMarket.com", "img_height": 300, "img_url": "https://imgs.nestimg.com/4_bedroom_bungalow_for_sale_110066357588391669.jpg", "img_width": 400, "keywords": "Garden, Semi-Detached, En suite, Grade II, Conversion, Kitchen, Parking, Listed", "latitude": 51.0049, "lister_name": "Stags", "lister_url": "https://www.nestoria.co.uk/detail/0000000110066357588391669/title/5/16-12?serpUid=&pt=1&ot=1&l=somerset&did=105_high1&t_sec=9&t_or=45&t_pvid=null&utm_source=api&utm_medium=external", "listing_type": "buy", "location_accuracy": 9, "longitude": -3.26361, "price": 595000, "price_currency": "\u00a3", "price_formatted": "\u00a3595,000", "price_high": 595000, "price_low": 595000, "price_type": "fixed", "property_type": "house", "size": 0, "size_type": "net", "summary": "Grade ii listed four bedroom barn conversion with large private gar...", "thumb_height": 60, "thumb_url": "https://imgs.nestimg.com/medium/4_bedroom_bungalow_for_sale_110066357588391669.jpg", "thumb_width": 80, "title": "Middle Chipley, Langford Budville, Wellington, Somerset, TA21", "updated_in_days": 269, "updated_in_days_formatted": "first seen over a month ago"}, {"bathroom_number": "", "bedroom_number": 2, "car_spaces": 0, "commission": 0, "construction_year": 0, "datasource_name": "OnTheMarket.com", "img_height": 300, "img_url": "https://imgs.nestimg.com/2_bedroom_semi_detached_house_for_sale_110734605075111715.jpg", "img_width": 400, "keywords": "Freehold, Garden, Semi-Detached, Double Bedroom, Parking, Cottage", "latitude": 51.036, "lister_name": "Greenslade Taylor Hunt", "lister_url": "https://www.nestoria.co.uk/detail/0000000110734605075111715/title/5/16-13?serpUid=&pt=1&ot=1&l=somerset&did=105_high1&t_sec=9&t_or=45&t_pvid=null&utm_source=api&utm_medium=external", "listing_type": "buy", "location_accuracy": 9, "longitude": -2.8363, "price": 205000, "price_currency": "\u00a3", "price_formatted": "\u00a3205,000", "price_high": 205000, "price_low": 205000, "price_type": "fixed", "property_type": "house", "size": 0, "size_type": "net", "summary": "A two double bedroom semi-detached cottage with parking and enclose...", "thumb_height": 60, "thumb_url": "https://imgs.nestimg.com/medium/2_bedroom_semi_detached_house_for_sale_110734605075111715.jpg", "thumb_width": 80, "title": "Westover, Langport, Somerset, TA10", "updated_in_days": 161, "updated_in_days_formatted": "first seen over a month ago"}, {"bathroom_number": "", "bedroom_number": 2, "car_spaces": 0, "commission": 0, "construction_year": 0, "datasource_name": "OnTheMarket.com", "img_height": 300, "img_url": "https://imgs.nestimg.com/2_bedroom_detached_bungalow_for_sale_111624988750938007.jpg", "img_width": 400, "keywords": "Detached, Freehold, Garden, No Chain, Bungalow, Parking", "latitude": 51.2472, "lister_name": "Greenslade Taylor Hunt", "lister_url": "https://www.nestoria.co.uk/detail/0000000111624988750938007/title/5/16-14?serpUid=&pt=1&ot=1&l=somerset&did=105_high1&t_sec=9&t_or=45&t_pvid=null&utm_source=api&utm_medium=external", "listing_type": "buy", "location_accuracy": 9, "longitude": -2.99206, "price": 246500, "price_currency": "\u00a3", "price_formatted": "\u00a3246,500", "price_high": 246500, "price_low": 246500, "price_type": "fixed", "property_type": "house", "size": 0, "size_type": "net", "summary": "This 2 bedroom well presented detached bungalow occupies an corner ...", "thumb_height": 60, "thumb_url": "https://imgs.nestimg.com/medium/2_bedroom_detached_bungalow_for_sale_111624988750938007.jpg", "thumb_width": 80, "title": "Caernarvon Way, Burnham-on-Sea, Somerset, TA8", "updated_in_days": 17, "updated_in_days_formatted": "first seen 2 weeks ago"}, {"bathroom_number": "", "bedroom_number": 5, "car_spaces": 0, "commission": 0, "construction_year": 0, "datasource_name": "OnTheMarket.com", "img_height": 300, "img_url": "https://imgs.nestimg.com/5_bedroom_detached_house_for_sale_111402762514142621.jpg", "img_width": 400, "keywords": "Detached, Freehold, Garden, No Chain, Garage, Modern", "latitude": 51.2381, "lister_name": "Greenslade Taylor Hunt", "lister_url": "https://www.nestoria.co.uk/detail/0000000111402762514142621/title/5/16-15?serpUid=&pt=1&ot=1&l=somerset&did=105_high1&t_sec=9&t_or=45&t_pvid=null&utm_source=api&utm_medium=external", "listing_type": "buy", "location_accuracy": 9, "longitude": -2.99295, "price": 289950, "price_currency": "\u00a3", "price_formatted": "\u00a3289,950", "price_high": 289950, "price_low": 289950, "price_type": "fixed", "property_type": "house", "size": 0, "size_type": "net", "summary": "This modern extended 4/5 bedroom detached house offers family accom...", "thumb_height": 60, "thumb_url": "https://imgs.nestimg.com/medium/5_bedroom_detached_house_for_sale_111402762514142621.jpg", "thumb_width": 80, "title": "Love Lane, Burnham-on-Sea, Somerset, TA8", "updated_in_days": 53, "updated_in_days_formatted": "first seen over a month ago"}], "locations": [{"center_lat": 51.080967, "center_long": -3.045432, "long_title": "Somerset, county", "place_name": "somerset", "title": "Somerset"}], "page": 16, "sort": "nestoria_rank", "status_code": "200", "status_text": "OK", "thanks": "For using the Nestoria API.", "total_pages": 410, "total_results": 6149, "_cu5t0mP434m_": "remove"}}