{"request": {"country": "uk", "language": "en", "location": "somerset", "num_res": "15", "offset": 240, "output": "json_xs", "page": 17, "product_type": "realestate", "property_type": "property", "size_type": "net", "size_unit": "m2", "sort": "nestoria_rank", "listing_type": "buy"}, "response": {"application_response_code": "100", "application_response_text": "listings returned for one unambiguous location", "attribution": {"img_height": 22, "img_url": "https://resources.nestimg.com/nestoria/img/pbr_v1.png", "img_width": 183, "link_to_img": "http://www.nestoria.com"}, "created_http": "Tue, 18 Jun 2019 17:28:59 GMT", "created_unix": 1560878939, "link_to_url": "https://www.nestoria.co.uk/somerset/property/buy/17", "listings": [{"bathroom_number": "", "bedroom_number": 2, "car_spaces": 0, "commission": 0, "construction_year": 0, "datasource_name": "OnTheMarket.com", "img_height": 300, "img_url": "https://imgs.nestimg.com/2_bedroom_semi_detached_house_for_sale_111440830248590841.jpg", "img_width": 400, "keywords": "Garden, Semi-Detached, Fireplace, Terraced, Kitchen, Cottage", "latitude": 50.9491, "lister_name": "Stags", "lister_url": "https://www.nestoria.co.uk/detail/0000000111440830248590841/title/5/17-1?serpUid=&pt=1&ot=1&l=somerset&did=105_high1&t_sec=9&t_or=45&t_pvid=null&utm_source=api&utm_medium=external", "listing_type": "buy", "location_accuracy": 9, "longitude": -2.85124, "price": 199950, "price_currency": "\u00a3", "price_formatted": "\u00a3199,950", "price_high": 199950, "price_low": 199950, "price_type": "fixed", "property_type": "house", "size": 0, "size_type": "net", "summary": "A terraced hamstone cottage within the heart of shepton beauchamp. ...", "thumb_height": 60, "thumb_url": "https://imgs.nestimg.com/medium/2_bedroom_semi_detached_house_for_sale_111440830248590841.jpg", "thumb_width": 80, "title": "Middle Street, Shepton Beauchamp, Somerset, TA19", "updated_in_days": 14, "updated_in_days_formatted": "first seen 2 weeks ago"}, {"bathroom_number": "", "bedroom_number": 3, "car_spaces": 0, "commission": 0, "construction_year": 0, "datasource_name": "OnTheMarket.com", "img_height": 300, "img_url": "https://imgs.nestimg.com/3_bedroom_detached_house_for_sale_111656077285535234.jpg", "img_width": 400, "keywords": "Detached, Freehold", "latitude": 50.9547, "lister_name": "Greenslade Taylor Hunt", "lister_url": "https://www.nestoria.co.uk/detail/0000000111656077285535234/title/5/17-2?serpUid=&pt=1&ot=1&l=somerset&did=105_high1&t_sec=9&t_or=45&t_pvid=null&utm_source=api&utm_medium=external", "listing_type": "buy", "location_accuracy": 9, "longitude": -2.92316, "price": 280000, "price_currency": "\u00a3", "price_formatted": "\u00a3280,000", "price_high": 280000, "price_low": 280000, "price_type": "fixed", "property_type": "house", "size": 0, "size_type": "net", "summary": "A sized and well maintained 3 bedroom detached house situated in th...", "thumb_height": 60, "thumb_url": "https://imgs.nestimg.com/medium/3_bedroom_detached_house_for_sale_111656077285535234.jpg", "thumb_width": 80, "title": "Hill View Close Ilton, Illminster, Somerset, TA19", "updated_in_days": 12, "updated_in_days_formatted": "first seen last week"}, {"bathroom_number": "", "bedroom_number": 5, "car_spaces": 0, "commission": 0, "construction_year": 0, "datasource_name": "OnTheMarket.com", "img_height": 300, "img_url": "https://imgs.nestimg.com/5_bedroom_detached_house_for_sale_111569510940013223.jpg", "img_width": 400, "keywords": "Detached, Garden, Grade II, Listed", "latitude": 50.9545, "lister_url": "https://www.nestoria.co.uk/detail/0000000111569510940013223/title/5/17-3?serpUid=&pt=1&ot=1&l=somerset&did=105_high1&t_sec=9&t_or=45&t_pvid=null&utm_source=api&utm_medium=external", "listing_type": "buy", "location_accuracy": 9, "longitude": -2.90408, "price": 775000, "price_currency": "\u00a3", "price_formatted": "\u00a3775,000", "price_high": 775000, "price_low": 775000, "price_type": "fixed", "property_type": "house", "size": 0, "size_type": "net", "summary": "A period house, grade ii listed set in enchanting gardens. In all a...", "thumb_height": 60, "thumb_url": "https://imgs.nestimg.com/medium/5_bedroom_detached_house_for_sale_111569510940013223.jpg", "thumb_width": 80, "title": "Ilford, Ilminster, Somerset, TA19", "updated_in_days": 26, "updated_in_days_formatted": "first seen 3 weeks ago"}, {"bathroom_number": "", "bedroom_number": 3, "car_spaces": 0, "commission": 0, "construction_year": 0, "datasource_name": "OnTheMarket.com", "img_height": 300, "img_url": "https://imgs.nestimg.com/3_bedroom_detached_house_for_sale_111445545847813348.jpg", "img_width": 400, "keywords": "Detached, Garden, En suite, Double Garage, Kitchen", "latitude": 50.9336, "lister_name": "Stags", "lister_url": "https://www.nestoria.co.uk/detail/0000000111445545847813348/title/5/17-4?serpUid=&pt=1&ot=1&l=somerset&did=105_high1&t_sec=9&t_or=45&t_pvid=null&utm_source=api&utm_medium=external", "listing_type": "buy", "location_accuracy": 9, "longitude": -2.9681, "price": 485000, "price_currency": "\u00a3", "price_formatted": "\u00a3485,000", "price_high": 485000, "price_low": 485000, "price_type": "fixed", "property_type": "house", "size": 0, "size_type": "net", "summary": "A , individually designed hamstone house with landscaped gardens an...", "thumb_height": 60, "thumb_url": "https://imgs.nestimg.com/medium/3_bedroom_detached_house_for_sale_111445545847813348.jpg", "thumb_width": 80, "title": "Goose Lane, Broadway, Ilminster, Somerset, TA19", "updated_in_days": 46, "updated_in_days_formatted": "first seen over a month ago"}, {"bathroom_number": "", "bedroom_number": 7, "car_spaces": 0, "commission": 0, "construction_year": 0, "datasource_name": "OnTheMarket.com", "img_height": 300, "img_url": "https://imgs.nestimg.com/7_bedroom_detached_house_for_sale_111192285570902269.jpg", "img_width": 400, "keywords": "Detached", "latitude": 50.9989, "lister_url": "https://www.nestoria.co.uk/detail/0000000111192285570902269/title/5/17-5?serpUid=&pt=1&ot=1&l=somerset&did=105_high1&t_sec=9&t_or=45&t_pvid=null&utm_source=api&utm_medium=external", "listing_type": "buy", "location_accuracy": 9, "longitude": -3.11821, "price": 695000, "price_currency": "\u00a3", "price_formatted": "\u00a3695,000", "price_high": 695000, "price_low": 695000, "price_type": "fixed", "property_type": "house", "size": 0, "size_type": "net", "summary": "A peacefully situated contemporary house with a two bedroom annexe ...", "thumb_height": 60, "thumb_url": "https://imgs.nestimg.com/medium/7_bedroom_detached_house_for_sale_111192285570902269.jpg", "thumb_width": 80, "title": "Wild Oak Lane, Trull, Taunton, Somerset, TA3", "updated_in_days": 68, "updated_in_days_formatted": "first seen over a month ago"}, {"bathroom_number": "", "bedroom_number": 3, "car_spaces": 0, "commission": 0, "construction_year": 0, "datasource_name": "OnTheMarket.com", "img_height": 300, "img_url": "https://imgs.nestimg.com/3_bedroom_detached_house_for_sale_111699717085017321.jpg", "img_width": 400, "keywords": "Detached, Garden, Fireplace, Parking, Cottage", "latitude": 51.0537, "lister_url": "https://www.nestoria.co.uk/detail/0000000111699717085017321/title/5/17-6?serpUid=&pt=1&ot=1&l=somerset&did=105_high1&t_sec=9&t_or=45&t_pvid=null&utm_source=api&utm_medium=external", "listing_type": "buy", "location_accuracy": 9, "longitude": -2.40169, "price": 280000, "price_currency": "\u00a3", "price_formatted": "\u00a3280,000", "price_high": 280000, "price_low": 280000, "price_type": "fixed", "property_type": "house", "size": 0, "size_type": "net", "summary": "An individual and three bedroom detached period cottage situated on...", "thumb_height": 60, "thumb_url": "https://imgs.nestimg.com/medium/3_bedroom_detached_house_for_sale_111699717085017321.jpg", "thumb_width": 80, "title": "Wincanton, Somerset, BA9 - Fireplace", "updated_in_days": 5, "updated_in_days_formatted": "first seen 5 days ago"}, {"bathroom_number": "", "bedroom_number": 5, "car_spaces": 0, "commission": 0, "construction_year": 0, "datasource_name": "OnTheMarket.com", "img_height": 300, "img_url": "https://imgs.nestimg.com/5_bedroom_detached_house_for_sale_111489637637249409.jpg", "img_width": 400, "keywords": "Detached, Freehold, Garden, Parking", "latitude": 51.0241, "lister_name": "Greenslade Taylor Hunt", "lister_url": "https://www.nestoria.co.uk/detail/0000000111489637637249409/title/5/17-7?serpUid=&pt=1&ot=1&l=somerset&did=105_high1&t_sec=9&t_or=45&t_pvid=null&utm_source=api&utm_medium=external", "listing_type": "buy", "location_accuracy": 9, "longitude": -2.86455, "price": 445000, "price_currency": "\u00a3", "price_formatted": "\u00a3445,000", "price_high": 445000, "price_low": 445000, "price_type": "fixed", "property_type": "house", "size": 0, "size_type": "net", "summary": "A ly practical 5 bedroom home with garden and ample parking. Freehold", "thumb_height": 60, "thumb_url": "https://imgs.nestimg.com/medium/5_bedroom_detached_house_for_sale_111489637637249409.jpg", "thumb_width": 80, "title": "Bell Orchard, Curry Rivel, Langport, Somerset, TA10", "updated_in_days": 39, "updated_in_days_formatted": "first seen over a month ago"}, {"bathroom_number": "", "bedroom_number": 3, "car_spaces": 0, "commission": 0, "construction_year": 0, "datasource_name": "OnTheMarket.com", "img_height": 300, "img_url": "https://imgs.nestimg.com/3_bedroom_detached_bungalow_for_sale_110778416817526322.jpg", "img_width": 400, "keywords": "Detached, Freehold, Bungalow, Modern, Cul-de-Sac", "latitude": 51.026, "lister_name": "Greenslade Taylor Hunt", "lister_url": "https://www.nestoria.co.uk/detail/0000000110778416817526322/title/5/17-8?serpUid=&pt=1&ot=1&l=somerset&did=105_high1&t_sec=9&t_or=45&t_pvid=null&utm_source=api&utm_medium=external", "listing_type": "buy", "location_accuracy": 9, "longitude": -2.8622, "price": 270000, "price_currency": "\u00a3", "price_formatted": "\u00a3270,000", "price_high": 270000, "price_low": 270000, "price_type": "fixed", "property_type": "house", "size": 0, "size_type": "net", "summary": "A modern three bedroom detached bungalow situated in a cul-de-sac o...", "thumb_height": 60, "thumb_url": "https://imgs.nestimg.com/medium/3_bedroom_detached_bungalow_for_sale_110778416817526322.jpg", "thumb_width": 80, "title": "Stanchester Way, Curry Rivel, Langport, Somerset, TA10", "updated_in_days": 75, "updated_in_days_formatted": "first seen over a month ago"}, {"bathroom_number": "", "bedroom_number": 3, "car_spaces": 0, "commission": 0, "construction_year": 0, "datasource_name": "OnTheMarket.com", "img_height": 300, "img_url": "https://imgs.nestimg.com/3_bedroom_detached_house_for_sale_111457721400032969.jpg", "img_width": 400, "keywords": "Detached, Garden, Detached Garage, Cottage", "latitude": 50.9094, "lister_name": "Stags", "lister_url": "https://www.nestoria.co.uk/detail/0000000111457721400032969/title/5/17-9?serpUid=&pt=1&ot=1&l=somerset&did=105_high1&t_sec=9&t_or=45&t_pvid=null&utm_source=api&utm_medium=external", "listing_type": "buy", "location_accuracy": 9, "longitude": -3.00128, "price": 565000, "price_currency": "\u00a3", "price_formatted": "\u00a3565,000", "price_high": 565000, "price_low": 565000, "price_type": "fixed", "property_type": "house", "size": 0, "size_type": "net", "summary": "A ly renovated cottage nestled in the blackdown hills with 1.35 acr...", "thumb_height": 60, "thumb_url": "https://imgs.nestimg.com/medium/3_bedroom_detached_house_for_sale_111457721400032969.jpg", "thumb_width": 80, "title": "Combe St Nicholas, Chard, Somerset, TA20", "updated_in_days": 17, "updated_in_days_formatted": "first seen 2 weeks ago"}, {"bathroom_number": "", "bedroom_number": 4, "car_spaces": 0, "commission": 0, "construction_year": 0, "datasource_name": "OnTheMarket.com", "img_height": 300, "img_url": "https://imgs.nestimg.com/4_bedroom_detached_house_for_sale_111662470890497224.jpg", "img_width": 400, "keywords": "Detached, Garden, No Chain, Garage, Modern", "latitude": 51.179276, "lister_name": "Wilkie May & Tuckwood", "lister_url": "https://www.nestoria.co.uk/detail/0000000111662470890497224/title/5/17-10?serpUid=&pt=1&ot=1&l=somerset&did=105_high1&t_sec=9&t_or=45&t_pvid=null&utm_source=api&utm_medium=external", "listing_type": "buy", "location_accuracy": 9, "longitude": -3.318947, "price": 350000, "price_currency": "\u00a3", "price_formatted": "\u00a3350,000", "price_high": 350000, "price_low": 350000, "price_type": "fixed", "property_type": "house", "size": 0, "size_type": "net", "summary": "No onward chain at only one year old this modern and 4 bedroom deta...", "thumb_height": 60, "thumb_url": "https://imgs.nestimg.com/medium/4_bedroom_detached_house_for_sale_111662470890497224.jpg", "thumb_width": 80, "title": "Helwell Street, Watchet, Somerset TA23", "updated_in_days": 11, "updated_in_days_formatted": "first seen last week"}, {"bathroom_number": "", "bedroom_number": 2, "car_spaces": 0, "commission": 0, "construction_year": 0, "datasource_name": "OnTheMarket.com", "img_height": 300, "img_url": "https://imgs.nestimg.com/2_bedroom_apartment_for_sale_111569518645728485.jpg", "img_width": 400, "keywords": "Leasehold, Shared Garden, Parking", "latitude": 51.0437, "lister_name": "Greenslade Taylor Hunt", "lister_url": "https://www.nestoria.co.uk/detail/0000000111569518645728485/title/5/17-11?serpUid=&pt=1&ot=1&l=somerset&did=105_high1&t_sec=9&t_or=45&t_pvid=null&utm_source=api&utm_medium=external", "listing_type": "buy", "location_accuracy": 9, "longitude": -2.8167, "price": 130000, "price_currency": "\u00a3", "price_formatted": "\u00a3130,000", "price_high": 130000, "price_low": 130000, "price_type": "fixed", "property_type": "flat", "size": 0, "size_type": "net", "summary": "Two bedroom ground floor apartment with private parking space and u...", "thumb_height": 60, "thumb_url": "https://imgs.nestimg.com/medium/2_bedroom_apartment_for_sale_111569518645728485.jpg", "thumb_width": 80, "title": "Bartletts Elm, Langport, Somerset, TA10", "updated_in_days": 26, "updated_in_days_formatted": "first seen 3 weeks ago"}, {"bathroom_number": "", "bedroom_number": 2, "car_spaces": 0, "commission": 0, "construction_year": 0, "datasource_name": "OnTheMarket.com", "img_height": 300, "img_url": "https://imgs.nestimg.com/2_bedroom_detached_bungalow_for_sale_111507739131486521.jpg", "img_width": 400, "keywords": "Detached, Freehold, Garden, Bungalow", "latitude": 51.0298, "lister_name": "Greenslade Taylor Hunt", "lister_url": "https://www.nestoria.co.uk/detail/0000000111507739131486521/title/5/17-12?serpUid=&pt=1&ot=1&l=somerset&did=105_high1&t_sec=9&t_or=45&t_pvid=null&utm_source=api&utm_medium=external", "listing_type": "buy", "location_accuracy": 9, "longitude": -3.23608, "price": 235000, "price_currency": "\u00a3", "price_formatted": "\u00a3235,000", "price_high": 235000, "price_low": 235000, "price_type": "fixed", "property_type": "house", "size": 0, "size_type": "net", "summary": "A detached holiday home with well appointed two bedroom living acco...", "thumb_height": 60, "thumb_url": "https://imgs.nestimg.com/medium/2_bedroom_detached_bungalow_for_sale_111507739131486521.jpg", "thumb_width": 80, "title": "Preston Bowyer, Milverton, Taunton, Somerset, TA4", "updated_in_days": 36, "updated_in_days_formatted": "first seen over a month ago"}, {"bathroom_number": "", "bedroom_number": 4, "car_spaces": 0, "commission": 0, "construction_year": 0, "datasource_name": "OnTheMarket.com", "img_height": 300, "img_url": "https://imgs.nestimg.com/4_bedroom_detached_house_for_sale_111662469202842193.jpg", "img_width": 400, "keywords": "Detached, Modern", "latitude": 51.2315, "lister_url": "https://www.nestoria.co.uk/detail/0000000111662469202842193/title/5/17-13?serpUid=&pt=1&ot=1&l=somerset&did=105_high1&t_sec=9&t_or=45&t_pvid=null&utm_source=api&utm_medium=external", "listing_type": "buy", "location_accuracy": 9, "longitude": -2.98535, "price": 375000, "price_currency": "\u00a3", "price_formatted": "\u00a3375,000", "price_high": 375000, "price_low": 375000, "price_type": "fixed", "property_type": "house", "size": 0, "size_type": "net", "summary": "This well presented, detached modern family home is within walking ...", "thumb_height": 60, "thumb_url": "https://imgs.nestimg.com/medium/4_bedroom_detached_house_for_sale_111662469202842193.jpg", "thumb_width": 80, "title": "2 Aldwych Close, BURNHAM-ON-SEA, Somerset", "updated_in_days": 11, "updated_in_days_formatted": "first seen last week"}, {"bathroom_number": "", "bedroom_number": 3, "car_spaces": 0, "commission": 0, "construction_year": 0, "datasource_name": "OnTheMarket.com", "img_height": 300, "img_url": "https://imgs.nestimg.com/3_bedroom_detached_house_for_sale_111118067718642091.jpg", "img_width": 400, "keywords": "Detached, Freehold, Garden, Garage, Cottage", "latitude": 51.2018, "lister_name": "Greenslade Taylor Hunt", "lister_url": "https://www.nestoria.co.uk/detail/0000000111118067718642091/title/5/17-14?serpUid=&pt=1&ot=1&l=somerset&did=105_high1&t_sec=9&t_or=45&t_pvid=null&utm_source=api&utm_medium=external", "listing_type": "buy", "location_accuracy": 9, "longitude": -2.94235, "price": 399950, "price_currency": "\u00a3", "price_formatted": "\u00a3399,950", "price_high": 399950, "price_low": 399950, "price_type": "fixed", "property_type": "house", "size": 0, "size_type": "net", "summary": "This characterful and well presented, 3/4 bedroom detached cottage ...", "thumb_height": 60, "thumb_url": "https://imgs.nestimg.com/medium/3_bedroom_detached_house_for_sale_111118067718642091.jpg", "thumb_width": 80, "title": "Church Lane, East Huntspill, Highbridge, Somerset, TA9", "updated_in_days": 99, "updated_in_days_formatted": "first seen over a month ago"}, {"bathroom_number": "", "bedroom_number": 8, "car_spaces": 0, "commission": 0, "construction_year": 0, "datasource_name": "OnTheMarket.com", "img_height": 300, "img_url": "https://imgs.nestimg.com/8_bedroom_house_for_sale_111681013574111959.jpg", "img_width": 400, "keywords": "Freehold, Garden, Grade II, Parking, Listed", "latitude": 50.8734, "lister_name": "Greenslade Taylor Hunt", "lister_url": "https://www.nestoria.co.uk/detail/0000000111681013574111959/title/5/17-15?serpUid=&pt=1&ot=1&l=somerset&did=105_high1&t_sec=9&t_or=45&t_pvid=null&utm_source=api&utm_medium=external", "listing_type": "buy", "location_accuracy": 9, "longitude": -2.9672, "price": 425000, "price_currency": "\u00a3", "price_formatted": "\u00a3425,000", "price_high": 425000, "price_low": 425000, "price_type": "fixed", "property_type": "house", "size": 0, "size_type": "net", "summary": "A superb grade ii listed town house offering family accommodation, ...", "thumb_height": 60, "thumb_url": "https://imgs.nestimg.com/medium/8_bedroom_house_for_sale_111681013574111959.jpg", "thumb_width": 80, "title": "Combe Street, Chard, Somerset, TA20", "updated_in_days": 8, "updated_in_days_formatted": "first seen last week"}], "locations": [{"center_lat": 51.080967, "center_long": -3.045432, "long_title": "Somerset, county", "place_name": "somerset", "title": "Somerset"}], "page": 17, "sort": "nestoria_rank", "status_code": "200", "status_text": "OK", "thanks": "For using the Nestoria API.", "total_pages": 410, "total_results": 6149, "_cu5t0mP434m_": "remove"}}