{"request": {"country": "uk", "language": "en", "location": "somerset", "num_res": "15", "offset": 255, "output": "json_xs", "page": 18, "product_type": "realestate", "property_type": "property", "size_type": "net", "size_unit": "m2", "sort": "nestoria_rank", "listing_type": "buy"}, "response": {"application_response_code": "100", "application_response_text": "listings returned for one unambiguous location", "attribution": {"img_height": 22, "img_url": "https://resources.nestimg.com/nestoria/img/pbr_v1.png", "img_width": 183, "link_to_img": "http://www.nestoria.com"}, "created_http": "Tue, 18 Jun 2019 17:29:00 GMT", "created_unix": 1560878940, "link_to_url": "https://www.nestoria.co.uk/somerset/property/buy/18", "listings": [{"bathroom_number": "", "bedroom_number": 3, "car_spaces": 0, "commission": 0, "construction_year": 0, "datasource_name": "OnTheMarket.com", "img_height": 300, "img_url": "https://imgs.nestimg.com/3_bedroom_detached_house_for_sale_111328522603301717.jpg", "img_width": 400, "keywords": "Detached, Freehold, Garden, New Build", "latitude": 51.0204, "lister_name": "Greenslade Taylor Hunt", "lister_url": "https://www.nestoria.co.uk/detail/0000000111328522603301717/title/5/18-1?serpUid=&pt=1&ot=1&l=somerset&did=105_high1&t_sec=9&t_or=45&t_pvid=null&utm_source=api&utm_medium=external", "listing_type": "buy", "location_accuracy": 9, "longitude": -2.87747, "price": 335000, "price_currency": "\u00a3", "price_formatted": "\u00a3335,000", "price_high": 335000, "price_low": 335000, "price_type": "fixed", "property_type": "house", "size": 0, "size_type": "net", "summary": "Advance notification a quality three bedroom detached new build hou...", "thumb_height": 60, "thumb_url": "https://imgs.nestimg.com/medium/3_bedroom_detached_house_for_sale_111328522603301717.jpg", "thumb_width": 80, "title": "Holdens Way, Curry Rivel, Langport, Somerset, TA10", "updated_in_days": 65, "updated_in_days_formatted": "first seen over a month ago"}, {"bathroom_number": "", "bedroom_number": 4, "car_spaces": 0, "commission": 0, "construction_year": 0, "datasource_name": "OnTheMarket.com", "img_height": 300, "img_url": "https://imgs.nestimg.com/4_bedroom_detached_house_for_sale_111315834750636266.jpg", "img_width": 400, "keywords": "Detached, Garden, Conversion, Kitchen, Lift, Reception, Listed", "latitude": 51.0074, "lister_name": "Stags", "lister_url": "https://www.nestoria.co.uk/detail/0000000111315834750636266/title/5/18-2?serpUid=&pt=1&ot=1&l=somerset&did=105_high1&t_sec=9&t_or=45&t_pvid=null&utm_source=api&utm_medium=external", "listing_type": "buy", "location_accuracy": 9, "longitude": -3.25946, "price": 750000, "price_currency": "\u00a3", "price_formatted": "\u00a3750,000", "price_high": 750000, "price_low": 750000, "price_type": "fixed", "property_type": "house", "size": 0, "size_type": "net", "summary": "Superb listed barn conversion with separate flat, guest suite, aisl...", "thumb_height": 60, "thumb_url": "https://imgs.nestimg.com/medium/4_bedroom_detached_house_for_sale_111315834750636266.jpg", "thumb_width": 80, "title": "Langford Budville, Wellington, Somerset, TA21", "updated_in_days": 67, "updated_in_days_formatted": "first seen over a month ago"}, {"bathroom_number": "", "bedroom_number": 3, "car_spaces": 0, "commission": 0, "construction_year": 0, "datasource_name": "OnTheMarket.com", "img_height": 300, "img_url": "https://imgs.nestimg.com/3_bedroom_property_for_sale_110747138170981367.jpg", "img_width": 400, "keywords": "Garden, Garage", "latitude": 51.1406, "lister_name": "Fox Grant", "lister_url": "https://www.nestoria.co.uk/detail/0000000110747138170981367/title/5/18-3?serpUid=&pt=1&ot=1&l=somerset&did=105_high1&t_sec=9&t_or=45&t_pvid=null&utm_source=api&utm_medium=external", "listing_type": "buy", "location_accuracy": 9, "longitude": -2.90728, "price": 500000, "price_currency": "\u00a3", "price_formatted": "\u00a3500,000", "price_high": 500000, "price_low": 500000, "price_type": "fixed", "property_type": "property", "size": 0, "size_type": "net", "summary": "Situated in a spot within a well regarded somerset village and prov...", "thumb_height": 60, "thumb_url": "https://imgs.nestimg.com/medium/3_bedroom_property_for_sale_110747138170981367.jpg", "thumb_width": 80, "title": "Stawell, Somerset - Garden", "updated_in_days": 145, "updated_in_days_formatted": "first seen over a month ago"}, {"bathroom_number": "", "bedroom_number": 3, "car_spaces": 0, "commission": 0, "construction_year": 0, "datasource_name": "OnTheMarket.com", "img_height": 300, "img_url": "https://imgs.nestimg.com/3_bedroom_bungalow_for_sale_111136755647914053.jpg", "img_width": 400, "keywords": "Detached, Freehold, Bungalow, Modern, Cul-de-Sac", "latitude": 51.0254, "lister_name": "Greenslade Taylor Hunt", "lister_url": "https://www.nestoria.co.uk/detail/0000000111136755647914053/title/5/18-4?serpUid=&pt=1&ot=1&l=somerset&did=105_high1&t_sec=9&t_or=45&t_pvid=null&utm_source=api&utm_medium=external", "listing_type": "buy", "location_accuracy": 9, "longitude": -2.86135, "price": 297500, "price_currency": "\u00a3", "price_formatted": "\u00a3297,500", "price_high": 297500, "price_low": 297500, "price_type": "fixed", "property_type": "house", "size": 0, "size_type": "net", "summary": "A modern 3 bedroom detached bungalow situated at the end of a cul-d...", "thumb_height": 60, "thumb_url": "https://imgs.nestimg.com/medium/3_bedroom_bungalow_for_sale_111136755647914053.jpg", "thumb_width": 80, "title": "Churchway Close, Curry Rivel, Langport, Somerset, TA10", "updated_in_days": 96, "updated_in_days_formatted": "first seen over a month ago"}, {"bathroom_number": "", "bedroom_number": 5, "car_spaces": 0, "commission": 0, "construction_year": 0, "datasource_name": "OnTheMarket.com", "img_height": 300, "img_url": "https://imgs.nestimg.com/5_bedroom_detached_house_for_sale_111284654560655178.jpg", "img_width": 400, "keywords": "Detached, Freehold, No Chain", "latitude": 50.9862, "lister_name": "Greenslade Taylor Hunt", "lister_url": "https://www.nestoria.co.uk/detail/0000000111284654560655178/title/5/18-5?serpUid=&pt=1&ot=1&l=somerset&did=105_high1&t_sec=9&t_or=45&t_pvid=null&utm_source=api&utm_medium=external", "listing_type": "buy", "location_accuracy": 9, "longitude": -2.95339, "price": 499000, "price_currency": "\u00a3", "price_formatted": "\u00a3499,000", "price_high": 499000, "price_low": 499000, "price_type": "fixed", "property_type": "house", "size": 0, "size_type": "net", "summary": "A well positioned detached house situated on the edge of this villa...", "thumb_height": 60, "thumb_url": "https://imgs.nestimg.com/medium/5_bedroom_detached_house_for_sale_111284654560655178.jpg", "thumb_width": 80, "title": "Lower Street, Curry Mallet, Taunton, Somerset, TA3", "updated_in_days": 72, "updated_in_days_formatted": "first seen over a month ago"}, {"bathroom_number": "", "bedroom_number": 5, "car_spaces": 0, "commission": 0, "construction_year": 0, "datasource_name": "OnTheMarket.com", "img_height": 300, "img_url": "https://imgs.nestimg.com/5_bedroom_detached_house_for_sale_110981944085451926.jpg", "img_width": 400, "keywords": "Detached, En suite, Kitchen", "latitude": 51, "lister_name": "Stags", "lister_url": "https://www.nestoria.co.uk/detail/0000000110981944085451926/title/5/18-6?serpUid=&pt=1&ot=1&l=somerset&did=105_high1&t_sec=9&t_or=45&t_pvid=null&utm_source=api&utm_medium=external", "listing_type": "buy", "location_accuracy": 9, "longitude": -2.92556, "price": 895000, "price_currency": "\u00a3", "price_formatted": "\u00a3895,000", "price_high": 895000, "price_low": 895000, "price_type": "fixed", "property_type": "house", "size": 0, "size_type": "net", "summary": "An detached house situated in a private and secluded location with ...", "thumb_height": 60, "thumb_url": "https://imgs.nestimg.com/medium/5_bedroom_detached_house_for_sale_110981944085451926.jpg", "thumb_width": 80, "title": "Stowey Road, Fivehead, Taunton, Somerset, TA3", "updated_in_days": 82, "updated_in_days_formatted": "first seen over a month ago"}, {"bathroom_number": "", "bedroom_number": 4, "car_spaces": 0, "commission": 0, "construction_year": 0, "datasource_name": "OnTheMarket.com", "img_height": 300, "img_url": "https://imgs.nestimg.com/4_bedroom_detached_house_for_sale_111038013810204154.jpg", "img_width": 400, "keywords": "Detached, Freehold, Garden, Grade II, No Chain, Listed", "latitude": 50.9738, "lister_name": "Greenslade Taylor Hunt", "lister_url": "https://www.nestoria.co.uk/detail/0000000111038013810204154/title/5/18-7?serpUid=&pt=1&ot=1&l=somerset&did=105_high1&t_sec=9&t_or=45&t_pvid=null&utm_source=api&utm_medium=external", "listing_type": "buy", "location_accuracy": 9, "longitude": -2.87834, "price": 345000, "price_currency": "\u00a3", "price_formatted": "\u00a3345,000", "price_high": 345000, "price_low": 345000, "price_type": "fixed", "property_type": "house", "size": 0, "size_type": "net", "summary": "Offered for sale with no onward chain a fascinating grade ii listed...", "thumb_height": 60, "thumb_url": "https://imgs.nestimg.com/medium/4_bedroom_detached_house_for_sale_111038013810204154.jpg", "thumb_width": 80, "title": "Ruskway Lane, Westport, Langport, Somerset, TA10", "updated_in_days": 112, "updated_in_days_formatted": "first seen over a month ago"}, {"bathroom_number": "", "bedroom_number": 4, "car_spaces": 0, "commission": 0, "construction_year": 0, "datasource_name": "OnTheMarket.com", "img_height": 300, "img_url": "https://imgs.nestimg.com/4_bedroom_semi_detached_house_for_sale_110938657948942541.jpg", "img_width": 400, "keywords": "Semi-Detached, Terraced, Parking, Gas Central Heating", "latitude": 51.2184, "lister_url": "https://www.nestoria.co.uk/detail/0000000110938657948942541/title/5/18-8?serpUid=&pt=1&ot=1&l=somerset&did=105_high1&t_sec=9&t_or=45&t_pvid=null&utm_source=api&utm_medium=external", "listing_type": "buy", "location_accuracy": 9, "longitude": -2.97058, "price": 229950, "price_currency": "\u00a3", "price_formatted": "\u00a3229,950", "price_high": 229950, "price_low": 229950, "price_type": "fixed", "property_type": "house", "size": 0, "size_type": "net", "summary": "A 3/4 bedroom end-of-terrace house with gas central heating, double...", "thumb_height": 60, "thumb_url": "https://imgs.nestimg.com/medium/4_bedroom_semi_detached_house_for_sale_110938657948942541.jpg", "thumb_width": 80, "title": "Somerset Way, Highbridge, Somerset", "updated_in_days": 51, "updated_in_days_formatted": "first seen over a month ago"}, {"bathroom_number": "", "bedroom_number": 3, "car_spaces": 0, "commission": 0, "construction_year": 0, "datasource_name": "OnTheMarket.com", "img_height": 300, "img_url": "https://imgs.nestimg.com/3_bedroom_detached_bungalow_for_sale_111223316848215506.jpg", "img_width": 400, "keywords": "Detached, Bungalow, Gas Central Heating", "latitude": 51.2257, "lister_url": "https://www.nestoria.co.uk/detail/0000000111223316848215506/title/5/18-9?serpUid=&pt=1&ot=1&l=somerset&did=105_high1&t_sec=9&t_or=45&t_pvid=null&utm_source=api&utm_medium=external", "listing_type": "buy", "location_accuracy": 9, "longitude": -2.98686, "price": 269950, "price_currency": "\u00a3", "price_formatted": "\u00a3269,950", "price_high": 269950, "price_low": 269950, "price_type": "fixed", "property_type": "house", "size": 0, "size_type": "net", "summary": "A 3 bedroom, detached bungalow with gas central heating and double ...", "thumb_height": 60, "thumb_url": "https://imgs.nestimg.com/medium/3_bedroom_detached_bungalow_for_sale_111223316848215506.jpg", "thumb_width": 80, "title": "Apex Drive, Highbridge, Somerset", "updated_in_days": 27, "updated_in_days_formatted": "first seen 3 weeks ago"}, {"bathroom_number": "", "bedroom_number": 4, "car_spaces": 0, "commission": 0, "construction_year": 0, "datasource_name": "OnTheMarket.com", "img_height": 300, "img_url": "https://imgs.nestimg.com/4_bedroom_house_for_sale_111056512242604715.jpg", "img_width": 400, "keywords": "Detached, Freehold, Garden, Modern", "latitude": 50.9297, "lister_name": "Greenslade Taylor Hunt", "lister_url": "https://www.nestoria.co.uk/detail/0000000111056512242604715/title/5/18-10?serpUid=&pt=1&ot=1&l=somerset&did=105_high1&t_sec=9&t_or=45&t_pvid=null&utm_source=api&utm_medium=external", "listing_type": "buy", "location_accuracy": 9, "longitude": -2.96758, "price": 500000, "price_currency": "\u00a3", "price_formatted": "\u00a3500,000", "price_high": 500000, "price_low": 500000, "price_type": "fixed", "property_type": "house", "size": 0, "size_type": "net", "summary": "A high specification modern detached house with sized living accomm...", "thumb_height": 60, "thumb_url": "https://imgs.nestimg.com/medium/4_bedroom_house_for_sale_111056512242604715.jpg", "thumb_width": 80, "title": "Goose Lane, Horton, Ilminster, Somerset, TA19", "updated_in_days": 17, "updated_in_days_formatted": "first seen 2 weeks ago"}, {"bathroom_number": "", "bedroom_number": 4, "car_spaces": 0, "commission": 0, "construction_year": 0, "datasource_name": "OnTheMarket.com", "img_height": 300, "img_url": "https://imgs.nestimg.com/4_bedroom_semi_detached_house_for_sale_111371190895876793.jpg", "img_width": 400, "keywords": "Freehold, Semi-Detached, No Chain", "latitude": 51.2081, "lister_name": "Greenslade Taylor Hunt", "lister_url": "https://www.nestoria.co.uk/detail/0000000111371190895876793/title/5/18-11?serpUid=&pt=1&ot=1&l=somerset&did=105_high1&t_sec=9&t_or=45&t_pvid=null&utm_source=api&utm_medium=external", "listing_type": "buy", "location_accuracy": 9, "longitude": -3.04174, "price": 425000, "price_currency": "\u00a3", "price_formatted": "\u00a3425,000", "price_high": 425000, "price_low": 425000, "price_type": "fixed", "property_type": "house", "size": 0, "size_type": "net", "summary": "A ly presented 3/4 bed semi-detached farmhouse with a range of outb...", "thumb_height": 60, "thumb_url": "https://imgs.nestimg.com/medium/4_bedroom_semi_detached_house_for_sale_111371190895876793.jpg", "thumb_width": 80, "title": "Steart, Bridgwater, Somerset, TA5", "updated_in_days": 58, "updated_in_days_formatted": "first seen over a month ago"}, {"bathroom_number": "", "bedroom_number": 3, "car_spaces": 0, "commission": 0, "construction_year": 0, "datasource_name": "OnTheMarket.com", "img_height": 300, "img_url": "https://imgs.nestimg.com/3_bedroom_semi_detached_house_for_sale_110734603852443276.jpg", "img_width": 400, "keywords": "Freehold, Garden, Semi-Detached, Parking, Cottage", "latitude": 51.036, "lister_name": "Greenslade Taylor Hunt", "lister_url": "https://www.nestoria.co.uk/detail/0000000110734603852443276/title/5/18-12?serpUid=&pt=1&ot=1&l=somerset&did=105_high1&t_sec=9&t_or=45&t_pvid=null&utm_source=api&utm_medium=external", "listing_type": "buy", "location_accuracy": 9, "longitude": -2.8363, "price": 225000, "price_currency": "\u00a3", "price_formatted": "\u00a3225,000", "price_high": 225000, "price_low": 225000, "price_type": "fixed", "property_type": "house", "size": 0, "size_type": "net", "summary": "A three bedroom semi-detached cottage with enclosed rear garden, le...", "thumb_height": 60, "thumb_url": "https://imgs.nestimg.com/medium/3_bedroom_semi_detached_house_for_sale_110734603852443276.jpg", "thumb_width": 80, "title": "Westover, Langport, Somerset, TA10", "updated_in_days": 161, "updated_in_days_formatted": "first seen over a month ago"}, {"bathroom_number": "", "bedroom_number": 4, "car_spaces": 0, "commission": 0, "construction_year": 0, "datasource_name": "OnTheMarket.com", "img_height": 300, "img_url": "https://imgs.nestimg.com/4_bedroom_detached_house_for_sale_111284650123342168.jpg", "img_width": 400, "keywords": "Detached", "latitude": 50.9891, "lister_name": "Greenslade Taylor Hunt", "lister_url": "https://www.nestoria.co.uk/detail/0000000111284650123342168/title/5/18-13?serpUid=&pt=1&ot=1&l=somerset&did=105_high1&t_sec=9&t_or=45&t_pvid=null&utm_source=api&utm_medium=external", "listing_type": "buy", "location_accuracy": 9, "longitude": -3.07764, "price": 650000, "price_currency": "\u00a3", "price_formatted": "\u00a3650,000", "price_high": 650000, "price_low": 650000, "price_type": "fixed", "property_type": "house", "size": 0, "size_type": "net", "summary": "An detached house enjoying views of open countryside and set within...", "thumb_height": 60, "thumb_url": "https://imgs.nestimg.com/medium/4_bedroom_detached_house_for_sale_111284650123342168.jpg", "thumb_width": 80, "title": "Orchard Portman, Taunton, Somerset, TA3", "updated_in_days": 72, "updated_in_days_formatted": "first seen over a month ago"}, {"bathroom_number": "", "bedroom_number": 4, "car_spaces": 0, "commission": 0, "construction_year": 0, "datasource_name": "OnTheMarket.com", "img_height": 300, "img_url": "https://imgs.nestimg.com/4_bedroom_semi_detached_house_for_sale_111687585810349587.jpg", "img_width": 400, "keywords": "Semi-Detached, Grade II, Listed", "latitude": 51.2079, "lister_url": "https://www.nestoria.co.uk/detail/0000000111687585810349587/title/5/18-14?serpUid=&pt=1&ot=1&l=somerset&did=105_high1&t_sec=9&t_or=45&t_pvid=null&utm_source=api&utm_medium=external", "listing_type": "buy", "location_accuracy": 9, "longitude": -2.75772, "price": 370000, "price_currency": "\u00a3", "price_formatted": "\u00a3370,000", "price_high": 370000, "price_low": 370000, "price_type": "fixed", "property_type": "house", "size": 0, "size_type": "net", "summary": "A and four bedroom period property. This stone built grade ii liste...", "thumb_height": 60, "thumb_url": "https://imgs.nestimg.com/medium/4_bedroom_semi_detached_house_for_sale_111687585810349587.jpg", "thumb_width": 80, "title": "1 Barrow House Farm, Panborough, WELLS, Somerset", "updated_in_days": 7, "updated_in_days_formatted": "first seen last week"}, {"bathroom_number": "", "bedroom_number": 4, "car_spaces": 0, "commission": 0, "construction_year": 0, "datasource_name": "OnTheMarket.com", "img_height": 300, "img_url": "https://imgs.nestimg.com/4_bedroom_detached_bungalow_for_sale_111699714765145045.jpg", "img_width": 400, "keywords": "Detached, Garden, Bungalow, Parking", "latitude": 50.9673, "lister_name": "Greenslade Taylor Hunt", "lister_url": "https://www.nestoria.co.uk/detail/0000000111699714765145045/title/5/18-15?serpUid=&pt=1&ot=1&l=somerset&did=105_high1&t_sec=9&t_or=45&t_pvid=null&utm_source=api&utm_medium=external", "listing_type": "buy", "location_accuracy": 9, "longitude": -2.46149, "price": 400000, "price_currency": "\u00a3", "price_formatted": "\u00a3400,000", "price_high": 400000, "price_low": 400000, "price_type": "fixed", "property_type": "house", "size": 0, "size_type": "net", "summary": "A privately positioned 4 bedroom detached bungalow with ample parki...", "thumb_height": 60, "thumb_url": "https://imgs.nestimg.com/medium/4_bedroom_detached_bungalow_for_sale_111699714765145045.jpg", "thumb_width": 80, "title": "North Street, Milborne Port, Sherborne, Somerset, DT9", "updated_in_days": 5, "updated_in_days_formatted": "first seen 5 days ago"}], "locations": [{"center_lat": 51.080967, "center_long": -3.045432, "long_title": "Somerset, county", "place_name": "somerset", "title": "Somerset"}], "page": 18, "sort": "nestoria_rank", "status_code": "200", "status_text": "OK", "thanks": "For using the Nestoria API.", "total_pages": 410, "total_results": 6149, "_cu5t0mP434m_": "remove"}}