{"request": {"country": "uk", "language": "en", "location": "somerset", "num_res": "15", "offset": 270, "output": "json_xs", "page": 19, "product_type": "realestate", "property_type": "property", "size_type": "net", "size_unit": "m2", "sort": "nestoria_rank", "listing_type": "buy"}, "response": {"application_response_code": "100", "application_response_text": "listings returned for one unambiguous location", "attribution": {"img_height": 22, "img_url": "https://resources.nestimg.com/nestoria/img/pbr_v1.png", "img_width": 183, "link_to_img": "http://www.nestoria.com"}, "created_http": "Tue, 18 Jun 2019 17:29:02 GMT", "created_unix": 1560878942, "link_to_url": "https://www.nestoria.co.uk/somerset/property/buy/19", "listings": [{"bathroom_number": "", "bedroom_number": 3, "car_spaces": 0, "commission": 0, "construction_year": 0, "datasource_name": "OnTheMarket.com", "img_height": 300, "img_url": "https://imgs.nestimg.com/3_bedroom_detached_bungalow_for_sale_111223321868481003.jpg", "img_width": 400, "keywords": "Detached, Bungalow", "latitude": 51.0787, "lister_name": "Newton King", "lister_url": "https://www.nestoria.co.uk/detail/0000000111223321868481003/title/5/19-1?serpUid=&pt=1&ot=1&l=somerset&did=105_high1&t_sec=9&t_or=45&t_pvid=null&utm_source=api&utm_medium=external", "listing_type": "buy", "location_accuracy": 9, "longitude": -2.88086, "price": 249995, "price_currency": "\u00a3", "price_formatted": "\u00a3249,995", "price_high": 249995, "price_low": 249995, "price_type": "fixed", "property_type": "house", "size": 0, "size_type": "net", "summary": "Detached 3 bed bungalow situated at othery which is just 7 miles fr...", "thumb_height": 60, "thumb_url": "https://imgs.nestimg.com/medium/3_bedroom_detached_bungalow_for_sale_111223321868481003.jpg", "thumb_width": 80, "title": "Rye Lane, Othery, Somerset - Detached", "updated_in_days": 82, "updated_in_days_formatted": "first seen over a month ago"}, {"bathroom_number": "", "bedroom_number": 4, "car_spaces": 0, "commission": 0, "construction_year": 0, "datasource_name": "OnTheMarket.com", "img_height": 300, "img_url": "https://imgs.nestimg.com/4_bedroom_detached_house_for_sale_111278474538216693.jpg", "img_width": 400, "keywords": "Detached, Freehold, Garden, New Build, Garage", "latitude": 51.2028, "lister_name": "Greenslade Taylor Hunt", "lister_url": "https://www.nestoria.co.uk/detail/0000000111278474538216693/title/5/19-2?serpUid=&pt=1&ot=1&l=somerset&did=105_high1&t_sec=9&t_or=45&t_pvid=null&utm_source=api&utm_medium=external", "listing_type": "buy", "location_accuracy": 9, "longitude": -2.93989, "price": 365000, "price_currency": "\u00a3", "price_formatted": "\u00a3365,000", "price_high": 365000, "price_low": 365000, "price_type": "fixed", "property_type": "house", "size": 0, "size_type": "net", "summary": "A 4 bed detached new-build executive-style residence situated on an...", "thumb_height": 60, "thumb_url": "https://imgs.nestimg.com/medium/4_bedroom_detached_house_for_sale_111278474538216693.jpg", "thumb_width": 80, "title": "Meadow Drive, East Huntspill, Somerset, TA9", "updated_in_days": 62, "updated_in_days_formatted": "first seen over a month ago"}, {"bathroom_number": "", "bedroom_number": 3, "car_spaces": 0, "commission": 0, "construction_year": 0, "datasource_name": "OnTheMarket.com", "img_height": 300, "img_url": "https://imgs.nestimg.com/3_bedroom_ground_flat_for_sale_111693437596109805.jpg", "img_width": 400, "keywords": "Garden, No Chain", "latitude": 51.3555, "lister_url": "https://www.nestoria.co.uk/detail/0000000111693437596109805/title/5/19-3?serpUid=&pt=1&ot=1&l=somerset&did=105_high1&t_sec=9&t_or=45&t_pvid=null&utm_source=api&utm_medium=external", "listing_type": "buy", "location_accuracy": 9, "longitude": -2.99197, "price": 125000, "price_currency": "\u00a3", "price_formatted": "\u00a3125,000", "price_high": 125000, "price_low": 125000, "price_type": "fixed", "property_type": "flat", "size": 0, "size_type": "net", "summary": "Ground floor flat. Three beds. Lounge. Greatfirst time buy/investme...", "thumb_height": 60, "thumb_url": "https://imgs.nestimg.com/medium/3_bedroom_ground_flat_for_sale_111693437596109805.jpg", "thumb_width": 80, "title": "South Road, Weston-super-Mare, North Somerset. BS23", "updated_in_days": 6, "updated_in_days_formatted": "first seen 6 days ago"}, {"bathroom_number": "", "bedroom_number": 2, "car_spaces": 0, "commission": 0, "construction_year": 0, "datasource_name": "OnTheMarket.com", "img_height": 300, "img_url": "https://imgs.nestimg.com/2_bedroom_semi_detached_bungalow_for_sale_111161511585178282.jpg", "img_width": 400, "keywords": "Garden, Semi-Detached, No Chain, Garage, Bungalow, Cul-de-Sac", "latitude": 51.2317, "lister_name": "Greenslade Taylor Hunt", "lister_url": "https://www.nestoria.co.uk/detail/0000000111161511585178282/title/5/19-4?serpUid=&pt=1&ot=1&l=somerset&did=105_high1&t_sec=9&t_or=45&t_pvid=null&utm_source=api&utm_medium=external", "listing_type": "buy", "location_accuracy": 9, "longitude": -2.99651, "price": 229950, "price_currency": "\u00a3", "price_formatted": "\u00a3229,950", "price_high": 229950, "price_low": 229950, "price_type": "fixed", "property_type": "house", "size": 0, "size_type": "net", "summary": "This mature 2 bedroom semi detached single storey residence occupie...", "thumb_height": 60, "thumb_url": "https://imgs.nestimg.com/medium/2_bedroom_semi_detached_bungalow_for_sale_111161511585178282.jpg", "thumb_width": 80, "title": "Birch Lawn, Burnham-on-Sea, Somerset, TA8", "updated_in_days": 47, "updated_in_days_formatted": "first seen over a month ago"}, {"bathroom_number": "", "bedroom_number": 4, "car_spaces": 0, "commission": 0, "construction_year": 0, "datasource_name": "OnTheMarket.com", "img_height": 300, "img_url": "https://imgs.nestimg.com/4_bedroom_detached_house_for_sale_111637558886096121.jpg", "img_width": 400, "keywords": "Detached, Freehold", "latitude": 50.9869, "lister_name": "Greenslade Taylor Hunt", "lister_url": "https://www.nestoria.co.uk/detail/0000000111637558886096121/title/5/19-5?serpUid=&pt=1&ot=1&l=somerset&did=105_high1&t_sec=9&t_or=45&t_pvid=null&utm_source=api&utm_medium=external", "listing_type": "buy", "location_accuracy": 9, "longitude": -2.8653, "price": 485000, "price_currency": "\u00a3", "price_formatted": "\u00a3485,000", "price_high": 485000, "price_low": 485000, "price_type": "fixed", "property_type": "house", "size": 0, "size_type": "net", "summary": "A large, individual, detached four bedroom house with views to the ...", "thumb_height": 60, "thumb_url": "https://imgs.nestimg.com/medium/4_bedroom_detached_house_for_sale_111637558886096121.jpg", "thumb_width": 80, "title": "Hambridge, Langport, Somerset, TA10", "updated_in_days": 15, "updated_in_days_formatted": "first seen 2 weeks ago"}, {"bathroom_number": "", "bedroom_number": 1, "car_spaces": 0, "commission": 0, "construction_year": 0, "datasource_name": "OnTheMarket.com", "img_height": 300, "img_url": "https://imgs.nestimg.com/1_bedroom_flat_for_sale_111693434893654041.jpg", "img_width": 400, "keywords": "No Chain, Double Bedroom", "latitude": 51.3557, "lister_url": "https://www.nestoria.co.uk/detail/0000000111693434893654041/title/5/19-6?serpUid=&pt=1&ot=1&l=somerset&did=105_high1&t_sec=9&t_or=45&t_pvid=null&utm_source=api&utm_medium=external", "listing_type": "buy", "location_accuracy": 9, "longitude": -2.9879, "price": 117500, "price_currency": "\u00a3", "price_formatted": "\u00a3117,500", "price_high": 117500, "price_low": 117500, "price_type": "fixed", "property_type": "flat", "size": 0, "size_type": "net", "summary": "Well presented top floor flat. Weston hillside. Double bedroom. Lou...", "thumb_height": 60, "thumb_url": "https://imgs.nestimg.com/medium/1_bedroom_flat_for_sale_111693434893654041.jpg", "thumb_width": 80, "title": "South Road, Weston-super-Mare, North Somerset. BS23", "updated_in_days": 6, "updated_in_days_formatted": "first seen 6 days ago"}, {"bathroom_number": "", "bedroom_number": 4, "car_spaces": 0, "commission": 0, "construction_year": 0, "datasource_name": "OnTheMarket.com", "img_height": 300, "img_url": "https://imgs.nestimg.com/4_bedroom_detached_house_for_sale_111550951480976727.jpg", "img_width": 400, "keywords": "Detached, Garden, Double Garage", "latitude": 50.9488, "lister_name": "Greenslade Taylor Hunt", "lister_url": "https://www.nestoria.co.uk/detail/0000000111550951480976727/title/5/19-7?serpUid=&pt=1&ot=1&l=somerset&did=105_high1&t_sec=9&t_or=45&t_pvid=null&utm_source=api&utm_medium=external", "listing_type": "buy", "location_accuracy": 9, "longitude": -2.91649, "price": 365000, "price_currency": "\u00a3", "price_formatted": "\u00a3365,000", "price_high": 365000, "price_low": 365000, "price_type": "fixed", "property_type": "house", "size": 0, "size_type": "net", "summary": "Just releasedplot 43, the lynton is an four bedroom detached family...", "thumb_height": 60, "thumb_url": "https://imgs.nestimg.com/medium/4_bedroom_detached_house_for_sale_111550951480976727.jpg", "thumb_width": 80, "title": "Plot 43, Off Church Road, Ilton, Somerset, TA19", "updated_in_days": 29, "updated_in_days_formatted": "first seen last month"}, {"bathroom_number": "", "bedroom_number": 4, "car_spaces": 0, "commission": 0, "construction_year": 0, "datasource_name": "OnTheMarket.com", "img_height": 300, "img_url": "https://imgs.nestimg.com/4_bedroom_detached_house_for_sale_111569518414463949.jpg", "img_width": 400, "keywords": "Detached, Freehold, Garden, Garage, Cul-de-Sac", "latitude": 51.2475, "lister_name": "Greenslade Taylor Hunt", "lister_url": "https://www.nestoria.co.uk/detail/0000000111569518414463949/title/5/19-8?serpUid=&pt=1&ot=1&l=somerset&did=105_high1&t_sec=9&t_or=45&t_pvid=null&utm_source=api&utm_medium=external", "listing_type": "buy", "location_accuracy": 9, "longitude": -3.00142, "price": 395000, "price_currency": "\u00a3", "price_formatted": "\u00a3395,000", "price_high": 395000, "price_low": 395000, "price_type": "fixed", "property_type": "house", "size": 0, "size_type": "net", "summary": "This executive-style 4 bedroom detached residence is situated in a ...", "thumb_height": 60, "thumb_url": "https://imgs.nestimg.com/medium/4_bedroom_detached_house_for_sale_111569518414463949.jpg", "thumb_width": 80, "title": "Pizey Avenue, Burnham-on-Sea, Somerset, TA8", "updated_in_days": 26, "updated_in_days_formatted": "first seen 3 weeks ago"}, {"bathroom_number": "", "bedroom_number": 3, "car_spaces": 0, "commission": 0, "construction_year": 0, "datasource_name": "OnTheMarket.com", "img_height": 300, "img_url": "https://imgs.nestimg.com/3_bedroom_detached_bungalow_for_sale_111674252272359871.jpg", "img_width": 400, "keywords": "Detached, Garden, Double Garage, Kitchen, Bungalow", "latitude": 51.3175, "lister_url": "https://www.nestoria.co.uk/detail/0000000111674252272359871/title/5/19-9?serpUid=&pt=1&ot=1&l=somerset&did=105_high1&t_sec=9&t_or=45&t_pvid=null&utm_source=api&utm_medium=external", "listing_type": "buy", "location_accuracy": 9, "longitude": -2.96258, "price": 370000, "price_currency": "\u00a3", "price_formatted": "\u00a3370,000", "price_high": 370000, "price_low": 370000, "price_type": "fixed", "property_type": "house", "size": 0, "size_type": "net", "summary": "Elevated detached bungalow taking advantage of the far reaching vie...", "thumb_height": 60, "thumb_url": "https://imgs.nestimg.com/medium/3_bedroom_detached_bungalow_for_sale_111674252272359871.jpg", "thumb_width": 80, "title": "Channel Heights, Somerset - Garden", "updated_in_days": 9, "updated_in_days_formatted": "first seen last week"}, {"bathroom_number": "", "bedroom_number": 4, "car_spaces": 0, "commission": 0, "construction_year": 0, "datasource_name": "OnTheMarket.com", "img_height": 300, "img_url": "https://imgs.nestimg.com/4_bedroom_detached_house_for_sale_111507739553026607.jpg", "img_width": 400, "keywords": "Detached, Freehold, Conversion", "latitude": 51.0298, "lister_name": "Greenslade Taylor Hunt", "lister_url": "https://www.nestoria.co.uk/detail/0000000111507739553026607/title/5/19-10?serpUid=&pt=1&ot=1&l=somerset&did=105_high1&t_sec=9&t_or=45&t_pvid=null&utm_source=api&utm_medium=external", "listing_type": "buy", "location_accuracy": 9, "longitude": -3.23608, "price": 575000, "price_currency": "\u00a3", "price_formatted": "\u00a3575,000", "price_high": 575000, "price_low": 575000, "price_type": "fixed", "property_type": "house", "size": 0, "size_type": "net", "summary": "An detached barn conversion set within grounds of about 2.47 acres ...", "thumb_height": 60, "thumb_url": "https://imgs.nestimg.com/medium/4_bedroom_detached_house_for_sale_111507739553026607.jpg", "thumb_width": 80, "title": "Preston Bowyer, Milverton, Taunton, Somerset, TA4", "updated_in_days": 36, "updated_in_days_formatted": "first seen over a month ago"}, {"bathroom_number": "", "bedroom_number": 2, "car_spaces": 0, "commission": 0, "construction_year": 0, "datasource_name": "OnTheMarket.com", "img_height": 300, "img_url": "https://imgs.nestimg.com/2_bedroom_semi_detached_bungalow_for_sale_111563230313058707.jpg", "img_width": 400, "keywords": "Semi-Detached, Bungalow, Modern, Parking, Gas Central Heating", "latitude": 51.2494, "lister_url": "https://www.nestoria.co.uk/detail/0000000111563230313058707/title/5/19-11?serpUid=&pt=1&ot=1&l=somerset&did=105_high1&t_sec=9&t_or=45&t_pvid=null&utm_source=api&utm_medium=external", "listing_type": "buy", "location_accuracy": 9, "longitude": -2.95265, "price": 259950, "price_currency": "\u00a3", "price_formatted": "\u00a3259,950", "price_high": 259950, "price_low": 259950, "price_type": "fixed", "property_type": "house", "size": 0, "size_type": "net", "summary": "A modern gas centrally heated double glazed semi detached bungalow ...", "thumb_height": 60, "thumb_url": "https://imgs.nestimg.com/medium/2_bedroom_semi_detached_bungalow_for_sale_111563230313058707.jpg", "thumb_width": 80, "title": "East Ride, Brent Knoll, Somerset", "updated_in_days": 27, "updated_in_days_formatted": "first seen 3 weeks ago"}, {"bathroom_number": "", "bedroom_number": 3, "car_spaces": 0, "commission": 0, "construction_year": 0, "datasource_name": "OnTheMarket.com", "img_height": 300, "img_url": "https://imgs.nestimg.com/3_bedroom_end_of_terrace_house_for_sale_111260130088382918.jpg", "img_width": 400, "keywords": "Garden, Terraced, Kitchen, Parking, Cottage, Reception, Gas Central Heating", "latitude": 51.2378, "lister_url": "https://www.nestoria.co.uk/detail/0000000111260130088382918/title/5/19-12?serpUid=&pt=1&ot=1&l=somerset&did=105_high1&t_sec=9&t_or=45&t_pvid=null&utm_source=api&utm_medium=external", "listing_type": "buy", "location_accuracy": 9, "longitude": -2.99521, "price": 179950, "price_currency": "\u00a3", "price_formatted": "\u00a3179,950", "price_high": 179950, "price_low": 179950, "price_type": "fixed", "property_type": "house", "size": 0, "size_type": "net", "summary": "A unique opportunity to purchase this three bedroom cottage located...", "thumb_height": 60, "thumb_url": "https://imgs.nestimg.com/medium/3_bedroom_end_of_terrace_house_for_sale_111260130088382918.jpg", "thumb_width": 80, "title": "Oxford Street, Somerset, TA8 - Garden", "updated_in_days": 76, "updated_in_days_formatted": "first seen over a month ago"}, {"bathroom_number": "", "bedroom_number": 2, "car_spaces": 0, "commission": 0, "construction_year": 0, "datasource_name": "OnTheMarket.com", "img_height": 300, "img_url": "https://imgs.nestimg.com/2_bedroom_semi_detached_bungalow_for_sale_111440826576640347.jpg", "img_width": 400, "keywords": "Shared Garden, Semi-Detached, No Chain, Bungalow, Parking", "latitude": 51.2343, "lister_name": "Greenslade Taylor Hunt", "lister_url": "https://www.nestoria.co.uk/detail/0000000111440826576640347/title/5/19-13?serpUid=&pt=1&ot=1&l=somerset&did=105_high1&t_sec=9&t_or=45&t_pvid=null&utm_source=api&utm_medium=external", "listing_type": "buy", "location_accuracy": 9, "longitude": -2.9909, "price": 174950, "price_currency": "\u00a3", "price_formatted": "\u00a3174,950", "price_high": 174950, "price_low": 174950, "price_type": "fixed", "property_type": "house", "size": 0, "size_type": "net", "summary": "This 2 bedroom attached retirement bungalow occupies an corner posi...", "thumb_height": 60, "thumb_url": "https://imgs.nestimg.com/medium/2_bedroom_semi_detached_bungalow_for_sale_111440826576640347.jpg", "thumb_width": 80, "title": "Priory Gardens, Burnham-on-Sea, Somerset, TA8", "updated_in_days": 47, "updated_in_days_formatted": "first seen over a month ago"}, {"bathroom_number": "", "bedroom_number": 6, "car_spaces": 0, "commission": 0, "construction_year": 0, "datasource_name": "OnTheMarket.com", "img_height": 300, "img_url": "https://imgs.nestimg.com/6_bedroom_detached_house_for_sale_111532304936525785.jpg", "img_width": 400, "keywords": "Detached, Garden", "latitude": 51.0951, "lister_name": "Stags", "lister_url": "https://www.nestoria.co.uk/detail/0000000111532304936525785/title/5/19-14?serpUid=&pt=1&ot=1&l=somerset&did=105_high1&t_sec=9&t_or=45&t_pvid=null&utm_source=api&utm_medium=external", "listing_type": "buy", "location_accuracy": 9, "longitude": -3.26008, "price": 850000, "price_currency": "\u00a3", "price_formatted": "\u00a3850,000", "price_high": 850000, "price_low": 850000, "price_type": "fixed", "property_type": "house", "size": 0, "size_type": "net", "summary": "A detached period farmhouse set in a situation in the heart of the ...", "thumb_height": 60, "thumb_url": "https://imgs.nestimg.com/medium/6_bedroom_detached_house_for_sale_111532304936525785.jpg", "thumb_width": 80, "title": "Lydeard St. Lawrence, Taunton, Somerset, TA4", "updated_in_days": 32, "updated_in_days_formatted": "first seen over a month ago"}, {"bathroom_number": "", "bedroom_number": 2, "car_spaces": 0, "commission": 0, "construction_year": 0, "datasource_name": "OnTheMarket.com", "img_height": 300, "img_url": "https://imgs.nestimg.com/2_bedroom_flat_for_sale_111544377091714508.jpg", "img_width": 400, "keywords": "No Chain, Gas Central Heating", "latitude": 51.2205, "lister_url": "https://www.nestoria.co.uk/detail/0000000111544377091714508/title/5/19-15?serpUid=&pt=1&ot=1&l=somerset&did=105_high1&t_sec=9&t_or=45&t_pvid=null&utm_source=api&utm_medium=external", "listing_type": "buy", "location_accuracy": 9, "longitude": -2.97681, "price": 112500, "price_currency": "\u00a3", "price_formatted": "\u00a3112,500", "price_high": 112500, "price_low": 112500, "price_type": "fixed", "property_type": "flat", "size": 0, "size_type": "net", "summary": "A 2 bedroom ground floor flat with gas central heating, double glaz...", "thumb_height": 60, "thumb_url": "https://imgs.nestimg.com/medium/2_bedroom_flat_for_sale_111544377091714508.jpg", "thumb_width": 80, "title": "Newtown Road, Highbridge, Somerset", "updated_in_days": 30, "updated_in_days_formatted": "first seen over a month ago"}], "locations": [{"center_lat": 51.080967, "center_long": -3.045432, "long_title": "Somerset, county", "place_name": "somerset", "title": "Somerset"}], "page": 19, "sort": "nestoria_rank", "status_code": "200", "status_text": "OK", "thanks": "For using the Nestoria API.", "total_pages": 410, "total_results": 6149, "_cu5t0mP434m_": "remove"}}