{"request": {"country": "uk", "language": "en", "location": "somerset", "num_res": "15", "offset": 0, "output": "json_xs", "page": 1, "product_type": "realestate", "property_type": "property", "size_type": "net", "size_unit": "m2", "sort": "nestoria_rank", "listing_type": "buy"}, "response": {"application_response_code": "100", "application_response_text": "listings returned for one unambiguous location", "attribution": {"img_height": 22, "img_url": "https://resources.nestimg.com/nestoria/img/pbr_v1.png", "img_width": 183, "link_to_img": "http://www.nestoria.com"}, "created_http": "Tue, 18 Jun 2019 17:28:34 GMT", "created_unix": 1560878914, "link_to_url": "https://www.nestoria.co.uk/somerset/property/buy", "listings": [{"bathroom_number": "", "bedroom_number": 4, "car_spaces": 0, "commission": 0, "construction_year": 0, "datasource_name": "OnTheMarket.com", "img_height": 300, "img_url": "https://imgs.nestimg.com/4_bedroom_semi_detached_house_for_sale_111724141345385929.jpg", "img_width": 400, "keywords": "Freehold, Semi-Detached", "latitude": 51.1462, "lister_name": "Greenslade Taylor Hunt", "lister_url": "https://www.nestoria.co.uk/detail/0000000111724141345385929/title/5/1-1?serpUid=&pt=1&ot=1&l=somerset&did=105_high1&t_sec=9&t_or=45&t_pvid=null&utm_source=api&utm_medium=external", "listing_type": "buy", "location_accuracy": 9, "longitude": -2.98443, "price": 230000, "price_currency": "\u00a3", "price_formatted": "\u00a3230,000", "price_high": 230000, "price_low": 230000, "price_type": "fixed", "property_type": "house", "size": 0, "size_type": "net", "summary": "A well-presented semi-detached residence situated on the kings down...", "thumb_height": 60, "thumb_url": "https://imgs.nestimg.com/medium/4_bedroom_semi_detached_house_for_sale_111724141345385929.jpg", "thumb_width": 80, "title": "Clarence Terrace, Bridgwater, Somerset, TA6", "updated_in_days": 1, "updated_in_days_formatted": "New"}, {"bathroom_number": "", "bedroom_number": 2, "car_spaces": 0, "commission": 0, "construction_year": 0, "datasource_name": "OnTheMarket.com", "img_height": 300, "img_url": "https://imgs.nestimg.com/2_bedroom_semi_detached_house_for_sale_111724142394848879.jpg", "img_width": 400, "keywords": "Freehold, Garden, Semi-Detached, Conversion, Parking", "latitude": 51.1874, "lister_name": "Greenslade Taylor Hunt", "lister_url": "https://www.nestoria.co.uk/detail/0000000111724142394848879/title/5/1-2?serpUid=&pt=1&ot=1&l=somerset&did=105_high1&t_sec=9&t_or=45&t_pvid=null&utm_source=api&utm_medium=external", "listing_type": "buy", "location_accuracy": 9, "longitude": -3.08334, "price": 275000, "price_currency": "\u00a3", "price_formatted": "\u00a3275,000", "price_high": 275000, "price_low": 275000, "price_type": "fixed", "property_type": "house", "size": 0, "size_type": "net", "summary": "Basic rate stamp duty paid for reservations in june t's&c's apply. ...", "thumb_height": 60, "thumb_url": "https://imgs.nestimg.com/medium/2_bedroom_semi_detached_house_for_sale_111724142394848879.jpg", "thumb_width": 80, "title": "Stockland Bristol, Bridgwater, Somerset, TA5", "updated_in_days": 1, "updated_in_days_formatted": "New"}, {"bathroom_number": "", "bedroom_number": 2, "car_spaces": 0, "commission": 0, "construction_year": 0, "datasource_name": "OnTheMarket.com", "img_height": 300, "img_url": "https://imgs.nestimg.com/2_bedroom_semi_detached_house_for_sale_111724141733343902.jpg", "img_width": 400, "keywords": "Freehold, Garden, Semi-Detached, Conversion, Garage", "latitude": 51.0444, "lister_name": "Greenslade Taylor Hunt", "lister_url": "https://www.nestoria.co.uk/detail/0000000111724141733343902/title/5/1-3?serpUid=&pt=1&ot=1&l=somerset&did=105_high1&t_sec=9&t_or=45&t_pvid=null&utm_source=api&utm_medium=external", "listing_type": "buy", "location_accuracy": 9, "longitude": -2.81755, "price": 247500, "price_currency": "\u00a3", "price_formatted": "\u00a3247,500", "price_high": 247500, "price_low": 247500, "price_type": "fixed", "property_type": "house", "size": 0, "size_type": "net", "summary": "Gracious living in this 2 bedroom period conversion with garage and...", "thumb_height": 60, "thumb_url": "https://imgs.nestimg.com/medium/2_bedroom_semi_detached_house_for_sale_111724141733343902.jpg", "thumb_width": 80, "title": "Bartletts Elm, Langport, Somerset, TA10", "updated_in_days": 1, "updated_in_days_formatted": "New"}, {"bathroom_number": "", "bedroom_number": 3, "car_spaces": 0, "commission": 0, "construction_year": 0, "datasource_name": "OnTheMarket.com", "img_height": 300, "img_url": "https://imgs.nestimg.com/3_bedroom_house_for_sale_111724140034803553.jpg", "img_width": 400, "keywords": "Garden, Grade II, Parking, Georgian", "latitude": 50.9267, "lister_name": "Greenslade Taylor Hunt", "lister_url": "https://www.nestoria.co.uk/detail/0000000111724140034803553/title/5/1-4?serpUid=&pt=1&ot=1&l=somerset&did=105_high1&t_sec=9&t_or=45&t_pvid=null&utm_source=api&utm_medium=external", "listing_type": "buy", "location_accuracy": 9, "longitude": -2.90364, "price": 445000, "price_currency": "\u00a3", "price_formatted": "\u00a3445,000", "price_high": 445000, "price_low": 445000, "price_type": "fixed", "property_type": "house", "size": 0, "size_type": "net", "summary": "A most double fronted grade ii georgian period property situated to...", "thumb_height": 60, "thumb_url": "https://imgs.nestimg.com/medium/3_bedroom_house_for_sale_111724140034803553.jpg", "thumb_width": 80, "title": "Bay Hill, Ilminster, Somerset, TA19", "updated_in_days": 1, "updated_in_days_formatted": "New"}, {"bathroom_number": "", "bedroom_number": 1, "car_spaces": 0, "commission": 0, "construction_year": 0, "datasource_name": "OnTheMarket.com", "img_height": 300, "img_url": "https://imgs.nestimg.com/1_bedroom_semi_detached_house_for_sale_111724142340741909.jpg", "img_width": 400, "keywords": "Garden, Semi-Detached, No Chain, Cottage", "latitude": 51.023, "lister_url": "https://www.nestoria.co.uk/detail/0000000111724142340741909/title/5/1-5?serpUid=&pt=1&ot=1&l=somerset&did=105_high1&t_sec=9&t_or=45&t_pvid=null&utm_source=api&utm_medium=external", "listing_type": "buy", "location_accuracy": 9, "longitude": -3.35185, "price": 150000, "price_currency": "\u00a3", "price_formatted": "\u00a3150,000", "price_high": 150000, "price_low": 150000, "price_type": "fixed", "property_type": "house", "size": 0, "size_type": "net", "summary": "A one bedroom character cottage with large garden fronting a stream...", "thumb_height": 60, "thumb_url": "https://imgs.nestimg.com/medium/1_bedroom_semi_detached_house_for_sale_111724142340741909.jpg", "thumb_width": 80, "title": "Waterrow, Taunton, Somerset, TA4", "updated_in_days": 1, "updated_in_days_formatted": "New"}, {"bathroom_number": "", "bedroom_number": 4, "car_spaces": 0, "commission": 0, "construction_year": 0, "datasource_name": "OnTheMarket.com", "img_height": 300, "img_url": "https://imgs.nestimg.com/4_bedroom_detached_house_for_sale_111724131799563899.jpg", "img_width": 400, "keywords": "Detached, Garden", "latitude": 51.0918, "lister_url": "https://www.nestoria.co.uk/detail/0000000111724131799563899/title/5/1-6?serpUid=&pt=1&ot=1&l=somerset&did=105_high1&t_sec=9&t_or=45&t_pvid=null&utm_source=api&utm_medium=external", "listing_type": "buy", "location_accuracy": 9, "longitude": -3.34491, "price": 495000, "price_currency": "\u00a3", "price_formatted": "\u00a3495,000", "price_high": 495000, "price_low": 495000, "price_type": "fixed", "property_type": "house", "size": 0, "size_type": "net", "summary": "A fine detached 4 bedroom farmhouse just outside exmoor national pa...", "thumb_height": 60, "thumb_url": "https://imgs.nestimg.com/medium/4_bedroom_detached_house_for_sale_111724131799563899.jpg", "thumb_width": 80, "title": "Brompton Ralph, Taunton, Somerset, TA4", "updated_in_days": 1, "updated_in_days_formatted": "New"}, {"bathroom_number": "", "bedroom_number": 3, "car_spaces": 0, "commission": 0, "construction_year": 0, "datasource_name": "OnTheMarket.com", "img_height": 300, "img_url": "https://imgs.nestimg.com/3_bedroom_terraced_house_for_sale_111724140630104432.jpg", "img_width": 400, "keywords": "Freehold, Terraced", "latitude": 50.9098, "lister_name": "Greenslade Taylor Hunt", "lister_url": "https://www.nestoria.co.uk/detail/0000000111724140630104432/title/5/1-7?serpUid=&pt=1&ot=1&l=somerset&did=105_high1&t_sec=9&t_or=45&t_pvid=null&utm_source=api&utm_medium=external", "listing_type": "buy", "location_accuracy": 9, "longitude": -2.79729, "price": 195000, "price_currency": "\u00a3", "price_formatted": "\u00a3195,000", "price_high": 195000, "price_low": 195000, "price_type": "fixed", "property_type": "house", "size": 0, "size_type": "net", "summary": "Set at the end of a quiet development, within reach of the centre o...", "thumb_height": 60, "thumb_url": "https://imgs.nestimg.com/medium/3_bedroom_terraced_house_for_sale_111724140630104432.jpg", "thumb_width": 80, "title": "Sherlands Gardens, Merriott, Somerset, TA16", "updated_in_days": 1, "updated_in_days_formatted": "New"}, {"bathroom_number": "", "bedroom_number": 3, "car_spaces": 0, "commission": 0, "construction_year": 0, "datasource_name": "OnTheMarket.com", "img_height": 300, "img_url": "https://imgs.nestimg.com/3_bedroom_detached_house_for_sale_111192287385576342.jpg", "img_width": 400, "keywords": "Detached, Garden, No Chain, Double Bedroom, Parking, Reception", "latitude": 51.0228, "lister_name": "Stags", "lister_url": "https://www.nestoria.co.uk/detail/0000000111192287385576342/title/5/1-8?serpUid=&pt=1&ot=1&l=somerset&did=105_high1&t_sec=9&t_or=45&t_pvid=null&utm_source=api&utm_medium=external", "listing_type": "buy", "location_accuracy": 9, "longitude": -2.97205, "price": 450000, "price_currency": "\u00a3", "price_formatted": "\u00a3450,000", "price_high": 450000, "price_low": 450000, "price_type": "fixed", "property_type": "house", "size": 0, "size_type": "net", "summary": "A most village house situated in a conservation area overlooking a ...", "thumb_height": 60, "thumb_url": "https://imgs.nestimg.com/medium/3_bedroom_detached_house_for_sale_111192287385576342.jpg", "thumb_width": 80, "title": "Queen Square, North Curry, Taunton, Somerset, TA3", "updated_in_days": 3, "updated_in_days_formatted": "first seen 3 days ago"}, {"bathroom_number": "", "bedroom_number": 3, "car_spaces": 0, "commission": 0, "construction_year": 0, "datasource_name": "OnTheMarket.com", "img_height": 300, "img_url": "https://imgs.nestimg.com/3_bedroom_semi_detached_house_for_sale_111724129867955490.jpg", "img_width": 400, "keywords": "Freehold, Needs Modernisation, Semi-Detached, Parking", "latitude": 51.2137, "lister_name": "Greenslade Taylor Hunt", "lister_url": "https://www.nestoria.co.uk/detail/0000000111724129867955490/title/5/1-9?serpUid=&pt=1&ot=1&l=somerset&did=105_high1&t_sec=9&t_or=45&t_pvid=null&utm_source=api&utm_medium=external", "listing_type": "buy", "location_accuracy": 9, "longitude": -2.63015, "price": 225000, "price_currency": "\u00a3", "price_formatted": "\u00a3225,000", "price_high": 225000, "price_low": 225000, "price_type": "fixed", "property_type": "house", "size": 0, "size_type": "net", "summary": "A good size three bedroom semi-detached house, in need of modernisa...", "thumb_height": 60, "thumb_url": "https://imgs.nestimg.com/medium/3_bedroom_semi_detached_house_for_sale_111724129867955490.jpg", "thumb_width": 80, "title": "Hervey Road, Wells, Somerset, BA5", "updated_in_days": 1, "updated_in_days_formatted": "New"}, {"bathroom_number": "", "bedroom_number": 3, "car_spaces": 0, "commission": 0, "construction_year": 0, "datasource_name": "OnTheMarket.com", "img_height": 300, "img_url": "https://imgs.nestimg.com/3_bedroom_house_for_sale_110864492631069488.jpg", "img_width": 400, "keywords": "Garden, Grade II, Reception", "latitude": 51.022182, "lister_url": "https://www.nestoria.co.uk/detail/0000000110864492631069488/title/5/1-10?serpUid=&pt=1&ot=1&l=somerset&did=105_high1&t_sec=9&t_or=45&t_pvid=null&utm_source=api&utm_medium=external", "listing_type": "buy", "location_accuracy": 9, "longitude": -2.576798, "price": 330000, "price_currency": "\u00a3", "price_formatted": "\u00a3330,000", "price_high": 330000, "price_low": 330000, "price_type": "fixed", "property_type": "house", "size": 0, "size_type": "net", "summary": "Period home in pretty village centre position! On a private cobbled...", "thumb_height": 60, "thumb_url": "https://imgs.nestimg.com/medium/3_bedroom_house_for_sale_110864492631069488.jpg", "thumb_width": 80, "title": "Queen Camel, Church Path, Somerset, BA22", "updated_in_days": 1, "updated_in_days_formatted": "New"}, {"bathroom_number": "", "bedroom_number": 2, "car_spaces": 0, "commission": 0, "construction_year": 0, "datasource_name": "OnTheMarket.com", "img_height": 300, "img_url": "https://imgs.nestimg.com/2_bedroom_apartment_for_sale_111724140158883874.jpg", "img_width": 400, "keywords": "Leasehold, Purpose Built", "latitude": 51.206, "lister_url": "https://www.nestoria.co.uk/detail/0000000111724140158883874/title/5/1-11?serpUid=&pt=1&ot=1&l=somerset&did=105_high1&t_sec=9&t_or=45&t_pvid=null&utm_source=api&utm_medium=external", "listing_type": "buy", "location_accuracy": 9, "longitude": -3.46419, "price": 197500, "price_currency": "\u00a3", "price_formatted": "\u00a3197,500", "price_high": 197500, "price_low": 197500, "price_type": "fixed", "property_type": "flat", "size": 0, "size_type": "net", "summary": "A ly presented purpose built two bedroom ground floor apartment enj...", "thumb_height": 60, "thumb_url": "https://imgs.nestimg.com/medium/2_bedroom_apartment_for_sale_111724140158883874.jpg", "thumb_width": 80, "title": "Cutters Wharf, Trinity Way, Minehead, Somerset, TA24", "updated_in_days": 1, "updated_in_days_formatted": "New"}, {"bathroom_number": "", "bedroom_number": 2, "car_spaces": 0, "commission": 0, "construction_year": 0, "datasource_name": "OnTheMarket.com", "img_height": 300, "img_url": "https://imgs.nestimg.com/2_bedroom_apartment_for_sale_111711529163435545.jpg", "img_width": 400, "keywords": "", "latitude": 51.0117, "lister_name": "Greenslade Taylor Hunt", "lister_url": "https://www.nestoria.co.uk/detail/0000000111711529163435545/title/5/1-12?serpUid=&pt=1&ot=1&l=somerset&did=105_high1&t_sec=9&t_or=45&t_pvid=null&utm_source=api&utm_medium=external", "listing_type": "buy", "location_accuracy": 9, "longitude": -3.10403, "price": 88000, "price_currency": "\u00a3", "price_formatted": "\u00a388,000", "price_high": 88000, "price_low": 88000, "price_type": "fixed", "property_type": "flat", "size": 0, "size_type": "net", "summary": "A top floor 2 bedroom flat situated within this centrally located d...", "thumb_height": 60, "thumb_url": "https://imgs.nestimg.com/medium/2_bedroom_apartment_for_sale_111711529163435545.jpg", "thumb_width": 80, "title": "Vivary Gate, Upper High Street, Taunton, Somerset, TA1", "updated_in_days": 3, "updated_in_days_formatted": "first seen 3 days ago"}, {"bathroom_number": "", "bedroom_number": 5, "car_spaces": 0, "commission": 0, "construction_year": 0, "datasource_name": "OnTheMarket.com", "img_height": 300, "img_url": "https://imgs.nestimg.com/5_bedroom_detached_house_for_sale_111724140054761839.jpg", "img_width": 400, "keywords": "Detached", "latitude": 51.324886, "lister_name": "Knight Frank", "lister_url": "https://www.nestoria.co.uk/detail/0000000111724140054761839/title/5/1-13?serpUid=&pt=1&ot=1&l=somerset&did=105_high1&t_sec=9&t_or=45&t_pvid=null&utm_source=api&utm_medium=external", "listing_type": "buy", "location_accuracy": 9, "longitude": -2.721314, "price": 1200000, "price_currency": "\u00a3", "price_formatted": "\u00a31,200,000", "price_high": 1200000, "price_low": 1200000, "price_type": "fixed", "property_type": "house", "size": 0, "size_type": "net", "summary": "Outstanding contemporary village home for sale in blagdon, near bri...", "thumb_height": 60, "thumb_url": "https://imgs.nestimg.com/medium/5_bedroom_detached_house_for_sale_111724140054761839.jpg", "thumb_width": 80, "title": "Rhodyate, Blagdon, Bristol, North Somerset, BS40", "updated_in_days": 1, "updated_in_days_formatted": "New"}, {"bathroom_number": "", "bedroom_number": 3, "car_spaces": 0, "commission": 0, "construction_year": 0, "datasource_name": "OnTheMarket.com", "img_height": 300, "img_url": "https://imgs.nestimg.com/3_bedroom_bungalow_for_sale_111711522099839106.jpg", "img_width": 400, "keywords": "Detached, Freehold, Garage, Bungalow", "latitude": 51.1931, "lister_name": "Greenslade Taylor Hunt", "lister_url": "https://www.nestoria.co.uk/detail/0000000111711522099839106/title/5/1-14?serpUid=&pt=1&ot=1&l=somerset&did=105_high1&t_sec=9&t_or=45&t_pvid=null&utm_source=api&utm_medium=external", "listing_type": "buy", "location_accuracy": 9, "longitude": -3.15598, "price": 475000, "price_currency": "\u00a3", "price_formatted": "\u00a3475,000", "price_high": 475000, "price_low": 475000, "price_type": "fixed", "property_type": "house", "size": 0, "size_type": "net", "summary": "A detached bungalow set in a large plot and benefiting from a detac...", "thumb_height": 60, "thumb_url": "https://imgs.nestimg.com/medium/3_bedroom_bungalow_for_sale_111711522099839106.jpg", "thumb_width": 80, "title": "Knighton Lane, Nr Stogursey, Bridgwater, Somerset, TA5", "updated_in_days": 3, "updated_in_days_formatted": "first seen 3 days ago"}, {"bathroom_number": "", "bedroom_number": 3, "car_spaces": 0, "commission": 0, "construction_year": 0, "datasource_name": "OnTheMarket.com", "img_height": 300, "img_url": "https://imgs.nestimg.com/3_bedroom_detached_bungalow_for_sale_111711528202244895.jpg", "img_width": 400, "keywords": "Detached, Garden, Bungalow", "latitude": 51.0826, "lister_name": "Greenslade Taylor Hunt", "lister_url": "https://www.nestoria.co.uk/detail/0000000111711528202244895/title/5/1-15?serpUid=&pt=1&ot=1&l=somerset&did=105_high1&t_sec=9&t_or=45&t_pvid=null&utm_source=api&utm_medium=external", "listing_type": "buy", "location_accuracy": 9, "longitude": -3.24578, "price": 450000, "price_currency": "\u00a3", "price_formatted": "\u00a3450,000", "price_high": 450000, "price_low": 450000, "price_type": "fixed", "property_type": "house", "size": 0, "size_type": "net", "summary": "A ly situated detached bungalow enjoying an elevated position with ...", "thumb_height": 60, "thumb_url": "https://imgs.nestimg.com/medium/3_bedroom_detached_bungalow_for_sale_111711528202244895.jpg", "thumb_width": 80, "title": "Church Close, Lydeard St. Lawrence, Taunton, Somerset, TA4", "updated_in_days": 3, "updated_in_days_formatted": "first seen 3 days ago"}], "locations": [{"center_lat": 51.080967, "center_long": -3.045432, "long_title": "Somerset, county", "place_name": "somerset", "title": "Somerset"}], "page": 1, "sort": "nestoria_rank", "status_code": "200", "status_text": "OK", "thanks": "For using the Nestoria API.", "total_pages": 410, "total_results": 6149, "_cu5t0mP434m_": "remove"}}