{"request": {"country": "uk", "language": "en", "location": "somerset", "num_res": "15", "offset": 285, "output": "json_xs", "page": 20, "product_type": "realestate", "property_type": "property", "size_type": "net", "size_unit": "m2", "sort": "nestoria_rank", "listing_type": "buy"}, "response": {"application_response_code": "100", "application_response_text": "listings returned for one unambiguous location", "attribution": {"img_height": 22, "img_url": "https://resources.nestimg.com/nestoria/img/pbr_v1.png", "img_width": 183, "link_to_img": "http://www.nestoria.com"}, "created_http": "Tue, 18 Jun 2019 17:29:04 GMT", "created_unix": 1560878944, "link_to_url": "https://www.nestoria.co.uk/somerset/property/buy/20", "listings": [{"bathroom_number": "", "bedroom_number": 6, "car_spaces": 0, "commission": 0, "construction_year": 0, "datasource_name": "OnTheMarket.com", "img_height": 300, "img_url": "https://imgs.nestimg.com/6_bedroom_house_for_sale_111637556620653020.jpg", "img_width": 400, "keywords": "Grade II, Refurbished, Cottage, Listed", "latitude": 50.9129, "lister_name": "Greenslade Taylor Hunt", "lister_url": "https://www.nestoria.co.uk/detail/0000000111637556620653020/title/5/20-1?serpUid=&pt=1&ot=1&l=somerset&did=105_high1&t_sec=9&t_or=45&t_pvid=null&utm_source=api&utm_medium=external", "listing_type": "buy", "location_accuracy": 9, "longitude": -2.92768, "price": 745000, "price_currency": "\u00a3", "price_formatted": "\u00a3745,000", "price_high": 745000, "price_low": 745000, "price_type": "fixed", "property_type": "house", "size": 0, "size_type": "net", "summary": "A fully refurbished and 6 bedroom grade ii listed character farmhou...", "thumb_height": 60, "thumb_url": "https://imgs.nestimg.com/medium/6_bedroom_house_for_sale_111637556620653020.jpg", "thumb_width": 80, "title": "Sea, Ilminster, Somerset, TA19", "updated_in_days": 15, "updated_in_days_formatted": "first seen 2 weeks ago"}, {"bathroom_number": 2, "bedroom_number": 3, "car_spaces": 0, "commission": 0, "construction_year": 0, "datasource_name": "OnTheMarket.com", "img_height": 300, "img_url": "https://imgs.nestimg.com/3_bedroom_cottage_for_sale_111699715451629372.jpg", "img_width": 400, "keywords": "Detached, Garden, No Chain, Off Street Parking, Patio, Cottage", "latitude": 51.334526, "lister_url": "https://www.nestoria.co.uk/detail/0000000111699715451629372/title/5/20-2?serpUid=&pt=1&ot=1&l=somerset&did=105_high1&t_sec=9&t_or=45&t_pvid=null&utm_source=api&utm_medium=external", "listing_type": "buy", "location_accuracy": 9, "longitude": -2.4087, "price": 325000, "price_currency": "\u00a3", "price_formatted": "\u00a3325,000", "price_high": 325000, "price_low": 325000, "price_type": "fixed", "property_type": "house", "size": 0, "size_type": "net", "summary": "A three bedroom detached cottage with views over the cam valley. Th...", "thumb_height": 60, "thumb_url": "https://imgs.nestimg.com/medium/3_bedroom_cottage_for_sale_111699715451629372.jpg", "thumb_width": 80, "title": "Dunkerton, BATH, Somerset, BA2", "updated_in_days": 5, "updated_in_days_formatted": "first seen 5 days ago"}, {"bathroom_number": 2, "bedroom_number": 3, "car_spaces": 0, "commission": 0, "construction_year": 0, "datasource_name": "OnTheMarket.com", "img_height": 300, "img_url": "https://imgs.nestimg.com/3_bedroom_detached_bungalow_for_sale_111594154654253349.jpg", "img_width": 400, "keywords": "Detached, Bungalow", "latitude": 50.896, "lister_name": "Greenslade Taylor Hunt", "lister_url": "https://www.nestoria.co.uk/detail/0000000111594154654253349/title/5/20-3?serpUid=&pt=1&ot=1&l=somerset&did=105_high1&t_sec=9&t_or=45&t_pvid=null&utm_source=api&utm_medium=external", "listing_type": "buy", "location_accuracy": 9, "longitude": -2.97502, "price": 650000, "price_currency": "\u00a3", "price_formatted": "\u00a3650,000", "price_high": 650000, "price_low": 650000, "price_type": "fixed", "property_type": "house", "size": 0, "size_type": "net", "summary": "An individual architect designed 3 double bedroomed and 2 bathroom ...", "thumb_height": 60, "thumb_url": "https://imgs.nestimg.com/medium/3_bedroom_detached_bungalow_for_sale_111594154654253349.jpg", "thumb_width": 80, "title": "Clayhanger, Chard, Somerset, TA20", "updated_in_days": 22, "updated_in_days_formatted": "first seen 3 weeks ago"}, {"bathroom_number": "", "bedroom_number": 4, "car_spaces": 0, "commission": 0, "construction_year": 0, "datasource_name": "OnTheMarket.com", "img_height": 300, "img_url": "https://imgs.nestimg.com/4_bedroom_semi_detached_house_for_sale_110617139026416434.jpg", "img_width": 400, "keywords": "Freehold, Semi-Detached", "latitude": 51.1599, "lister_name": "Greenslade Taylor Hunt", "lister_url": "https://www.nestoria.co.uk/detail/0000000110617139026416434/title/5/20-4?serpUid=&pt=1&ot=1&l=somerset&did=105_high1&t_sec=9&t_or=45&t_pvid=null&utm_source=api&utm_medium=external", "listing_type": "buy", "location_accuracy": 9, "longitude": -3.21324, "price": 399950, "price_currency": "\u00a3", "price_formatted": "\u00a3399,950", "price_high": 399950, "price_low": 399950, "price_type": "fixed", "property_type": "house", "size": 0, "size_type": "net", "summary": "A four bedroom attached period house located in this historic villa...", "thumb_height": 60, "thumb_url": "https://imgs.nestimg.com/medium/4_bedroom_semi_detached_house_for_sale_110617139026416434.jpg", "thumb_width": 80, "title": "Holford, Bridgwater, Somerset, TA5", "updated_in_days": 83, "updated_in_days_formatted": "first seen over a month ago"}, {"bathroom_number": "", "bedroom_number": 3, "car_spaces": 0, "commission": 0, "construction_year": 0, "datasource_name": "OnTheMarket.com", "img_height": 300, "img_url": "https://imgs.nestimg.com/3_bedroom_bungalow_for_sale_111241505209950977.jpg", "img_width": 400, "keywords": "Garden, Semi-Detached, Kitchen, Bungalow, Parking", "latitude": 51.0264, "lister_name": "Stags", "lister_url": "https://www.nestoria.co.uk/detail/0000000111241505209950977/title/5/20-5?serpUid=&pt=1&ot=1&l=somerset&did=105_high1&t_sec=9&t_or=45&t_pvid=null&utm_source=api&utm_medium=external", "listing_type": "buy", "location_accuracy": 9, "longitude": -3.25482, "price": 198000, "price_currency": "\u00a3", "price_formatted": "\u00a3198,000", "price_high": 198000, "price_low": 198000, "price_type": "fixed", "property_type": "house", "size": 0, "size_type": "net", "summary": "A three bedroom semi detached bungalow with large attic, enclosed g...", "thumb_height": 60, "thumb_url": "https://imgs.nestimg.com/medium/3_bedroom_bungalow_for_sale_111241505209950977.jpg", "thumb_width": 80, "title": "Wood Street, Milverton, Taunton, Somerset, TA4", "updated_in_days": 79, "updated_in_days_formatted": "first seen over a month ago"}, {"bathroom_number": "", "bedroom_number": 2, "car_spaces": 0, "commission": 0, "construction_year": 0, "datasource_name": "OnTheMarket.com", "img_height": 300, "img_url": "https://imgs.nestimg.com/2_bedroom_detached_bungalow_for_sale_109825720775187186.jpg", "img_width": 400, "keywords": "Detached, Freehold, Garden, Bungalow, Parking", "latitude": 50.9764, "lister_name": "Greenslade Taylor Hunt", "lister_url": "https://www.nestoria.co.uk/detail/0000000109825720775187186/title/5/20-6?serpUid=&pt=1&ot=1&l=somerset&did=105_high1&t_sec=9&t_or=45&t_pvid=null&utm_source=api&utm_medium=external", "listing_type": "buy", "location_accuracy": 9, "longitude": -3.18094, "price": 230000, "price_currency": "\u00a3", "price_formatted": "\u00a3230,000", "price_high": 230000, "price_low": 230000, "price_type": "fixed", "property_type": "house", "size": 0, "size_type": "net", "summary": "An ideal investment opportunity. A detached 2 bedroom holiday bunga...", "thumb_height": 60, "thumb_url": "https://imgs.nestimg.com/medium/2_bedroom_detached_bungalow_for_sale_109825720775187186.jpg", "thumb_width": 80, "title": "West Buckland, Wellington, Somerset, TA21", "updated_in_days": 308, "updated_in_days_formatted": "first seen over a month ago"}, {"bathroom_number": "", "bedroom_number": 4, "car_spaces": 0, "commission": 0, "construction_year": 0, "datasource_name": "OnTheMarket.com", "img_height": 300, "img_url": "https://imgs.nestimg.com/4_bedroom_detached_house_for_sale_111519977136166163.jpg", "img_width": 400, "keywords": "Detached, Freehold", "latitude": 50.9485, "lister_name": "Greenslade Taylor Hunt", "lister_url": "https://www.nestoria.co.uk/detail/0000000111519977136166163/title/5/20-7?serpUid=&pt=1&ot=1&l=somerset&did=105_high1&t_sec=9&t_or=45&t_pvid=null&utm_source=api&utm_medium=external", "listing_type": "buy", "location_accuracy": 9, "longitude": -3.09643, "price": 950000, "price_currency": "\u00a3", "price_formatted": "\u00a3950,000", "price_high": 950000, "price_low": 950000, "price_type": "fixed", "property_type": "house", "size": 0, "size_type": "net", "summary": "A ally positioned country residence enjoying breath-taking views of...", "thumb_height": 60, "thumb_url": "https://imgs.nestimg.com/medium/4_bedroom_detached_house_for_sale_111519977136166163.jpg", "thumb_width": 80, "title": "Corfe, Taunton, Somerset, TA3", "updated_in_days": 34, "updated_in_days_formatted": "first seen over a month ago"}, {"bathroom_number": "", "bedroom_number": 2, "car_spaces": 0, "commission": 0, "construction_year": 0, "datasource_name": "OnTheMarket.com", "img_height": 300, "img_url": "https://imgs.nestimg.com/2_bedroom_semi_detached_house_for_sale_111526289894781778.jpg", "img_width": 400, "keywords": "Freehold, Garden, Semi-Detached, Garage", "latitude": 50.9823, "lister_name": "Greenslade Taylor Hunt", "lister_url": "https://www.nestoria.co.uk/detail/0000000111526289894781778/title/5/20-8?serpUid=&pt=1&ot=1&l=somerset&did=105_high1&t_sec=9&t_or=45&t_pvid=null&utm_source=api&utm_medium=external", "listing_type": "buy", "location_accuracy": 9, "longitude": -3.24016, "price": 175000, "price_currency": "\u00a3", "price_formatted": "\u00a3175,000", "price_high": 175000, "price_low": 175000, "price_type": "fixed", "property_type": "house", "size": 0, "size_type": "net", "summary": "A semi detached 2/3 bedroomed house with 22ft 8in living/dining roo...", "thumb_height": 60, "thumb_url": "https://imgs.nestimg.com/medium/2_bedroom_semi_detached_house_for_sale_111526289894781778.jpg", "thumb_width": 80, "title": "Springfield Road, Wellington, Somerset, TA21", "updated_in_days": 33, "updated_in_days_formatted": "first seen over a month ago"}, {"bathroom_number": "", "bedroom_number": 4, "car_spaces": 0, "commission": 0, "construction_year": 0, "datasource_name": "OnTheMarket.com", "img_height": 300, "img_url": "https://imgs.nestimg.com/4_bedroom_detached_house_for_sale_111618953851730881.jpg", "img_width": 400, "keywords": "Detached, Freehold, Garage, Modern", "latitude": 51.243, "lister_name": "Greenslade Taylor Hunt", "lister_url": "https://www.nestoria.co.uk/detail/0000000111618953851730881/title/5/20-9?serpUid=&pt=1&ot=1&l=somerset&did=105_high1&t_sec=9&t_or=45&t_pvid=null&utm_source=api&utm_medium=external", "listing_type": "buy", "location_accuracy": 9, "longitude": -2.98127, "price": 279950, "price_currency": "\u00a3", "price_formatted": "\u00a3279,950", "price_high": 279950, "price_low": 279950, "price_type": "fixed", "property_type": "house", "size": 0, "size_type": "net", "summary": "This modern 4 bedroom detached residence has been recently upgraded...", "thumb_height": 60, "thumb_url": "https://imgs.nestimg.com/medium/4_bedroom_detached_house_for_sale_111618953851730881.jpg", "thumb_width": 80, "title": "Bathurst Close, Burnham-on-Sea, Somerset, TA8", "updated_in_days": 18, "updated_in_days_formatted": "first seen 2 weeks ago"}, {"bathroom_number": "", "bedroom_number": 4, "car_spaces": 0, "commission": 0, "construction_year": 0, "datasource_name": "OnTheMarket.com", "img_height": 300, "img_url": "https://imgs.nestimg.com/4_bedroom_detached_house_for_sale_111359022272596940.jpg", "img_width": 400, "keywords": "Detached, Kitchen, Reception", "latitude": 50.9591, "lister_name": "Stags", "lister_url": "https://www.nestoria.co.uk/detail/0000000111359022272596940/title/5/20-10?serpUid=&pt=1&ot=1&l=somerset&did=105_high1&t_sec=9&t_or=45&t_pvid=null&utm_source=api&utm_medium=external", "listing_type": "buy", "location_accuracy": 9, "longitude": -2.99221, "price": 750000, "price_currency": "\u00a3", "price_formatted": "\u00a3750,000", "price_high": 750000, "price_low": 750000, "price_type": "fixed", "property_type": "house", "size": 0, "size_type": "net", "summary": "A well located small holding centred on a detached house with outbu...", "thumb_height": 60, "thumb_url": "https://imgs.nestimg.com/medium/4_bedroom_detached_house_for_sale_111359022272596940.jpg", "thumb_width": 80, "title": "Stewley, Ashill, Ilminster, Somerset, TA19", "updated_in_days": 60, "updated_in_days_formatted": "first seen over a month ago"}, {"bathroom_number": "", "bedroom_number": 3, "car_spaces": 0, "commission": 0, "construction_year": 0, "datasource_name": "OnTheMarket.com", "img_height": 300, "img_url": "https://imgs.nestimg.com/3_bedroom_detached_house_for_sale_111563227653759091.jpg", "img_width": 400, "keywords": "Detached, No Chain", "latitude": 51.1732, "lister_name": "Wilkie May & Tuckwood", "lister_url": "https://www.nestoria.co.uk/detail/0000000111563227653759091/title/5/20-11?serpUid=&pt=1&ot=1&l=somerset&did=105_high1&t_sec=9&t_or=45&t_pvid=null&utm_source=api&utm_medium=external", "listing_type": "buy", "location_accuracy": 9, "longitude": -3.28763, "price": 340000, "price_currency": "\u00a3", "price_formatted": "\u00a3340,000", "price_high": 340000, "price_low": 340000, "price_type": "fixed", "property_type": "house", "size": 0, "size_type": "net", "summary": "Unique property with no onward chain an and most individual, detach...", "thumb_height": 60, "thumb_url": "https://imgs.nestimg.com/medium/3_bedroom_detached_house_for_sale_111563227653759091.jpg", "thumb_width": 80, "title": "West Quantoxhead, Taunton, Somerset TA4", "updated_in_days": 10, "updated_in_days_formatted": "first seen last week"}, {"bathroom_number": "", "bedroom_number": 2, "car_spaces": 0, "commission": 0, "construction_year": 0, "datasource_name": "OnTheMarket.com", "img_height": 300, "img_url": "https://imgs.nestimg.com/2_bedroom_semi_detached_house_for_sale_111309467483383257.jpg", "img_width": 400, "keywords": "Garden, Semi-Detached, No Chain, Modern, Parking, Gas Central Heating", "latitude": 51.2298, "lister_url": "https://www.nestoria.co.uk/detail/0000000111309467483383257/title/5/20-12?serpUid=&pt=1&ot=1&l=somerset&did=105_high1&t_sec=9&t_or=45&t_pvid=null&utm_source=api&utm_medium=external", "listing_type": "buy", "location_accuracy": 9, "longitude": -2.97802, "price": 175000, "price_currency": "\u00a3", "price_formatted": "\u00a3175,000", "price_high": 175000, "price_low": 175000, "price_type": "fixed", "property_type": "house", "size": 0, "size_type": "net", "summary": "A modern two bedroom semi detached house with gas central heating g...", "thumb_height": 60, "thumb_url": "https://imgs.nestimg.com/medium/2_bedroom_semi_detached_house_for_sale_111309467483383257.jpg", "thumb_width": 80, "title": "Stone Road, Burnham-on-sea, Somerset", "updated_in_days": 67, "updated_in_days_formatted": "first seen over a month ago"}, {"bathroom_number": "", "bedroom_number": 5, "car_spaces": 0, "commission": 0, "construction_year": 0, "datasource_name": "OnTheMarket.com", "img_height": 300, "img_url": "https://imgs.nestimg.com/5_bedroom_detached_house_for_sale_111687585244534005.jpg", "img_width": 400, "keywords": "Detached", "latitude": 51.245, "lister_url": "https://www.nestoria.co.uk/detail/0000000111687585244534005/title/5/20-13?serpUid=&pt=1&ot=1&l=somerset&did=105_high1&t_sec=9&t_or=45&t_pvid=null&utm_source=api&utm_medium=external", "listing_type": "buy", "location_accuracy": 9, "longitude": -2.84204, "price": 2450000, "price_currency": "\u00a3", "price_formatted": "\u00a32,450,000", "price_high": 2450000, "price_low": 2450000, "price_type": "fixed", "property_type": "house", "size": 0, "size_type": "net", "summary": "A small country estate with equestrian facilities set in somerset c...", "thumb_height": 60, "thumb_url": "https://imgs.nestimg.com/medium/5_bedroom_detached_house_for_sale_111687585244534005.jpg", "thumb_width": 80, "title": "Ashton Road Farm, Ashton, WEDMORE, Somerset", "updated_in_days": 7, "updated_in_days_formatted": "first seen last week"}, {"bathroom_number": "", "bedroom_number": 4, "car_spaces": 0, "commission": 0, "construction_year": 0, "datasource_name": "OnTheMarket.com", "img_height": 300, "img_url": "https://imgs.nestimg.com/4_bedroom_semi_detached_house_for_sale_111631125960683091.jpg", "img_width": 400, "keywords": "Freehold, Garden, Semi-Detached, Parking", "latitude": 51.2524, "lister_name": "Greenslade Taylor Hunt", "lister_url": "https://www.nestoria.co.uk/detail/0000000111631125960683091/title/5/20-14?serpUid=&pt=1&ot=1&l=somerset&did=105_high1&t_sec=9&t_or=45&t_pvid=null&utm_source=api&utm_medium=external", "listing_type": "buy", "location_accuracy": 9, "longitude": -2.99803, "price": 389950, "price_currency": "\u00a3", "price_formatted": "\u00a3389,950", "price_high": 389950, "price_low": 389950, "price_type": "fixed", "property_type": "house", "size": 0, "size_type": "net", "summary": "This tastefully-presented and , characterful, mature, 3 bedroom sem...", "thumb_height": 60, "thumb_url": "https://imgs.nestimg.com/medium/4_bedroom_semi_detached_house_for_sale_111631125960683091.jpg", "thumb_width": 80, "title": "& 136A Berrow Road, Burnham-on-Sea, Somerset, TA8", "updated_in_days": 16, "updated_in_days_formatted": "first seen 2 weeks ago"}, {"bathroom_number": "", "bedroom_number": 6, "car_spaces": 0, "commission": 0, "construction_year": 0, "datasource_name": "OnTheMarket.com", "img_height": 300, "img_url": "https://imgs.nestimg.com/6_bedroom_semi_detached_house_for_sale_111186362081677679.jpg", "img_width": 400, "keywords": "Freehold, Semi-Detached, Listed", "latitude": 51.0372, "lister_name": "Greenslade Taylor Hunt", "lister_url": "https://www.nestoria.co.uk/detail/0000000111186362081677679/title/5/20-15?serpUid=&pt=1&ot=1&l=somerset&did=105_high1&t_sec=9&t_or=45&t_pvid=null&utm_source=api&utm_medium=external", "listing_type": "buy", "location_accuracy": 9, "longitude": -2.82659, "price": 350000, "price_currency": "\u00a3", "price_formatted": "\u00a3350,000", "price_high": 350000, "price_low": 350000, "price_type": "fixed", "property_type": "house", "size": 0, "size_type": "net", "summary": "This , gii listed period townhouse is deserving of restoration and ...", "thumb_height": 60, "thumb_url": "https://imgs.nestimg.com/medium/6_bedroom_semi_detached_house_for_sale_111186362081677679.jpg", "thumb_width": 80, "title": "The Hill, Langport, Somerset, TA10", "updated_in_days": 88, "updated_in_days_formatted": "first seen over a month ago"}], "locations": [{"center_lat": 51.080967, "center_long": -3.045432, "long_title": "Somerset, county", "place_name": "somerset", "title": "Somerset"}], "page": 20, "sort": "nestoria_rank", "status_code": "200", "status_text": "OK", "thanks": "For using the Nestoria API.", "total_pages": 410, "total_results": 6149, "_cu5t0mP434m_": "remove"}}