{"request": {"country": "uk", "language": "en", "location": "somerset", "num_res": "15", "offset": 300, "output": "json_xs", "page": 21, "product_type": "realestate", "property_type": "property", "size_type": "net", "size_unit": "m2", "sort": "nestoria_rank", "listing_type": "buy"}, "response": {"application_response_code": "100", "application_response_text": "listings returned for one unambiguous location", "attribution": {"img_height": 22, "img_url": "https://resources.nestimg.com/nestoria/img/pbr_v1.png", "img_width": 183, "link_to_img": "http://www.nestoria.com"}, "created_http": "Tue, 18 Jun 2019 17:29:06 GMT", "created_unix": 1560878946, "link_to_url": "https://www.nestoria.co.uk/somerset/property/buy/21", "listings": [{"bathroom_number": "", "bedroom_number": 5, "car_spaces": 0, "commission": 0, "construction_year": 0, "datasource_name": "OnTheMarket.com", "img_height": 300, "img_url": "https://imgs.nestimg.com/5_bedroom_detached_house_for_sale_111260128145156348.jpg", "img_width": 400, "keywords": "Detached, Garden, En suite, Conversion, Garage, Kitchen, Modern, Reception", "latitude": 50.9859, "lister_name": "Stags", "lister_url": "https://www.nestoria.co.uk/detail/0000000111260128145156348/title/5/21-1?serpUid=&pt=1&ot=1&l=somerset&did=105_high1&t_sec=9&t_or=45&t_pvid=null&utm_source=api&utm_medium=external", "listing_type": "buy", "location_accuracy": 9, "longitude": -2.76589, "price": 525000, "price_currency": "\u00a3", "price_formatted": "\u00a3525,000", "price_high": 525000, "price_low": 525000, "price_type": "fixed", "property_type": "house", "size": 0, "size_type": "net", "summary": "A converted cider mill offering a unique blend of modern facilities...", "thumb_height": 60, "thumb_url": "https://imgs.nestimg.com/medium/5_bedroom_detached_house_for_sale_111260128145156348.jpg", "thumb_width": 80, "title": "Stapleton, Martock, Somerset, TA12", "updated_in_days": 76, "updated_in_days_formatted": "first seen over a month ago"}, {"bathroom_number": "", "bedroom_number": 3, "car_spaces": 0, "commission": 0, "construction_year": 0, "datasource_name": "OnTheMarket.com", "img_height": 300, "img_url": "https://imgs.nestimg.com/3_bedroom_house_for_sale_111359007471797204.jpg", "img_width": 400, "keywords": "Detached", "latitude": 50.9318, "lister_name": "Greenslade Taylor Hunt", "lister_url": "https://www.nestoria.co.uk/detail/0000000111359007471797204/title/5/21-2?serpUid=&pt=1&ot=1&l=somerset&did=105_high1&t_sec=9&t_or=45&t_pvid=null&utm_source=api&utm_medium=external", "listing_type": "buy", "location_accuracy": 9, "longitude": -2.91596, "price": 425000, "price_currency": "\u00a3", "price_formatted": "\u00a3425,000", "price_high": 425000, "price_low": 425000, "price_type": "fixed", "property_type": "house", "size": 0, "size_type": "net", "summary": "A detached individual house situated on the extreme edge of the tow...", "thumb_height": 60, "thumb_url": "https://imgs.nestimg.com/medium/3_bedroom_house_for_sale_111359007471797204.jpg", "thumb_width": 80, "title": "The Beacon, Ilminster, Somerset, TA19", "updated_in_days": 10, "updated_in_days_formatted": "first seen last week"}, {"bathroom_number": "", "bedroom_number": 3, "car_spaces": 0, "commission": 0, "construction_year": 0, "datasource_name": "OnTheMarket.com", "img_height": 300, "img_url": "https://imgs.nestimg.com/3_bedroom_detached_house_for_sale_111186361271088651.jpg", "img_width": 400, "keywords": "Detached, Freehold, Garden, No Chain, Garage, Cottage", "latitude": 51.2565, "lister_name": "Greenslade Taylor Hunt", "lister_url": "https://www.nestoria.co.uk/detail/0000000111186361271088651/title/5/21-3?serpUid=&pt=1&ot=1&l=somerset&did=105_high1&t_sec=9&t_or=45&t_pvid=null&utm_source=api&utm_medium=external", "listing_type": "buy", "location_accuracy": 9, "longitude": -2.96293, "price": 350000, "price_currency": "\u00a3", "price_formatted": "\u00a3350,000", "price_high": 350000, "price_low": 350000, "price_type": "fixed", "property_type": "house", "size": 0, "size_type": "net", "summary": "This highly individual 90's built 3 bedroom detached residence offe...", "thumb_height": 60, "thumb_url": "https://imgs.nestimg.com/medium/3_bedroom_detached_house_for_sale_111186361271088651.jpg", "thumb_width": 80, "title": "Brent Street, Brent Knoll, Highbridge, Somerset, TA9", "updated_in_days": 32, "updated_in_days_formatted": "first seen over a month ago"}, {"bathroom_number": "", "bedroom_number": 3, "car_spaces": 0, "commission": 0, "construction_year": 0, "datasource_name": "OnTheMarket.com", "img_height": 300, "img_url": "https://imgs.nestimg.com/3_bedroom_terraced_house_for_sale_111241508065274382.jpg", "img_width": 400, "keywords": "Freehold, Garden, Terraced", "latitude": 50.9285, "lister_name": "Greenslade Taylor Hunt", "lister_url": "https://www.nestoria.co.uk/detail/0000000111241508065274382/title/5/21-4?serpUid=&pt=1&ot=1&l=somerset&did=105_high1&t_sec=9&t_or=45&t_pvid=null&utm_source=api&utm_medium=external", "listing_type": "buy", "location_accuracy": 9, "longitude": -2.90568, "price": 185000, "price_currency": "\u00a3", "price_formatted": "\u00a3185,000", "price_high": 185000, "price_low": 185000, "price_type": "fixed", "property_type": "house", "size": 0, "size_type": "net", "summary": "61 blackdown view offers bright and 3 bedroomed family accommodatio...", "thumb_height": 60, "thumb_url": "https://imgs.nestimg.com/medium/3_bedroom_terraced_house_for_sale_111241508065274382.jpg", "thumb_width": 80, "title": "Blackdown View, Ilminster, Somerset, TA19", "updated_in_days": 13, "updated_in_days_formatted": "first seen last week"}, {"bathroom_number": "", "bedroom_number": 5, "car_spaces": 0, "commission": 0, "construction_year": 0, "datasource_name": "OnTheMarket.com", "img_height": 300, "img_url": "https://imgs.nestimg.com/5_bedroom_bungalow_for_sale_111643773423923768.jpg", "img_width": 400, "keywords": "Detached, Garden, En suite, Double Garage, Bungalow, Modern", "latitude": 51.1598, "lister_name": "Wilkie May & Tuckwood", "lister_url": "https://www.nestoria.co.uk/detail/0000000111643773423923768/title/5/21-5?serpUid=&pt=1&ot=1&l=somerset&did=105_high1&t_sec=9&t_or=45&t_pvid=null&utm_source=api&utm_medium=external", "listing_type": "buy", "location_accuracy": 9, "longitude": -3.37991, "price": 695000, "price_currency": "\u00a3", "price_formatted": "\u00a3695,000", "price_high": 695000, "price_low": 695000, "price_type": "fixed", "property_type": "house", "size": 0, "size_type": "net", "summary": "One acre of gardens, 2 annexes and a south facing plot a modern and...", "thumb_height": 60, "thumb_url": "https://imgs.nestimg.com/medium/5_bedroom_bungalow_for_sale_111643773423923768.jpg", "thumb_width": 80, "title": "Bilbrook, Minehead, Somerset TA24", "updated_in_days": 14, "updated_in_days_formatted": "first seen 2 weeks ago"}, {"bathroom_number": "", "bedroom_number": 4, "car_spaces": 0, "commission": 0, "construction_year": 0, "datasource_name": "OnTheMarket.com", "img_height": 300, "img_url": "https://imgs.nestimg.com/4_bedroom_terraced_house_for_sale_111618953829721823.jpg", "img_width": 400, "keywords": "Conversion, Terraced", "latitude": 51.2212, "lister_url": "https://www.nestoria.co.uk/detail/0000000111618953829721823/title/5/21-6?serpUid=&pt=1&ot=1&l=somerset&did=105_high1&t_sec=9&t_or=45&t_pvid=null&utm_source=api&utm_medium=external", "listing_type": "buy", "location_accuracy": 9, "longitude": -2.97509, "price": 104995, "price_currency": "\u00a3", "price_formatted": "\u00a3104,995", "price_high": 104995, "price_low": 104995, "price_type": "fixed", "property_type": "house", "size": 0, "size_type": "net", "summary": "A large property which includes ground floor shop premises and stor...", "thumb_height": 60, "thumb_url": "https://imgs.nestimg.com/medium/4_bedroom_terraced_house_for_sale_111618953829721823.jpg", "thumb_width": 80, "title": "Church Street, Highbridge, Somerset", "updated_in_days": 18, "updated_in_days_formatted": "first seen 2 weeks ago"}, {"bathroom_number": "", "bedroom_number": 4, "car_spaces": 0, "commission": 0, "construction_year": 0, "datasource_name": "OnTheMarket.com", "img_height": 300, "img_url": "https://imgs.nestimg.com/4_bedroom_detached_house_for_sale_111272698541229747.jpg", "img_width": 400, "keywords": "Detached, Garden", "latitude": 51.1267, "lister_url": "https://www.nestoria.co.uk/detail/0000000111272698541229747/title/5/21-7?serpUid=&pt=1&ot=1&l=somerset&did=105_high1&t_sec=9&t_or=45&t_pvid=null&utm_source=api&utm_medium=external", "listing_type": "buy", "location_accuracy": 9, "longitude": -3.28882, "price": 725000, "price_currency": "\u00a3", "price_formatted": "\u00a3725,000", "price_high": 725000, "price_low": 725000, "price_type": "fixed", "property_type": "house", "size": 0, "size_type": "net", "summary": "A particularly period farmhouse set within gardens and found in the...", "thumb_height": 60, "thumb_url": "https://imgs.nestimg.com/medium/4_bedroom_detached_house_for_sale_111272698541229747.jpg", "thumb_width": 80, "title": "Station Road, Stogumber, Taunton, Somerset, TA4", "updated_in_days": 17, "updated_in_days_formatted": "first seen 2 weeks ago"}, {"bathroom_number": "", "bedroom_number": 3, "car_spaces": 0, "commission": 0, "construction_year": 0, "datasource_name": "OnTheMarket.com", "img_height": 300, "img_url": "https://imgs.nestimg.com/3_bedroom_detached_house_for_sale_111489633480390584.jpg", "img_width": 400, "keywords": "Detached, Garden, Garage", "latitude": 51.0426, "lister_name": "Greenslade Taylor Hunt", "lister_url": "https://www.nestoria.co.uk/detail/0000000111489633480390584/title/5/21-8?serpUid=&pt=1&ot=1&l=somerset&did=105_high1&t_sec=9&t_or=45&t_pvid=null&utm_source=api&utm_medium=external", "listing_type": "buy", "location_accuracy": 9, "longitude": -2.81835, "price": 350000, "price_currency": "\u00a3", "price_formatted": "\u00a3350,000", "price_high": 350000, "price_low": 350000, "price_type": "fixed", "property_type": "house", "size": 0, "size_type": "net", "summary": "A ly extended detached 3 double bedroomed house which has been much...", "thumb_height": 60, "thumb_url": "https://imgs.nestimg.com/medium/3_bedroom_detached_house_for_sale_111489633480390584.jpg", "thumb_width": 80, "title": "Willow Close, Langport, Somerset, TA10", "updated_in_days": 39, "updated_in_days_formatted": "first seen over a month ago"}, {"bathroom_number": "", "bedroom_number": 7, "car_spaces": 0, "commission": 0, "construction_year": 0, "datasource_name": "OnTheMarket.com", "img_height": 300, "img_url": "https://imgs.nestimg.com/7_bedroom_detached_house_for_sale_111581692643034812.jpg", "img_width": 400, "keywords": "Detached", "latitude": 51.00903, "lister_name": "Savills", "lister_url": "https://www.nestoria.co.uk/detail/0000000111581692643034812/title/5/21-9?serpUid=&pt=1&ot=1&l=somerset&did=105_high1&t_sec=9&t_or=45&t_pvid=null&utm_source=api&utm_medium=external", "listing_type": "buy", "location_accuracy": 9, "longitude": -2.85557, "price": 1250000, "price_currency": "\u00a3", "price_formatted": "\u00a31,250,000", "price_high": 1250000, "price_low": 1250000, "price_type": "fixed", "property_type": "house", "size": 0, "size_type": "net", "summary": "A characterful farmhouse, with extensive outbuildings, set in a pea...", "thumb_height": 60, "thumb_url": "https://imgs.nestimg.com/medium/7_bedroom_detached_house_for_sale_111581692643034812.jpg", "thumb_width": 80, "title": "Drayton, Langport, Somerset, TA10", "updated_in_days": 24, "updated_in_days_formatted": "first seen 3 weeks ago"}, {"bathroom_number": "", "bedroom_number": 7, "car_spaces": 0, "commission": 0, "construction_year": 0, "datasource_name": "OnTheMarket.com", "img_height": 300, "img_url": "https://imgs.nestimg.com/7_bedroom_end_of_terrace_house_for_sale_111650094242531674.jpg", "img_width": 400, "keywords": "Terraced", "latitude": 50.9764, "lister_name": "Newton King", "lister_url": "https://www.nestoria.co.uk/detail/0000000111650094242531674/title/5/21-10?serpUid=&pt=1&ot=1&l=somerset&did=105_high1&t_sec=9&t_or=45&t_pvid=null&utm_source=api&utm_medium=external", "listing_type": "buy", "location_accuracy": 9, "longitude": -3.2306, "price": 220000, "price_currency": "\u00a3", "price_formatted": "\u00a3220,000", "price_high": 220000, "price_low": 220000, "price_type": "fixed", "property_type": "house", "size": 0, "size_type": "net", "summary": "7 room hmo situated in the town centre within a stones throw of loc...", "thumb_height": 60, "thumb_url": "https://imgs.nestimg.com/medium/7_bedroom_end_of_terrace_house_for_sale_111650094242531674.jpg", "thumb_width": 80, "title": "Mantle Street, Wellington, Somerset", "updated_in_days": 13, "updated_in_days_formatted": "first seen last week"}, {"bathroom_number": "", "bedroom_number": 5, "car_spaces": 0, "commission": 0, "construction_year": 0, "datasource_name": "OnTheMarket.com", "img_height": 300, "img_url": "https://imgs.nestimg.com/4_bedroom_equestrian_facility_for_sale_111681013534897403.jpg", "img_width": 400, "keywords": "Detached, Garden, Georgian", "latitude": 50.9116, "lister_url": "https://www.nestoria.co.uk/detail/0000000111681013534897403/title/5/21-11?serpUid=&pt=1&ot=1&l=somerset&did=105_high1&t_sec=9&t_or=45&t_pvid=null&utm_source=api&utm_medium=external", "listing_type": "buy", "location_accuracy": 9, "longitude": -2.85055, "price": 1550000, "price_currency": "\u00a3", "price_formatted": "\u00a31,550,000", "price_high": 1550000, "price_low": 1550000, "price_type": "fixed", "property_type": "house", "size": 0, "size_type": "net", "summary": "A ly restored georgian farmhouse nestled in a hidden valley with ou...", "thumb_height": 60, "thumb_url": "https://imgs.nestimg.com/medium/4_bedroom_equestrian_facility_for_sale_111681013534897403.jpg", "thumb_width": 80, "title": "Dinnington, Hinton St. George, Somerset, TA17", "updated_in_days": 8, "updated_in_days_formatted": "first seen last week"}, {"bathroom_number": "", "bedroom_number": 2, "car_spaces": 0, "commission": 0, "construction_year": 0, "datasource_name": "OnTheMarket.com", "img_height": 300, "img_url": "https://imgs.nestimg.com/2_bedroom_detached_bungalow_for_sale_111613019981240556.jpg", "img_width": 400, "keywords": "Detached, Bungalow, Gas Central Heating", "latitude": 51.2469, "lister_url": "https://www.nestoria.co.uk/detail/0000000111613019981240556/title/5/21-12?serpUid=&pt=1&ot=1&l=somerset&did=105_high1&t_sec=9&t_or=45&t_pvid=null&utm_source=api&utm_medium=external", "listing_type": "buy", "location_accuracy": 9, "longitude": -2.99406, "price": 360000, "price_currency": "\u00a3", "price_formatted": "\u00a3360,000", "price_high": 360000, "price_low": 360000, "price_type": "fixed", "property_type": "house", "size": 0, "size_type": "net", "summary": "A 2 bedroom detached bungalow with gas central heating & upvc doubl...", "thumb_height": 60, "thumb_url": "https://imgs.nestimg.com/medium/2_bedroom_detached_bungalow_for_sale_111613019981240556.jpg", "thumb_width": 80, "title": "Stoddens Road, Burnham On Sea, Somerset", "updated_in_days": 19, "updated_in_days_formatted": "first seen 2 weeks ago"}, {"bathroom_number": "", "bedroom_number": 2, "car_spaces": 0, "commission": 0, "construction_year": 0, "datasource_name": "OnTheMarket.com", "img_height": 300, "img_url": "https://imgs.nestimg.com/2_bedroom_apartment_for_sale_111235567111544800.jpg", "img_width": 400, "keywords": "Leasehold, Refurbished", "latitude": 51.036, "lister_name": "Greenslade Taylor Hunt", "lister_url": "https://www.nestoria.co.uk/detail/0000000111235567111544800/title/5/21-13?serpUid=&pt=1&ot=1&l=somerset&did=105_high1&t_sec=9&t_or=45&t_pvid=null&utm_source=api&utm_medium=external", "listing_type": "buy", "location_accuracy": 9, "longitude": -2.8363, "price": 110000, "price_currency": "\u00a3", "price_formatted": "\u00a3110,000", "price_high": 110000, "price_low": 110000, "price_type": "fixed", "property_type": "flat", "size": 0, "size_type": "net", "summary": "A newly refurbished self-contained two-bedroom first floor flat. Le...", "thumb_height": 60, "thumb_url": "https://imgs.nestimg.com/medium/2_bedroom_apartment_for_sale_111235567111544800.jpg", "thumb_width": 80, "title": "Westover, Langport, Somerset, TA10", "updated_in_days": 80, "updated_in_days_formatted": "first seen over a month ago"}, {"bathroom_number": "", "bedroom_number": 2, "car_spaces": 0, "commission": 0, "construction_year": 0, "datasource_name": "OnTheMarket.com", "img_height": 300, "img_url": "https://imgs.nestimg.com/2_bedroom_bungalow_for_sale_111340376217714453.jpg", "img_width": 400, "keywords": "Detached, Freehold, Garden, Bungalow", "latitude": 50.93, "lister_name": "Greenslade Taylor Hunt", "lister_url": "https://www.nestoria.co.uk/detail/0000000111340376217714453/title/5/21-14?serpUid=&pt=1&ot=1&l=somerset&did=105_high1&t_sec=9&t_or=45&t_pvid=null&utm_source=api&utm_medium=external", "listing_type": "buy", "location_accuracy": 9, "longitude": -2.9661, "price": 300000, "price_currency": "\u00a3", "price_formatted": "\u00a3300,000", "price_high": 300000, "price_low": 300000, "price_type": "fixed", "property_type": "house", "size": 0, "size_type": "net", "summary": "A well appointed detached 2 bedroom bungalow situated in a location...", "thumb_height": 60, "thumb_url": "https://imgs.nestimg.com/medium/2_bedroom_bungalow_for_sale_111340376217714453.jpg", "thumb_width": 80, "title": "Horton, Ilminster, Somerset, TA19", "updated_in_days": 41, "updated_in_days_formatted": "first seen over a month ago"}, {"bathroom_number": "", "bedroom_number": 2, "car_spaces": 0, "commission": 0, "construction_year": 0, "datasource_name": "OnTheMarket.com", "img_height": 300, "img_url": "https://imgs.nestimg.com/2_bedroom_flat_for_sale_111618952389067145.jpg", "img_width": 400, "keywords": "Purpose Built", "latitude": 51.225, "lister_url": "https://www.nestoria.co.uk/detail/0000000111618952389067145/title/5/21-15?serpUid=&pt=1&ot=1&l=somerset&did=105_high1&t_sec=9&t_or=45&t_pvid=null&utm_source=api&utm_medium=external", "listing_type": "buy", "location_accuracy": 9, "longitude": -2.9758, "price": 125000, "price_currency": "\u00a3", "price_formatted": "\u00a3125,000", "price_high": 125000, "price_low": 125000, "price_type": "fixed", "property_type": "flat", "size": 0, "size_type": "net", "summary": "A purpose built 2 bedroom first floor flat with double glazing and ...", "thumb_height": 60, "thumb_url": "https://imgs.nestimg.com/medium/2_bedroom_flat_for_sale_111618952389067145.jpg", "thumb_width": 80, "title": "Stiling Close, Highbridge, Somerset", "updated_in_days": 18, "updated_in_days_formatted": "first seen 2 weeks ago"}], "locations": [{"center_lat": 51.080967, "center_long": -3.045432, "long_title": "Somerset, county", "place_name": "somerset", "title": "Somerset"}], "page": 21, "sort": "nestoria_rank", "status_code": "200", "status_text": "OK", "thanks": "For using the Nestoria API.", "total_pages": 410, "total_results": 6149, "_cu5t0mP434m_": "remove"}}