{"request": {"country": "uk", "language": "en", "location": "somerset", "num_res": "15", "offset": 315, "output": "json_xs", "page": 22, "product_type": "realestate", "property_type": "property", "size_type": "net", "size_unit": "m2", "sort": "nestoria_rank", "listing_type": "buy"}, "response": {"application_response_code": "100", "application_response_text": "listings returned for one unambiguous location", "attribution": {"img_height": 22, "img_url": "https://resources.nestimg.com/nestoria/img/pbr_v1.png", "img_width": 183, "link_to_img": "http://www.nestoria.com"}, "created_http": "Tue, 18 Jun 2019 17:29:07 GMT", "created_unix": 1560878947, "link_to_url": "https://www.nestoria.co.uk/somerset/property/buy/22", "listings": [{"bathroom_number": "", "bedroom_number": 2, "car_spaces": 0, "commission": 0, "construction_year": 0, "datasource_name": "OnTheMarket.com", "img_height": 300, "img_url": "https://imgs.nestimg.com/2_bedroom_park_home_for_sale_111668299532227784.jpg", "img_width": 400, "keywords": "", "latitude": 51.226, "lister_url": "https://www.nestoria.co.uk/detail/0000000111668299532227784/title/5/22-1?serpUid=&pt=1&ot=1&l=somerset&did=105_high1&t_sec=9&t_or=45&t_pvid=null&utm_source=api&utm_medium=external", "listing_type": "buy", "location_accuracy": 9, "longitude": -2.97836, "price": 82000, "price_currency": "\u00a3", "price_formatted": "\u00a382,000", "price_high": 82000, "price_low": 82000, "price_type": "fixed", "property_type": "property", "size": 0, "size_type": "net", "summary": "A 36ft x 12ft 'willerby' granada park home sited in late november 2016", "thumb_height": 60, "thumb_url": "https://imgs.nestimg.com/medium/2_bedroom_park_home_for_sale_111668299532227784.jpg", "thumb_width": 80, "title": "Sandacre Park, Old Burnham Road, Highbridge, Somerset", "updated_in_days": 10, "updated_in_days_formatted": "first seen last week"}, {"bathroom_number": "", "bedroom_number": 4, "car_spaces": 0, "commission": 0, "construction_year": 0, "datasource_name": "OnTheMarket.com", "img_height": 300, "img_url": "https://imgs.nestimg.com/4_bedroom_detached_house_for_sale_111440831241449489.jpg", "img_width": 400, "keywords": "Detached", "latitude": 50.9029, "lister_name": "Stags", "lister_url": "https://www.nestoria.co.uk/detail/0000000111440831241449489/title/5/22-2?serpUid=&pt=1&ot=1&l=somerset&did=105_high1&t_sec=9&t_or=45&t_pvid=null&utm_source=api&utm_medium=external", "listing_type": "buy", "location_accuracy": 9, "longitude": -2.69718, "price": 575000, "price_currency": "\u00a3", "price_formatted": "\u00a3575,000", "price_high": 575000, "price_low": 575000, "price_type": "fixed", "property_type": "house", "size": 0, "size_type": "net", "summary": "An detached home set in this village. Epc band d", "thumb_height": 60, "thumb_url": "https://imgs.nestimg.com/medium/4_bedroom_detached_house_for_sale_111440831241449489.jpg", "thumb_width": 80, "title": "Broadstone Lane, Hardington Mandeville, Yeovil, Somerset, BA22", "updated_in_days": 6, "updated_in_days_formatted": "first seen 6 days ago"}, {"bathroom_number": "", "bedroom_number": 5, "car_spaces": 0, "commission": 0, "construction_year": 0, "datasource_name": "OnTheMarket.com", "img_height": 300, "img_url": "https://imgs.nestimg.com/5_bedroom_terraced_house_for_sale_107141127359722258.jpg", "img_width": 400, "keywords": "Garden, Grade II, Terraced, Georgian, Listed", "latitude": 51.0261, "lister_url": "https://www.nestoria.co.uk/detail/0000000107141127359722258/title/5/22-3?serpUid=&pt=1&ot=1&l=somerset&did=105_high1&t_sec=9&t_or=45&t_pvid=null&utm_source=api&utm_medium=external", "listing_type": "buy", "location_accuracy": 9, "longitude": -3.25181, "price": 795000, "price_currency": "\u00a3", "price_formatted": "\u00a3795,000", "price_high": 795000, "price_low": 795000, "price_type": "fixed", "property_type": "house", "size": 0, "size_type": "net", "summary": "A ly presented georgian village house with walled gardens. Carlton ...", "thumb_height": 60, "thumb_url": "https://imgs.nestimg.com/medium/5_bedroom_terraced_house_for_sale_107141127359722258.jpg", "thumb_width": 80, "title": "North Street, Milverton, Somerset, TA4", "updated_in_days": 742, "updated_in_days_formatted": "first seen over a month ago"}, {"bathroom_number": "", "bedroom_number": 3, "car_spaces": 0, "commission": 0, "construction_year": 0, "datasource_name": "OnTheMarket.com", "img_height": 300, "img_url": "https://imgs.nestimg.com/3_bedroom_house_for_sale_111457721962790839.jpg", "img_width": 400, "keywords": "Detached, Garden, En suite, Fireplace, Double Bedroom, Kitchen, Modern, Parking, Cottage, Reception", "latitude": 51.051792, "lister_url": "https://www.nestoria.co.uk/detail/0000000111457721962790839/title/5/22-4?serpUid=&pt=1&ot=1&l=somerset&did=105_high1&t_sec=9&t_or=45&t_pvid=null&utm_source=api&utm_medium=external", "listing_type": "buy", "location_accuracy": 9, "longitude": -2.677837, "price": 389950, "price_currency": "\u00a3", "price_formatted": "\u00a3389,950", "price_high": 389950, "price_low": 389950, "price_type": "fixed", "property_type": "house", "size": 0, "size_type": "net", "summary": "Architect designed fully renovated and extended period cottage! 'wo...", "thumb_height": 60, "thumb_url": "https://imgs.nestimg.com/medium/3_bedroom_house_for_sale_111457721962790839.jpg", "thumb_width": 80, "title": "Charlton Mackrell, West Charlton, Somerset, TA11", "updated_in_days": 44, "updated_in_days_formatted": "first seen over a month ago"}, {"bathroom_number": "", "bedroom_number": 4, "car_spaces": 0, "commission": 0, "construction_year": 0, "datasource_name": "OnTheMarket.com", "img_height": 300, "img_url": "https://imgs.nestimg.com/4_bedroom_detached_bungalow_for_sale_111687582989507283.jpg", "img_width": 400, "keywords": "Detached, Freehold, Garden, Bungalow", "latitude": 50.8717, "lister_name": "Greenslade Taylor Hunt", "lister_url": "https://www.nestoria.co.uk/detail/0000000111687582989507283/title/5/22-5?serpUid=&pt=1&ot=1&l=somerset&did=105_high1&t_sec=9&t_or=45&t_pvid=null&utm_source=api&utm_medium=external", "listing_type": "buy", "location_accuracy": 9, "longitude": -2.82576, "price": 595000, "price_currency": "\u00a3", "price_formatted": "\u00a3595,000", "price_high": 595000, "price_low": 595000, "price_type": "fixed", "property_type": "house", "size": 0, "size_type": "net", "summary": "Situated in this small hamlet with access to crewkerne and just 14 ...", "thumb_height": 60, "thumb_url": "https://imgs.nestimg.com/medium/4_bedroom_detached_bungalow_for_sale_111687582989507283.jpg", "thumb_width": 80, "title": "Hewish, Crewkerne, Somerset, TA18", "updated_in_days": 7, "updated_in_days_formatted": "first seen last week"}, {"bathroom_number": "", "bedroom_number": 3, "car_spaces": 0, "commission": 0, "construction_year": 0, "datasource_name": "OnTheMarket.com", "img_height": 300, "img_url": "https://imgs.nestimg.com/3_bedroom_detached_house_for_sale_111340379156543080.jpg", "img_width": 400, "keywords": "Detached", "latitude": 50.8979, "lister_name": "Greenslade Taylor Hunt", "lister_url": "https://www.nestoria.co.uk/detail/0000000111340379156543080/title/5/22-6?serpUid=&pt=1&ot=1&l=somerset&did=105_high1&t_sec=9&t_or=45&t_pvid=null&utm_source=api&utm_medium=external", "listing_type": "buy", "location_accuracy": 9, "longitude": -2.99556, "price": 340000, "price_currency": "\u00a3", "price_formatted": "\u00a3340,000", "price_high": 340000, "price_low": 340000, "price_type": "fixed", "property_type": "house", "size": 0, "size_type": "net", "summary": "An individual detached 3 bedroomed family house set in an elevated ...", "thumb_height": 60, "thumb_url": "https://imgs.nestimg.com/medium/3_bedroom_detached_house_for_sale_111340379156543080.jpg", "thumb_width": 80, "title": "Combe St. Nicholas, Chard, Somerset, TA20", "updated_in_days": 9, "updated_in_days_formatted": "first seen last week"}, {"bathroom_number": "", "bedroom_number": 2, "car_spaces": 0, "commission": 0, "construction_year": 0, "datasource_name": "OnTheMarket.com", "img_height": 300, "img_url": "https://imgs.nestimg.com/2_bedroom_detached_bungalow_for_sale_111650100028231360.jpg", "img_width": 400, "keywords": "Detached, Bungalow", "latitude": 51.2494, "lister_url": "https://www.nestoria.co.uk/detail/0000000111650100028231360/title/5/22-7?serpUid=&pt=1&ot=1&l=somerset&did=105_high1&t_sec=9&t_or=45&t_pvid=null&utm_source=api&utm_medium=external", "listing_type": "buy", "location_accuracy": 9, "longitude": -2.99718, "price": 349950, "price_currency": "\u00a3", "price_formatted": "\u00a3349,950", "price_high": 349950, "price_low": 349950, "price_type": "fixed", "property_type": "house", "size": 0, "size_type": "net", "summary": "An individual two bedroom detached bungalow standing in an establis...", "thumb_height": 60, "thumb_url": "https://imgs.nestimg.com/medium/2_bedroom_detached_bungalow_for_sale_111650100028231360.jpg", "thumb_width": 80, "title": "Brambles Road, Burnham-On-Sea, Somerset", "updated_in_days": 13, "updated_in_days_formatted": "first seen last week"}, {"bathroom_number": "", "bedroom_number": 4, "car_spaces": 0, "commission": 0, "construction_year": 0, "datasource_name": "OnTheMarket.com", "img_height": 300, "img_url": "https://imgs.nestimg.com/4_bedroom_detached_house_for_sale_111371193581607969.jpg", "img_width": 400, "keywords": "Garden, Semi-Detached, Conversion, Garage, Kitchen", "latitude": 50.9508, "lister_name": "Stags", "lister_url": "https://www.nestoria.co.uk/detail/0000000111371193581607969/title/5/22-8?serpUid=&pt=1&ot=1&l=somerset&did=105_high1&t_sec=9&t_or=45&t_pvid=null&utm_source=api&utm_medium=external", "listing_type": "buy", "location_accuracy": 9, "longitude": -2.80149, "price": 325000, "price_currency": "\u00a3", "price_formatted": "\u00a3325,000", "price_high": 325000, "price_low": 325000, "price_type": "fixed", "property_type": "house", "size": 0, "size_type": "net", "summary": "A and versatile 4/5 bedroom house located in a residential area wit...", "thumb_height": 60, "thumb_url": "https://imgs.nestimg.com/medium/4_bedroom_detached_house_for_sale_111371193581607969.jpg", "thumb_width": 80, "title": "St Michaels Gardens, South Petherton, Somerset, TA13", "updated_in_days": 17, "updated_in_days_formatted": "first seen 2 weeks ago"}, {"bathroom_number": "", "bedroom_number": 2, "car_spaces": 0, "commission": 0, "construction_year": 0, "datasource_name": "OnTheMarket.com", "img_height": 300, "img_url": "https://imgs.nestimg.com/2_bedroom_terraced_house_for_sale_111662474938772355.jpg", "img_width": 400, "keywords": "No Chain, Refurbished, Terraced, Double Bedroom", "latitude": 51.1812, "lister_name": "Wilkie May & Tuckwood", "lister_url": "https://www.nestoria.co.uk/detail/0000000111662474938772355/title/5/22-9?serpUid=&pt=1&ot=1&l=somerset&did=105_high1&t_sec=9&t_or=45&t_pvid=null&utm_source=api&utm_medium=external", "listing_type": "buy", "location_accuracy": 9, "longitude": -3.33023, "price": 250000, "price_currency": "\u00a3", "price_formatted": "\u00a3250,000", "price_high": 250000, "price_low": 250000, "price_type": "fixed", "property_type": "house", "size": 0, "size_type": "net", "summary": "No onward chain a ly refurbished and modernised two double bedroom ...", "thumb_height": 60, "thumb_url": "https://imgs.nestimg.com/medium/2_bedroom_terraced_house_for_sale_111662474938772355.jpg", "thumb_width": 80, "title": "Swain Street, Watchet, Somerset TA23", "updated_in_days": 11, "updated_in_days_formatted": "first seen last week"}, {"bathroom_number": "", "bedroom_number": 2, "car_spaces": 0, "commission": 0, "construction_year": 0, "datasource_name": "OnTheMarket.com", "img_height": 300, "img_url": "https://imgs.nestimg.com/2_bedroom_terraced_house_for_sale_111118073262848144.jpg", "img_width": 400, "keywords": "Freehold, Garden, Terraced, Garage, Cottage", "latitude": 51.2278, "lister_name": "Greenslade Taylor Hunt", "lister_url": "https://www.nestoria.co.uk/detail/0000000111118073262848144/title/5/22-10?serpUid=&pt=1&ot=1&l=somerset&did=105_high1&t_sec=9&t_or=45&t_pvid=null&utm_source=api&utm_medium=external", "listing_type": "buy", "location_accuracy": 9, "longitude": -2.89464, "price": 249950, "price_currency": "\u00a3", "price_formatted": "\u00a3249,950", "price_high": 249950, "price_low": 249950, "price_type": "fixed", "property_type": "house", "size": 0, "size_type": "net", "summary": "This characterful & tastefully-presented, recently renovated 2 bedr...", "thumb_height": 60, "thumb_url": "https://imgs.nestimg.com/medium/2_bedroom_terraced_house_for_sale_111118073262848144.jpg", "thumb_width": 80, "title": "The Wall, Mark, Highbridge, Somerset, TA9", "updated_in_days": 99, "updated_in_days_formatted": "first seen over a month ago"}, {"bathroom_number": "", "bedroom_number": 2, "car_spaces": 0, "commission": 0, "construction_year": 0, "datasource_name": "OnTheMarket.com", "img_height": 300, "img_url": "https://imgs.nestimg.com/3_bedroom_terraced_house_for_sale_111192282498485727.jpg", "img_width": 400, "keywords": "Terraced, Bungalow, Modern, Gas Central Heating", "latitude": 51.2299, "lister_url": "https://www.nestoria.co.uk/detail/0000000111192282498485727/title/5/22-11?serpUid=&pt=1&ot=1&l=somerset&did=105_high1&t_sec=9&t_or=45&t_pvid=null&utm_source=api&utm_medium=external", "listing_type": "buy", "location_accuracy": 9, "longitude": -2.99315, "price": 224950, "price_currency": "\u00a3", "price_formatted": "\u00a3224,950", "price_high": 224950, "price_low": 224950, "price_type": "fixed", "property_type": "house", "size": 0, "size_type": "net", "summary": "A modern gas centrally heated, double glazed, terraced bungalow", "thumb_height": 60, "thumb_url": "https://imgs.nestimg.com/medium/3_bedroom_terraced_house_for_sale_111192282498485727.jpg", "thumb_width": 80, "title": "Severn Grove, Burnham-on-Sea, Somerset", "updated_in_days": 87, "updated_in_days_formatted": "first seen over a month ago"}, {"bathroom_number": "", "bedroom_number": 6, "car_spaces": 0, "commission": 0, "construction_year": 0, "datasource_name": "OnTheMarket.com", "img_height": 300, "img_url": "https://imgs.nestimg.com/6_bedroom_detached_house_for_sale_111457719079488212.jpg", "img_width": 400, "keywords": "Detached, Grade II, Georgian, Listed", "latitude": 50.96931, "lister_name": "Knight Frank", "lister_url": "https://www.nestoria.co.uk/detail/0000000111457719079488212/title/5/22-12?serpUid=&pt=1&ot=1&l=somerset&did=105_high1&t_sec=9&t_or=45&t_pvid=null&utm_source=api&utm_medium=external", "listing_type": "buy", "location_accuracy": 9, "longitude": -3.212665, "price": 695000, "price_currency": "\u00a3", "price_formatted": "\u00a3695,000", "price_high": 695000, "price_low": 695000, "price_type": "fixed", "property_type": "house", "size": 0, "size_type": "net", "summary": "Detached georgian farmhouse for sale with outbuildings and 6 acres,...", "thumb_height": 60, "thumb_url": "https://imgs.nestimg.com/medium/6_bedroom_detached_house_for_sale_111457719079488212.jpg", "thumb_width": 80, "title": "Ford Street, Wellington, Somerset, TA21", "updated_in_days": 44, "updated_in_days_formatted": "first seen over a month ago"}, {"bathroom_number": "", "bedroom_number": 5, "car_spaces": 0, "commission": 0, "construction_year": 0, "datasource_name": "OnTheMarket.com", "img_height": 300, "img_url": "https://imgs.nestimg.com/5_bedroom_detached_house_for_sale_110672716525979721.jpg", "img_width": 400, "keywords": "Detached, Conversion", "latitude": 50.9807, "lister_name": "Greenslade Taylor Hunt", "lister_url": "https://www.nestoria.co.uk/detail/0000000110672716525979721/title/5/22-13?serpUid=&pt=1&ot=1&l=somerset&did=105_high1&t_sec=9&t_or=45&t_pvid=null&utm_source=api&utm_medium=external", "listing_type": "buy", "location_accuracy": 9, "longitude": -2.92822, "price": 585000, "price_currency": "\u00a3", "price_formatted": "\u00a3585,000", "price_high": 585000, "price_low": 585000, "price_type": "fixed", "property_type": "house", "size": 0, "size_type": "net", "summary": "Situated in a secluded and historic south somerset village, this 5 ...", "thumb_height": 60, "thumb_url": "https://imgs.nestimg.com/medium/5_bedroom_detached_house_for_sale_110672716525979721.jpg", "thumb_width": 80, "title": "Chapel Road, Isle Abbotts, Taunton, Somerset, TA3", "updated_in_days": 74, "updated_in_days_formatted": "first seen over a month ago"}, {"bathroom_number": "", "bedroom_number": 5, "car_spaces": 0, "commission": 0, "construction_year": 0, "datasource_name": "OnTheMarket.com", "img_height": 300, "img_url": "https://imgs.nestimg.com/5_bedroom_detached_house_for_sale_111477761264332705.jpg", "img_width": 400, "keywords": "Detached, Garden, Grade II, Listed", "latitude": 51.0512, "lister_name": "Stags", "lister_url": "https://www.nestoria.co.uk/detail/0000000111477761264332705/title/5/22-14?serpUid=&pt=1&ot=1&l=somerset&did=105_high1&t_sec=9&t_or=45&t_pvid=null&utm_source=api&utm_medium=external", "listing_type": "buy", "location_accuracy": 9, "longitude": -2.78639, "price": 625000, "price_currency": "\u00a3", "price_formatted": "\u00a3625,000", "price_high": 625000, "price_low": 625000, "price_type": "fixed", "property_type": "house", "size": 0, "size_type": "net", "summary": "This unique and historic detached grade ii listed home with annexe ...", "thumb_height": 60, "thumb_url": "https://imgs.nestimg.com/medium/5_bedroom_detached_house_for_sale_111477761264332705.jpg", "thumb_width": 80, "title": "Pitney, Langport, Somerset, TA10", "updated_in_days": 41, "updated_in_days_formatted": "first seen over a month ago"}, {"bathroom_number": "", "bedroom_number": 4, "car_spaces": 0, "commission": 0, "construction_year": 0, "datasource_name": "OnTheMarket.com", "img_height": 300, "img_url": "https://imgs.nestimg.com/4_bedroom_detached_house_for_sale_111080755126137446.jpg", "img_width": 400, "keywords": "Detached, Garden, Conservatory, Garage, Kitchen, Modern", "latitude": 50.9257, "lister_name": "Greenslade Taylor Hunt", "lister_url": "https://www.nestoria.co.uk/detail/0000000111080755126137446/title/5/22-15?serpUid=&pt=1&ot=1&l=somerset&did=105_high1&t_sec=9&t_or=45&t_pvid=null&utm_source=api&utm_medium=external", "listing_type": "buy", "location_accuracy": 9, "longitude": -2.916, "price": 285000, "price_currency": "\u00a3", "price_formatted": "\u00a3285,000", "price_high": 285000, "price_low": 285000, "price_type": "fixed", "property_type": "house", "size": 0, "size_type": "net", "summary": "A well equipped detached modern house offering living accomadation ...", "thumb_height": 60, "thumb_url": "https://imgs.nestimg.com/medium/4_bedroom_detached_house_for_sale_111080755126137446.jpg", "thumb_width": 80, "title": "Ladymeade, Ilminster, Somerset, TA19", "updated_in_days": 105, "updated_in_days_formatted": "first seen over a month ago"}], "locations": [{"center_lat": 51.080967, "center_long": -3.045432, "long_title": "Somerset, county", "place_name": "somerset", "title": "Somerset"}], "page": 22, "sort": "nestoria_rank", "status_code": "200", "status_text": "OK", "thanks": "For using the Nestoria API.", "total_pages": 410, "total_results": 6149, "_cu5t0mP434m_": "remove"}}