{"request": {"country": "uk", "language": "en", "location": "somerset", "num_res": "15", "offset": 330, "output": "json_xs", "page": 23, "product_type": "realestate", "property_type": "property", "size_type": "net", "size_unit": "m2", "sort": "nestoria_rank", "listing_type": "buy"}, "response": {"application_response_code": "100", "application_response_text": "listings returned for one unambiguous location", "attribution": {"img_height": 22, "img_url": "https://resources.nestimg.com/nestoria/img/pbr_v1.png", "img_width": 183, "link_to_img": "http://www.nestoria.com"}, "created_http": "Tue, 18 Jun 2019 17:29:09 GMT", "created_unix": 1560878949, "link_to_url": "https://www.nestoria.co.uk/somerset/property/buy/23", "listings": [{"bathroom_number": "", "bedroom_number": 5, "car_spaces": 0, "commission": 0, "construction_year": 0, "datasource_name": "OnTheMarket.com", "img_height": 300, "img_url": "https://imgs.nestimg.com/5_bedroom_detached_house_for_sale_111693433919322622.jpg", "img_width": 400, "keywords": "Detached, Modern", "latitude": 51.224983, "lister_name": "Knight Frank", "lister_url": "https://www.nestoria.co.uk/detail/0000000111693433919322622/title/5/23-1?serpUid=&pt=1&ot=1&l=somerset&did=105_high1&t_sec=9&t_or=45&t_pvid=null&utm_source=api&utm_medium=external", "listing_type": "buy", "location_accuracy": 9, "longitude": -2.479513, "price": 850000, "price_currency": "\u00a3", "price_formatted": "\u00a3850,000", "price_high": 850000, "price_low": 850000, "price_type": "fixed", "property_type": "house", "size": 0, "size_type": "net", "summary": "Detached 5 bedroom family home, on the edge of a village. For sale,...", "thumb_height": 60, "thumb_url": "https://imgs.nestimg.com/medium/5_bedroom_detached_house_for_sale_111693433919322622.jpg", "thumb_width": 80, "title": "Coal Pit Lane, Stoke St. Michael, Near Oakhill, Somerset, BA3", "updated_in_days": 5, "updated_in_days_formatted": "first seen 5 days ago"}, {"bathroom_number": "", "bedroom_number": 3, "car_spaces": 0, "commission": 0, "construction_year": 0, "datasource_name": "OnTheMarket.com", "img_height": 300, "img_url": "https://imgs.nestimg.com/3_bedroom_terraced_house_for_sale_111099705918878325.jpg", "img_width": 400, "keywords": "No Chain, Terraced, Cul-de-Sac", "latitude": 51.2006, "lister_url": "https://www.nestoria.co.uk/detail/0000000111099705918878325/title/5/23-2?serpUid=&pt=1&ot=1&l=somerset&did=105_high1&t_sec=9&t_or=45&t_pvid=null&utm_source=api&utm_medium=external", "listing_type": "buy", "location_accuracy": 9, "longitude": -2.94151, "price": 169500, "price_currency": "\u00a3", "price_formatted": "\u00a3169,500", "price_high": 169500, "price_low": 169500, "price_type": "fixed", "property_type": "house", "size": 0, "size_type": "net", "summary": "A 3 bedroom mid terraced property in a cul-de-sac setting within th...", "thumb_height": 60, "thumb_url": "https://imgs.nestimg.com/medium/3_bedroom_terraced_house_for_sale_111099705918878325.jpg", "thumb_width": 80, "title": "Church Close, East Huntspill, Somerset", "updated_in_days": 60, "updated_in_days_formatted": "first seen over a month ago"}, {"bathroom_number": "", "bedroom_number": 2, "car_spaces": 0, "commission": 0, "construction_year": 0, "datasource_name": "OnTheMarket.com", "img_height": 300, "img_url": "https://imgs.nestimg.com/2_bedroom_semi_detached_house_for_sale_111427147637823677.jpg", "img_width": 400, "keywords": "Freehold, Garden, Semi-Detached, En suite, Parking", "latitude": 51.2362, "lister_name": "Greenslade Taylor Hunt", "lister_url": "https://www.nestoria.co.uk/detail/0000000111427147637823677/title/5/23-3?serpUid=&pt=1&ot=1&l=somerset&did=105_high1&t_sec=9&t_or=45&t_pvid=null&utm_source=api&utm_medium=external", "listing_type": "buy", "location_accuracy": 9, "longitude": -2.95972, "price": 279950, "price_currency": "\u00a3", "price_formatted": "\u00a3279,950", "price_high": 279950, "price_low": 279950, "price_type": "fixed", "property_type": "house", "size": 0, "size_type": "net", "summary": "This 2/3 bed,2 ensuite, semi-detached chalet-style house occupies a...", "thumb_height": 60, "thumb_url": "https://imgs.nestimg.com/medium/2_bedroom_semi_detached_house_for_sale_111427147637823677.jpg", "thumb_width": 80, "title": "Edithmead, Highbridge, Somerset, TA9", "updated_in_days": 49, "updated_in_days_formatted": "first seen over a month ago"}, {"bathroom_number": "", "bedroom_number": 4, "car_spaces": 0, "commission": 0, "construction_year": 0, "datasource_name": "OnTheMarket.com", "img_height": 300, "img_url": "https://imgs.nestimg.com/4_bedroom_house_for_sale_111272695247962831.jpg", "img_width": 400, "keywords": "Detached, Freehold, Garden, Modern", "latitude": 50.9286, "lister_name": "Greenslade Taylor Hunt", "lister_url": "https://www.nestoria.co.uk/detail/0000000111272695247962831/title/5/23-4?serpUid=&pt=1&ot=1&l=somerset&did=105_high1&t_sec=9&t_or=45&t_pvid=null&utm_source=api&utm_medium=external", "listing_type": "buy", "location_accuracy": 9, "longitude": -2.92182, "price": 400000, "price_currency": "\u00a3", "price_formatted": "\u00a3400,000", "price_high": 400000, "price_low": 400000, "price_type": "fixed", "property_type": "house", "size": 0, "size_type": "net", "summary": "Situated in the quiet top lower section of this development, this 4...", "thumb_height": 60, "thumb_url": "https://imgs.nestimg.com/medium/4_bedroom_house_for_sale_111272695247962831.jpg", "thumb_width": 80, "title": "Fairfield, Ilminster, Somerset, TA19", "updated_in_days": 24, "updated_in_days_formatted": "first seen 3 weeks ago"}, {"bathroom_number": "", "bedroom_number": 3, "car_spaces": 0, "commission": 0, "construction_year": 0, "datasource_name": "OnTheMarket.com", "img_height": 300, "img_url": "https://imgs.nestimg.com/3_bedroom_detached_house_for_sale_111662467948319898.jpg", "img_width": 400, "keywords": "Detached, No Chain, Modern", "latitude": 51.178, "lister_name": "Wilkie May & Tuckwood", "lister_url": "https://www.nestoria.co.uk/detail/0000000111662467948319898/title/5/23-5?serpUid=&pt=1&ot=1&l=somerset&did=105_high1&t_sec=9&t_or=45&t_pvid=null&utm_source=api&utm_medium=external", "listing_type": "buy", "location_accuracy": 9, "longitude": -3.32121, "price": 279950, "price_currency": "\u00a3", "price_formatted": "\u00a3279,950", "price_high": 279950, "price_low": 279950, "price_type": "fixed", "property_type": "house", "size": 0, "size_type": "net", "summary": "No onward chain an extended modern and easily maintained detached 3...", "thumb_height": 60, "thumb_url": "https://imgs.nestimg.com/medium/3_bedroom_detached_house_for_sale_111662467948319898.jpg", "thumb_width": 80, "title": "Mariners Way, Watchet, Somerset TA23", "updated_in_days": 11, "updated_in_days_formatted": "first seen last week"}, {"bathroom_number": "", "bedroom_number": 2, "car_spaces": 0, "commission": 0, "construction_year": 0, "datasource_name": "OnTheMarket.com", "img_height": 300, "img_url": "https://imgs.nestimg.com/2_bedroom_semi_detached_house_for_sale_111544375326924158.jpg", "img_width": 400, "keywords": "Leasehold, Semi-Detached, Shared Ownership", "latitude": 50.9488, "lister_name": "Greenslade Taylor Hunt", "lister_url": "https://www.nestoria.co.uk/detail/0000000111544375326924158/title/5/23-6?serpUid=&pt=1&ot=1&l=somerset&did=105_high1&t_sec=9&t_or=45&t_pvid=null&utm_source=api&utm_medium=external", "listing_type": "buy", "location_accuracy": 9, "longitude": -2.91649, "price": 75000, "price_currency": "\u00a3", "price_formatted": "\u00a375,000", "price_high": 75000, "price_low": 75000, "price_type": "fixed", "property_type": "house", "size": 0, "size_type": "net", "summary": "Just released two bedroom shared ownership house. Plot 35, a 2 bedr...", "thumb_height": 60, "thumb_url": "https://imgs.nestimg.com/medium/2_bedroom_semi_detached_house_for_sale_111544375326924158.jpg", "thumb_width": 80, "title": "Plot 35, Off Church Road, Ilton, Somerset, TA19", "updated_in_days": 30, "updated_in_days_formatted": "first seen over a month ago"}, {"bathroom_number": "", "bedroom_number": 4, "car_spaces": 0, "commission": 0, "construction_year": 0, "datasource_name": "OnTheMarket.com", "img_height": 300, "img_url": "https://imgs.nestimg.com/3_bedroom_detached_house_for_sale_110926357718928806.jpg", "img_width": 400, "keywords": "Detached, Garage, Bungalow, Cul-de-Sac", "latitude": 51.2408, "lister_name": "Greenslade Taylor Hunt", "lister_url": "https://www.nestoria.co.uk/detail/0000000110926357718928806/title/5/23-7?serpUid=&pt=1&ot=1&l=somerset&did=105_high1&t_sec=9&t_or=45&t_pvid=null&utm_source=api&utm_medium=external", "listing_type": "buy", "location_accuracy": 9, "longitude": -2.99154, "price": 350000, "price_currency": "\u00a3", "price_formatted": "\u00a3350,000", "price_high": 350000, "price_low": 350000, "price_type": "fixed", "property_type": "house", "size": 0, "size_type": "net", "summary": "This 4 bedroom dormer style bungalow occupies a good size mature pl...", "thumb_height": 60, "thumb_url": "https://imgs.nestimg.com/medium/3_bedroom_detached_house_for_sale_110926357718928806.jpg", "thumb_width": 80, "title": "St. Marys Road, Burnham-on-Sea, Somerset, TA8", "updated_in_days": 33, "updated_in_days_formatted": "first seen over a month ago"}, {"bathroom_number": "", "bedroom_number": 2, "car_spaces": 0, "commission": 0, "construction_year": 0, "datasource_name": "OnTheMarket.com", "img_height": 300, "img_url": "https://imgs.nestimg.com/2_bedroom_retirement_property_for_sale_109794383556323823.jpg", "img_width": 400, "keywords": "Leasehold, Garden, Double Bedroom, Garage, Kitchen, Cottage", "latitude": 50.9272, "lister_name": "Greenslade Taylor Hunt", "lister_url": "https://www.nestoria.co.uk/detail/0000000109794383556323823/title/5/23-8?serpUid=&pt=1&ot=1&l=somerset&did=105_high1&t_sec=9&t_or=45&t_pvid=null&utm_source=api&utm_medium=external", "listing_type": "buy", "location_accuracy": 9, "longitude": -2.91406, "price": 200000, "price_currency": "\u00a3", "price_formatted": "\u00a3200,000", "price_high": 200000, "price_low": 200000, "price_type": "fixed", "property_type": "house", "size": 0, "size_type": "net", "summary": "A natural stone cottage forming part of the english courtyard retir...", "thumb_height": 60, "thumb_url": "https://imgs.nestimg.com/medium/2_bedroom_retirement_property_for_sale_109794383556323823.jpg", "thumb_width": 80, "title": "Ashcombe Court, Ilminster, Somerset, TA19", "updated_in_days": 208, "updated_in_days_formatted": "first seen over a month ago"}, {"bathroom_number": "", "bedroom_number": 3, "car_spaces": 0, "commission": 0, "construction_year": 0, "datasource_name": "OnTheMarket.com", "img_height": 300, "img_url": "https://imgs.nestimg.com/3_bedroom_semi_detached_house_for_sale_111550950565023682.jpg", "img_width": 400, "keywords": "Garden, Semi-Detached, No Chain, Modern", "latitude": 51.2434, "lister_name": "Greenslade Taylor Hunt", "lister_url": "https://www.nestoria.co.uk/detail/0000000111550950565023682/title/5/23-9?serpUid=&pt=1&ot=1&l=somerset&did=105_high1&t_sec=9&t_or=45&t_pvid=null&utm_source=api&utm_medium=external", "listing_type": "buy", "location_accuracy": 9, "longitude": -2.98404, "price": 230000, "price_currency": "\u00a3", "price_formatted": "\u00a3230,000", "price_high": 230000, "price_low": 230000, "price_type": "fixed", "property_type": "house", "size": 0, "size_type": "net", "summary": "This modern 3 bedroom link semi detached house offers tremendous po...", "thumb_height": 60, "thumb_url": "https://imgs.nestimg.com/medium/3_bedroom_semi_detached_house_for_sale_111550950565023682.jpg", "thumb_width": 80, "title": "Southernlea Road, Burnham-on-Sea, Somerset, TA8", "updated_in_days": 29, "updated_in_days_formatted": "first seen last month"}, {"bathroom_number": "", "bedroom_number": 4, "car_spaces": 0, "commission": 0, "construction_year": 0, "datasource_name": "OnTheMarket.com", "img_height": 300, "img_url": "https://imgs.nestimg.com/4_bedroom_detached_house_for_sale_111575825006571706.jpg", "img_width": 400, "keywords": "Detached, Garden", "latitude": 50.9095, "lister_name": "Greenslade Taylor Hunt", "lister_url": "https://www.nestoria.co.uk/detail/0000000111575825006571706/title/5/23-10?serpUid=&pt=1&ot=1&l=somerset&did=105_high1&t_sec=9&t_or=45&t_pvid=null&utm_source=api&utm_medium=external", "listing_type": "buy", "location_accuracy": 9, "longitude": -3.05893, "price": 379950, "price_currency": "\u00a3", "price_formatted": "\u00a3379,950", "price_high": 379950, "price_low": 379950, "price_type": "fixed", "property_type": "house", "size": 0, "size_type": "net", "summary": "A 4 bedroom period house in a blackdown hills village with a large ...", "thumb_height": 60, "thumb_url": "https://imgs.nestimg.com/medium/4_bedroom_detached_house_for_sale_111575825006571706.jpg", "thumb_width": 80, "title": "Bishopswood, Chard, Somerset, TA20", "updated_in_days": 25, "updated_in_days_formatted": "first seen 3 weeks ago"}, {"bathroom_number": "", "bedroom_number": 4, "car_spaces": 0, "commission": 0, "construction_year": 0, "datasource_name": "OnTheMarket.com", "img_height": 300, "img_url": "https://imgs.nestimg.com/4_bedroom_detached_house_for_sale_111631124029666178.jpg", "img_width": 400, "keywords": "Detached, Freehold, En suite, No Chain", "latitude": 51.0246, "lister_name": "Greenslade Taylor Hunt", "lister_url": "https://www.nestoria.co.uk/detail/0000000111631124029666178/title/5/23-11?serpUid=&pt=1&ot=1&l=somerset&did=105_high1&t_sec=9&t_or=45&t_pvid=null&utm_source=api&utm_medium=external", "listing_type": "buy", "location_accuracy": 9, "longitude": -2.75872, "price": 745000, "price_currency": "\u00a3", "price_formatted": "\u00a3745,000", "price_high": 745000, "price_low": 745000, "price_type": "fixed", "property_type": "house", "size": 0, "size_type": "net", "summary": "Set on the southern side of the green in this village this four dou...", "thumb_height": 60, "thumb_url": "https://imgs.nestimg.com/medium/4_bedroom_detached_house_for_sale_111631124029666178.jpg", "thumb_width": 80, "title": "The Green, Long Sutton, Langport, Somerset, TA10", "updated_in_days": 16, "updated_in_days_formatted": "first seen 2 weeks ago"}, {"bathroom_number": "", "bedroom_number": 3, "car_spaces": 0, "commission": 0, "construction_year": 0, "datasource_name": "OnTheMarket.com", "img_height": 300, "img_url": "https://imgs.nestimg.com/3_bedroom_end_of_terrace_house_for_sale_111544379251369246.jpg", "img_width": 400, "keywords": "Terraced, Garage", "latitude": 51.2202, "lister_name": "Greenslade Taylor Hunt", "lister_url": "https://www.nestoria.co.uk/detail/0000000111544379251369246/title/5/23-12?serpUid=&pt=1&ot=1&l=somerset&did=105_high1&t_sec=9&t_or=45&t_pvid=null&utm_source=api&utm_medium=external", "listing_type": "buy", "location_accuracy": 9, "longitude": -2.98296, "price": 140000, "price_currency": "\u00a3", "price_formatted": "\u00a3140,000", "price_high": 140000, "price_low": 140000, "price_type": "fixed", "property_type": "house", "size": 0, "size_type": "net", "summary": "This 2/3 bedroom end of terrace, extended mature residence occupies...", "thumb_height": 60, "thumb_url": "https://imgs.nestimg.com/medium/3_bedroom_end_of_terrace_house_for_sale_111544379251369246.jpg", "thumb_width": 80, "title": "Clyce Road, Highbridge, Somerset, TA9", "updated_in_days": 30, "updated_in_days_formatted": "first seen over a month ago"}, {"bathroom_number": "", "bedroom_number": 1, "car_spaces": 0, "commission": 0, "construction_year": 0, "datasource_name": "OnTheMarket.com", "img_height": 300, "img_url": "https://imgs.nestimg.com/1_bedroom_apartment_for_sale_111464165325008100.jpg", "img_width": 400, "keywords": "Leasehold, No Chain, Parking", "latitude": 51.2371, "lister_name": "Greenslade Taylor Hunt", "lister_url": "https://www.nestoria.co.uk/detail/0000000111464165325008100/title/5/23-13?serpUid=&pt=1&ot=1&l=somerset&did=105_high1&t_sec=9&t_or=45&t_pvid=null&utm_source=api&utm_medium=external", "listing_type": "buy", "location_accuracy": 9, "longitude": -2.99835, "price": 129950, "price_currency": "\u00a3", "price_formatted": "\u00a3129,950", "price_high": 129950, "price_low": 129950, "price_type": "fixed", "property_type": "flat", "size": 0, "size_type": "net", "summary": "This , well presented, 2nd floor 1 bedroom sea front apartment offe...", "thumb_height": 60, "thumb_url": "https://imgs.nestimg.com/medium/1_bedroom_apartment_for_sale_111464165325008100.jpg", "thumb_width": 80, "title": "College Court, College Street, Burnham-on-Sea, Somerset, TA8", "updated_in_days": 43, "updated_in_days_formatted": "first seen over a month ago"}, {"bathroom_number": "", "bedroom_number": 5, "car_spaces": 0, "commission": 0, "construction_year": 0, "datasource_name": "OnTheMarket.com", "img_height": 300, "img_url": "https://imgs.nestimg.com/5_bedroom_detached_house_for_sale_111402756065888653.jpg", "img_width": 400, "keywords": "Detached, Reception", "latitude": 51.00025, "lister_name": "Strutt & Parker", "lister_url": "https://www.nestoria.co.uk/detail/0000000111402756065888653/title/5/23-14?serpUid=&pt=1&ot=1&l=somerset&did=105_high1&t_sec=9&t_or=45&t_pvid=null&utm_source=api&utm_medium=external", "listing_type": "buy", "location_accuracy": 9, "longitude": -3.2377, "price": 1850000, "price_currency": "\u00a3", "price_formatted": "\u00a31,850,000", "price_high": 1850000, "price_low": 1850000, "price_type": "fixed", "property_type": "house", "size": 0, "size_type": "net", "summary": "A ly secluded, high specification, bespoke family home offering ove...", "thumb_height": 60, "thumb_url": "https://imgs.nestimg.com/medium/5_bedroom_detached_house_for_sale_111402756065888653.jpg", "thumb_width": 80, "title": "Nynehead, Wellington, Somerset", "updated_in_days": 53, "updated_in_days_formatted": "first seen over a month ago"}, {"bathroom_number": "", "bedroom_number": 5, "car_spaces": 0, "commission": 0, "construction_year": 0, "datasource_name": "OnTheMarket.com", "img_height": 300, "img_url": "https://imgs.nestimg.com/5_bedroom_detached_house_for_sale_111550955323935215.jpg", "img_width": 400, "keywords": "Detached", "latitude": 50.934975, "lister_name": "Knight Frank", "lister_url": "https://www.nestoria.co.uk/detail/0000000111550955323935215/title/5/23-15?serpUid=&pt=1&ot=1&l=somerset&did=105_high1&t_sec=9&t_or=45&t_pvid=null&utm_source=api&utm_medium=external", "listing_type": "buy", "location_accuracy": 9, "longitude": -3.035261, "price": 1550000, "price_currency": "\u00a3", "price_formatted": "\u00a31,550,000", "price_high": 1550000, "price_low": 1550000, "price_type": "fixed", "property_type": "house", "size": 0, "size_type": "net", "summary": "Traditional 5 bedroom farmhouse with outbuildings and land for sale...", "thumb_height": 60, "thumb_url": "https://imgs.nestimg.com/medium/5_bedroom_detached_house_for_sale_111550955323935215.jpg", "thumb_width": 80, "title": "Buckland St. Mary, Chard, Somerset, TA20", "updated_in_days": 29, "updated_in_days_formatted": "first seen last month"}], "locations": [{"center_lat": 51.080967, "center_long": -3.045432, "long_title": "Somerset, county", "place_name": "somerset", "title": "Somerset"}], "page": 23, "sort": "nestoria_rank", "status_code": "200", "status_text": "OK", "thanks": "For using the Nestoria API.", "total_pages": 410, "total_results": 6149, "_cu5t0mP434m_": "remove"}}