{"request": {"country": "uk", "language": "en", "location": "somerset", "num_res": "15", "offset": 345, "output": "json_xs", "page": 24, "product_type": "realestate", "property_type": "property", "size_type": "net", "size_unit": "m2", "sort": "nestoria_rank", "listing_type": "buy"}, "response": {"application_response_code": "100", "application_response_text": "listings returned for one unambiguous location", "attribution": {"img_height": 22, "img_url": "https://resources.nestimg.com/nestoria/img/pbr_v1.png", "img_width": 183, "link_to_img": "http://www.nestoria.com"}, "created_http": "Tue, 18 Jun 2019 17:29:10 GMT", "created_unix": 1560878950, "link_to_url": "https://www.nestoria.co.uk/somerset/property/buy/24", "listings": [{"bathroom_number": "", "bedroom_number": 4, "car_spaces": 0, "commission": 0, "construction_year": 0, "datasource_name": "OnTheMarket.com", "img_height": 300, "img_url": "https://imgs.nestimg.com/4_bedroom_detached_house_for_sale_111489632951264035.jpg", "img_width": 400, "keywords": "Detached, Freehold, Garden, Garage, Cul-de-Sac", "latitude": 51.2511, "lister_name": "Greenslade Taylor Hunt", "lister_url": "https://www.nestoria.co.uk/detail/0000000111489632951264035/title/5/24-1?serpUid=&pt=1&ot=1&l=somerset&did=105_high1&t_sec=9&t_or=45&t_pvid=null&utm_source=api&utm_medium=external", "listing_type": "buy", "location_accuracy": 9, "longitude": -3.0011, "price": 350000, "price_currency": "\u00a3", "price_formatted": "\u00a3350,000", "price_high": 350000, "price_low": 350000, "price_type": "fixed", "property_type": "house", "size": 0, "size_type": "net", "summary": "This well presented, executive-style 4 bedroom detached barrattt ho...", "thumb_height": 60, "thumb_url": "https://imgs.nestimg.com/medium/4_bedroom_detached_house_for_sale_111489632951264035.jpg", "thumb_width": 80, "title": "Edith Close, Burnham-on-Sea, Somerset, TA8", "updated_in_days": 39, "updated_in_days_formatted": "first seen over a month ago"}, {"bathroom_number": "", "bedroom_number": 6, "car_spaces": 0, "commission": 0, "construction_year": 0, "datasource_name": "OnTheMarket.com", "img_height": 300, "img_url": "https://imgs.nestimg.com/7_bedroom_detached_house_for_sale_110122665066772465.jpg", "img_width": 400, "keywords": "Detached, Garden, Grade II, Georgian, Listed", "latitude": 51.274616, "lister_name": "Knight Frank", "lister_url": "https://www.nestoria.co.uk/detail/0000000110122665066772465/title/5/24-2?serpUid=&pt=1&ot=1&l=somerset&did=105_high1&t_sec=9&t_or=45&t_pvid=null&utm_source=api&utm_medium=external", "listing_type": "buy", "location_accuracy": 9, "longitude": -2.923345, "price": 800000, "price_currency": "\u00a3", "price_formatted": "\u00a3800,000", "price_high": 800000, "price_low": 800000, "price_type": "fixed", "property_type": "house", "size": 0, "size_type": "net", "summary": "Georgian house with an annexe for sale near edingworth. Detached gr...", "thumb_height": 60, "thumb_url": "https://imgs.nestimg.com/medium/7_bedroom_detached_house_for_sale_110122665066772465.jpg", "thumb_width": 80, "title": "Edingworth Road, Edingworth, North Somerset, BS24", "updated_in_days": 14, "updated_in_days_formatted": "first seen 2 weeks ago"}, {"bathroom_number": "", "bedroom_number": 3, "car_spaces": 0, "commission": 0, "construction_year": 0, "datasource_name": "OnTheMarket.com", "img_height": 300, "img_url": "https://imgs.nestimg.com/3_bedroom_semi_detached_house_for_sale_111544375609272501.jpg", "img_width": 400, "keywords": "Freehold, Garden, Semi-Detached, Parking", "latitude": 50.9291, "lister_name": "Greenslade Taylor Hunt", "lister_url": "https://www.nestoria.co.uk/detail/0000000111544375609272501/title/5/24-3?serpUid=&pt=1&ot=1&l=somerset&did=105_high1&t_sec=9&t_or=45&t_pvid=null&utm_source=api&utm_medium=external", "listing_type": "buy", "location_accuracy": 9, "longitude": -2.92355, "price": 235000, "price_currency": "\u00a3", "price_formatted": "\u00a3235,000", "price_high": 235000, "price_low": 235000, "price_type": "fixed", "property_type": "house", "size": 0, "size_type": "net", "summary": "A ly proportioned 3 bedroomed and 2 bathroomed double fronted semi ...", "thumb_height": 60, "thumb_url": "https://imgs.nestimg.com/medium/3_bedroom_semi_detached_house_for_sale_111544375609272501.jpg", "thumb_width": 80, "title": "Carnival Close, Ilminster, Somerset, TA19", "updated_in_days": 30, "updated_in_days_formatted": "first seen over a month ago"}, {"bathroom_number": "", "bedroom_number": 2, "car_spaces": 0, "commission": 0, "construction_year": 0, "datasource_name": "OnTheMarket.com", "img_height": 300, "img_url": "https://imgs.nestimg.com/2_bedroom_detached_house_for_sale_111681013032951251.jpg", "img_width": 400, "keywords": "Detached, Kitchen, Swimming Pool", "latitude": 50.8831, "lister_url": "https://www.nestoria.co.uk/detail/0000000111681013032951251/title/5/24-4?serpUid=&pt=1&ot=1&l=somerset&did=105_high1&t_sec=9&t_or=45&t_pvid=null&utm_source=api&utm_medium=external", "listing_type": "buy", "location_accuracy": 9, "longitude": -2.87751, "price": 305000, "price_currency": "\u00a3", "price_formatted": "\u00a3305,000", "price_high": 305000, "price_low": 305000, "price_type": "fixed", "property_type": "house", "size": 0, "size_type": "net", "summary": "2 bed holiday home for sale in grounds of cricket st thomas. Built ...", "thumb_height": 60, "thumb_url": "https://imgs.nestimg.com/medium/2_bedroom_detached_house_for_sale_111681013032951251.jpg", "thumb_width": 80, "title": "Swandown Cottages, Cricket St Thomas, Somerset", "updated_in_days": 8, "updated_in_days_formatted": "first seen last week"}, {"bathroom_number": "", "bedroom_number": 4, "car_spaces": 0, "commission": 0, "construction_year": 0, "datasource_name": "OnTheMarket.com", "img_height": 300, "img_url": "https://imgs.nestimg.com/4_bedroom_detached_bungalow_for_sale_111161513993422462.jpg", "img_width": 400, "keywords": "Detached, Bungalow", "latitude": 51.2112, "lister_url": "https://www.nestoria.co.uk/detail/0000000111161513993422462/title/5/24-5?serpUid=&pt=1&ot=1&l=somerset&did=105_high1&t_sec=9&t_or=45&t_pvid=null&utm_source=api&utm_medium=external", "listing_type": "buy", "location_accuracy": 9, "longitude": -2.77409, "price": 840000, "price_currency": "\u00a3", "price_formatted": "\u00a3840,000", "price_high": 840000, "price_low": 840000, "price_type": "fixed", "property_type": "house", "size": 0, "size_type": "net", "summary": "Location, location, location. Glencross lodge is a family home in a...", "thumb_height": 60, "thumb_url": "https://imgs.nestimg.com/medium/4_bedroom_detached_bungalow_for_sale_111161513993422462.jpg", "thumb_width": 80, "title": "Glencross Lodge, BAGLEY, Wedmore, Somerset", "updated_in_days": 9, "updated_in_days_formatted": "first seen last week"}, {"bathroom_number": 2, "bedroom_number": 3, "car_spaces": 0, "commission": 0, "construction_year": 0, "datasource_name": "OnTheMarket.com", "img_height": 300, "img_url": "https://imgs.nestimg.com/3_bedroom_park_home_for_sale_110938658964304227.jpg", "img_width": 400, "keywords": "", "latitude": 51.2285, "lister_url": "https://www.nestoria.co.uk/detail/0000000110938658964304227/title/5/24-6?serpUid=&pt=1&ot=1&l=somerset&did=105_high1&t_sec=9&t_or=45&t_pvid=null&utm_source=api&utm_medium=external", "listing_type": "buy", "location_accuracy": 9, "longitude": -2.99747, "price": 55000, "price_currency": "\u00a3", "price_formatted": "\u00a355,000", "price_high": 55000, "price_low": 55000, "price_type": "fixed", "property_type": "house", "size": 0, "size_type": "net", "summary": "A 3 bedroom, 2 bathroom, seasonal holiday lodge in order throughout", "thumb_height": 60, "thumb_url": "https://imgs.nestimg.com/medium/3_bedroom_park_home_for_sale_110938658964304227.jpg", "thumb_width": 80, "title": "Burnham Holiday Village, Burnham-on-Sea, Somerset", "updated_in_days": 100, "updated_in_days_formatted": "first seen over a month ago"}, {"bathroom_number": "", "bedroom_number": 3, "car_spaces": 0, "commission": 0, "construction_year": 0, "datasource_name": "OnTheMarket.com", "img_height": 300, "img_url": "https://imgs.nestimg.com/3_bedroom_semi_detached_house_for_sale_111080756205114674.jpg", "img_width": 400, "keywords": "Garden, Semi-Detached, Grade II, Parking, Listed", "latitude": 51.2402, "lister_name": "Greenslade Taylor Hunt", "lister_url": "https://www.nestoria.co.uk/detail/0000000111080756205114674/title/5/24-7?serpUid=&pt=1&ot=1&l=somerset&did=105_high1&t_sec=9&t_or=45&t_pvid=null&utm_source=api&utm_medium=external", "listing_type": "buy", "location_accuracy": 9, "longitude": -2.99704, "price": 345000, "price_currency": "\u00a3", "price_formatted": "\u00a3345,000", "price_high": 345000, "price_low": 345000, "price_type": "fixed", "property_type": "house", "size": 0, "size_type": "net", "summary": "This tastefully presented, unusual and interesting 3 bedroom 4 stor...", "thumb_height": 60, "thumb_url": "https://imgs.nestimg.com/medium/3_bedroom_semi_detached_house_for_sale_111080756205114674.jpg", "thumb_width": 80, "title": "Brunswick Terrace, Berrow Road, Burnham-on-Sea, Somerset, TA8", "updated_in_days": 105, "updated_in_days_formatted": "first seen over a month ago"}, {"bathroom_number": "", "bedroom_number": 3, "car_spaces": 0, "commission": 0, "construction_year": 0, "datasource_name": "OnTheMarket.com", "img_height": 300, "img_url": "https://imgs.nestimg.com/3_bedroom_detached_bungalow_for_sale_111650094969650145.jpg", "img_width": 400, "keywords": "Detached, Garden, Conservatory, Kitchen, Bungalow", "latitude": 50.8634, "lister_name": "Greenslade Taylor Hunt", "lister_url": "https://www.nestoria.co.uk/detail/0000000111650094969650145/title/5/24-8?serpUid=&pt=1&ot=1&l=somerset&did=105_high1&t_sec=9&t_or=45&t_pvid=null&utm_source=api&utm_medium=external", "listing_type": "buy", "location_accuracy": 9, "longitude": -2.95545, "price": 329950, "price_currency": "\u00a3", "price_formatted": "\u00a3329,950", "price_high": 329950, "price_low": 329950, "price_type": "fixed", "property_type": "house", "size": 0, "size_type": "net", "summary": "A individual detached bungalow offering living space and set in mat...", "thumb_height": 60, "thumb_url": "https://imgs.nestimg.com/medium/3_bedroom_detached_bungalow_for_sale_111650094969650145.jpg", "thumb_width": 80, "title": "Forton Road, Chard, Somerset, TA20", "updated_in_days": 13, "updated_in_days_formatted": "first seen last week"}, {"bathroom_number": "", "bedroom_number": 4, "car_spaces": 0, "commission": 0, "construction_year": 0, "datasource_name": "OnTheMarket.com", "img_height": 300, "img_url": "https://imgs.nestimg.com/4_bedroom_terraced_house_for_sale_111662473845600377.jpg", "img_width": 400, "keywords": "En suite, No Chain, Terraced", "latitude": 51.1812, "lister_name": "Wilkie May & Tuckwood", "lister_url": "https://www.nestoria.co.uk/detail/0000000111662473845600377/title/5/24-9?serpUid=&pt=1&ot=1&l=somerset&did=105_high1&t_sec=9&t_or=45&t_pvid=null&utm_source=api&utm_medium=external", "listing_type": "buy", "location_accuracy": 9, "longitude": -3.33023, "price": 375000, "price_currency": "\u00a3", "price_formatted": "\u00a3375,000", "price_high": 375000, "price_low": 375000, "price_type": "fixed", "property_type": "house", "size": 0, "size_type": "net", "summary": "No onward chain a four bedroom , terraced family home currently run...", "thumb_height": 60, "thumb_url": "https://imgs.nestimg.com/medium/4_bedroom_terraced_house_for_sale_111662473845600377.jpg", "thumb_width": 80, "title": "Swain Street, Watchet, Somerset TA23", "updated_in_days": 11, "updated_in_days_formatted": "first seen last week"}, {"bathroom_number": "", "bedroom_number": 4, "car_spaces": 0, "commission": 0, "construction_year": 0, "datasource_name": "OnTheMarket.com", "img_height": 300, "img_url": "https://imgs.nestimg.com/4_bedroom_detached_house_for_sale_111587834178760712.jpg", "img_width": 400, "keywords": "Detached, Freehold, Garden, Double Garage", "latitude": 50.9507, "lister_name": "Greenslade Taylor Hunt", "lister_url": "https://www.nestoria.co.uk/detail/0000000111587834178760712/title/5/24-10?serpUid=&pt=1&ot=1&l=somerset&did=105_high1&t_sec=9&t_or=45&t_pvid=null&utm_source=api&utm_medium=external", "listing_type": "buy", "location_accuracy": 9, "longitude": -2.80389, "price": 395000, "price_currency": "\u00a3", "price_formatted": "\u00a3395,000", "price_high": 395000, "price_low": 395000, "price_type": "fixed", "property_type": "house", "size": 0, "size_type": "net", "summary": "A four bedroom detached house occupying a fine corner setting with ...", "thumb_height": 60, "thumb_url": "https://imgs.nestimg.com/medium/4_bedroom_detached_house_for_sale_111587834178760712.jpg", "thumb_width": 80, "title": "St Michaels Gardens, South Petherton, Somerset, TA13", "updated_in_days": 23, "updated_in_days_formatted": "first seen 3 weeks ago"}, {"bathroom_number": "", "bedroom_number": 2, "car_spaces": 0, "commission": 0, "construction_year": 0, "datasource_name": "OnTheMarket.com", "img_height": 300, "img_url": "https://imgs.nestimg.com/2_bedroom_terraced_house_for_sale_111155185737811756.jpg", "img_width": 400, "keywords": "No Chain, Terraced, Gas Central Heating", "latitude": 51.2408, "lister_url": "https://www.nestoria.co.uk/detail/0000000111155185737811756/title/5/24-11?serpUid=&pt=1&ot=1&l=somerset&did=105_high1&t_sec=9&t_or=45&t_pvid=null&utm_source=api&utm_medium=external", "listing_type": "buy", "location_accuracy": 9, "longitude": -2.98197, "price": 164950, "price_currency": "\u00a3", "price_formatted": "\u00a3164,950", "price_high": 164950, "price_low": 164950, "price_type": "fixed", "property_type": "house", "size": 0, "size_type": "net", "summary": "A gas centrally heated, double glazed 2 bedroom terraced house offe...", "thumb_height": 60, "thumb_url": "https://imgs.nestimg.com/medium/2_bedroom_terraced_house_for_sale_111155185737811756.jpg", "thumb_width": 80, "title": "Avebury Close, Burnham-on-Sea, Somerset", "updated_in_days": 39, "updated_in_days_formatted": "first seen over a month ago"}, {"bathroom_number": "", "bedroom_number": 2, "car_spaces": 0, "commission": 0, "construction_year": 0, "datasource_name": "OnTheMarket.com", "img_height": 300, "img_url": "https://imgs.nestimg.com/2_bedroom_apartment_for_sale_111457713870260200.jpg", "img_width": 400, "keywords": "Freehold, Garden", "latitude": 50.979, "lister_name": "Greenslade Taylor Hunt", "lister_url": "https://www.nestoria.co.uk/detail/0000000111457713870260200/title/5/24-12?serpUid=&pt=1&ot=1&l=somerset&did=105_high1&t_sec=9&t_or=45&t_pvid=null&utm_source=api&utm_medium=external", "listing_type": "buy", "location_accuracy": 9, "longitude": -3.22964, "price": 200000, "price_currency": "\u00a3", "price_formatted": "\u00a3200,000", "price_high": 200000, "price_low": 200000, "price_type": "fixed", "property_type": "flat", "size": 0, "size_type": "net", "summary": "Prominent location close to the town centre. Shop 616 sq ft with ba...", "thumb_height": 60, "thumb_url": "https://imgs.nestimg.com/medium/2_bedroom_apartment_for_sale_111457713870260200.jpg", "thumb_width": 80, "title": "North Street, Wellington, Somerset, TA21", "updated_in_days": 44, "updated_in_days_formatted": "first seen over a month ago"}, {"bathroom_number": "", "bedroom_number": 7, "car_spaces": 0, "commission": 0, "construction_year": 0, "datasource_name": "OnTheMarket.com", "img_height": 300, "img_url": "https://imgs.nestimg.com/7_bedroom_house_for_sale_111111693831374067.jpg", "img_width": 400, "keywords": "Freehold, Garden, Grade II, Cottage, Listed", "latitude": 50.9593, "lister_name": "Greenslade Taylor Hunt", "lister_url": "https://www.nestoria.co.uk/detail/0000000111111693831374067/title/5/24-13?serpUid=&pt=1&ot=1&l=somerset&did=105_high1&t_sec=9&t_or=45&t_pvid=null&utm_source=api&utm_medium=external", "listing_type": "buy", "location_accuracy": 9, "longitude": -2.86988, "price": 750000, "price_currency": "\u00a3", "price_formatted": "\u00a3750,000", "price_high": 750000, "price_low": 750000, "price_type": "fixed", "property_type": "house", "size": 0, "size_type": "net", "summary": "A grade ii listed 4 bedroom farmhouse of character in a favoured vi...", "thumb_height": 60, "thumb_url": "https://imgs.nestimg.com/medium/7_bedroom_house_for_sale_111111693831374067.jpg", "thumb_width": 80, "title": "Barrington, Ilminster, Somerset, TA19", "updated_in_days": 100, "updated_in_days_formatted": "first seen over a month ago"}, {"bathroom_number": "", "bedroom_number": 2, "car_spaces": 0, "commission": 0, "construction_year": 0, "datasource_name": "OnTheMarket.com", "img_height": 300, "img_url": "https://imgs.nestimg.com/2_bedroom_semi_detached_bungalow_for_sale_110938658085468078.jpg", "img_width": 400, "keywords": "Semi-Detached, No Chain, Bungalow, Gas Central Heating", "latitude": 51.2406, "lister_url": "https://www.nestoria.co.uk/detail/0000000110938658085468078/title/5/24-14?serpUid=&pt=1&ot=1&l=somerset&did=105_high1&t_sec=9&t_or=45&t_pvid=null&utm_source=api&utm_medium=external", "listing_type": "buy", "location_accuracy": 9, "longitude": -2.98991, "price": 234000, "price_currency": "\u00a3", "price_formatted": "\u00a3234,000", "price_high": 234000, "price_low": 234000, "price_type": "fixed", "property_type": "house", "size": 0, "size_type": "net", "summary": "A 2 bedroom semi-detached bungalow with gas central heating, double...", "thumb_height": 60, "thumb_url": "https://imgs.nestimg.com/medium/2_bedroom_semi_detached_bungalow_for_sale_110938658085468078.jpg", "thumb_width": 80, "title": "St Marks Road, Burnham-on-Sea, Somerset", "updated_in_days": 93, "updated_in_days_formatted": "first seen over a month ago"}, {"bathroom_number": "", "bedroom_number": 4, "car_spaces": 0, "commission": 0, "construction_year": 0, "datasource_name": "OnTheMarket.com", "img_height": 300, "img_url": "https://imgs.nestimg.com/4_bedroom_townhouse_for_sale_111303413486845880.jpg", "img_width": 400, "keywords": "", "latitude": 51.2177, "lister_url": "https://www.nestoria.co.uk/detail/0000000111303413486845880/title/5/24-15?serpUid=&pt=1&ot=1&l=somerset&did=105_high1&t_sec=9&t_or=45&t_pvid=null&utm_source=api&utm_medium=external", "listing_type": "buy", "location_accuracy": 9, "longitude": -2.97028, "price": 225000, "price_currency": "\u00a3", "price_formatted": "\u00a3225,000", "price_high": 225000, "price_low": 225000, "price_type": "fixed", "property_type": "house", "size": 0, "size_type": "net", "summary": "A 4 bedroom townhouse with entertaining space downstairs, a carport...", "thumb_height": 60, "thumb_url": "https://imgs.nestimg.com/medium/4_bedroom_townhouse_for_sale_111303413486845880.jpg", "thumb_width": 80, "title": "Dorset Close, Highbridge, Somerset", "updated_in_days": 26, "updated_in_days_formatted": "first seen 3 weeks ago"}], "locations": [{"center_lat": 51.080967, "center_long": -3.045432, "long_title": "Somerset, county", "place_name": "somerset", "title": "Somerset"}], "page": 24, "sort": "nestoria_rank", "status_code": "200", "status_text": "OK", "thanks": "For using the Nestoria API.", "total_pages": 410, "total_results": 6149, "_cu5t0mP434m_": "remove"}}