{"request": {"country": "uk", "language": "en", "location": "somerset", "num_res": "15", "offset": 360, "output": "json_xs", "page": 25, "product_type": "realestate", "property_type": "property", "size_type": "net", "size_unit": "m2", "sort": "nestoria_rank", "listing_type": "buy"}, "response": {"application_response_code": "100", "application_response_text": "listings returned for one unambiguous location", "attribution": {"img_height": 22, "img_url": "https://resources.nestimg.com/nestoria/img/pbr_v1.png", "img_width": 183, "link_to_img": "http://www.nestoria.com"}, "created_http": "Tue, 18 Jun 2019 17:29:11 GMT", "created_unix": 1560878951, "link_to_url": "https://www.nestoria.co.uk/somerset/property/buy/25", "listings": [{"bathroom_number": "", "bedroom_number": 3, "car_spaces": 0, "commission": 0, "construction_year": 0, "datasource_name": "OnTheMarket.com", "img_height": 300, "img_url": "https://imgs.nestimg.com/3_bedroom_semi_detached_bungalow_for_sale_111668303517633131.jpg", "img_width": 400, "keywords": "Semi-Detached, En suite, No Chain, Double Bedroom, Garage, Bungalow", "latitude": 51.3251, "lister_url": "https://www.nestoria.co.uk/detail/0000000111668303517633131/title/5/25-1?serpUid=&pt=1&ot=1&l=somerset&did=105_high1&t_sec=9&t_or=45&t_pvid=null&utm_source=api&utm_medium=external", "listing_type": "buy", "location_accuracy": 9, "longitude": -2.93106, "price": 300000, "price_currency": "\u00a3", "price_formatted": "\u00a3300,000", "price_high": 300000, "price_low": 300000, "price_type": "fixed", "property_type": "house", "size": 0, "size_type": "net", "summary": "Hutton village. Semi detached bungalow. Three double bedrooms plus ...", "thumb_height": 60, "thumb_url": "https://imgs.nestimg.com/medium/3_bedroom_semi_detached_bungalow_for_sale_111668303517633131.jpg", "thumb_width": 80, "title": "South View, Hutton, Weston-super-Mare, North Somerset. BS24", "updated_in_days": 10, "updated_in_days_formatted": "first seen last week"}, {"bathroom_number": "", "bedroom_number": 3, "car_spaces": 0, "commission": 0, "construction_year": 0, "datasource_name": "OnTheMarket.com", "img_height": 300, "img_url": "https://imgs.nestimg.com/3_bedroom_cottage_for_sale_110542840440725854.jpg", "img_width": 400, "keywords": "Detached, Cottage", "latitude": 50.9297, "lister_name": "Newton King", "lister_url": "https://www.nestoria.co.uk/detail/0000000110542840440725854/title/5/25-2?serpUid=&pt=1&ot=1&l=somerset&did=105_high1&t_sec=9&t_or=45&t_pvid=null&utm_source=api&utm_medium=external", "listing_type": "buy", "location_accuracy": 9, "longitude": -2.96758, "price": 339995, "price_currency": "\u00a3", "price_formatted": "\u00a3339,995", "price_high": 339995, "price_low": 339995, "price_type": "fixed", "property_type": "house", "size": 0, "size_type": "net", "summary": "Three bedroom detached cottage in the picturesque village of horton...", "thumb_height": 60, "thumb_url": "https://imgs.nestimg.com/medium/3_bedroom_cottage_for_sale_110542840440725854.jpg", "thumb_width": 80, "title": "Goose Lane, Horton, Somerset", "updated_in_days": 39, "updated_in_days_formatted": "first seen over a month ago"}, {"bathroom_number": "", "bedroom_number": 2, "car_spaces": 0, "commission": 0, "construction_year": 0, "datasource_name": "OnTheMarket.com", "img_height": 300, "img_url": "https://imgs.nestimg.com/2_bedroom_semi_detached_bungalow_for_sale_111334254129227798.jpg", "img_width": 400, "keywords": "Semi-Detached, Bungalow", "latitude": 51.1773, "lister_url": "https://www.nestoria.co.uk/detail/0000000111334254129227798/title/5/25-3?serpUid=&pt=1&ot=1&l=somerset&did=105_high1&t_sec=9&t_or=45&t_pvid=null&utm_source=api&utm_medium=external", "listing_type": "buy", "location_accuracy": 9, "longitude": -3.30564, "price": 159950, "price_currency": "\u00a3", "price_formatted": "\u00a3159,950", "price_high": 159950, "price_low": 159950, "price_type": "fixed", "property_type": "house", "size": 0, "size_type": "net", "summary": "A two bedroom semi detached bungalow in a quiet close a few minutes...", "thumb_height": 60, "thumb_url": "https://imgs.nestimg.com/medium/2_bedroom_semi_detached_bungalow_for_sale_111334254129227798.jpg", "thumb_width": 80, "title": "Doniford Meadow, Watchet, Somerset, TA23", "updated_in_days": 12, "updated_in_days_formatted": "first seen last week"}, {"bathroom_number": "", "bedroom_number": 5, "car_spaces": 0, "commission": 0, "construction_year": 0, "datasource_name": "OnTheMarket.com", "img_height": 300, "img_url": "https://imgs.nestimg.com/5_bedroom_semi_detached_house_for_sale_111668297892776974.jpg", "img_width": 400, "keywords": "Freehold, Garden, Semi-Detached, Garage, Cottage", "latitude": 51.1741, "lister_url": "https://www.nestoria.co.uk/detail/0000000111668297892776974/title/5/25-4?serpUid=&pt=1&ot=1&l=somerset&did=105_high1&t_sec=9&t_or=45&t_pvid=null&utm_source=api&utm_medium=external", "listing_type": "buy", "location_accuracy": 9, "longitude": -3.42425, "price": 595000, "price_currency": "\u00a3", "price_formatted": "\u00a3595,000", "price_high": 595000, "price_low": 595000, "price_type": "fixed", "property_type": "house", "size": 0, "size_type": "net", "summary": "A five bedroom double fronted semi detached period cottage of immen...", "thumb_height": 60, "thumb_url": "https://imgs.nestimg.com/medium/5_bedroom_semi_detached_house_for_sale_111668297892776974.jpg", "thumb_width": 80, "title": "Winsors Lane, Carhampton, Minehead, Somerset, TA24", "updated_in_days": 10, "updated_in_days_formatted": "first seen last week"}, {"bathroom_number": "", "bedroom_number": 1, "car_spaces": 0, "commission": 0, "construction_year": 0, "datasource_name": "OnTheMarket.com", "img_height": 300, "img_url": "https://imgs.nestimg.com/1_bedroom_detached_bungalow_for_sale_111118074901855806.jpg", "img_width": 400, "keywords": "Detached, Grade II, Bungalow, Listed", "latitude": 51.2457, "lister_url": "https://www.nestoria.co.uk/detail/0000000111118074901855806/title/5/25-5?serpUid=&pt=1&ot=1&l=somerset&did=105_high1&t_sec=9&t_or=45&t_pvid=null&utm_source=api&utm_medium=external", "listing_type": "buy", "location_accuracy": 9, "longitude": -2.99863, "price": 188995, "price_currency": "\u00a3", "price_formatted": "\u00a3188,995", "price_high": 188995, "price_low": 188995, "price_type": "fixed", "property_type": "house", "size": 0, "size_type": "net", "summary": "A grade ii listed and unique detached bungalow within walking dista...", "thumb_height": 60, "thumb_url": "https://imgs.nestimg.com/medium/1_bedroom_detached_bungalow_for_sale_111118074901855806.jpg", "thumb_width": 80, "title": "Berrow Road, Burnham-on-Sea, Somerset", "updated_in_days": 40, "updated_in_days_formatted": "first seen over a month ago"}, {"bathroom_number": "", "bedroom_number": 5, "car_spaces": 0, "commission": 0, "construction_year": 0, "datasource_name": "OnTheMarket.com", "img_height": 300, "img_url": "https://imgs.nestimg.com/5_bedroom_detached_house_for_sale_111457722067530504.jpg", "img_width": 400, "keywords": "Detached, Garden, Fireplace, Kitchen, Parking, Cottage", "latitude": 51.1603, "lister_name": "Stags", "lister_url": "https://www.nestoria.co.uk/detail/0000000111457722067530504/title/5/25-6?serpUid=&pt=1&ot=1&l=somerset&did=105_high1&t_sec=9&t_or=45&t_pvid=null&utm_source=api&utm_medium=external", "listing_type": "buy", "location_accuracy": 9, "longitude": -3.31637, "price": 435000, "price_currency": "\u00a3", "price_formatted": "\u00a3435,000", "price_high": 435000, "price_low": 435000, "price_type": "fixed", "property_type": "house", "size": 0, "size_type": "net", "summary": "A detached cottage offering versatile accommodation enjoying a posi...", "thumb_height": 60, "thumb_url": "https://imgs.nestimg.com/medium/5_bedroom_detached_house_for_sale_111457722067530504.jpg", "thumb_width": 80, "title": "Catwell, Williton, Taunton, Somerset, TA4", "updated_in_days": 44, "updated_in_days_formatted": "first seen over a month ago"}, {"bathroom_number": 4, "bedroom_number": 4, "car_spaces": 0, "commission": 0, "construction_year": 0, "datasource_name": "OnTheMarket.com", "img_height": 300, "img_url": "https://imgs.nestimg.com/4_bedroom_house_for_sale_107604506332457379.jpg", "img_width": 400, "keywords": "Detached, Freehold, Garden, En suite, No Chain, Double Bedroom, Garage, Kitchen, Reception", "latitude": 51.2067, "lister_name": "Greenslade Taylor Hunt", "lister_url": "https://www.nestoria.co.uk/detail/0000000107604506332457379/title/5/25-7?serpUid=&pt=1&ot=1&l=somerset&did=105_high1&t_sec=9&t_or=45&t_pvid=null&utm_source=api&utm_medium=external", "listing_type": "buy", "location_accuracy": 9, "longitude": -2.64905, "price": 585000, "price_currency": "\u00a3", "price_formatted": "\u00a3585,000", "price_high": 585000, "price_low": 585000, "price_type": "fixed", "property_type": "house", "size": 0, "size_type": "net", "summary": "No onward chain. A conveniently located detached period house. 4 do...", "thumb_height": 60, "thumb_url": "https://imgs.nestimg.com/medium/4_bedroom_house_for_sale_107604506332457379.jpg", "thumb_width": 80, "title": "Priory Road, Wells, Somerset, BA5", "updated_in_days": 465, "updated_in_days_formatted": "first seen over a month ago"}, {"bathroom_number": "", "bedroom_number": 6, "car_spaces": 0, "commission": 0, "construction_year": 0, "datasource_name": "OnTheMarket.com", "img_height": 300, "img_url": "https://imgs.nestimg.com/6_bedroom_detached_house_for_sale_111457724570969184.jpg", "img_width": 400, "keywords": "Detached, Garden, Swimming Pool, Georgian", "latitude": 51.1057, "lister_name": "Stags", "lister_url": "https://www.nestoria.co.uk/detail/0000000111457724570969184/title/5/25-8?serpUid=&pt=1&ot=1&l=somerset&did=105_high1&t_sec=9&t_or=45&t_pvid=null&utm_source=api&utm_medium=external", "listing_type": "buy", "location_accuracy": 9, "longitude": -3.30964, "price": 1450000, "price_currency": "\u00a3", "price_formatted": "\u00a31,450,000", "price_high": 1450000, "price_low": 1450000, "price_type": "fixed", "property_type": "house", "size": 0, "size_type": "net", "summary": "A restored georgian rectory on the edge of the brendon hills and ex...", "thumb_height": 60, "thumb_url": "https://imgs.nestimg.com/medium/6_bedroom_detached_house_for_sale_111457724570969184.jpg", "thumb_width": 80, "title": "Elworthy, Lydeard St Lawrence, Taunton, Somerset, TA4", "updated_in_days": 44, "updated_in_days_formatted": "first seen over a month ago"}, {"bathroom_number": "", "bedroom_number": 3, "car_spaces": 0, "commission": 0, "construction_year": 0, "datasource_name": "OnTheMarket.com", "img_height": 300, "img_url": "https://imgs.nestimg.com/3_bedroom_house_for_sale_111501251335694667.jpg", "img_width": 400, "keywords": "Freehold, Garage", "latitude": 50.9335, "lister_name": "Greenslade Taylor Hunt", "lister_url": "https://www.nestoria.co.uk/detail/0000000111501251335694667/title/5/25-9?serpUid=&pt=1&ot=1&l=somerset&did=105_high1&t_sec=9&t_or=45&t_pvid=null&utm_source=api&utm_medium=external", "listing_type": "buy", "location_accuracy": 9, "longitude": -2.9415, "price": 220000, "price_currency": "\u00a3", "price_formatted": "\u00a3220,000", "price_high": 220000, "price_low": 220000, "price_type": "fixed", "property_type": "house", "size": 0, "size_type": "net", "summary": "An and ly renovated 3 bedroomed character house forming part of thi...", "thumb_height": 60, "thumb_url": "https://imgs.nestimg.com/medium/3_bedroom_house_for_sale_111501251335694667.jpg", "thumb_width": 80, "title": "Southfields, Horton Cross, Ilminster, Somerset, TA19", "updated_in_days": 37, "updated_in_days_formatted": "first seen over a month ago"}, {"bathroom_number": "", "bedroom_number": 1, "car_spaces": 0, "commission": 0, "construction_year": 0, "datasource_name": "OnTheMarket.com", "img_height": 300, "img_url": "https://imgs.nestimg.com/1_bedroom_detached_bungalow_for_sale_111681013444566247.jpg", "img_width": 400, "keywords": "Detached, Freehold, Bungalow", "latitude": 51.1762, "lister_url": "https://www.nestoria.co.uk/detail/0000000111681013444566247/title/5/25-10?serpUid=&pt=1&ot=1&l=somerset&did=105_high1&t_sec=9&t_or=45&t_pvid=null&utm_source=api&utm_medium=external", "listing_type": "buy", "location_accuracy": 9, "longitude": -3.37972, "price": 187500, "price_currency": "\u00a3", "price_formatted": "\u00a3187,500", "price_high": 187500, "price_low": 187500, "price_type": "fixed", "property_type": "house", "size": 0, "size_type": "net", "summary": "A one bedroom detached bungalow residence situated in this woodland...", "thumb_height": 60, "thumb_url": "https://imgs.nestimg.com/medium/1_bedroom_detached_bungalow_for_sale_111681013444566247.jpg", "thumb_width": 80, "title": "Cleeve Park, Chapel Cleeve, Minehead, Somerset, TA24", "updated_in_days": 8, "updated_in_days_formatted": "first seen last week"}, {"bathroom_number": "", "bedroom_number": 3, "car_spaces": 0, "commission": 0, "construction_year": 0, "datasource_name": "OnTheMarket.com", "img_height": 300, "img_url": "https://imgs.nestimg.com/3_bedroom_semi_detached_house_for_sale_111544379251299259.jpg", "img_width": 400, "keywords": "Semi-Detached, Shared Ownership", "latitude": 50.9488, "lister_name": "Greenslade Taylor Hunt", "lister_url": "https://www.nestoria.co.uk/detail/0000000111544379251299259/title/5/25-11?serpUid=&pt=1&ot=1&l=somerset&did=105_high1&t_sec=9&t_or=45&t_pvid=null&utm_source=api&utm_medium=external", "listing_type": "buy", "location_accuracy": 9, "longitude": -2.91649, "price": 105000, "price_currency": "\u00a3", "price_formatted": "\u00a3105,000", "price_high": 105000, "price_low": 105000, "price_type": "fixed", "property_type": "house", "size": 0, "size_type": "net", "summary": "Three bedroom shared ownership house. Plot 37, a 3 bedroom semi det...", "thumb_height": 60, "thumb_url": "https://imgs.nestimg.com/medium/3_bedroom_semi_detached_house_for_sale_111544379251299259.jpg", "thumb_width": 80, "title": "Plot 37, Off Church Road, Ilton, Somerset, TA19", "updated_in_days": 30, "updated_in_days_formatted": "first seen over a month ago"}, {"bathroom_number": "", "bedroom_number": "", "car_spaces": 0, "commission": 0, "construction_year": 0, "datasource_name": "OnTheMarket.com", "img_height": 300, "img_url": "https://imgs.nestimg.com/land_for_sale_111223321010173259.jpg", "img_width": 400, "keywords": "", "latitude": 51.1215, "lister_name": "Greenslade Taylor Hunt", "lister_url": "https://www.nestoria.co.uk/detail/0000000111223321010173259/title/5/25-12?serpUid=&pt=1&ot=1&l=somerset&did=105_high1&t_sec=9&t_or=45&t_pvid=null&utm_source=api&utm_medium=external", "listing_type": "buy", "location_accuracy": 9, "longitude": -3.02343, "price": 235000, "price_currency": "\u00a3", "price_formatted": "\u00a3235,000", "price_high": 235000, "price_low": 235000, "price_type": "fixed", "property_type": "land", "size": 0, "size_type": "net", "summary": "An block of agricultural pasture land situated on the edge of bridg...", "thumb_height": 60, "thumb_url": "https://imgs.nestimg.com/medium/land_for_sale_111223321010173259.jpg", "thumb_width": 80, "title": "39.34 Acres Of Pasture Land, Bridgwater, Somerset, TA6", "updated_in_days": 82, "updated_in_days_formatted": "first seen over a month ago"}, {"bathroom_number": "", "bedroom_number": 3, "car_spaces": 0, "commission": 0, "construction_year": 0, "datasource_name": "OnTheMarket.com", "img_height": 300, "img_url": "https://imgs.nestimg.com/3_bedroom_flat_for_sale_111587833190897663.jpg", "img_width": 400, "keywords": "Purpose Built", "latitude": 51.2306, "lister_url": "https://www.nestoria.co.uk/detail/0000000111587833190897663/title/5/25-13?serpUid=&pt=1&ot=1&l=somerset&did=105_high1&t_sec=9&t_or=45&t_pvid=null&utm_source=api&utm_medium=external", "listing_type": "buy", "location_accuracy": 9, "longitude": -3.00068, "price": 219950, "price_currency": "\u00a3", "price_formatted": "\u00a3219,950", "price_high": 219950, "price_low": 219950, "price_type": "fixed", "property_type": "flat", "size": 0, "size_type": "net", "summary": "A ground floor purpose built flat with seaviews across the bridgwat...", "thumb_height": 60, "thumb_url": "https://imgs.nestimg.com/medium/3_bedroom_flat_for_sale_111587833190897663.jpg", "thumb_width": 80, "title": "Quantock Court, Burnham On Sea, Somerset", "updated_in_days": 23, "updated_in_days_formatted": "first seen 3 weeks ago"}, {"bathroom_number": "", "bedroom_number": 4, "car_spaces": 0, "commission": 0, "construction_year": 0, "datasource_name": "OnTheMarket.com", "img_height": 300, "img_url": "https://imgs.nestimg.com/4_bedroom_detached_house_for_sale_111247948805647280.jpg", "img_width": 400, "keywords": "Detached, Garden", "latitude": 51.22665, "lister_name": "Knight Frank", "lister_url": "https://www.nestoria.co.uk/detail/0000000111247948805647280/title/5/25-14?serpUid=&pt=1&ot=1&l=somerset&did=105_high1&t_sec=9&t_or=45&t_pvid=null&utm_source=api&utm_medium=external", "listing_type": "buy", "location_accuracy": 9, "longitude": -2.813413, "price": 725000, "price_currency": "\u00a3", "price_formatted": "\u00a3725,000", "price_high": 725000, "price_low": 725000, "price_type": "fixed", "property_type": "house", "size": 0, "size_type": "net", "summary": "4 bedroom house located at the heart of wedmore, near wells. Pretty...", "thumb_height": 60, "thumb_url": "https://imgs.nestimg.com/medium/4_bedroom_detached_house_for_sale_111247948805647280.jpg", "thumb_width": 80, "title": "Gardiners Orchard, Wedmore, Somerset, BS28", "updated_in_days": 12, "updated_in_days_formatted": "first seen last week"}, {"bathroom_number": "", "bedroom_number": 6, "car_spaces": 0, "commission": 0, "construction_year": 0, "datasource_name": "OnTheMarket.com", "img_height": 300, "img_url": "https://imgs.nestimg.com/6_bedroom_detached_house_for_sale_111569521738339506.jpg", "img_width": 400, "keywords": "Detached, Kitchen, Reception", "latitude": 50.911, "lister_name": "Stags", "lister_url": "https://www.nestoria.co.uk/detail/0000000111569521738339506/title/5/25-15?serpUid=&pt=1&ot=1&l=somerset&did=105_high1&t_sec=9&t_or=45&t_pvid=null&utm_source=api&utm_medium=external", "listing_type": "buy", "location_accuracy": 9, "longitude": -3.10058, "price": 795000, "price_currency": "\u00a3", "price_formatted": "\u00a3795,000", "price_high": 795000, "price_low": 795000, "price_type": "fixed", "property_type": "house", "size": 0, "size_type": "net", "summary": "A country property in a rural, yet accessible location to include a...", "thumb_height": 60, "thumb_url": "https://imgs.nestimg.com/medium/6_bedroom_detached_house_for_sale_111569521738339506.jpg", "thumb_width": 80, "title": "Royston Water, Churchinford, Taunton, Somerset, TA3", "updated_in_days": 26, "updated_in_days_formatted": "first seen 3 weeks ago"}], "locations": [{"center_lat": 51.080967, "center_long": -3.045432, "long_title": "Somerset, county", "place_name": "somerset", "title": "Somerset"}], "page": 25, "sort": "nestoria_rank", "status_code": "200", "status_text": "OK", "thanks": "For using the Nestoria API.", "total_pages": 410, "total_results": 6149, "_cu5t0mP434m_": "remove"}}