{"request": {"country": "uk", "language": "en", "location": "somerset", "num_res": "15", "offset": 375, "output": "json_xs", "page": 26, "product_type": "realestate", "property_type": "property", "size_type": "net", "size_unit": "m2", "sort": "nestoria_rank", "listing_type": "buy"}, "response": {"application_response_code": "100", "application_response_text": "listings returned for one unambiguous location", "attribution": {"img_height": 22, "img_url": "https://resources.nestimg.com/nestoria/img/pbr_v1.png", "img_width": 183, "link_to_img": "http://www.nestoria.com"}, "created_http": "Tue, 18 Jun 2019 17:29:13 GMT", "created_unix": 1560878953, "link_to_url": "https://www.nestoria.co.uk/somerset/property/buy/26", "listings": [{"bathroom_number": "", "bedroom_number": 4, "car_spaces": 0, "commission": 0, "construction_year": 0, "datasource_name": "OnTheMarket.com", "img_height": 300, "img_url": "https://imgs.nestimg.com/4_bedroom_detached_house_for_sale_111606570301558229.jpg", "img_width": 400, "keywords": "Detached, Modern, Cottage", "latitude": 51.0162, "lister_url": "https://www.nestoria.co.uk/detail/0000000111606570301558229/title/5/26-1?serpUid=&pt=1&ot=1&l=somerset&did=105_high1&t_sec=9&t_or=45&t_pvid=null&utm_source=api&utm_medium=external", "listing_type": "buy", "location_accuracy": 9, "longitude": -2.75909, "price": 660000, "price_currency": "\u00a3", "price_formatted": "\u00a3660,000", "price_high": 660000, "price_low": 660000, "price_type": "fixed", "property_type": "house", "size": 0, "size_type": "net", "summary": "A rural property with detached office/annex potential. Completed in...", "thumb_height": 60, "thumb_url": "https://imgs.nestimg.com/medium/4_bedroom_detached_house_for_sale_111606570301558229.jpg", "thumb_width": 80, "title": "Long Load, Somerset - Detached", "updated_in_days": 20, "updated_in_days_formatted": "first seen 2 weeks ago"}, {"bathroom_number": "", "bedroom_number": 6, "car_spaces": 0, "commission": 0, "construction_year": 0, "datasource_name": "OnTheMarket.com", "img_height": 300, "img_url": "https://imgs.nestimg.com/6_bedroom_detached_house_for_sale_110821214898189155.jpg", "img_width": 400, "keywords": "Detached, Freehold, Conversion, Parking, Cottage, Georgian", "latitude": 51.2676, "lister_name": "Greenslade Taylor Hunt", "lister_url": "https://www.nestoria.co.uk/detail/0000000110821214898189155/title/5/26-2?serpUid=&pt=1&ot=1&l=somerset&did=105_high1&t_sec=9&t_or=45&t_pvid=null&utm_source=api&utm_medium=external", "listing_type": "buy", "location_accuracy": 9, "longitude": -2.91553, "price": 1100000, "price_currency": "\u00a3", "price_formatted": "\u00a31,100,000", "price_high": 1100000, "price_low": 1100000, "price_type": "fixed", "property_type": "house", "size": 0, "size_type": "net", "summary": "This and well presented 6 bedroom georgian farmhouse offers flexibl...", "thumb_height": 60, "thumb_url": "https://imgs.nestimg.com/medium/6_bedroom_detached_house_for_sale_110821214898189155.jpg", "thumb_width": 80, "title": "Mendip Road, Rooksbridge, Axbridge, Somerset, BS26", "updated_in_days": 27, "updated_in_days_formatted": "first seen 3 weeks ago"}, {"bathroom_number": "", "bedroom_number": 1, "car_spaces": 0, "commission": 0, "construction_year": 0, "datasource_name": "OnTheMarket.com", "img_height": 300, "img_url": "https://imgs.nestimg.com/1_bedroom_semi_detached_house_for_sale_111346680687099518.jpg", "img_width": 400, "keywords": "Semi-Detached, Terraced, Gas Central Heating", "latitude": 51.2414, "lister_url": "https://www.nestoria.co.uk/detail/0000000111346680687099518/title/5/26-3?serpUid=&pt=1&ot=1&l=somerset&did=105_high1&t_sec=9&t_or=45&t_pvid=null&utm_source=api&utm_medium=external", "listing_type": "buy", "location_accuracy": 9, "longitude": -2.98346, "price": 135000, "price_currency": "\u00a3", "price_formatted": "\u00a3135,000", "price_high": 135000, "price_low": 135000, "price_type": "fixed", "property_type": "house", "size": 0, "size_type": "net", "summary": "An end of terrace 1 bedroom gas centrally heated, double glazed hou...", "thumb_height": 60, "thumb_url": "https://imgs.nestimg.com/medium/1_bedroom_semi_detached_house_for_sale_111346680687099518.jpg", "thumb_width": 80, "title": "Corsham Drive, Burnham-on-Sea, Somerset", "updated_in_days": 62, "updated_in_days_formatted": "first seen over a month ago"}, {"bathroom_number": "", "bedroom_number": 6, "car_spaces": 0, "commission": 0, "construction_year": 0, "datasource_name": "OnTheMarket.com", "img_height": 300, "img_url": "https://imgs.nestimg.com/6_bedroom_chalet_for_sale_110938659630665961.jpg", "img_width": 400, "keywords": "Detached, Garden, Bungalow", "latitude": 51.1233, "lister_url": "https://www.nestoria.co.uk/detail/0000000110938659630665961/title/5/26-4?serpUid=&pt=1&ot=1&l=somerset&did=105_high1&t_sec=9&t_or=45&t_pvid=null&utm_source=api&utm_medium=external", "listing_type": "buy", "location_accuracy": 9, "longitude": -2.82166, "price": 585000, "price_currency": "\u00a3", "price_formatted": "\u00a3585,000", "price_high": 585000, "price_low": 585000, "price_type": "fixed", "property_type": "house", "size": 0, "size_type": "net", "summary": "A , family size detached chalet bungalow, with gas c/h & dbl glz an...", "thumb_height": 60, "thumb_url": "https://imgs.nestimg.com/medium/6_bedroom_chalet_for_sale_110938659630665961.jpg", "thumb_width": 80, "title": "Taunton Road, Pedwell, Bridgwater, Somerset", "updated_in_days": 128, "updated_in_days_formatted": "first seen over a month ago"}, {"bathroom_number": "", "bedroom_number": 3, "car_spaces": 0, "commission": 0, "construction_year": 0, "datasource_name": "OnTheMarket.com", "img_height": 300, "img_url": "https://imgs.nestimg.com/3_bedroom_detached_house_for_sale_111427149950580475.jpg", "img_width": 400, "keywords": "Detached, New Build", "latitude": 50.9521, "lister_name": "Greenslade Taylor Hunt", "lister_url": "https://www.nestoria.co.uk/detail/0000000111427149950580475/title/5/26-5?serpUid=&pt=1&ot=1&l=somerset&did=105_high1&t_sec=9&t_or=45&t_pvid=null&utm_source=api&utm_medium=external", "listing_type": "buy", "location_accuracy": 9, "longitude": -2.84848, "price": 350000, "price_currency": "\u00a3", "price_formatted": "\u00a3350,000", "price_high": 350000, "price_low": 350000, "price_type": "fixed", "property_type": "house", "size": 0, "size_type": "net", "summary": "Open day saturday june 15th at 11:30pm 1pma bright well finished 3 ...", "thumb_height": 60, "thumb_url": "https://imgs.nestimg.com/medium/3_bedroom_detached_house_for_sale_111427149950580475.jpg", "thumb_width": 80, "title": "Lambrook Road, Shepton Beauchamp, Ilminster, Somerset, TA19", "updated_in_days": 17, "updated_in_days_formatted": "first seen 2 weeks ago"}, {"bathroom_number": "", "bedroom_number": 3, "car_spaces": 0, "commission": 0, "construction_year": 0, "datasource_name": "OnTheMarket.com", "img_height": 300, "img_url": "https://imgs.nestimg.com/3_bedroom_house_for_sale_111402758850457293.jpg", "img_width": 400, "keywords": "Refurbished, Cottage", "latitude": 51.0421, "lister_name": "Newton King", "lister_url": "https://www.nestoria.co.uk/detail/0000000111402758850457293/title/5/26-6?serpUid=&pt=1&ot=1&l=somerset&did=105_high1&t_sec=9&t_or=45&t_pvid=null&utm_source=api&utm_medium=external", "listing_type": "buy", "location_accuracy": 9, "longitude": -3.31863, "price": 444995, "price_currency": "\u00a3", "price_formatted": "\u00a3444,995", "price_high": 444995, "price_low": 444995, "price_type": "fixed", "property_type": "house", "size": 0, "size_type": "net", "summary": "Sympathetically refurbished period cottage in the old market town o...", "thumb_height": 60, "thumb_url": "https://imgs.nestimg.com/medium/3_bedroom_house_for_sale_111402758850457293.jpg", "thumb_width": 80, "title": "West Road, Wiveliscombe, Taunton, Somerset", "updated_in_days": 26, "updated_in_days_formatted": "first seen 3 weeks ago"}, {"bathroom_number": "", "bedroom_number": 2, "car_spaces": 0, "commission": 0, "construction_year": 0, "datasource_name": "OnTheMarket.com", "img_height": 300, "img_url": "https://imgs.nestimg.com/2_bedroom_end_of_terrace_house_for_sale_111581694096673552.jpg", "img_width": 400, "keywords": "Garden, No Chain, Terraced, Modern", "latitude": 51.1798, "lister_name": "Wilkie May & Tuckwood", "lister_url": "https://www.nestoria.co.uk/detail/0000000111581694096673552/title/5/26-7?serpUid=&pt=1&ot=1&l=somerset&did=105_high1&t_sec=9&t_or=45&t_pvid=null&utm_source=api&utm_medium=external", "listing_type": "buy", "location_accuracy": 9, "longitude": -3.32055, "price": 178500, "price_currency": "\u00a3", "price_formatted": "\u00a3178,500", "price_high": 178500, "price_low": 178500, "price_type": "fixed", "property_type": "house", "size": 0, "size_type": "net", "summary": "No onward chain a modern and incredibly well presented two bedroom ...", "thumb_height": 60, "thumb_url": "https://imgs.nestimg.com/medium/2_bedroom_end_of_terrace_house_for_sale_111581694096673552.jpg", "thumb_width": 80, "title": "Holm View, Watchet, Somerset TA23", "updated_in_days": 24, "updated_in_days_formatted": "first seen 3 weeks ago"}, {"bathroom_number": "", "bedroom_number": 4, "car_spaces": 0, "commission": 0, "construction_year": 0, "datasource_name": "OnTheMarket.com", "img_height": 300, "img_url": "https://imgs.nestimg.com/4_bedroom_house_for_sale_111631123690935470.jpg", "img_width": 400, "keywords": "Conversion, Refurbished", "latitude": 50.9129, "lister_name": "Greenslade Taylor Hunt", "lister_url": "https://www.nestoria.co.uk/detail/0000000111631123690935470/title/5/26-8?serpUid=&pt=1&ot=1&l=somerset&did=105_high1&t_sec=9&t_or=45&t_pvid=null&utm_source=api&utm_medium=external", "listing_type": "buy", "location_accuracy": 9, "longitude": -2.92768, "price": 500000, "price_currency": "\u00a3", "price_formatted": "\u00a3500,000", "price_high": 500000, "price_low": 500000, "price_type": "fixed", "property_type": "house", "size": 0, "size_type": "net", "summary": "An outstanding four/five bedroom barn conversion refurbished to an ...", "thumb_height": 60, "thumb_url": "https://imgs.nestimg.com/medium/4_bedroom_house_for_sale_111631123690935470.jpg", "thumb_width": 80, "title": "Sea Farm, Sea, Ilminster, Somerset, TA19", "updated_in_days": 16, "updated_in_days_formatted": "first seen 2 weeks ago"}, {"bathroom_number": "", "bedroom_number": 3, "car_spaces": 0, "commission": 0, "construction_year": 0, "datasource_name": "OnTheMarket.com", "img_height": 300, "img_url": "https://imgs.nestimg.com/3_bedroom_semi_detached_house_for_sale_111514307645866448.jpg", "img_width": 400, "keywords": "Garden, Semi-Detached, Double Bedroom, Parking, Cottage", "latitude": 51.1606, "lister_name": "Wilkie May & Tuckwood", "lister_url": "https://www.nestoria.co.uk/detail/0000000111514307645866448/title/5/26-9?serpUid=&pt=1&ot=1&l=somerset&did=105_high1&t_sec=9&t_or=45&t_pvid=null&utm_source=api&utm_medium=external", "listing_type": "buy", "location_accuracy": 9, "longitude": -3.31966, "price": 315000, "price_currency": "\u00a3", "price_formatted": "\u00a3315,000", "price_high": 315000, "price_low": 315000, "price_type": "fixed", "property_type": "house", "size": 0, "size_type": "net", "summary": "Ly presented cottage in central level location a well presented and...", "thumb_height": 60, "thumb_url": "https://imgs.nestimg.com/medium/3_bedroom_semi_detached_house_for_sale_111514307645866448.jpg", "thumb_width": 80, "title": "Robert Street, Williton, Taunton, Somerset TA4", "updated_in_days": 35, "updated_in_days_formatted": "first seen over a month ago"}, {"bathroom_number": "", "bedroom_number": 3, "car_spaces": 0, "commission": 0, "construction_year": 0, "datasource_name": "OnTheMarket.com", "img_height": 300, "img_url": "https://imgs.nestimg.com/3_bedroom_end_of_terrace_house_for_sale_111668302353722226.jpg", "img_width": 400, "keywords": "Garden, No Chain, Terraced, Kitchen, Gas Central Heating", "latitude": 51.3398, "lister_url": "https://www.nestoria.co.uk/detail/0000000111668302353722226/title/5/26-10?serpUid=&pt=1&ot=1&l=somerset&did=105_high1&t_sec=9&t_or=45&t_pvid=null&utm_source=api&utm_medium=external", "listing_type": "buy", "location_accuracy": 9, "longitude": -2.96777, "price": 180000, "price_currency": "\u00a3", "price_formatted": "\u00a3180,000", "price_high": 180000, "price_low": 180000, "price_type": "fixed", "property_type": "house", "size": 0, "size_type": "net", "summary": "Three bedroom end of terrace home located within easy reach of the ...", "thumb_height": 60, "thumb_url": "https://imgs.nestimg.com/medium/3_bedroom_end_of_terrace_house_for_sale_111668302353722226.jpg", "thumb_width": 80, "title": "Somerset Mews, Somerset - Garden", "updated_in_days": 10, "updated_in_days_formatted": "first seen last week"}, {"bathroom_number": "", "bedroom_number": 4, "car_spaces": 0, "commission": 0, "construction_year": 0, "datasource_name": "OnTheMarket.com", "img_height": 300, "img_url": "https://imgs.nestimg.com/4_bedroom_cottage_for_sale_111681016335478201.jpg", "img_width": 400, "keywords": "Cottage", "latitude": 51.2699, "lister_url": "https://www.nestoria.co.uk/detail/0000000111681016335478201/title/5/26-11?serpUid=&pt=1&ot=1&l=somerset&did=105_high1&t_sec=9&t_or=45&t_pvid=null&utm_source=api&utm_medium=external", "listing_type": "buy", "location_accuracy": 9, "longitude": -2.84182, "price": 650000, "price_currency": "\u00a3", "price_formatted": "\u00a3650,000", "price_high": 650000, "price_low": 650000, "price_type": "fixed", "property_type": "house", "size": 0, "size_type": "net", "summary": "Waterfall cottage is an , stone built cottage situated in a quiet p...", "thumb_height": 60, "thumb_url": "https://imgs.nestimg.com/medium/4_bedroom_cottage_for_sale_111681016335478201.jpg", "thumb_width": 80, "title": "Waterfall Cottage, Sparrow Hill Way, WEARE, Somerset", "updated_in_days": 8, "updated_in_days_formatted": "first seen last week"}, {"bathroom_number": "", "bedroom_number": 4, "car_spaces": 0, "commission": 0, "construction_year": 0, "datasource_name": "OnTheMarket.com", "img_height": 300, "img_url": "https://imgs.nestimg.com/4_bedroom_detached_bungalow_for_sale_111613020854349002.jpg", "img_width": 400, "keywords": "Detached, Bungalow", "latitude": 51.2567, "lister_url": "https://www.nestoria.co.uk/detail/0000000111613020854349002/title/5/26-12?serpUid=&pt=1&ot=1&l=somerset&did=105_high1&t_sec=9&t_or=45&t_pvid=null&utm_source=api&utm_medium=external", "listing_type": "buy", "location_accuracy": 9, "longitude": -3.0002, "price": 319950, "price_currency": "\u00a3", "price_formatted": "\u00a3319,950", "price_high": 319950, "price_low": 319950, "price_type": "fixed", "property_type": "house", "size": 0, "size_type": "net", "summary": "A 4 bedroom link detached chalet style bungalow enjoying rural view...", "thumb_height": 60, "thumb_url": "https://imgs.nestimg.com/medium/4_bedroom_detached_bungalow_for_sale_111613020854349002.jpg", "thumb_width": 80, "title": "Ash Tree Road, Burnham On Sea, Somerset", "updated_in_days": 18, "updated_in_days_formatted": "first seen 2 weeks ago"}, {"bathroom_number": "", "bedroom_number": 3, "car_spaces": 0, "commission": 0, "construction_year": 0, "datasource_name": "OnTheMarket.com", "img_height": 300, "img_url": "https://imgs.nestimg.com/3_bedroom_detached_bungalow_for_sale_111346680303947954.jpg", "img_width": 400, "keywords": "Detached, Freehold, Bungalow, Modern", "latitude": 50.9872, "lister_name": "Greenslade Taylor Hunt", "lister_url": "https://www.nestoria.co.uk/detail/0000000111346680303947954/title/5/26-13?serpUid=&pt=1&ot=1&l=somerset&did=105_high1&t_sec=9&t_or=45&t_pvid=null&utm_source=api&utm_medium=external", "listing_type": "buy", "location_accuracy": 9, "longitude": -2.80904, "price": 320000, "price_currency": "\u00a3", "price_formatted": "\u00a3320,000", "price_high": 320000, "price_low": 320000, "price_type": "fixed", "property_type": "house", "size": 0, "size_type": "net", "summary": "A modern detached 3 bedroom bungalow in a slightly elevated positio...", "thumb_height": 60, "thumb_url": "https://imgs.nestimg.com/medium/3_bedroom_detached_bungalow_for_sale_111346680303947954.jpg", "thumb_width": 80, "title": "Norton Drove, Kingsbury Episcopi, Martock, Somerset, TA12", "updated_in_days": 47, "updated_in_days_formatted": "first seen over a month ago"}, {"bathroom_number": "", "bedroom_number": 3, "car_spaces": 0, "commission": 0, "construction_year": 0, "datasource_name": "OnTheMarket.com", "img_height": 300, "img_url": "https://imgs.nestimg.com/3_bedroom_house_for_sale_111211246201670584.jpg", "img_width": 400, "keywords": "Detached", "latitude": 50.9262, "lister_name": "Greenslade Taylor Hunt", "lister_url": "https://www.nestoria.co.uk/detail/0000000111211246201670584/title/5/26-14?serpUid=&pt=1&ot=1&l=somerset&did=105_high1&t_sec=9&t_or=45&t_pvid=null&utm_source=api&utm_medium=external", "listing_type": "buy", "location_accuracy": 9, "longitude": -2.92006, "price": 216500, "price_currency": "\u00a3", "price_formatted": "\u00a3216,500", "price_high": 216500, "price_low": 216500, "price_type": "fixed", "property_type": "house", "size": 0, "size_type": "net", "summary": "A well laid out 3 bedroomed semi detached family house situated on ...", "thumb_height": 60, "thumb_url": "https://imgs.nestimg.com/medium/3_bedroom_house_for_sale_111211246201670584.jpg", "thumb_width": 80, "title": "Canal Way, Ilminster, Somerset, TA19", "updated_in_days": 17, "updated_in_days_formatted": "first seen 2 weeks ago"}, {"bathroom_number": "", "bedroom_number": 3, "car_spaces": 0, "commission": 0, "construction_year": 0, "datasource_name": "OnTheMarket.com", "img_height": 300, "img_url": "https://imgs.nestimg.com/3_bedroom_semi_detached_house_for_sale_110938660007225637.jpg", "img_width": 400, "keywords": "Garden, Semi-Detached, No Chain, Parking", "latitude": 51.2421, "lister_url": "https://www.nestoria.co.uk/detail/0000000110938660007225637/title/5/26-15?serpUid=&pt=1&ot=1&l=somerset&did=105_high1&t_sec=9&t_or=45&t_pvid=null&utm_source=api&utm_medium=external", "listing_type": "buy", "location_accuracy": 9, "longitude": -2.99549, "price": 221999, "price_currency": "\u00a3", "price_formatted": "\u00a3221,999", "price_high": 221999, "price_low": 221999, "price_type": "fixed", "property_type": "house", "size": 0, "size_type": "net", "summary": "A 3 bedroom semi dteached house with parking and gardens and being ...", "thumb_height": 60, "thumb_url": "https://imgs.nestimg.com/medium/3_bedroom_semi_detached_house_for_sale_110938660007225637.jpg", "thumb_width": 80, "title": "Charlestone Road, Burnham-on-Sea, Somerset", "updated_in_days": 128, "updated_in_days_formatted": "first seen over a month ago"}], "locations": [{"center_lat": 51.080967, "center_long": -3.045432, "long_title": "Somerset, county", "place_name": "somerset", "title": "Somerset"}], "page": 26, "sort": "nestoria_rank", "status_code": "200", "status_text": "OK", "thanks": "For using the Nestoria API.", "total_pages": 410, "total_results": 6149, "_cu5t0mP434m_": "remove"}}