{"request": {"country": "uk", "language": "en", "location": "somerset", "num_res": "15", "offset": 390, "output": "json_xs", "page": 27, "product_type": "realestate", "property_type": "property", "size_type": "net", "size_unit": "m2", "sort": "nestoria_rank", "listing_type": "buy"}, "response": {"application_response_code": "100", "application_response_text": "listings returned for one unambiguous location", "attribution": {"img_height": 22, "img_url": "https://resources.nestimg.com/nestoria/img/pbr_v1.png", "img_width": 183, "link_to_img": "http://www.nestoria.com"}, "created_http": "Tue, 18 Jun 2019 17:29:14 GMT", "created_unix": 1560878954, "link_to_url": "https://www.nestoria.co.uk/somerset/property/buy/27", "listings": [{"bathroom_number": "", "bedroom_number": 4, "car_spaces": 0, "commission": 0, "construction_year": 0, "datasource_name": "OnTheMarket.com", "img_height": 300, "img_url": "https://imgs.nestimg.com/4_bedroom_semi_detached_house_for_sale_111278483630595241.jpg", "img_width": 400, "keywords": "Garden, Semi-Detached, Conversion, Kitchen", "latitude": 51.0004, "lister_url": "https://www.nestoria.co.uk/detail/0000000111278483630595241/title/5/27-1?serpUid=&pt=1&ot=1&l=somerset&did=105_high1&t_sec=9&t_or=45&t_pvid=null&utm_source=api&utm_medium=external", "listing_type": "buy", "location_accuracy": 9, "longitude": -3.31519, "price": 599000, "price_currency": "\u00a3", "price_formatted": "\u00a3599,000", "price_high": 599000, "price_low": 599000, "price_type": "fixed", "property_type": "house", "size": 0, "size_type": "net", "summary": "An imaginatively converted south facing barn, offering accommodatio...", "thumb_height": 60, "thumb_url": "https://imgs.nestimg.com/medium/4_bedroom_semi_detached_house_for_sale_111278483630595241.jpg", "thumb_width": 80, "title": "Kittisford, Wellington, Somerset, TA21", "updated_in_days": 27, "updated_in_days_formatted": "first seen 3 weeks ago"}, {"bathroom_number": "", "bedroom_number": 5, "car_spaces": 0, "commission": 0, "construction_year": 0, "datasource_name": "OnTheMarket.com", "img_height": 300, "img_url": "https://imgs.nestimg.com/5_bedroom_detached_house_for_sale_109466414668171375.jpg", "img_width": 400, "keywords": "Detached, Garden, Cottage", "latitude": 51.0072, "lister_name": "Stags", "lister_url": "https://www.nestoria.co.uk/detail/0000000109466414668171375/title/5/27-2?serpUid=&pt=1&ot=1&l=somerset&did=105_high1&t_sec=9&t_or=45&t_pvid=null&utm_source=api&utm_medium=external", "listing_type": "buy", "location_accuracy": 9, "longitude": -2.81523, "price": 1100000, "price_currency": "\u00a3", "price_formatted": "\u00a31,100,000", "price_high": 1100000, "price_low": 1100000, "price_type": "fixed", "property_type": "house", "size": 0, "size_type": "net", "summary": "In a peaceful location in the rural somerset hamlet of thorney is t...", "thumb_height": 60, "thumb_url": "https://imgs.nestimg.com/medium/5_bedroom_detached_house_for_sale_109466414668171375.jpg", "thumb_width": 80, "title": "Thorney, Langport, Somerset, TA10", "updated_in_days": 366, "updated_in_days_formatted": "first seen over a month ago"}, {"bathroom_number": "", "bedroom_number": 2, "car_spaces": 0, "commission": 0, "construction_year": 0, "datasource_name": "OnTheMarket.com", "img_height": 300, "img_url": "https://imgs.nestimg.com/2_bedroom_semi_detached_bungalow_for_sale_111662464493051683.jpg", "img_width": 400, "keywords": "Semi-Detached, Refurbished, Bungalow", "latitude": 50.8668, "lister_name": "Greenslade Taylor Hunt", "lister_url": "https://www.nestoria.co.uk/detail/0000000111662464493051683/title/5/27-3?serpUid=&pt=1&ot=1&l=somerset&did=105_high1&t_sec=9&t_or=45&t_pvid=null&utm_source=api&utm_medium=external", "listing_type": "buy", "location_accuracy": 9, "longitude": -2.95961, "price": 229950, "price_currency": "\u00a3", "price_formatted": "\u00a3229,950", "price_high": 229950, "price_low": 229950, "price_type": "fixed", "property_type": "house", "size": 0, "size_type": "net", "summary": "A recently refurbished and modernised 2 bedroom bungalow in the sou...", "thumb_height": 60, "thumb_url": "https://imgs.nestimg.com/medium/2_bedroom_semi_detached_bungalow_for_sale_111662464493051683.jpg", "thumb_width": 80, "title": "King Ceol Close, Chard, Somerset, TA20", "updated_in_days": 11, "updated_in_days_formatted": "first seen last week"}, {"bathroom_number": "", "bedroom_number": 1, "car_spaces": 0, "commission": 0, "construction_year": 0, "datasource_name": "OnTheMarket.com", "img_height": 300, "img_url": "https://imgs.nestimg.com/1_bedroom_bungalow_for_sale_2760127490518569963.jpg", "img_width": 400, "keywords": "Shared Garden, Garage, Kitchen", "latitude": 50.9272, "lister_name": "Greenslade Taylor Hunt", "lister_url": "https://www.nestoria.co.uk/detail/0000002760127490518569963/title/5/27-4?serpUid=&pt=1&ot=1&l=somerset&did=105_high1&t_sec=9&t_or=45&t_pvid=null&utm_source=api&utm_medium=external", "listing_type": "buy", "location_accuracy": 9, "longitude": -2.91406, "price": 179500, "price_currency": "\u00a3", "price_formatted": "\u00a3179,500", "price_high": 179500, "price_low": 179500, "price_type": "fixed", "property_type": "flat", "size": 0, "size_type": "net", "summary": "A well proportioned one bedroomed first floor apartment, forming pa...", "thumb_height": 60, "thumb_url": "https://imgs.nestimg.com/medium/1_bedroom_bungalow_for_sale_2760127490518569963.jpg", "thumb_width": 80, "title": "Ashcombe Court, Ilminster, Somerset, TA19", "updated_in_days": 271, "updated_in_days_formatted": "first seen over a month ago"}, {"bathroom_number": "", "bedroom_number": 2, "car_spaces": 0, "commission": 0, "construction_year": 0, "datasource_name": "OnTheMarket.com", "img_height": 300, "img_url": "https://imgs.nestimg.com/2_bedroom_semi_detached_bungalow_for_sale_111538332696939601.jpg", "img_width": 400, "keywords": "Garden, Semi-Detached, No Chain, Accessibility, Bungalow", "latitude": 51.1757, "lister_name": "Wilkie May & Tuckwood", "lister_url": "https://www.nestoria.co.uk/detail/0000000111538332696939601/title/5/27-5?serpUid=&pt=1&ot=1&l=somerset&did=105_high1&t_sec=9&t_or=45&t_pvid=null&utm_source=api&utm_medium=external", "listing_type": "buy", "location_accuracy": 9, "longitude": -3.32638, "price": 220000, "price_currency": "\u00a3", "price_formatted": "\u00a3220,000", "price_high": 220000, "price_low": 220000, "price_type": "fixed", "property_type": "house", "size": 0, "size_type": "net", "summary": "No onward chain a two bedroom semi-detached bungalow adapted for wh...", "thumb_height": 60, "thumb_url": "https://imgs.nestimg.com/medium/2_bedroom_semi_detached_bungalow_for_sale_111538332696939601.jpg", "thumb_width": 80, "title": "Risdon Road, Watchet, Somerset TA23", "updated_in_days": 31, "updated_in_days_formatted": "first seen over a month ago"}, {"bathroom_number": "", "bedroom_number": 3, "car_spaces": 0, "commission": 0, "construction_year": 0, "datasource_name": "OnTheMarket.com", "img_height": 300, "img_url": "https://imgs.nestimg.com/3_bedroom_house_for_sale_109967402058620247.jpg", "img_width": 400, "keywords": "Garden, No Chain, Terraced, Kitchen, Cottage", "latitude": 50.8963, "lister_name": "Greenslade Taylor Hunt", "lister_url": "https://www.nestoria.co.uk/detail/0000000109967402058620247/title/5/27-6?serpUid=&pt=1&ot=1&l=somerset&did=105_high1&t_sec=9&t_or=45&t_pvid=null&utm_source=api&utm_medium=external", "listing_type": "buy", "location_accuracy": 9, "longitude": -2.99298, "price": 215000, "price_currency": "\u00a3", "price_formatted": "\u00a3215,000", "price_high": 215000, "price_low": 215000, "price_type": "fixed", "property_type": "house", "size": 0, "size_type": "net", "summary": "An and deceivingly period cottage centrally located in this and wel...", "thumb_height": 60, "thumb_url": "https://imgs.nestimg.com/medium/3_bedroom_house_for_sale_109967402058620247.jpg", "thumb_width": 80, "title": "Combe St. Nicholas, Chard, Somerset, TA20", "updated_in_days": 241, "updated_in_days_formatted": "first seen over a month ago"}, {"bathroom_number": "", "bedroom_number": 3, "car_spaces": 0, "commission": 0, "construction_year": 0, "datasource_name": "OnTheMarket.com", "img_height": 300, "img_url": "https://imgs.nestimg.com/3_bedroom_detached_bungalow_for_sale_109707784444937661.jpg", "img_width": 400, "keywords": "Detached, No Chain, Refurbished, Bungalow", "latitude": 51.2256, "lister_url": "https://www.nestoria.co.uk/detail/0000000109707784444937661/title/5/27-7?serpUid=&pt=1&ot=1&l=somerset&did=105_high1&t_sec=9&t_or=45&t_pvid=null&utm_source=api&utm_medium=external", "listing_type": "buy", "location_accuracy": 9, "longitude": -2.84296, "price": 375000, "price_currency": "\u00a3", "price_formatted": "\u00a3375,000", "price_high": 375000, "price_low": 375000, "price_type": "fixed", "property_type": "house", "size": 0, "size_type": "net", "summary": "Chain free. Highbanks is a property which has been extended, improv...", "thumb_height": 60, "thumb_url": "https://imgs.nestimg.com/medium/3_bedroom_detached_bungalow_for_sale_109707784444937661.jpg", "thumb_width": 80, "title": "HighBanks, Redmans Hill, BLACKFORD, Wedmore, Somerset", "updated_in_days": 27, "updated_in_days_formatted": "first seen 3 weeks ago"}, {"bathroom_number": "", "bedroom_number": 3, "car_spaces": 0, "commission": 0, "construction_year": 0, "datasource_name": "OnTheMarket.com", "img_height": 300, "img_url": "https://imgs.nestimg.com/3_bedroom_house_for_sale_111613020751319219.jpg", "img_width": 400, "keywords": "Grade II, Fireplace, Parking, Listed", "latitude": 50.96891, "lister_name": "Knight Frank", "lister_url": "https://www.nestoria.co.uk/detail/0000000111613020751319219/title/5/27-8?serpUid=&pt=1&ot=1&l=somerset&did=105_high1&t_sec=9&t_or=45&t_pvid=null&utm_source=api&utm_medium=external", "listing_type": "buy", "location_accuracy": 9, "longitude": -2.768903, "price": 400000, "price_currency": "\u00a3", "price_formatted": "\u00a3400,000", "price_high": 400000, "price_low": 400000, "price_type": "fixed", "property_type": "house", "size": 0, "size_type": "net", "summary": "3 bedroom grade ii listed village house with parking in martock ta1...", "thumb_height": 60, "thumb_url": "https://imgs.nestimg.com/medium/3_bedroom_house_for_sale_111613020751319219.jpg", "thumb_width": 80, "title": "Pound Lane, Martock, Somerset, TA12", "updated_in_days": 19, "updated_in_days_formatted": "first seen 2 weeks ago"}, {"bathroom_number": "", "bedroom_number": 2, "car_spaces": 0, "commission": 0, "construction_year": 0, "datasource_name": "OnTheMarket.com", "img_height": 300, "img_url": "https://imgs.nestimg.com/2_bedroom_retirement_property_for_sale_111687583834859489.jpg", "img_width": 400, "keywords": "Garden, No Chain, Kitchen, Reception", "latitude": 51.2084, "lister_name": "Greenslade Taylor Hunt", "lister_url": "https://www.nestoria.co.uk/detail/0000000111687583834859489/title/5/27-9?serpUid=&pt=1&ot=1&l=somerset&did=105_high1&t_sec=9&t_or=45&t_pvid=null&utm_source=api&utm_medium=external", "listing_type": "buy", "location_accuracy": 9, "longitude": -2.64429, "price": 175000, "price_currency": "\u00a3", "price_formatted": "\u00a3175,000", "price_high": 175000, "price_low": 175000, "price_type": "fixed", "property_type": "property", "size": 0, "size_type": "net", "summary": "A two bedroom ground floor retirement apartment situated within yar...", "thumb_height": 60, "thumb_url": "https://imgs.nestimg.com/medium/2_bedroom_retirement_property_for_sale_111687583834859489.jpg", "thumb_width": 80, "title": "Carlton Court, Wells, Somerset, BA5", "updated_in_days": 7, "updated_in_days_formatted": "first seen last week"}, {"bathroom_number": "", "bedroom_number": 5, "car_spaces": 0, "commission": 0, "construction_year": 0, "datasource_name": "OnTheMarket.com", "img_height": 300, "img_url": "https://imgs.nestimg.com/5_bedroom_detached_house_for_sale_111192280610580605.jpg", "img_width": 400, "keywords": "Detached, Freehold, Garden, Parking", "latitude": 51.2529, "lister_name": "Greenslade Taylor Hunt", "lister_url": "https://www.nestoria.co.uk/detail/0000000111192280610580605/title/5/27-10?serpUid=&pt=1&ot=1&l=somerset&did=105_high1&t_sec=9&t_or=45&t_pvid=null&utm_source=api&utm_medium=external", "listing_type": "buy", "location_accuracy": 9, "longitude": -3.00025, "price": 499950, "price_currency": "\u00a3", "price_formatted": "\u00a3499,950", "price_high": 499950, "price_low": 499950, "price_type": "fixed", "property_type": "house", "size": 0, "size_type": "net", "summary": "This individually-built, mature, 4/5 bedroom detached residence occ...", "thumb_height": 60, "thumb_url": "https://imgs.nestimg.com/medium/5_bedroom_detached_house_for_sale_111192280610580605.jpg", "thumb_width": 80, "title": "Golf Links Road, Burnham-on-Sea, Somerset, TA8", "updated_in_days": 87, "updated_in_days_formatted": "first seen over a month ago"}, {"bathroom_number": "", "bedroom_number": 3, "car_spaces": 0, "commission": 0, "construction_year": 0, "datasource_name": "OnTheMarket.com", "img_height": 300, "img_url": "https://imgs.nestimg.com/3_bedroom_semi_detached_house_for_sale_111594155165369116.jpg", "img_width": 400, "keywords": "Freehold, Semi-Detached, Cottage", "latitude": 51.0559, "lister_name": "Greenslade Taylor Hunt", "lister_url": "https://www.nestoria.co.uk/detail/0000000111594155165369116/title/5/27-11?serpUid=&pt=1&ot=1&l=somerset&did=105_high1&t_sec=9&t_or=45&t_pvid=null&utm_source=api&utm_medium=external", "listing_type": "buy", "location_accuracy": 9, "longitude": -2.72687, "price": 220000, "price_currency": "\u00a3", "price_formatted": "\u00a3220,000", "price_high": 220000, "price_low": 220000, "price_type": "fixed", "property_type": "house", "size": 0, "size_type": "net", "summary": "A three bedroom period cottage situated within a short distance of ...", "thumb_height": 60, "thumb_url": "https://imgs.nestimg.com/medium/3_bedroom_semi_detached_house_for_sale_111594155165369116.jpg", "thumb_width": 80, "title": "Belle Vue, North Street, Somerton, Somerset, TA11", "updated_in_days": 22, "updated_in_days_formatted": "first seen 3 weeks ago"}, {"bathroom_number": "", "bedroom_number": 13, "car_spaces": 0, "commission": 0, "construction_year": 0, "datasource_name": "OnTheMarket.com", "img_height": 300, "img_url": "https://imgs.nestimg.com/13_bedroom_detached_house_for_sale_108773949304504389.jpg", "img_width": 400, "keywords": "Detached, Garden, Swimming Pool, Cottage", "latitude": 50.9618, "lister_name": "Stags", "lister_url": "https://www.nestoria.co.uk/detail/0000000108773949304504389/title/5/27-12?serpUid=&pt=1&ot=1&l=somerset&did=105_high1&t_sec=9&t_or=45&t_pvid=null&utm_source=api&utm_medium=external", "listing_type": "buy", "location_accuracy": 9, "longitude": -3.25391, "price": 2250000, "price_currency": "\u00a3", "price_formatted": "\u00a32,250,000", "price_high": 2250000, "price_low": 2250000, "price_type": "fixed", "property_type": "house", "size": 0, "size_type": "net", "summary": "An country residence surrounded by its own parkland with secondary ...", "thumb_height": 60, "thumb_url": "https://imgs.nestimg.com/medium/13_bedroom_detached_house_for_sale_108773949304504389.jpg", "thumb_width": 80, "title": "Sampford Arundel, Wellington, Somerset, TA21", "updated_in_days": 478, "updated_in_days_formatted": "first seen over a month ago"}, {"bathroom_number": "", "bedroom_number": 2, "car_spaces": 0, "commission": 0, "construction_year": 0, "datasource_name": "OnTheMarket.com", "img_height": 300, "img_url": "https://imgs.nestimg.com/2_bedroom_terraced_house_for_sale_111538330552566275.jpg", "img_width": 400, "keywords": "No Chain, Terraced, Garage, Cottage", "latitude": 51.1788, "lister_name": "Wilkie May & Tuckwood", "lister_url": "https://www.nestoria.co.uk/detail/0000000111538330552566275/title/5/27-13?serpUid=&pt=1&ot=1&l=somerset&did=105_high1&t_sec=9&t_or=45&t_pvid=null&utm_source=api&utm_medium=external", "listing_type": "buy", "location_accuracy": 9, "longitude": -3.3271, "price": 180000, "price_currency": "\u00a3", "price_formatted": "\u00a3180,000", "price_high": 180000, "price_low": 180000, "price_type": "fixed", "property_type": "house", "size": 0, "size_type": "net", "summary": "No onward chain a well presented 2 bedroom terraced stone built cot...", "thumb_height": 60, "thumb_url": "https://imgs.nestimg.com/medium/2_bedroom_terraced_house_for_sale_111538330552566275.jpg", "thumb_width": 80, "title": "Gladstone Terrace, Watchet, Somerset TA23", "updated_in_days": 31, "updated_in_days_formatted": "first seen over a month ago"}, {"bathroom_number": "", "bedroom_number": 4, "car_spaces": 0, "commission": 0, "construction_year": 0, "datasource_name": "OnTheMarket.com", "img_height": 300, "img_url": "https://imgs.nestimg.com/4_bedroom_detached_house_for_sale_111235564735277655.jpg", "img_width": 400, "keywords": "Detached, Cottage", "latitude": 51.1291, "lister_url": "https://www.nestoria.co.uk/detail/0000000111235564735277655/title/5/27-14?serpUid=&pt=1&ot=1&l=somerset&did=105_high1&t_sec=9&t_or=45&t_pvid=null&utm_source=api&utm_medium=external", "listing_type": "buy", "location_accuracy": 9, "longitude": -3.32593, "price": 575000, "price_currency": "\u00a3", "price_formatted": "\u00a3575,000", "price_high": 575000, "price_low": 575000, "price_type": "fixed", "property_type": "house", "size": 0, "size_type": "net", "summary": "A cottage of immense character and charm offering surprisingly acco...", "thumb_height": 60, "thumb_url": "https://imgs.nestimg.com/medium/4_bedroom_detached_house_for_sale_111235564735277655.jpg", "thumb_width": 80, "title": "Monksilver, Taunton, Somerset, TA4", "updated_in_days": 27, "updated_in_days_formatted": "first seen 3 weeks ago"}, {"bathroom_number": "", "bedroom_number": 2, "car_spaces": 0, "commission": 0, "construction_year": 0, "datasource_name": "OnTheMarket.com", "img_height": 300, "img_url": "https://imgs.nestimg.com/2_bedroom_house_for_sale_111013113602016087.jpg", "img_width": 400, "keywords": "Freehold, Garden, Double Garage, Listed", "latitude": 51.0251, "lister_name": "Greenslade Taylor Hunt", "lister_url": "https://www.nestoria.co.uk/detail/0000000111013113602016087/title/5/27-15?serpUid=&pt=1&ot=1&l=somerset&did=105_high1&t_sec=9&t_or=45&t_pvid=null&utm_source=api&utm_medium=external", "listing_type": "buy", "location_accuracy": 9, "longitude": -2.75807, "price": 425000, "price_currency": "\u00a3", "price_formatted": "\u00a3425,000", "price_high": 425000, "price_low": 425000, "price_type": "fixed", "property_type": "house", "size": 0, "size_type": "net", "summary": "Best offers by 12 noon on friday 31st may 2019 please call gth lang...", "thumb_height": 60, "thumb_url": "https://imgs.nestimg.com/medium/2_bedroom_house_for_sale_111013113602016087.jpg", "thumb_width": 80, "title": "The Green, Long Sutton, Langport, Somerset, TA10", "updated_in_days": 67, "updated_in_days_formatted": "first seen over a month ago"}], "locations": [{"center_lat": 51.080967, "center_long": -3.045432, "long_title": "Somerset, county", "place_name": "somerset", "title": "Somerset"}], "page": 27, "sort": "nestoria_rank", "status_code": "200", "status_text": "OK", "thanks": "For using the Nestoria API.", "total_pages": 410, "total_results": 6149, "_cu5t0mP434m_": "remove"}}