{"request": {"country": "uk", "language": "en", "location": "somerset", "num_res": "15", "offset": 405, "output": "json_xs", "page": 28, "product_type": "realestate", "property_type": "property", "size_type": "net", "size_unit": "m2", "sort": "nestoria_rank", "listing_type": "buy"}, "response": {"application_response_code": "100", "application_response_text": "listings returned for one unambiguous location", "attribution": {"img_height": 22, "img_url": "https://resources.nestimg.com/nestoria/img/pbr_v1.png", "img_width": 183, "link_to_img": "http://www.nestoria.com"}, "created_http": "Tue, 18 Jun 2019 17:29:16 GMT", "created_unix": 1560878956, "link_to_url": "https://www.nestoria.co.uk/somerset/property/buy/28", "listings": [{"bathroom_number": "", "bedroom_number": 4, "car_spaces": 0, "commission": 0, "construction_year": 0, "datasource_name": "OnTheMarket.com", "img_height": 300, "img_url": "https://imgs.nestimg.com/4_bedroom_detached_house_for_sale_111266577565551707.jpg", "img_width": 400, "keywords": "Detached, Garden, No Chain, Garage, Modern", "latitude": 51.1798, "lister_name": "Wilkie May & Tuckwood", "lister_url": "https://www.nestoria.co.uk/detail/0000000111266577565551707/title/5/28-1?serpUid=&pt=1&ot=1&l=somerset&did=105_high1&t_sec=9&t_or=45&t_pvid=null&utm_source=api&utm_medium=external", "listing_type": "buy", "location_accuracy": 9, "longitude": -3.32055, "price": 310000, "price_currency": "\u00a3", "price_formatted": "\u00a3310,000", "price_high": 310000, "price_low": 310000, "price_type": "fixed", "property_type": "house", "size": 0, "size_type": "net", "summary": "No onward chain a modern and 4 bedroom detached family home with ga...", "thumb_height": 60, "thumb_url": "https://imgs.nestimg.com/medium/4_bedroom_detached_house_for_sale_111266577565551707.jpg", "thumb_width": 80, "title": "Holm View, Watchet, Somerset TA23", "updated_in_days": 75, "updated_in_days_formatted": "first seen over a month ago"}, {"bathroom_number": "", "bedroom_number": 4, "car_spaces": 0, "commission": 0, "construction_year": 0, "datasource_name": "OnTheMarket.com", "img_height": 300, "img_url": "https://imgs.nestimg.com/4_bedroom_semi_detached_house_for_sale_110908091032480735.jpg", "img_width": 400, "keywords": "Semi-Detached, No Chain, Modern", "latitude": 51.1678, "lister_name": "Wilkie May & Tuckwood", "lister_url": "https://www.nestoria.co.uk/detail/0000000110908091032480735/title/5/28-2?serpUid=&pt=1&ot=1&l=somerset&did=105_high1&t_sec=9&t_or=45&t_pvid=null&utm_source=api&utm_medium=external", "listing_type": "buy", "location_accuracy": 9, "longitude": -3.31784, "price": 244950, "price_currency": "\u00a3", "price_formatted": "\u00a3244,950", "price_high": 244950, "price_low": 244950, "price_type": "fixed", "property_type": "house", "size": 0, "size_type": "net", "summary": "A modern four bedroom family home situated on a small development o...", "thumb_height": 60, "thumb_url": "https://imgs.nestimg.com/medium/4_bedroom_semi_detached_house_for_sale_110908091032480735.jpg", "thumb_width": 80, "title": "Williton, Somerset TA4 - Modern", "updated_in_days": 34, "updated_in_days_formatted": "first seen over a month ago"}, {"bathroom_number": "", "bedroom_number": 5, "car_spaces": 0, "commission": 0, "construction_year": 0, "datasource_name": "OnTheMarket.com", "img_height": 300, "img_url": "https://imgs.nestimg.com/5_bedroom_detached_house_for_sale_111575827831580608.jpg", "img_width": 400, "keywords": "Detached, Garden", "latitude": 50.9806, "lister_name": "Greenslade Taylor Hunt", "lister_url": "https://www.nestoria.co.uk/detail/0000000111575827831580608/title/5/28-3?serpUid=&pt=1&ot=1&l=somerset&did=105_high1&t_sec=9&t_or=45&t_pvid=null&utm_source=api&utm_medium=external", "listing_type": "buy", "location_accuracy": 9, "longitude": -3.30351, "price": 799000, "price_currency": "\u00a3", "price_formatted": "\u00a3799,000", "price_high": 799000, "price_low": 799000, "price_type": "fixed", "property_type": "house", "size": 0, "size_type": "net", "summary": "A striking period farmhouse offering five bedroomed living accommod...", "thumb_height": 60, "thumb_url": "https://imgs.nestimg.com/medium/5_bedroom_detached_house_for_sale_111575827831580608.jpg", "thumb_width": 80, "title": "Greenham, Wellington, Somerset, TA21", "updated_in_days": 25, "updated_in_days_formatted": "first seen 3 weeks ago"}, {"bathroom_number": "", "bedroom_number": "", "car_spaces": 0, "commission": 0, "construction_year": 0, "datasource_name": "OnTheMarket.com", "img_height": 300, "img_url": "https://imgs.nestimg.com/land_for_sale_111662469725034142.jpg", "img_width": 400, "keywords": "", "latitude": 51.0317, "lister_name": "Greenslade Taylor Hunt", "lister_url": "https://www.nestoria.co.uk/detail/0000000111662469725034142/title/5/28-4?serpUid=&pt=1&ot=1&l=somerset&did=105_high1&t_sec=9&t_or=45&t_pvid=null&utm_source=api&utm_medium=external", "listing_type": "buy", "location_accuracy": 9, "longitude": -2.86787, "price": 80000, "price_currency": "\u00a3", "price_formatted": "\u00a380,000", "price_high": 80000, "price_low": 80000, "price_type": "fixed", "property_type": "land", "size": 0, "size_type": "net", "summary": "Approximately 9.55 acres conveniently situated productive pasture l...", "thumb_height": 60, "thumb_url": "https://imgs.nestimg.com/medium/land_for_sale_111662469725034142.jpg", "thumb_width": 80, "title": "Curry Rivel, Langport, Somerset, TA10", "updated_in_days": 11, "updated_in_days_formatted": "first seen last week"}, {"bathroom_number": "", "bedroom_number": 4, "car_spaces": 0, "commission": 0, "construction_year": 0, "datasource_name": "OnTheMarket.com", "img_height": 300, "img_url": "https://imgs.nestimg.com/4_bedroom_detached_house_for_sale_111613022453573248.jpg", "img_width": 400, "keywords": "Detached", "latitude": 51.2675, "lister_url": "https://www.nestoria.co.uk/detail/0000000111613022453573248/title/5/28-5?serpUid=&pt=1&ot=1&l=somerset&did=105_high1&t_sec=9&t_or=45&t_pvid=null&utm_source=api&utm_medium=external", "listing_type": "buy", "location_accuracy": 9, "longitude": -3.00947, "price": 549500, "price_currency": "\u00a3", "price_formatted": "\u00a3549,500", "price_high": 549500, "price_low": 549500, "price_type": "fixed", "property_type": "house", "size": 0, "size_type": "net", "summary": "An individual 4 bedroom detached house in the village of berrow", "thumb_height": 60, "thumb_url": "https://imgs.nestimg.com/medium/4_bedroom_detached_house_for_sale_111613022453573248.jpg", "thumb_width": 80, "title": "Manor Way, Berrow, Somerset", "updated_in_days": 19, "updated_in_days_formatted": "first seen 2 weeks ago"}, {"bathroom_number": "", "bedroom_number": 8, "car_spaces": 0, "commission": 0, "construction_year": 0, "datasource_name": "OnTheMarket.com", "img_height": 300, "img_url": "https://imgs.nestimg.com/4_bedroom_detached_house_for_sale_111557529928436836.jpg", "img_width": 400, "keywords": "Detached, Cottage", "latitude": 51.0502, "lister_name": "Stags", "lister_url": "https://www.nestoria.co.uk/detail/0000000111557529928436836/title/5/28-6?serpUid=&pt=1&ot=1&l=somerset&did=105_high1&t_sec=9&t_or=45&t_pvid=null&utm_source=api&utm_medium=external", "listing_type": "buy", "location_accuracy": 9, "longitude": -2.76897, "price": 1300000, "price_currency": "\u00a3", "price_formatted": "\u00a31,300,000", "price_high": 1300000, "price_low": 1300000, "price_type": "fixed", "property_type": "house", "size": 0, "size_type": "net", "summary": "Detached renovated farm house with annexe and separate cottage with...", "thumb_height": 60, "thumb_url": "https://imgs.nestimg.com/medium/4_bedroom_detached_house_for_sale_111557529928436836.jpg", "thumb_width": 80, "title": "Somerton Hill, Langport, Somerset, TA10", "updated_in_days": 28, "updated_in_days_formatted": "first seen last month"}, {"bathroom_number": "", "bedroom_number": 3, "car_spaces": 0, "commission": 0, "construction_year": 0, "datasource_name": "OnTheMarket.com", "img_height": 300, "img_url": "https://imgs.nestimg.com/3_bedroom_retirement_property_for_sale_111457713772033542.jpg", "img_width": 400, "keywords": "Freehold, Terraced, Cottage", "latitude": 50.9251, "lister_name": "Greenslade Taylor Hunt", "lister_url": "https://www.nestoria.co.uk/detail/0000000111457713772033542/title/5/28-7?serpUid=&pt=1&ot=1&l=somerset&did=105_high1&t_sec=9&t_or=45&t_pvid=null&utm_source=api&utm_medium=external", "listing_type": "buy", "location_accuracy": 9, "longitude": -2.90947, "price": 265000, "price_currency": "\u00a3", "price_formatted": "\u00a3265,000", "price_high": 265000, "price_low": 265000, "price_type": "fixed", "property_type": "house", "size": 0, "size_type": "net", "summary": "A terraced cottage on the southern side of the favoured george mahe...", "thumb_height": 60, "thumb_url": "https://imgs.nestimg.com/medium/3_bedroom_retirement_property_for_sale_111457713772033542.jpg", "thumb_width": 80, "title": "George Maher Court, Shudrick Lane, Ilminster, Somerset, TA19", "updated_in_days": 44, "updated_in_days_formatted": "first seen over a month ago"}, {"bathroom_number": "", "bedroom_number": 3, "car_spaces": 0, "commission": 0, "construction_year": 0, "datasource_name": "OnTheMarket.com", "img_height": 300, "img_url": "https://imgs.nestimg.com/3_bedroom_bungalow_for_sale_111365743377385756.jpg", "img_width": 400, "keywords": "Detached, Garden, Garage, Bungalow", "latitude": 50.8887, "lister_name": "Stags", "lister_url": "https://www.nestoria.co.uk/detail/0000000111365743377385756/title/5/28-8?serpUid=&pt=1&ot=1&l=somerset&did=105_high1&t_sec=9&t_or=45&t_pvid=null&utm_source=api&utm_medium=external", "listing_type": "buy", "location_accuracy": 9, "longitude": -2.79148, "price": 335000, "price_currency": "\u00a3", "price_formatted": "\u00a3335,000", "price_high": 335000, "price_low": 335000, "price_type": "fixed", "property_type": "house", "size": 0, "size_type": "net", "summary": "A detached 3 bedroom bungalow ready for some updating. Situated in ...", "thumb_height": 60, "thumb_url": "https://imgs.nestimg.com/medium/3_bedroom_bungalow_for_sale_111365743377385756.jpg", "thumb_width": 80, "title": "Beechwood Drive, Crewkerne, Somerset, TA18", "updated_in_days": 11, "updated_in_days_formatted": "first seen last week"}, {"bathroom_number": "", "bedroom_number": 6, "car_spaces": 0, "commission": 0, "construction_year": 0, "datasource_name": "OnTheMarket.com", "img_height": 300, "img_url": "https://imgs.nestimg.com/6_bedroom_detached_house_for_sale_111544377892077072.jpg", "img_width": 400, "keywords": "Detached, Garden, Grade II, Listed", "latitude": 50.8956, "lister_name": "Stags", "lister_url": "https://www.nestoria.co.uk/detail/0000000111544377892077072/title/5/28-9?serpUid=&pt=1&ot=1&l=somerset&did=105_high1&t_sec=9&t_or=45&t_pvid=null&utm_source=api&utm_medium=external", "listing_type": "buy", "location_accuracy": 9, "longitude": -2.94224, "price": 1200000, "price_currency": "\u00a3", "price_formatted": "\u00a31,200,000", "price_high": 1200000, "price_low": 1200000, "price_type": "fixed", "property_type": "house", "size": 0, "size_type": "net", "summary": "A grade ii listed manor house with adjoining two bedroom house, out...", "thumb_height": 60, "thumb_url": "https://imgs.nestimg.com/medium/6_bedroom_detached_house_for_sale_111544377892077072.jpg", "thumb_width": 80, "title": "Knowle Lane, Knowle St Giles, Chard, Somerset, TA20", "updated_in_days": 30, "updated_in_days_formatted": "first seen over a month ago"}, {"bathroom_number": "", "bedroom_number": 4, "car_spaces": 0, "commission": 0, "construction_year": 0, "datasource_name": "OnTheMarket.com", "img_height": 300, "img_url": "https://imgs.nestimg.com/4_bedroom_semi_detached_house_for_sale_110938658849471616.jpg", "img_width": 400, "keywords": "Garden, Semi-Detached, Modern", "latitude": 51.2392, "lister_url": "https://www.nestoria.co.uk/detail/0000000110938658849471616/title/5/28-10?serpUid=&pt=1&ot=1&l=somerset&did=105_high1&t_sec=9&t_or=45&t_pvid=null&utm_source=api&utm_medium=external", "listing_type": "buy", "location_accuracy": 9, "longitude": -2.98486, "price": 275000, "price_currency": "\u00a3", "price_formatted": "\u00a3275,000", "price_high": 275000, "price_low": 275000, "price_type": "fixed", "property_type": "house", "size": 0, "size_type": "net", "summary": "A modern 4 bed semi detached family home with good entertaining spa...", "thumb_height": 60, "thumb_url": "https://imgs.nestimg.com/medium/4_bedroom_semi_detached_house_for_sale_110938658849471616.jpg", "thumb_width": 80, "title": "Grenville Road, Burnham On Sea, Somerset", "updated_in_days": 128, "updated_in_days_formatted": "first seen over a month ago"}, {"bathroom_number": "", "bedroom_number": 2, "car_spaces": 0, "commission": 0, "construction_year": 0, "datasource_name": "OnTheMarket.com", "img_height": 300, "img_url": "https://imgs.nestimg.com/2_bedroom_apartment_for_sale_110938657998058445.jpg", "img_width": 400, "keywords": "Freehold", "latitude": 51.2265, "lister_url": "https://www.nestoria.co.uk/detail/0000000110938657998058445/title/5/28-11?serpUid=&pt=1&ot=1&l=somerset&did=105_high1&t_sec=9&t_or=45&t_pvid=null&utm_source=api&utm_medium=external", "listing_type": "buy", "location_accuracy": 9, "longitude": -2.97125, "price": 147000, "price_currency": "\u00a3", "price_formatted": "\u00a3147,000", "price_high": 147000, "price_low": 147000, "price_type": "fixed", "property_type": "flat", "size": 0, "size_type": "net", "summary": "A 2 bedroom freehold coach house ideal for a first time buyer or in...", "thumb_height": 60, "thumb_url": "https://imgs.nestimg.com/medium/2_bedroom_apartment_for_sale_110938657998058445.jpg", "thumb_width": 80, "title": "Mayflower Court, Highbridge, Somerset", "updated_in_days": 128, "updated_in_days_formatted": "first seen over a month ago"}, {"bathroom_number": "", "bedroom_number": 4, "car_spaces": 0, "commission": 0, "construction_year": 0, "datasource_name": "OnTheMarket.com", "img_height": 300, "img_url": "https://imgs.nestimg.com/4_bedroom_detached_house_for_sale_111631125097980377.jpg", "img_width": 400, "keywords": "Detached, New Build", "latitude": 51.05511, "lister_name": "Greenslade Taylor Hunt", "lister_url": "https://www.nestoria.co.uk/detail/0000000111631125097980377/title/5/28-12?serpUid=&pt=1&ot=1&l=somerset&did=105_high1&t_sec=9&t_or=45&t_pvid=null&utm_source=api&utm_medium=external", "listing_type": "buy", "location_accuracy": 9, "longitude": -2.733788, "price": 445000, "price_currency": "\u00a3", "price_formatted": "\u00a3445,000", "price_high": 445000, "price_low": 445000, "price_type": "fixed", "property_type": "house", "size": 0, "size_type": "net", "summary": "Coming soon phase 2, lisona court a prestigious new development jus...", "thumb_height": 60, "thumb_url": "https://imgs.nestimg.com/medium/4_bedroom_detached_house_for_sale_111631125097980377.jpg", "thumb_width": 80, "title": "Lisona Court, Somerton, Somerset, TA11", "updated_in_days": 16, "updated_in_days_formatted": "first seen 2 weeks ago"}, {"bathroom_number": "", "bedroom_number": 4, "car_spaces": 0, "commission": 0, "construction_year": 0, "datasource_name": "OnTheMarket.com", "img_height": 300, "img_url": "https://imgs.nestimg.com/4_bedroom_detached_house_for_sale_110938661320973164.jpg", "img_width": 400, "keywords": "Detached, Freehold", "latitude": 50.9257, "lister_name": "Greenslade Taylor Hunt", "lister_url": "https://www.nestoria.co.uk/detail/0000000110938661320973164/title/5/28-13?serpUid=&pt=1&ot=1&l=somerset&did=105_high1&t_sec=9&t_or=45&t_pvid=null&utm_source=api&utm_medium=external", "listing_type": "buy", "location_accuracy": 9, "longitude": -2.91772, "price": 325000, "price_currency": "\u00a3", "price_formatted": "\u00a3325,000", "price_high": 325000, "price_low": 325000, "price_type": "fixed", "property_type": "house", "size": 0, "size_type": "net", "summary": "Set on the greendale development this ly kept 4 bedroom detached fa...", "thumb_height": 60, "thumb_url": "https://imgs.nestimg.com/medium/4_bedroom_detached_house_for_sale_110938661320973164.jpg", "thumb_width": 80, "title": "Greendale, Ilminster, Somerset, TA19", "updated_in_days": 31, "updated_in_days_formatted": "first seen over a month ago"}, {"bathroom_number": "", "bedroom_number": 4, "car_spaces": 0, "commission": 0, "construction_year": 0, "datasource_name": "OnTheMarket.com", "img_height": 300, "img_url": "https://imgs.nestimg.com/4_bedroom_detached_house_for_sale_111080754013704479.jpg", "img_width": 400, "keywords": "Detached, Refurbished, Cottage", "latitude": 51.2254, "lister_url": "https://www.nestoria.co.uk/detail/0000000111080754013704479/title/5/28-14?serpUid=&pt=1&ot=1&l=somerset&did=105_high1&t_sec=9&t_or=45&t_pvid=null&utm_source=api&utm_medium=external", "listing_type": "buy", "location_accuracy": 9, "longitude": -2.81901, "price": 895000, "price_currency": "\u00a3", "price_formatted": "\u00a3895,000", "price_high": 895000, "price_low": 895000, "price_type": "fixed", "property_type": "house", "size": 0, "size_type": "net", "summary": "Esker cottage is a example of a large detached period property whic...", "thumb_height": 60, "thumb_url": "https://imgs.nestimg.com/medium/4_bedroom_detached_house_for_sale_111080754013704479.jpg", "thumb_width": 80, "title": "Esker Cottage, Quab Lane, WEDMORE, Somerset", "updated_in_days": 24, "updated_in_days_formatted": "first seen 3 weeks ago"}, {"bathroom_number": "", "bedroom_number": 3, "car_spaces": 0, "commission": 0, "construction_year": 0, "datasource_name": "OnTheMarket.com", "img_height": 300, "img_url": "https://imgs.nestimg.com/3_bedroom_semi_detached_house_for_sale_111038014540994401.jpg", "img_width": 400, "keywords": "Garden, Semi-Detached, Double Garage, Cottage", "latitude": 50.8403, "lister_name": "Greenslade Taylor Hunt", "lister_url": "https://www.nestoria.co.uk/detail/0000000111038014540994401/title/5/28-15?serpUid=&pt=1&ot=1&l=somerset&did=105_high1&t_sec=9&t_or=45&t_pvid=null&utm_source=api&utm_medium=external", "listing_type": "buy", "location_accuracy": 9, "longitude": -2.95436, "price": 375000, "price_currency": "\u00a3", "price_formatted": "\u00a3375,000", "price_high": 375000, "price_low": 375000, "price_type": "fixed", "property_type": "house", "size": 0, "size_type": "net", "summary": "An ly presented attached period cottage offering versatile accommod...", "thumb_height": 60, "thumb_url": "https://imgs.nestimg.com/medium/3_bedroom_semi_detached_house_for_sale_111038014540994401.jpg", "thumb_width": 80, "title": "South Chard, Chard, Somerset, TA20", "updated_in_days": 18, "updated_in_days_formatted": "first seen 2 weeks ago"}], "locations": [{"center_lat": 51.080967, "center_long": -3.045432, "long_title": "Somerset, county", "place_name": "somerset", "title": "Somerset"}], "page": 28, "sort": "nestoria_rank", "status_code": "200", "status_text": "OK", "thanks": "For using the Nestoria API.", "total_pages": 410, "total_results": 6149, "_cu5t0mP434m_": "remove"}}