{"request": {"country": "uk", "language": "en", "location": "somerset", "num_res": "15", "offset": 420, "output": "json_xs", "page": 29, "product_type": "realestate", "property_type": "property", "size_type": "net", "size_unit": "m2", "sort": "nestoria_rank", "listing_type": "buy"}, "response": {"application_response_code": "100", "application_response_text": "listings returned for one unambiguous location", "attribution": {"img_height": 22, "img_url": "https://resources.nestimg.com/nestoria/img/pbr_v1.png", "img_width": 183, "link_to_img": "http://www.nestoria.com"}, "created_http": "Tue, 18 Jun 2019 17:29:17 GMT", "created_unix": 1560878957, "link_to_url": "https://www.nestoria.co.uk/somerset/property/buy/29", "listings": [{"bathroom_number": "", "bedroom_number": 2, "car_spaces": 0, "commission": 0, "construction_year": 0, "datasource_name": "OnTheMarket.com", "img_height": 300, "img_url": "https://imgs.nestimg.com/2_bedroom_semi_detached_house_for_sale_110833952419800491.jpg", "img_width": 400, "keywords": "Freehold, Garden, Semi-Detached, Terraced, Parking", "latitude": 51.2628, "lister_name": "Greenslade Taylor Hunt", "lister_url": "https://www.nestoria.co.uk/detail/0000000110833952419800491/title/5/29-1?serpUid=&pt=1&ot=1&l=somerset&did=105_high1&t_sec=9&t_or=45&t_pvid=null&utm_source=api&utm_medium=external", "listing_type": "buy", "location_accuracy": 9, "longitude": -2.94066, "price": 249950, "price_currency": "\u00a3", "price_formatted": "\u00a3249,950", "price_high": 249950, "price_low": 249950, "price_type": "fixed", "property_type": "house", "size": 0, "size_type": "net", "summary": "This characterful, , 2 bedroom end of terrace residence occupies an...", "thumb_height": 60, "thumb_url": "https://imgs.nestimg.com/medium/2_bedroom_semi_detached_house_for_sale_110833952419800491.jpg", "thumb_width": 80, "title": "Rossholme, Church Road, East Brent, Somerset, TA9", "updated_in_days": 68, "updated_in_days_formatted": "first seen over a month ago"}, {"bathroom_number": "", "bedroom_number": 3, "car_spaces": 0, "commission": 0, "construction_year": 0, "datasource_name": "OnTheMarket.com", "img_height": 300, "img_url": "https://imgs.nestimg.com/3_bedroom_detached_bungalow_for_sale_110964059395697080.jpg", "img_width": 400, "keywords": "Detached, No Chain, Garage, Bungalow, Modern", "latitude": 51.178, "lister_name": "Wilkie May & Tuckwood", "lister_url": "https://www.nestoria.co.uk/detail/0000000110964059395697080/title/5/29-2?serpUid=&pt=1&ot=1&l=somerset&did=105_high1&t_sec=9&t_or=45&t_pvid=null&utm_source=api&utm_medium=external", "listing_type": "buy", "location_accuracy": 9, "longitude": -3.32121, "price": 285000, "price_currency": "\u00a3", "price_formatted": "\u00a3285,000", "price_high": 285000, "price_low": 285000, "price_type": "fixed", "property_type": "house", "size": 0, "size_type": "net", "summary": "No onward chain a modern and well presented detached 3 bedroom bung...", "thumb_height": 60, "thumb_url": "https://imgs.nestimg.com/medium/3_bedroom_detached_bungalow_for_sale_110964059395697080.jpg", "thumb_width": 80, "title": "Mariners Way, Watchet, Somerset TA23", "updated_in_days": 124, "updated_in_days_formatted": "first seen over a month ago"}, {"bathroom_number": "", "bedroom_number": 3, "car_spaces": 0, "commission": 0, "construction_year": 0, "datasource_name": "OnTheMarket.com", "img_height": 300, "img_url": "https://imgs.nestimg.com/3_bedroom_detached_house_for_sale_111371186933482104.jpg", "img_width": 400, "keywords": "Detached, Freehold, Garden, Grade II, Parking, Cottage, Listed", "latitude": 50.9502, "lister_name": "Greenslade Taylor Hunt", "lister_url": "https://www.nestoria.co.uk/detail/0000000111371186933482104/title/5/29-3?serpUid=&pt=1&ot=1&l=somerset&did=105_high1&t_sec=9&t_or=45&t_pvid=null&utm_source=api&utm_medium=external", "listing_type": "buy", "location_accuracy": 9, "longitude": -2.7467, "price": 415000, "price_currency": "\u00a3", "price_formatted": "\u00a3415,000", "price_high": 415000, "price_low": 415000, "price_type": "fixed", "property_type": "house", "size": 0, "size_type": "net", "summary": "A grade ii listed, detached hamstone cottage, located in a prime po...", "thumb_height": 60, "thumb_url": "https://imgs.nestimg.com/medium/3_bedroom_detached_house_for_sale_111371186933482104.jpg", "thumb_width": 80, "title": "Ham Hill, Stoke-Sub-Hamdon, Somerset, TA14", "updated_in_days": 58, "updated_in_days_formatted": "first seen over a month ago"}, {"bathroom_number": 3, "bedroom_number": 4, "car_spaces": 0, "commission": 0, "construction_year": 0, "datasource_name": "OnTheMarket.com", "img_height": 300, "img_url": "https://imgs.nestimg.com/4_bedroom_detached_house_for_sale_111668300903588092.jpg", "img_width": 400, "keywords": "Detached, Garden, Double Garage, Double Bedroom", "latitude": 50.9983, "lister_name": "Greenslade Taylor Hunt", "lister_url": "https://www.nestoria.co.uk/detail/0000000111668300903588092/title/5/29-4?serpUid=&pt=1&ot=1&l=somerset&did=105_high1&t_sec=9&t_or=45&t_pvid=null&utm_source=api&utm_medium=external", "listing_type": "buy", "location_accuracy": 9, "longitude": -2.58357, "price": 565000, "price_currency": "\u00a3", "price_formatted": "\u00a3565,000", "price_high": 565000, "price_low": 565000, "price_type": "fixed", "property_type": "house", "size": 0, "size_type": "net", "summary": "A and well appointed detached house set back from the road and stan...", "thumb_height": 60, "thumb_url": "https://imgs.nestimg.com/medium/4_bedroom_detached_house_for_sale_111668300903588092.jpg", "thumb_width": 80, "title": "Marston Magna, Yeovil, Somerset, BA22", "updated_in_days": 10, "updated_in_days_formatted": "first seen last week"}, {"bathroom_number": "", "bedroom_number": 4, "car_spaces": 0, "commission": 0, "construction_year": 0, "datasource_name": "OnTheMarket.com", "img_height": 300, "img_url": "https://imgs.nestimg.com/4_bedroom_detached_house_for_sale_110957372164881220.jpg", "img_width": 400, "keywords": "Detached, Cottage", "latitude": 50.9095, "lister_url": "https://www.nestoria.co.uk/detail/0000000110957372164881220/title/5/29-5?serpUid=&pt=1&ot=1&l=somerset&did=105_high1&t_sec=9&t_or=45&t_pvid=null&utm_source=api&utm_medium=external", "listing_type": "buy", "location_accuracy": 9, "longitude": -3.05893, "price": 499500, "price_currency": "\u00a3", "price_formatted": "\u00a3499,500", "price_high": 499500, "price_low": 499500, "price_type": "fixed", "property_type": "house", "size": 0, "size_type": "net", "summary": "An and well-presented detached character cottage set in the heart o...", "thumb_height": 60, "thumb_url": "https://imgs.nestimg.com/medium/4_bedroom_detached_house_for_sale_110957372164881220.jpg", "thumb_width": 80, "title": "Bishopswood, Chard, Somerset, TA20", "updated_in_days": 69, "updated_in_days_formatted": "first seen over a month ago"}, {"bathroom_number": "", "bedroom_number": 3, "car_spaces": 0, "commission": 0, "construction_year": 0, "datasource_name": "OnTheMarket.com", "img_height": 300, "img_url": "https://imgs.nestimg.com/3_bedroom_detached_bungalow_for_sale_110938661467715086.jpg", "img_width": 400, "keywords": "Detached, Garage, Bungalow", "latitude": 51.2567, "lister_url": "https://www.nestoria.co.uk/detail/0000000110938661467715086/title/5/29-6?serpUid=&pt=1&ot=1&l=somerset&did=105_high1&t_sec=9&t_or=45&t_pvid=null&utm_source=api&utm_medium=external", "listing_type": "buy", "location_accuracy": 9, "longitude": -3.0002, "price": 284950, "price_currency": "\u00a3", "price_formatted": "\u00a3284,950", "price_high": 284950, "price_low": 284950, "price_type": "fixed", "property_type": "house", "size": 0, "size_type": "net", "summary": "A 3 bedroom detached bungalow with garage and parking situated clos...", "thumb_height": 60, "thumb_url": "https://imgs.nestimg.com/medium/3_bedroom_detached_bungalow_for_sale_110938661467715086.jpg", "thumb_width": 80, "title": "Ash Tree Road, Burnham-on-Sea, Somerset", "updated_in_days": 128, "updated_in_days_formatted": "first seen over a month ago"}, {"bathroom_number": "", "bedroom_number": 2, "car_spaces": 0, "commission": 0, "construction_year": 0, "datasource_name": "OnTheMarket.com", "img_height": 300, "img_url": "https://imgs.nestimg.com/2_bedroom_detached_bungalow_for_sale_110938661219515294.jpg", "img_width": 400, "keywords": "Detached, Bungalow", "latitude": 51.2348, "lister_url": "https://www.nestoria.co.uk/detail/0000000110938661219515294/title/5/29-7?serpUid=&pt=1&ot=1&l=somerset&did=105_high1&t_sec=9&t_or=45&t_pvid=null&utm_source=api&utm_medium=external", "listing_type": "buy", "location_accuracy": 9, "longitude": -2.99443, "price": 174950, "price_currency": "\u00a3", "price_formatted": "\u00a3174,950", "price_high": 174950, "price_low": 174950, "price_type": "fixed", "property_type": "house", "size": 0, "size_type": "net", "summary": "A 2 bedroom retirement detached bungalow situated in a area of the ...", "thumb_height": 60, "thumb_url": "https://imgs.nestimg.com/medium/2_bedroom_detached_bungalow_for_sale_110938661219515294.jpg", "thumb_width": 80, "title": "Priory Gardens, Burnham-on-Sea, Somerset", "updated_in_days": 128, "updated_in_days_formatted": "first seen over a month ago"}, {"bathroom_number": "", "bedroom_number": 5, "car_spaces": 0, "commission": 0, "construction_year": 0, "datasource_name": "OnTheMarket.com", "img_height": 300, "img_url": "https://imgs.nestimg.com/5_bedroom_character_property_for_sale_111587830419281352.jpg", "img_width": 400, "keywords": "Garden, Conversion", "latitude": 50.99122, "lister_name": "Savills", "lister_url": "https://www.nestoria.co.uk/detail/0000000111587830419281352/title/5/29-8?serpUid=&pt=1&ot=1&l=somerset&did=105_high1&t_sec=9&t_or=45&t_pvid=null&utm_source=api&utm_medium=external", "listing_type": "buy", "location_accuracy": 9, "longitude": -3.29097, "price": 770000, "price_currency": "\u00a3", "price_formatted": "\u00a3770,000", "price_high": 770000, "price_low": 770000, "price_type": "fixed", "property_type": "property", "size": 0, "size_type": "net", "summary": "A and characterful barn conversion, enjoying a private, south facin...", "thumb_height": 60, "thumb_url": "https://imgs.nestimg.com/medium/5_bedroom_character_property_for_sale_111587830419281352.jpg", "thumb_width": 80, "title": "Wellisford, Wellington, Somerset, TA21", "updated_in_days": 23, "updated_in_days_formatted": "first seen 3 weeks ago"}, {"bathroom_number": "", "bedroom_number": 3, "car_spaces": 0, "commission": 0, "construction_year": 0, "datasource_name": "OnTheMarket.com", "img_height": 300, "img_url": "https://imgs.nestimg.com/3_bedroom_end_of_terrace_house_for_sale_111624981388595358.jpg", "img_width": 400, "keywords": "Freehold, Garden, Double Garage, Conversion, Terraced", "latitude": 50.9445, "lister_name": "Greenslade Taylor Hunt", "lister_url": "https://www.nestoria.co.uk/detail/0000000111624981388595358/title/5/29-9?serpUid=&pt=1&ot=1&l=somerset&did=105_high1&t_sec=9&t_or=45&t_pvid=null&utm_source=api&utm_medium=external", "listing_type": "buy", "location_accuracy": 9, "longitude": -2.72662, "price": 375000, "price_currency": "\u00a3", "price_formatted": "\u00a3375,000", "price_high": 375000, "price_low": 375000, "price_type": "fixed", "property_type": "house", "size": 0, "size_type": "net", "summary": "An 3 bedroom barn conversion in a semi-rural location, on the outsk...", "thumb_height": 60, "thumb_url": "https://imgs.nestimg.com/medium/3_bedroom_end_of_terrace_house_for_sale_111624981388595358.jpg", "thumb_width": 80, "title": "Hamdon Stables, Montacute, Somerset, TA15", "updated_in_days": 17, "updated_in_days_formatted": "first seen 2 weeks ago"}, {"bathroom_number": "", "bedroom_number": 3, "car_spaces": 0, "commission": 0, "construction_year": 0, "datasource_name": "OnTheMarket.com", "img_height": 300, "img_url": "https://imgs.nestimg.com/3_bedroom_house_for_sale_111687584235405241.jpg", "img_width": 400, "keywords": "Cottage", "latitude": 50.837, "lister_name": "Greenslade Taylor Hunt", "lister_url": "https://www.nestoria.co.uk/detail/0000000111687584235405241/title/5/29-10?serpUid=&pt=1&ot=1&l=somerset&did=105_high1&t_sec=9&t_or=45&t_pvid=null&utm_source=api&utm_medium=external", "listing_type": "buy", "location_accuracy": 9, "longitude": -2.94913, "price": 385000, "price_currency": "\u00a3", "price_formatted": "\u00a3385,000", "price_high": 385000, "price_low": 385000, "price_type": "fixed", "property_type": "house", "size": 0, "size_type": "net", "summary": "An and ly presented 3 bedroom cottage on the outskirts of a village...", "thumb_height": 60, "thumb_url": "https://imgs.nestimg.com/medium/3_bedroom_house_for_sale_111687584235405241.jpg", "thumb_width": 80, "title": "Chilson Common, South Chard, Chard, Somerset, TA20", "updated_in_days": 7, "updated_in_days_formatted": "first seen last week"}, {"bathroom_number": "", "bedroom_number": 5, "car_spaces": 0, "commission": 0, "construction_year": 0, "datasource_name": "OnTheMarket.com", "img_height": 300, "img_url": "https://imgs.nestimg.com/5_bedroom_detached_house_for_sale_111278478282119640.jpg", "img_width": 400, "keywords": "Detached, Freehold", "latitude": 50.9333, "lister_name": "Greenslade Taylor Hunt", "lister_url": "https://www.nestoria.co.uk/detail/0000000111278478282119640/title/5/29-11?serpUid=&pt=1&ot=1&l=somerset&did=105_high1&t_sec=9&t_or=45&t_pvid=null&utm_source=api&utm_medium=external", "listing_type": "buy", "location_accuracy": 9, "longitude": -2.92649, "price": 600000, "price_currency": "\u00a3", "price_formatted": "\u00a3600,000", "price_high": 600000, "price_low": 600000, "price_type": "fixed", "property_type": "house", "size": 0, "size_type": "net", "summary": "An individually designed and built 5 bedroomed family home adjoinin...", "thumb_height": 60, "thumb_url": "https://imgs.nestimg.com/medium/5_bedroom_detached_house_for_sale_111278478282119640.jpg", "thumb_width": 80, "title": "Green Lane, Ilminster, Somerset, TA19", "updated_in_days": 73, "updated_in_days_formatted": "first seen over a month ago"}, {"bathroom_number": "", "bedroom_number": 5, "car_spaces": 0, "commission": 0, "construction_year": 0, "datasource_name": "OnTheMarket.com", "img_height": 300, "img_url": "https://imgs.nestimg.com/5_bedroom_detached_house_for_sale_111365740138174571.jpg", "img_width": 400, "keywords": "Detached, Garden, Double Garage, Refurbished", "latitude": 50.9471, "lister_name": "Stags", "lister_url": "https://www.nestoria.co.uk/detail/0000000111365740138174571/title/5/29-12?serpUid=&pt=1&ot=1&l=somerset&did=105_high1&t_sec=9&t_or=45&t_pvid=null&utm_source=api&utm_medium=external", "listing_type": "buy", "location_accuracy": 9, "longitude": -2.80833, "price": 795000, "price_currency": "\u00a3", "price_formatted": "\u00a3795,000", "price_high": 795000, "price_low": 795000, "price_type": "fixed", "property_type": "house", "size": 0, "size_type": "net", "summary": "A ly presented family home in village location with refurbished and...", "thumb_height": 60, "thumb_url": "https://imgs.nestimg.com/medium/5_bedroom_detached_house_for_sale_111365740138174571.jpg", "thumb_width": 80, "title": "Hele Lane, South Petherton, Somerset, TA13", "updated_in_days": 59, "updated_in_days_formatted": "first seen over a month ago"}, {"bathroom_number": "", "bedroom_number": 3, "car_spaces": 0, "commission": 0, "construction_year": 0, "datasource_name": "OnTheMarket.com", "img_height": 300, "img_url": "https://imgs.nestimg.com/3_bedroom_semi_detached_house_for_sale_111427153209756481.jpg", "img_width": 400, "keywords": "Garden, Semi-Detached, No Chain, Parking, Cottage", "latitude": 51.1536, "lister_name": "Stags", "lister_url": "https://www.nestoria.co.uk/detail/0000000111427153209756481/title/5/29-13?serpUid=&pt=1&ot=1&l=somerset&did=105_high1&t_sec=9&t_or=45&t_pvid=null&utm_source=api&utm_medium=external", "listing_type": "buy", "location_accuracy": 9, "longitude": -3.36557, "price": 335000, "price_currency": "\u00a3", "price_formatted": "\u00a3335,000", "price_high": 335000, "price_low": 335000, "price_type": "fixed", "property_type": "house", "size": 0, "size_type": "net", "summary": "A ly presented 3 bedroom character cottage in a village setting. Pr...", "thumb_height": 60, "thumb_url": "https://imgs.nestimg.com/medium/3_bedroom_semi_detached_house_for_sale_111427153209756481.jpg", "thumb_width": 80, "title": "Washford, Watchet, Somerset, TA23", "updated_in_days": 49, "updated_in_days_formatted": "first seen over a month ago"}, {"bathroom_number": "", "bedroom_number": 3, "car_spaces": 0, "commission": 0, "construction_year": 0, "datasource_name": "OnTheMarket.com", "img_height": 300, "img_url": "https://imgs.nestimg.com/3_bedroom_bungalow_for_sale_110908093464536538.jpg", "img_width": 400, "keywords": "Garden, Double Garage, Bungalow, Cul-de-Sac", "latitude": 50.8705, "lister_name": "Stags", "lister_url": "https://www.nestoria.co.uk/detail/0000000110908093464536538/title/5/29-14?serpUid=&pt=1&ot=1&l=somerset&did=105_high1&t_sec=9&t_or=45&t_pvid=null&utm_source=api&utm_medium=external", "listing_type": "buy", "location_accuracy": 9, "longitude": -2.76731, "price": 365000, "price_currency": "\u00a3", "price_formatted": "\u00a3365,000", "price_high": 365000, "price_low": 365000, "price_type": "fixed", "property_type": "house", "size": 0, "size_type": "net", "summary": "A ly presented 3 bedroom bungalow in a cul-de-sac location within a...", "thumb_height": 60, "thumb_url": "https://imgs.nestimg.com/medium/3_bedroom_bungalow_for_sale_110908093464536538.jpg", "thumb_width": 80, "title": "Packers Way, Misterton, Crewkerne, Somerset, TA18", "updated_in_days": 10, "updated_in_days_formatted": "first seen last week"}, {"bathroom_number": "", "bedroom_number": 2, "car_spaces": 0, "commission": 0, "construction_year": 0, "datasource_name": "OnTheMarket.com", "img_height": 300, "img_url": "https://imgs.nestimg.com/2_bedroom_detached_bungalow_for_sale_110308743389929344.jpg", "img_width": 400, "keywords": "Detached, Garden, No Chain, Bungalow, Parking", "latitude": 51.1647, "lister_url": "https://www.nestoria.co.uk/detail/0000000110308743389929344/title/5/29-15?serpUid=&pt=1&ot=1&l=somerset&did=105_high1&t_sec=9&t_or=45&t_pvid=null&utm_source=api&utm_medium=external", "listing_type": "buy", "location_accuracy": 9, "longitude": -3.32135, "price": 235000, "price_currency": "\u00a3", "price_formatted": "\u00a3235,000", "price_high": 235000, "price_low": 235000, "price_type": "fixed", "property_type": "house", "size": 0, "size_type": "net", "summary": "A well presented detached two bedroom bungalow, a short level walk ...", "thumb_height": 60, "thumb_url": "https://imgs.nestimg.com/medium/2_bedroom_detached_bungalow_for_sale_110308743389929344.jpg", "thumb_width": 80, "title": "Doniford Road, Williton, Taunton, Somerset, TA4", "updated_in_days": 117, "updated_in_days_formatted": "first seen over a month ago"}], "locations": [{"center_lat": 51.080967, "center_long": -3.045432, "long_title": "Somerset, county", "place_name": "somerset", "title": "Somerset"}], "page": 29, "sort": "nestoria_rank", "status_code": "200", "status_text": "OK", "thanks": "For using the Nestoria API.", "total_pages": 410, "total_results": 6149, "_cu5t0mP434m_": "remove"}}