{"request": {"country": "uk", "language": "en", "location": "somerset", "num_res": "15", "offset": 15, "output": "json_xs", "page": 2, "product_type": "realestate", "property_type": "property", "size_type": "net", "size_unit": "m2", "sort": "nestoria_rank", "listing_type": "buy"}, "response": {"application_response_code": "100", "application_response_text": "listings returned for one unambiguous location", "attribution": {"img_height": 22, "img_url": "https://resources.nestimg.com/nestoria/img/pbr_v1.png", "img_width": 183, "link_to_img": "http://www.nestoria.com"}, "created_http": "Tue, 18 Jun 2019 17:28:36 GMT", "created_unix": 1560878916, "link_to_url": "https://www.nestoria.co.uk/somerset/property/buy/2", "listings": [{"bathroom_number": "", "bedroom_number": 5, "car_spaces": 0, "commission": 0, "construction_year": 0, "datasource_name": "OnTheMarket.com", "img_height": 300, "img_url": "https://imgs.nestimg.com/5_bedroom_detached_house_for_sale_111717683397020729.jpg", "img_width": 400, "keywords": "Detached, Freehold, Grade II, Conversion, Listed", "latitude": 50.8586, "lister_name": "Greenslade Taylor Hunt", "lister_url": "https://www.nestoria.co.uk/detail/0000000111717683397020729/title/5/2-1?serpUid=&pt=1&ot=1&l=somerset&did=105_high1&t_sec=9&t_or=45&t_pvid=null&utm_source=api&utm_medium=external", "listing_type": "buy", "location_accuracy": 9, "longitude": -2.94579, "price": 775000, "price_currency": "\u00a3", "price_formatted": "\u00a3775,000", "price_high": 775000, "price_low": 775000, "price_type": "fixed", "property_type": "house", "size": 0, "size_type": "net", "summary": "A contemporary conversion of this grade ii listed barn providing ve...", "thumb_height": 60, "thumb_url": "https://imgs.nestimg.com/medium/5_bedroom_detached_house_for_sale_111717683397020729.jpg", "thumb_width": 80, "title": "Manor Farm, Forton, Chard, Somerset, TA20", "updated_in_days": 2, "updated_in_days_formatted": "first seen 2 days ago"}, {"bathroom_number": "", "bedroom_number": 4, "car_spaces": 0, "commission": 0, "construction_year": 0, "datasource_name": "OnTheMarket.com", "img_height": 300, "img_url": "https://imgs.nestimg.com/4_bedroom_detached_bungalow_for_sale_111371193348941998.jpg", "img_width": 400, "keywords": "Detached, Bungalow, Modern", "latitude": 51.0279, "lister_name": "Gibbins Richards", "lister_url": "https://www.nestoria.co.uk/detail/0000000111371193348941998/title/5/2-2?serpUid=&pt=1&ot=1&l=somerset&did=105_high1&t_sec=9&t_or=45&t_pvid=null&utm_source=api&utm_medium=external", "listing_type": "buy", "location_accuracy": 9, "longitude": -3.25856, "price": 560000, "price_currency": "\u00a3", "price_formatted": "\u00a3560,000", "price_high": 560000, "price_low": 560000, "price_type": "fixed", "property_type": "house", "size": 0, "size_type": "net", "summary": "A modern and detached bungalow which sits on its own plot of over h...", "thumb_height": 60, "thumb_url": "https://imgs.nestimg.com/medium/4_bedroom_detached_bungalow_for_sale_111371193348941998.jpg", "thumb_width": 80, "title": "Milverton, Somerset - Modern", "updated_in_days": 3, "updated_in_days_formatted": "first seen 3 days ago"}, {"bathroom_number": "", "bedroom_number": 3, "car_spaces": 0, "commission": 0, "construction_year": 0, "datasource_name": "OnTheMarket.com", "img_height": 300, "img_url": "https://imgs.nestimg.com/3_bedroom_detached_house_for_sale_111705542292646114.jpg", "img_width": 400, "keywords": "Detached, No Chain, Modern, Gas Central Heating", "latitude": 51.0328, "lister_url": "https://www.nestoria.co.uk/detail/0000000111705542292646114/title/5/2-3?serpUid=&pt=1&ot=1&l=somerset&did=105_high1&t_sec=9&t_or=45&t_pvid=null&utm_source=api&utm_medium=external", "listing_type": "buy", "location_accuracy": 9, "longitude": -3.06172, "price": 280000, "price_currency": "\u00a3", "price_formatted": "\u00a3280,000", "price_high": 280000, "price_low": 280000, "price_type": "fixed", "property_type": "house", "size": 0, "size_type": "net", "summary": "Positioned within a highly sought-after development in monkton heat...", "thumb_height": 60, "thumb_url": "https://imgs.nestimg.com/medium/3_bedroom_detached_house_for_sale_111705542292646114.jpg", "thumb_width": 80, "title": "Farriers Green, Monkton Heathfield, Taunton, Somerset", "updated_in_days": 4, "updated_in_days_formatted": "first seen 4 days ago"}, {"bathroom_number": "", "bedroom_number": 2, "car_spaces": 0, "commission": 0, "construction_year": 0, "datasource_name": "OnTheMarket.com", "img_height": 300, "img_url": "https://imgs.nestimg.com/2_bedroom_detached_bungalow_for_sale_111717698963974036.jpg", "img_width": 400, "keywords": "Detached, New Build, No Chain, Conservatory, Kitchen, Bungalow, Parking, Gas Central Heating", "latitude": 51.3604, "lister_url": "https://www.nestoria.co.uk/detail/0000000111717698963974036/title/5/2-4?serpUid=&pt=1&ot=1&l=somerset&did=105_high1&t_sec=9&t_or=45&t_pvid=null&utm_source=api&utm_medium=external", "listing_type": "buy", "location_accuracy": 9, "longitude": -2.93822, "price": 219950, "price_currency": "\u00a3", "price_formatted": "\u00a3219,950", "price_high": 219950, "price_low": 219950, "price_type": "fixed", "property_type": "house", "size": 0, "size_type": "net", "summary": "One off design detached bungalow with accommodation comprising sitt...", "thumb_height": 60, "thumb_url": "https://imgs.nestimg.com/medium/2_bedroom_detached_bungalow_for_sale_111717698963974036.jpg", "thumb_width": 80, "title": "Whittington Drive, Somerset", "updated_in_days": 2, "updated_in_days_formatted": "first seen 2 days ago"}, {"bathroom_number": "", "bedroom_number": 5, "car_spaces": 0, "commission": 0, "construction_year": 0, "datasource_name": "OnTheMarket.com", "img_height": 300, "img_url": "https://imgs.nestimg.com/5_bedroom_detached_house_for_sale_111724139944666283.jpg", "img_width": 400, "keywords": "Detached, Garden, Cottage", "latitude": 51.143, "lister_name": "Stags", "lister_url": "https://www.nestoria.co.uk/detail/0000000111724139944666283/title/5/2-5?serpUid=&pt=1&ot=1&l=somerset&did=105_high1&t_sec=9&t_or=45&t_pvid=null&utm_source=api&utm_medium=external", "listing_type": "buy", "location_accuracy": 9, "longitude": -3.66781, "price": 1200000, "price_currency": "\u00a3", "price_formatted": "\u00a31,200,000", "price_high": 1200000, "price_low": 1200000, "price_type": "fixed", "property_type": "house", "size": 0, "size_type": "net", "summary": "A period 5 bedroom farmhouse with a flexible layout in the heart of...", "thumb_height": 60, "thumb_url": "https://imgs.nestimg.com/medium/5_bedroom_detached_house_for_sale_111724139944666283.jpg", "thumb_width": 80, "title": "Exford, Minehead, Somerset, TA24", "updated_in_days": 1, "updated_in_days_formatted": "New"}, {"bathroom_number": "", "bedroom_number": 3, "car_spaces": 0, "commission": 0, "construction_year": 0, "datasource_name": "OnTheMarket.com", "img_height": 300, "img_url": "https://imgs.nestimg.com/3_bedroom_penthouse_for_sale_111711529067994023.jpg", "img_width": 400, "keywords": "Penthouse, Purpose Built", "latitude": 51.2306, "lister_url": "https://www.nestoria.co.uk/detail/0000000111711529067994023/title/5/2-6?serpUid=&pt=1&ot=1&l=somerset&did=105_high1&t_sec=9&t_or=45&t_pvid=null&utm_source=api&utm_medium=external", "listing_type": "buy", "location_accuracy": 9, "longitude": -3.00068, "price": 239950, "price_currency": "\u00a3", "price_formatted": "\u00a3239,950", "price_high": 239950, "price_low": 239950, "price_type": "fixed", "property_type": "flat", "size": 0, "size_type": "net", "summary": "A purpose built penthouse apartment standing to the south side of b...", "thumb_height": 60, "thumb_url": "https://imgs.nestimg.com/medium/3_bedroom_penthouse_for_sale_111711529067994023.jpg", "thumb_width": 80, "title": "Quantock Crt, Sth.Esplanade, Burnham-on-Sea, Somerset", "updated_in_days": 3, "updated_in_days_formatted": "first seen 3 days ago"}, {"bathroom_number": "", "bedroom_number": 3, "car_spaces": 0, "commission": 0, "construction_year": 0, "datasource_name": "OnTheMarket.com", "img_height": 300, "img_url": "https://imgs.nestimg.com/3_bedroom_semi_detached_house_for_sale_111711532290103511.jpg", "img_width": 400, "keywords": "Freehold, Semi-Detached, Cottage", "latitude": 50.924, "lister_name": "Greenslade Taylor Hunt", "lister_url": "https://www.nestoria.co.uk/detail/0000000111711532290103511/title/5/2-7?serpUid=&pt=1&ot=1&l=somerset&did=105_high1&t_sec=9&t_or=45&t_pvid=null&utm_source=api&utm_medium=external", "listing_type": "buy", "location_accuracy": 9, "longitude": -2.94725, "price": 239950, "price_currency": "\u00a3", "price_formatted": "\u00a3239,950", "price_high": 239950, "price_low": 239950, "price_type": "fixed", "property_type": "house", "size": 0, "size_type": "net", "summary": "Situated in an elevated position with extensive views to the front,...", "thumb_height": 60, "thumb_url": "https://imgs.nestimg.com/medium/3_bedroom_semi_detached_house_for_sale_111711532290103511.jpg", "thumb_width": 80, "title": "Pound Hill, Donyatt, Ilminster, Somerset, TA19", "updated_in_days": 3, "updated_in_days_formatted": "first seen 3 days ago"}, {"bathroom_number": "", "bedroom_number": 13, "car_spaces": 0, "commission": 0, "construction_year": 0, "datasource_name": "OnTheMarket.com", "img_height": 300, "img_url": "https://imgs.nestimg.com/13_bedroom_detached_house_for_sale_111724141655509566.jpg", "img_width": 400, "keywords": "Detached, Cottage", "latitude": 51.143, "lister_name": "Stags", "lister_url": "https://www.nestoria.co.uk/detail/0000000111724141655509566/title/5/2-8?serpUid=&pt=1&ot=1&l=somerset&did=105_high1&t_sec=9&t_or=45&t_pvid=null&utm_source=api&utm_medium=external", "listing_type": "buy", "location_accuracy": 9, "longitude": -3.66781, "price": 1200000, "price_currency": "\u00a3", "price_formatted": "\u00a31,200,000", "price_high": 1200000, "price_low": 1200000, "price_type": "fixed", "property_type": "house", "size": 0, "size_type": "net", "summary": "In the heart of exmoor national park with a rural outlook, is this ...", "thumb_height": 60, "thumb_url": "https://imgs.nestimg.com/medium/13_bedroom_detached_house_for_sale_111724141655509566.jpg", "thumb_width": 80, "title": "Exford, Minehead, Somerset, TA24", "updated_in_days": 1, "updated_in_days_formatted": "New"}, {"bathroom_number": "", "bedroom_number": 5, "car_spaces": 0, "commission": 0, "construction_year": 0, "datasource_name": "OnTheMarket.com", "img_height": 300, "img_url": "https://imgs.nestimg.com/5_bedroom_house_for_sale_111705544092074466.jpg", "img_width": 400, "keywords": "Victorian", "latitude": 51.1253, "lister_url": "https://www.nestoria.co.uk/detail/0000000111705544092074466/title/5/2-9?serpUid=&pt=1&ot=1&l=somerset&did=105_high1&t_sec=9&t_or=45&t_pvid=null&utm_source=api&utm_medium=external", "listing_type": "buy", "location_accuracy": 9, "longitude": -3.01413, "price": 347500, "price_currency": "\u00a3", "price_formatted": "\u00a3347,500", "price_high": 347500, "price_low": 347500, "price_type": "fixed", "property_type": "house", "size": 0, "size_type": "net", "summary": "Located within one of the most prestigious and sought-after tree li...", "thumb_height": 60, "thumb_url": "https://imgs.nestimg.com/medium/5_bedroom_house_for_sale_111705544092074466.jpg", "thumb_width": 80, "title": "Northfield, Bridgwater, Somerset", "updated_in_days": 4, "updated_in_days_formatted": "first seen 4 days ago"}, {"bathroom_number": "", "bedroom_number": 3, "car_spaces": 0, "commission": 0, "construction_year": 0, "datasource_name": "OnTheMarket.com", "img_height": 300, "img_url": "https://imgs.nestimg.com/3_bedroom_semi_detached_house_for_sale_111705543671410171.jpg", "img_width": 400, "keywords": "Freehold, Garden, Semi-Detached, Parking", "latitude": 51.1492, "lister_name": "Greenslade Taylor Hunt", "lister_url": "https://www.nestoria.co.uk/detail/0000000111705543671410171/title/5/2-10?serpUid=&pt=1&ot=1&l=somerset&did=105_high1&t_sec=9&t_or=45&t_pvid=null&utm_source=api&utm_medium=external", "listing_type": "buy", "location_accuracy": 9, "longitude": -2.98315, "price": 189950, "price_currency": "\u00a3", "price_formatted": "\u00a3189,950", "price_high": 189950, "price_low": 189950, "price_type": "fixed", "property_type": "house", "size": 0, "size_type": "net", "summary": "A well presented three bed semi-detached house with a south westerl...", "thumb_height": 60, "thumb_url": "https://imgs.nestimg.com/medium/3_bedroom_semi_detached_house_for_sale_111705543671410171.jpg", "thumb_width": 80, "title": "Royal Drive, Bridgwater, Somerset, TA6", "updated_in_days": 4, "updated_in_days_formatted": "first seen 4 days ago"}, {"bathroom_number": "", "bedroom_number": 2, "car_spaces": 0, "commission": 0, "construction_year": 0, "datasource_name": "OnTheMarket.com", "img_height": 300, "img_url": "https://imgs.nestimg.com/2_bedroom_semi_detached_house_for_sale_111711535006601826.jpg", "img_width": 400, "keywords": "Semi-Detached", "latitude": 51.2505, "lister_url": "https://www.nestoria.co.uk/detail/0000000111711535006601826/title/5/2-11?serpUid=&pt=1&ot=1&l=somerset&did=105_high1&t_sec=9&t_or=45&t_pvid=null&utm_source=api&utm_medium=external", "listing_type": "buy", "location_accuracy": 9, "longitude": -2.95445, "price": 275000, "price_currency": "\u00a3", "price_formatted": "\u00a3275,000", "price_high": 275000, "price_low": 275000, "price_type": "fixed", "property_type": "house", "size": 0, "size_type": "net", "summary": "A well presented 2 bed semi detached property within close proximit...", "thumb_height": 60, "thumb_url": "https://imgs.nestimg.com/medium/2_bedroom_semi_detached_house_for_sale_111711535006601826.jpg", "thumb_width": 80, "title": "Church Lane, Brent Knoll, Somerset", "updated_in_days": 3, "updated_in_days_formatted": "first seen 3 days ago"}, {"bathroom_number": "", "bedroom_number": 2, "car_spaces": 0, "commission": 0, "construction_year": 0, "datasource_name": "OnTheMarket.com", "img_height": 300, "img_url": "https://imgs.nestimg.com/2_bedroom_apartment_for_sale_111711532769193863.jpg", "img_width": 400, "keywords": "Conversion, Parking", "latitude": 50.8849, "lister_name": "Greenslade Taylor Hunt", "lister_url": "https://www.nestoria.co.uk/detail/0000000111711532769193863/title/5/2-12?serpUid=&pt=1&ot=1&l=somerset&did=105_high1&t_sec=9&t_or=45&t_pvid=null&utm_source=api&utm_medium=external", "listing_type": "buy", "location_accuracy": 9, "longitude": -2.95255, "price": 134950, "price_currency": "\u00a3", "price_formatted": "\u00a3134,950", "price_high": 134950, "price_low": 134950, "price_type": "fixed", "property_type": "flat", "size": 0, "size_type": "net", "summary": "Prices starting from \u00a3134,950 for a 2 bedroom apartment with 2 park...", "thumb_height": 60, "thumb_url": "https://imgs.nestimg.com/medium/2_bedroom_apartment_for_sale_111711532769193863.jpg", "thumb_width": 80, "title": "Leach Road, Chard, Somerset, TA20", "updated_in_days": 3, "updated_in_days_formatted": "first seen 3 days ago"}, {"bathroom_number": "", "bedroom_number": 3, "car_spaces": 0, "commission": 0, "construction_year": 0, "datasource_name": "OnTheMarket.com", "img_height": 300, "img_url": "https://imgs.nestimg.com/3_bedroom_terraced_house_for_sale_111711527824699490.jpg", "img_width": 400, "keywords": "Garden, Terraced, Reception", "latitude": 51.349, "lister_url": "https://www.nestoria.co.uk/detail/0000000111711527824699490/title/5/2-13?serpUid=&pt=1&ot=1&l=somerset&did=105_high1&t_sec=9&t_or=45&t_pvid=null&utm_source=api&utm_medium=external", "listing_type": "buy", "location_accuracy": 9, "longitude": -2.97713, "price": 185000, "price_currency": "\u00a3", "price_formatted": "\u00a3185,000", "price_high": 185000, "price_low": 185000, "price_type": "fixed", "property_type": "house", "size": 0, "size_type": "net", "summary": "Well presented stone built terrace house. Three beds. Two reception...", "thumb_height": 60, "thumb_url": "https://imgs.nestimg.com/medium/3_bedroom_terraced_house_for_sale_111711527824699490.jpg", "thumb_width": 80, "title": "Palmer Street, Weston-super-Mare, North Somerset. BS23", "updated_in_days": 2, "updated_in_days_formatted": "first seen 2 days ago"}, {"bathroom_number": "", "bedroom_number": 4, "car_spaces": 0, "commission": 0, "construction_year": 0, "datasource_name": "OnTheMarket.com", "img_height": 300, "img_url": "https://imgs.nestimg.com/4_bedroom_detached_house_2930034461879840500.jpg", "img_width": 400, "keywords": "Detached", "latitude": 51.22429, "lister_name": "Knight Frank", "lister_url": "https://www.nestoria.co.uk/detail/0000002930034461879840500/title/5/2-14?serpUid=&pt=1&ot=1&l=somerset&did=105_high1&t_sec=9&t_or=45&t_pvid=null&utm_source=api&utm_medium=external", "listing_type": "buy", "location_accuracy": 9, "longitude": -2.846624, "price": 699999, "price_currency": "\u00a3", "price_formatted": "\u00a3699,999", "price_high": 699999, "price_low": 699999, "price_type": "fixed", "property_type": "house", "size": 0, "size_type": "net", "summary": "Unique property with commercial and residential uses, near wedmore....", "thumb_height": 60, "thumb_url": "https://imgs.nestimg.com/medium/4_bedroom_detached_house_2930034461879840500.jpg", "thumb_width": 80, "title": "School Lane, Blackford, Wedmore, Somerset, BS28", "updated_in_days": 3, "updated_in_days_formatted": "first seen 3 days ago"}, {"bathroom_number": "", "bedroom_number": 1, "car_spaces": 0, "commission": 0, "construction_year": 0, "datasource_name": "OnTheMarket.com", "img_height": 300, "img_url": "https://imgs.nestimg.com/1_bedroom_semi_detached_bungalow_for_sale_111557531634731808.jpg", "img_width": 400, "keywords": "Semi-Detached, Double Bedroom, Kitchen, Bungalow", "latitude": 50.863453, "lister_name": "Greenslade Taylor Hunt", "lister_url": "https://www.nestoria.co.uk/detail/0000000111557531634731808/title/5/2-15?serpUid=&pt=1&ot=1&l=somerset&did=105_high1&t_sec=9&t_or=45&t_pvid=null&utm_source=api&utm_medium=external", "listing_type": "buy", "location_accuracy": 9, "longitude": -2.955406, "price": 175000, "price_currency": "\u00a3", "price_formatted": "\u00a3175,000", "price_high": 175000, "price_low": 175000, "price_type": "fixed", "property_type": "house", "size": 0, "size_type": "net", "summary": "Last plot remaining flooring included4 orchard rise the broadway is...", "thumb_height": 60, "thumb_url": "https://imgs.nestimg.com/medium/1_bedroom_semi_detached_bungalow_for_sale_111557531634731808.jpg", "thumb_width": 80, "title": "Orchard Rise, Chard, Somerset, TA20", "updated_in_days": 3, "updated_in_days_formatted": "first seen 3 days ago"}], "locations": [{"center_lat": 51.080967, "center_long": -3.045432, "long_title": "Somerset, county", "place_name": "somerset", "title": "Somerset"}], "page": 2, "sort": "nestoria_rank", "status_code": "200", "status_text": "OK", "thanks": "For using the Nestoria API.", "total_pages": 410, "total_results": 6149, "_cu5t0mP434m_": "remove"}}