{"request": {"country": "uk", "language": "en", "location": "somerset", "num_res": "15", "offset": 435, "output": "json_xs", "page": 30, "product_type": "realestate", "property_type": "property", "size_type": "net", "size_unit": "m2", "sort": "nestoria_rank", "listing_type": "buy"}, "response": {"application_response_code": "100", "application_response_text": "listings returned for one unambiguous location", "attribution": {"img_height": 22, "img_url": "https://resources.nestimg.com/nestoria/img/pbr_v1.png", "img_width": 183, "link_to_img": "http://www.nestoria.com"}, "created_http": "Tue, 18 Jun 2019 17:29:19 GMT", "created_unix": 1560878959, "link_to_url": "https://www.nestoria.co.uk/somerset/property/buy/30", "listings": [{"bathroom_number": "", "bedroom_number": 4, "car_spaces": 0, "commission": 0, "construction_year": 0, "datasource_name": "OnTheMarket.com", "img_height": 300, "img_url": "https://imgs.nestimg.com/4_bedroom_house_for_sale_111594154523256365.jpg", "img_width": 400, "keywords": "Freehold", "latitude": 50.9203, "lister_name": "Greenslade Taylor Hunt", "lister_url": "https://www.nestoria.co.uk/detail/0000000111594154523256365/title/5/30-1?serpUid=&pt=1&ot=1&l=somerset&did=105_high1&t_sec=9&t_or=45&t_pvid=null&utm_source=api&utm_medium=external", "listing_type": "buy", "location_accuracy": 9, "longitude": -2.90939, "price": 315000, "price_currency": "\u00a3", "price_formatted": "\u00a3315,000", "price_high": 315000, "price_low": 315000, "price_type": "fixed", "property_type": "house", "size": 0, "size_type": "net", "summary": "Situated in a elevated position towards the southern fringe of the ...", "thumb_height": 60, "thumb_url": "https://imgs.nestimg.com/medium/4_bedroom_house_for_sale_111594154523256365.jpg", "thumb_width": 80, "title": "Heron Way, Ilminster, Somerset, TA19", "updated_in_days": 22, "updated_in_days_formatted": "first seen 3 weeks ago"}, {"bathroom_number": "", "bedroom_number": 2, "car_spaces": 0, "commission": 0, "construction_year": 0, "datasource_name": "OnTheMarket.com", "img_height": 300, "img_url": "https://imgs.nestimg.com/2_bedroom_terraced_house_for_sale_111643771722873525.jpg", "img_width": 400, "keywords": "Garden, No Chain, Conservatory, Terraced, Kitchen, Gas Central Heating", "latitude": 51.3478, "lister_url": "https://www.nestoria.co.uk/detail/0000000111643771722873525/title/5/30-2?serpUid=&pt=1&ot=1&l=somerset&did=105_high1&t_sec=9&t_or=45&t_pvid=null&utm_source=api&utm_medium=external", "listing_type": "buy", "location_accuracy": 9, "longitude": -2.94176, "price": 149950, "price_currency": "\u00a3", "price_formatted": "\u00a3149,950", "price_high": 149950, "price_low": 149950, "price_type": "fixed", "property_type": "house", "size": 0, "size_type": "net", "summary": "Mid terrace house with sitting room, kitchen, conservatory, two bed...", "thumb_height": 60, "thumb_url": "https://imgs.nestimg.com/medium/2_bedroom_terraced_house_for_sale_111643771722873525.jpg", "thumb_width": 80, "title": "The Barrows, Somerset - Garden", "updated_in_days": 14, "updated_in_days_formatted": "first seen 2 weeks ago"}, {"bathroom_number": "", "bedroom_number": 2, "car_spaces": 0, "commission": 0, "construction_year": 0, "datasource_name": "OnTheMarket.com", "img_height": 300, "img_url": "https://imgs.nestimg.com/2_bedroom_semi_detached_house_for_sale_111526292647513309.jpg", "img_width": 400, "keywords": "Garden, Semi-Detached, No Chain, Parking", "latitude": 51.1747, "lister_url": "https://www.nestoria.co.uk/detail/0000000111526292647513309/title/5/30-3?serpUid=&pt=1&ot=1&l=somerset&did=105_high1&t_sec=9&t_or=45&t_pvid=null&utm_source=api&utm_medium=external", "listing_type": "buy", "location_accuracy": 9, "longitude": -3.32919, "price": 189950, "price_currency": "\u00a3", "price_formatted": "\u00a3189,950", "price_high": 189950, "price_low": 189950, "price_type": "fixed", "property_type": "house", "size": 0, "size_type": "net", "summary": "No onward chain: a two bedroom semi detached energy efficient house...", "thumb_height": 60, "thumb_url": "https://imgs.nestimg.com/medium/2_bedroom_semi_detached_house_for_sale_111526292647513309.jpg", "thumb_width": 80, "title": "Courtlands Close, Watchet, Somerset, TA23", "updated_in_days": 33, "updated_in_days_formatted": "first seen over a month ago"}, {"bathroom_number": "", "bedroom_number": 4, "car_spaces": 0, "commission": 0, "construction_year": 0, "datasource_name": "OnTheMarket.com", "img_height": 300, "img_url": "https://imgs.nestimg.com/4_bedroom_detached_house_for_sale_111142970662861109.jpg", "img_width": 400, "keywords": "Detached, Gas Central Heating", "latitude": 51.258, "lister_url": "https://www.nestoria.co.uk/detail/0000000111142970662861109/title/5/30-4?serpUid=&pt=1&ot=1&l=somerset&did=105_high1&t_sec=9&t_or=45&t_pvid=null&utm_source=api&utm_medium=external", "listing_type": "buy", "location_accuracy": 9, "longitude": -2.96741, "price": 379500, "price_currency": "\u00a3", "price_formatted": "\u00a3379,500", "price_high": 379500, "price_low": 379500, "price_type": "fixed", "property_type": "house", "size": 0, "size_type": "net", "summary": "A 4 bedroom, gas centrally heated & double glazed, detached house w...", "thumb_height": 60, "thumb_url": "https://imgs.nestimg.com/medium/4_bedroom_detached_house_for_sale_111142970662861109.jpg", "thumb_width": 80, "title": "South Brent Close, Brent Knoll, Somerset", "updated_in_days": 44, "updated_in_days_formatted": "first seen over a month ago"}, {"bathroom_number": "", "bedroom_number": 2, "car_spaces": 0, "commission": 0, "construction_year": 0, "datasource_name": "OnTheMarket.com", "img_height": 300, "img_url": "https://imgs.nestimg.com/2_bedroom_detached_bungalow_for_sale_110938659378740572.jpg", "img_width": 400, "keywords": "Detached, No Chain, Bungalow", "latitude": 51.2542, "lister_url": "https://www.nestoria.co.uk/detail/0000000110938659378740572/title/5/30-5?serpUid=&pt=1&ot=1&l=somerset&did=105_high1&t_sec=9&t_or=45&t_pvid=null&utm_source=api&utm_medium=external", "listing_type": "buy", "location_accuracy": 9, "longitude": -3.00081, "price": 259950, "price_currency": "\u00a3", "price_formatted": "\u00a3259,950", "price_high": 259950, "price_low": 259950, "price_type": "fixed", "property_type": "house", "size": 0, "size_type": "net", "summary": "Chain free. This , detached two bedroom bungalow is situated in a r...", "thumb_height": 60, "thumb_url": "https://imgs.nestimg.com/medium/2_bedroom_detached_bungalow_for_sale_110938659378740572.jpg", "thumb_width": 80, "title": "Saxondale Avenue, BURNHAM-ON-SEA, Somerset", "updated_in_days": 80, "updated_in_days_formatted": "first seen over a month ago"}, {"bathroom_number": "", "bedroom_number": 4, "car_spaces": 0, "commission": 0, "construction_year": 0, "datasource_name": "OnTheMarket.com", "img_height": 300, "img_url": "https://imgs.nestimg.com/4_bedroom_detached_house_for_sale_111575825248015605.jpg", "img_width": 400, "keywords": "Detached, Garden", "latitude": 50.8915, "lister_name": "Greenslade Taylor Hunt", "lister_url": "https://www.nestoria.co.uk/detail/0000000111575825248015605/title/5/30-6?serpUid=&pt=1&ot=1&l=somerset&did=105_high1&t_sec=9&t_or=45&t_pvid=null&utm_source=api&utm_medium=external", "listing_type": "buy", "location_accuracy": 9, "longitude": -3.0541, "price": 425000, "price_currency": "\u00a3", "price_formatted": "\u00a3425,000", "price_high": 425000, "price_low": 425000, "price_type": "fixed", "property_type": "house", "size": 0, "size_type": "net", "summary": "An interesting 4 bedroom detached country property now in need of s...", "thumb_height": 60, "thumb_url": "https://imgs.nestimg.com/medium/4_bedroom_detached_house_for_sale_111575825248015605.jpg", "thumb_width": 80, "title": "Whitestaunton, Chard, Somerset, TA20", "updated_in_days": 25, "updated_in_days_formatted": "first seen 3 weeks ago"}, {"bathroom_number": "", "bedroom_number": 5, "car_spaces": 0, "commission": 0, "construction_year": 0, "datasource_name": "OnTheMarket.com", "img_height": 300, "img_url": "https://imgs.nestimg.com/5_bedroom_detached_house_for_sale_111173869625245544.jpg", "img_width": 400, "keywords": "Detached", "latitude": 51.1248, "lister_url": "https://www.nestoria.co.uk/detail/0000000111173869625245544/title/5/30-7?serpUid=&pt=1&ot=1&l=somerset&did=105_high1&t_sec=9&t_or=45&t_pvid=null&utm_source=api&utm_medium=external", "listing_type": "buy", "location_accuracy": 9, "longitude": -3.28647, "price": 465000, "price_currency": "\u00a3", "price_formatted": "\u00a3465,000", "price_high": 465000, "price_low": 465000, "price_type": "fixed", "property_type": "house", "size": 0, "size_type": "net", "summary": "A ly presented detached family home located in a peaceful position ...", "thumb_height": 60, "thumb_url": "https://imgs.nestimg.com/medium/5_bedroom_detached_house_for_sale_111173869625245544.jpg", "thumb_width": 80, "title": "Archers Grove, Stogumber, Taunton, Somerset, TA4", "updated_in_days": 68, "updated_in_days_formatted": "first seen over a month ago"}, {"bathroom_number": "", "bedroom_number": 1, "car_spaces": 0, "commission": 0, "construction_year": 0, "datasource_name": "OnTheMarket.com", "img_height": 300, "img_url": "https://imgs.nestimg.com/1_bedroom_flat_for_sale_110938658779562340.jpg", "img_width": 400, "keywords": "Purpose Built", "latitude": 51.2306, "lister_url": "https://www.nestoria.co.uk/detail/0000000110938658779562340/title/5/30-8?serpUid=&pt=1&ot=1&l=somerset&did=105_high1&t_sec=9&t_or=45&t_pvid=null&utm_source=api&utm_medium=external", "listing_type": "buy", "location_accuracy": 9, "longitude": -3.00068, "price": 145000, "price_currency": "\u00a3", "price_formatted": "\u00a3145,000", "price_high": 145000, "price_low": 145000, "price_type": "fixed", "property_type": "flat", "size": 0, "size_type": "net", "summary": "A purpose-built second floor one bedroom flat with superb coastal v...", "thumb_height": 60, "thumb_url": "https://imgs.nestimg.com/medium/1_bedroom_flat_for_sale_110938658779562340.jpg", "thumb_width": 80, "title": "Quantock Court, Burnham-on-Sea, Somerset", "updated_in_days": 128, "updated_in_days_formatted": "first seen over a month ago"}, {"bathroom_number": "", "bedroom_number": 2, "car_spaces": 0, "commission": 0, "construction_year": 0, "datasource_name": "OnTheMarket.com", "img_height": 300, "img_url": "https://imgs.nestimg.com/2_bedroom_bungalow_for_sale_111093420234789062.jpg", "img_width": 400, "keywords": "Garden, Bungalow, Parking, Gas Central Heating", "latitude": 51.1646, "lister_name": "Wilkie May & Tuckwood", "lister_url": "https://www.nestoria.co.uk/detail/0000000111093420234789062/title/5/30-9?serpUid=&pt=1&ot=1&l=somerset&did=105_high1&t_sec=9&t_or=45&t_pvid=null&utm_source=api&utm_medium=external", "listing_type": "buy", "location_accuracy": 9, "longitude": -3.31409, "price": 215000, "price_currency": "\u00a3", "price_formatted": "\u00a3215,000", "price_high": 215000, "price_low": 215000, "price_type": "fixed", "property_type": "house", "size": 0, "size_type": "net", "summary": "Bungalow/ground floor apartment in iconic building a unique and wel...", "thumb_height": 60, "thumb_url": "https://imgs.nestimg.com/medium/2_bedroom_bungalow_for_sale_111093420234789062.jpg", "thumb_width": 80, "title": "Sir Gilbert Scott Court, Long Street, Williton, Somerset TA4", "updated_in_days": 103, "updated_in_days_formatted": "first seen over a month ago"}, {"bathroom_number": "", "bedroom_number": "", "car_spaces": 0, "commission": 0, "construction_year": 0, "datasource_name": "OnTheMarket.com", "img_height": 300, "img_url": "https://imgs.nestimg.com/land_for_sale_107684784882018630.jpg", "img_width": 400, "keywords": "", "latitude": 51.1462, "lister_name": "Greenslade Taylor Hunt", "lister_url": "https://www.nestoria.co.uk/detail/0000000107684784882018630/title/5/30-10?serpUid=&pt=1&ot=1&l=somerset&did=105_high1&t_sec=9&t_or=45&t_pvid=null&utm_source=api&utm_medium=external", "listing_type": "buy", "location_accuracy": 9, "longitude": -3.03526, "price": 85000, "price_currency": "\u00a3", "price_formatted": "\u00a385,000", "price_high": 85000, "price_low": 85000, "price_type": "fixed", "property_type": "land", "size": 0, "size_type": "net", "summary": "8.91 acres of agricultural pasture land and red on the os plan)lot ...", "thumb_height": 60, "thumb_url": "https://imgs.nestimg.com/medium/land_for_sale_107684784882018630.jpg", "thumb_width": 80, "title": "Perry Green, Bridgwater, Somerset, TA5", "updated_in_days": 270, "updated_in_days_formatted": "first seen over a month ago"}, {"bathroom_number": "", "bedroom_number": 3, "car_spaces": 0, "commission": 0, "construction_year": 0, "datasource_name": "OnTheMarket.com", "img_height": 300, "img_url": "https://imgs.nestimg.com/3_bedroom_terraced_house_for_sale_110623527236745925.jpg", "img_width": 400, "keywords": "Freehold, Terraced, Cottage", "latitude": 50.9282, "lister_name": "Greenslade Taylor Hunt", "lister_url": "https://www.nestoria.co.uk/detail/0000000110623527236745925/title/5/30-11?serpUid=&pt=1&ot=1&l=somerset&did=105_high1&t_sec=9&t_or=45&t_pvid=null&utm_source=api&utm_medium=external", "listing_type": "buy", "location_accuracy": 9, "longitude": -2.90974, "price": 198500, "price_currency": "\u00a3", "price_formatted": "\u00a3198,500", "price_high": 198500, "price_low": 198500, "price_type": "fixed", "property_type": "house", "size": 0, "size_type": "net", "summary": "A natural stone 3 bedroom cottage, situated in an elevated position...", "thumb_height": 60, "thumb_url": "https://imgs.nestimg.com/medium/3_bedroom_terraced_house_for_sale_110623527236745925.jpg", "thumb_width": 80, "title": "Butts Castle, Ilminster, Somerset, TA19", "updated_in_days": 179, "updated_in_days_formatted": "first seen over a month ago"}, {"bathroom_number": "", "bedroom_number": 2, "car_spaces": 0, "commission": 0, "construction_year": 0, "datasource_name": "OnTheMarket.com", "img_height": 300, "img_url": "https://imgs.nestimg.com/2_bedroom_park_home_for_sale_110128611723805148.jpg", "img_width": 400, "keywords": "No Chain, Kitchen, Parking", "latitude": 51.2362, "lister_url": "https://www.nestoria.co.uk/detail/0000000110128611723805148/title/5/30-12?serpUid=&pt=1&ot=1&l=somerset&did=105_high1&t_sec=9&t_or=45&t_pvid=null&utm_source=api&utm_medium=external", "listing_type": "buy", "location_accuracy": 9, "longitude": -2.95192, "price": 110000, "price_currency": "\u00a3", "price_formatted": "\u00a3110,000", "price_high": 110000, "price_low": 110000, "price_type": "fixed", "property_type": "property", "size": 0, "size_type": "net", "summary": "Edithmead park home. Close to m5, burnham & highbridge. Two beds. R...", "thumb_height": 60, "thumb_url": "https://imgs.nestimg.com/medium/2_bedroom_park_home_for_sale_110128611723805148.jpg", "thumb_width": 80, "title": "Windmill Close, Edithmead, Burnham-on-Sea, Somerset. TA9", "updated_in_days": 126, "updated_in_days_formatted": "first seen over a month ago"}, {"bathroom_number": "", "bedroom_number": 7, "car_spaces": 0, "commission": 0, "construction_year": 0, "datasource_name": "OnTheMarket.com", "img_height": 300, "img_url": "https://imgs.nestimg.com/7_bedroom_detached_house_for_sale_111080754047805286.jpg", "img_width": 400, "keywords": "Detached, Refurbished", "latitude": 51.245, "lister_url": "https://www.nestoria.co.uk/detail/0000000111080754047805286/title/5/30-13?serpUid=&pt=1&ot=1&l=somerset&did=105_high1&t_sec=9&t_or=45&t_pvid=null&utm_source=api&utm_medium=external", "listing_type": "buy", "location_accuracy": 9, "longitude": -2.99229, "price": 799950, "price_currency": "\u00a3", "price_formatted": "\u00a3799,950", "price_high": 799950, "price_low": 799950, "price_type": "fixed", "property_type": "house", "size": 0, "size_type": "net", "summary": "Avalon is an detached family home which has been refurbished throug...", "thumb_height": 60, "thumb_url": "https://imgs.nestimg.com/medium/7_bedroom_detached_house_for_sale_111080754047805286.jpg", "thumb_width": 80, "title": "Avalon, 25 Rectory Road, BURNHAM-ON-SEA, Somerset", "updated_in_days": 105, "updated_in_days_formatted": "first seen over a month ago"}, {"bathroom_number": "", "bedroom_number": 3, "car_spaces": 0, "commission": 0, "construction_year": 0, "datasource_name": "OnTheMarket.com", "img_height": 300, "img_url": "https://imgs.nestimg.com/3_bedroom_bungalow_for_sale_111457720818657526.jpg", "img_width": 400, "keywords": "Detached, Garden, Garage, Bungalow", "latitude": 50.8744, "lister_name": "Greenslade Taylor Hunt", "lister_url": "https://www.nestoria.co.uk/detail/0000000111457720818657526/title/5/30-14?serpUid=&pt=1&ot=1&l=somerset&did=105_high1&t_sec=9&t_or=45&t_pvid=null&utm_source=api&utm_medium=external", "listing_type": "buy", "location_accuracy": 9, "longitude": -2.96993, "price": 285000, "price_currency": "\u00a3", "price_formatted": "\u00a3285,000", "price_high": 285000, "price_low": 285000, "price_type": "fixed", "property_type": "house", "size": 0, "size_type": "net", "summary": "A detached chalet bungalow situated just to the west of the town ce...", "thumb_height": 60, "thumb_url": "https://imgs.nestimg.com/medium/3_bedroom_bungalow_for_sale_111457720818657526.jpg", "thumb_width": 80, "title": "Helliers Road, Chard, Somerset, TA20", "updated_in_days": 44, "updated_in_days_formatted": "first seen over a month ago"}, {"bathroom_number": "", "bedroom_number": 3, "car_spaces": 0, "commission": 0, "construction_year": 0, "datasource_name": "OnTheMarket.com", "img_height": 300, "img_url": "https://imgs.nestimg.com/3_bedroom_detached_house_for_sale_111235566587259159.jpg", "img_width": 400, "keywords": "Detached, Garden, No Chain, Parking", "latitude": 51.1821, "lister_url": "https://www.nestoria.co.uk/detail/0000000111235566587259159/title/5/30-15?serpUid=&pt=1&ot=1&l=somerset&did=105_high1&t_sec=9&t_or=45&t_pvid=null&utm_source=api&utm_medium=external", "listing_type": "buy", "location_accuracy": 9, "longitude": -3.33507, "price": 330000, "price_currency": "\u00a3", "price_formatted": "\u00a3330,000", "price_high": 330000, "price_low": 330000, "price_type": "fixed", "property_type": "house", "size": 0, "size_type": "net", "summary": "A three bedroom detached house with off road parking, gardens and n...", "thumb_height": 60, "thumb_url": "https://imgs.nestimg.com/medium/3_bedroom_detached_house_for_sale_111235566587259159.jpg", "thumb_width": 80, "title": "West Street, Watchet, Somerset, TA23", "updated_in_days": 31, "updated_in_days_formatted": "first seen over a month ago"}], "locations": [{"center_lat": 51.080967, "center_long": -3.045432, "long_title": "Somerset, county", "place_name": "somerset", "title": "Somerset"}], "page": 30, "sort": "nestoria_rank", "status_code": "200", "status_text": "OK", "thanks": "For using the Nestoria API.", "total_pages": 410, "total_results": 6149, "_cu5t0mP434m_": "remove"}}