{"request": {"country": "uk", "language": "en", "location": "somerset", "num_res": "15", "offset": 450, "output": "json_xs", "page": 31, "product_type": "realestate", "property_type": "property", "size_type": "net", "size_unit": "m2", "sort": "nestoria_rank", "listing_type": "buy"}, "response": {"application_response_code": "100", "application_response_text": "listings returned for one unambiguous location", "attribution": {"img_height": 22, "img_url": "https://resources.nestimg.com/nestoria/img/pbr_v1.png", "img_width": 183, "link_to_img": "http://www.nestoria.com"}, "created_http": "Tue, 18 Jun 2019 17:29:20 GMT", "created_unix": 1560878960, "link_to_url": "https://www.nestoria.co.uk/somerset/property/buy/31", "listings": [{"bathroom_number": "", "bedroom_number": 3, "car_spaces": 0, "commission": 0, "construction_year": 0, "datasource_name": "OnTheMarket.com", "img_height": 300, "img_url": "https://imgs.nestimg.com/3_bedroom_terraced_house_for_sale_111650099496781693.jpg", "img_width": 400, "keywords": "Garden, Double Garage, No Chain, Terraced, Double Bedroom", "latitude": 51.338, "lister_url": "https://www.nestoria.co.uk/detail/0000000111650099496781693/title/5/31-1?serpUid=&pt=1&ot=1&l=somerset&did=105_high1&t_sec=9&t_or=45&t_pvid=null&utm_source=api&utm_medium=external", "listing_type": "buy", "location_accuracy": 9, "longitude": -2.95793, "price": 225000, "price_currency": "\u00a3", "price_formatted": "\u00a3225,000", "price_high": 225000, "price_low": 225000, "price_type": "fixed", "property_type": "house", "size": 0, "size_type": "net", "summary": "Well presented home in a great location close to town. Three double...", "thumb_height": 60, "thumb_url": "https://imgs.nestimg.com/medium/3_bedroom_terraced_house_for_sale_111650099496781693.jpg", "thumb_width": 80, "title": "Macfarlane Chase, Weston-super-Mare, North Somerset. BS23", "updated_in_days": 13, "updated_in_days_formatted": "first seen last week"}, {"bathroom_number": "", "bedroom_number": 3, "car_spaces": 0, "commission": 0, "construction_year": 0, "datasource_name": "OnTheMarket.com", "img_height": 300, "img_url": "https://imgs.nestimg.com/3_bedroom_detached_house_for_sale_111334253285516639.jpg", "img_width": 400, "keywords": "Detached, Garden, Parking", "latitude": 50.8823, "lister_name": "Greenslade Taylor Hunt", "lister_url": "https://www.nestoria.co.uk/detail/0000000111334253285516639/title/5/31-2?serpUid=&pt=1&ot=1&l=somerset&did=105_high1&t_sec=9&t_or=45&t_pvid=null&utm_source=api&utm_medium=external", "listing_type": "buy", "location_accuracy": 9, "longitude": -2.95643, "price": 365000, "price_currency": "\u00a3", "price_formatted": "\u00a3365,000", "price_high": 365000, "price_low": 365000, "price_type": "fixed", "property_type": "house", "size": 0, "size_type": "net", "summary": "A well appointed individual detached property offering accommodatio...", "thumb_height": 60, "thumb_url": "https://imgs.nestimg.com/medium/3_bedroom_detached_house_for_sale_111334253285516639.jpg", "thumb_width": 80, "title": "Mount Hindrance Lane, Chard, Somerset, TA20", "updated_in_days": 25, "updated_in_days_formatted": "first seen 3 weeks ago"}, {"bathroom_number": "", "bedroom_number": 2, "car_spaces": 0, "commission": 0, "construction_year": 0, "datasource_name": "OnTheMarket.com", "img_height": 300, "img_url": "https://imgs.nestimg.com/2_bedroom_semi_detached_house_for_sale_111477755869014872.jpg", "img_width": 400, "keywords": "Garden, Semi-Detached, Conversion, Modern", "latitude": 51.180984, "lister_name": "Wilkie May & Tuckwood", "lister_url": "https://www.nestoria.co.uk/detail/0000000111477755869014872/title/5/31-3?serpUid=&pt=1&ot=1&l=somerset&did=105_high1&t_sec=9&t_or=45&t_pvid=null&utm_source=api&utm_medium=external", "listing_type": "buy", "location_accuracy": 9, "longitude": -3.3309278, "price": 183200, "price_currency": "\u00a3", "price_formatted": "\u00a3183,200", "price_high": 183200, "price_low": 183200, "price_type": "fixed", "property_type": "house", "size": 0, "size_type": "net", "summary": "Home with south facing garden a modern one year old barn conversion...", "thumb_height": 60, "thumb_url": "https://imgs.nestimg.com/medium/2_bedroom_semi_detached_house_for_sale_111477755869014872.jpg", "thumb_width": 80, "title": "Anchor Street, Watchet, Somerset TA23", "updated_in_days": 41, "updated_in_days_formatted": "first seen over a month ago"}, {"bathroom_number": "", "bedroom_number": 5, "car_spaces": 0, "commission": 0, "construction_year": 0, "datasource_name": "OnTheMarket.com", "img_height": 300, "img_url": "https://imgs.nestimg.com/5_bedroom_detached_house_for_sale_111606567925824174.jpg", "img_width": 400, "keywords": "Detached, Modern", "latitude": 50.9453, "lister_name": "Stags", "lister_url": "https://www.nestoria.co.uk/detail/0000000111606567925824174/title/5/31-4?serpUid=&pt=1&ot=1&l=somerset&did=105_high1&t_sec=9&t_or=45&t_pvid=null&utm_source=api&utm_medium=external", "listing_type": "buy", "location_accuracy": 9, "longitude": -2.80377, "price": 495000, "price_currency": "\u00a3", "price_formatted": "\u00a3495,000", "price_high": 495000, "price_low": 495000, "price_type": "fixed", "property_type": "house", "size": 0, "size_type": "net", "summary": "Modern detached 5 bedroom family home in a village location", "thumb_height": 60, "thumb_url": "https://imgs.nestimg.com/medium/5_bedroom_detached_house_for_sale_111606567925824174.jpg", "thumb_width": 80, "title": "Hayes End, South Petherton, Somerset, TA13", "updated_in_days": 20, "updated_in_days_formatted": "first seen 2 weeks ago"}, {"bathroom_number": "", "bedroom_number": 4, "car_spaces": 0, "commission": 0, "construction_year": 0, "datasource_name": "OnTheMarket.com", "img_height": 300, "img_url": "https://imgs.nestimg.com/4_bedroom_semi_detached_house_for_sale_111247954576858563.jpg", "img_width": 400, "keywords": "Semi-Detached", "latitude": 51.2623, "lister_url": "https://www.nestoria.co.uk/detail/0000000111247954576858563/title/5/31-5?serpUid=&pt=1&ot=1&l=somerset&did=105_high1&t_sec=9&t_or=45&t_pvid=null&utm_source=api&utm_medium=external", "listing_type": "buy", "location_accuracy": 9, "longitude": -3.0086, "price": 264950, "price_currency": "\u00a3", "price_formatted": "\u00a3264,950", "price_high": 264950, "price_low": 264950, "price_type": "fixed", "property_type": "house", "size": 0, "size_type": "net", "summary": "A , 4 bedroom, semi-detached house with gas fired central heating a...", "thumb_height": 60, "thumb_url": "https://imgs.nestimg.com/medium/4_bedroom_semi_detached_house_for_sale_111247954576858563.jpg", "thumb_width": 80, "title": "Julians Acres, Berrow, Somerset", "updated_in_days": 78, "updated_in_days_formatted": "first seen over a month ago"}, {"bathroom_number": "", "bedroom_number": 4, "car_spaces": 0, "commission": 0, "construction_year": 0, "datasource_name": "OnTheMarket.com", "img_height": 300, "img_url": "https://imgs.nestimg.com/4_bedroom_detached_house_for_sale_111501258182965947.jpg", "img_width": 400, "keywords": "Detached, Grade II, Listed", "latitude": 51.2273, "lister_url": "https://www.nestoria.co.uk/detail/0000000111501258182965947/title/5/31-6?serpUid=&pt=1&ot=1&l=somerset&did=105_high1&t_sec=9&t_or=45&t_pvid=null&utm_source=api&utm_medium=external", "listing_type": "buy", "location_accuracy": 9, "longitude": -2.81372, "price": 875000, "price_currency": "\u00a3", "price_formatted": "\u00a3875,000", "price_high": 875000, "price_low": 875000, "price_type": "fixed", "property_type": "house", "size": 0, "size_type": "net", "summary": "Rustic porch is a gorgeous, grade ii listed period family home in t...", "thumb_height": 60, "thumb_url": "https://imgs.nestimg.com/medium/4_bedroom_detached_house_for_sale_111501258182965947.jpg", "thumb_width": 80, "title": "Rustic Porch, Pilcorn Street, WEDMORE, Somerset", "updated_in_days": 37, "updated_in_days_formatted": "first seen over a month ago"}, {"bathroom_number": "", "bedroom_number": 3, "car_spaces": 0, "commission": 0, "construction_year": 0, "datasource_name": "OnTheMarket.com", "img_height": 300, "img_url": "https://imgs.nestimg.com/3_bedroom_terraced_house_for_sale_110524847817493357.jpg", "img_width": 400, "keywords": "Freehold, Garden, Grade II, Terraced, Cellar, Listed", "latitude": 50.9082, "lister_name": "Greenslade Taylor Hunt", "lister_url": "https://www.nestoria.co.uk/detail/0000000110524847817493357/title/5/31-7?serpUid=&pt=1&ot=1&l=somerset&did=105_high1&t_sec=9&t_or=45&t_pvid=null&utm_source=api&utm_medium=external", "listing_type": "buy", "location_accuracy": 9, "longitude": -2.82891, "price": 400000, "price_currency": "\u00a3", "price_formatted": "\u00a3400,000", "price_high": 400000, "price_low": 400000, "price_type": "fixed", "property_type": "house", "size": 0, "size_type": "net", "summary": "Occupying one of the best positions set on the south easterly corne...", "thumb_height": 60, "thumb_url": "https://imgs.nestimg.com/medium/3_bedroom_terraced_house_for_sale_110524847817493357.jpg", "thumb_width": 80, "title": "Brettingham Court, Hinton St. George, Somerset, TA17", "updated_in_days": 62, "updated_in_days_formatted": "first seen over a month ago"}, {"bathroom_number": "", "bedroom_number": 4, "car_spaces": 0, "commission": 0, "construction_year": 0, "datasource_name": "OnTheMarket.com", "img_height": 300, "img_url": "https://imgs.nestimg.com/4_bedroom_property_for_sale_110944958135599848.jpg", "img_width": 400, "keywords": "Detached, Freehold, Grade II, Conversion, Listed", "latitude": 50.9344, "lister_name": "Greenslade Taylor Hunt", "lister_url": "https://www.nestoria.co.uk/detail/0000000110944958135599848/title/5/31-8?serpUid=&pt=1&ot=1&l=somerset&did=105_high1&t_sec=9&t_or=45&t_pvid=null&utm_source=api&utm_medium=external", "listing_type": "buy", "location_accuracy": 9, "longitude": -2.84555, "price": 650000, "price_currency": "\u00a3", "price_formatted": "\u00a3650,000", "price_high": 650000, "price_low": 650000, "price_type": "fixed", "property_type": "house", "size": 0, "size_type": "net", "summary": "A grade ii listed 4 bedroom detached hamstone farmhouse, enjoying a...", "thumb_height": 60, "thumb_url": "https://imgs.nestimg.com/medium/4_bedroom_property_for_sale_110944958135599848.jpg", "thumb_width": 80, "title": "Upton Lane, Seavington, Ilminster, Somerset, TA19", "updated_in_days": 127, "updated_in_days_formatted": "first seen over a month ago"}, {"bathroom_number": "", "bedroom_number": 5, "car_spaces": 0, "commission": 0, "construction_year": 0, "datasource_name": "OnTheMarket.com", "img_height": 300, "img_url": "https://imgs.nestimg.com/5_bedroom_semi_detached_house_for_sale_111303413431673290.jpg", "img_width": 400, "keywords": "Garden, Semi-Detached, Parking", "latitude": 51.1187, "lister_url": "https://www.nestoria.co.uk/detail/0000000111303413431673290/title/5/31-9?serpUid=&pt=1&ot=1&l=somerset&did=105_high1&t_sec=9&t_or=45&t_pvid=null&utm_source=api&utm_medium=external", "listing_type": "buy", "location_accuracy": 9, "longitude": -2.73658, "price": 325000, "price_currency": "\u00a3", "price_formatted": "\u00a3325,000", "price_high": 325000, "price_low": 325000, "price_type": "fixed", "property_type": "house", "size": 0, "size_type": "net", "summary": "An extended 5 bedroom semi detached house with large garden, good l...", "thumb_height": 60, "thumb_url": "https://imgs.nestimg.com/medium/5_bedroom_semi_detached_house_for_sale_111303413431673290.jpg", "thumb_width": 80, "title": "Clemence Road, Street, Somerset", "updated_in_days": 69, "updated_in_days_formatted": "first seen over a month ago"}, {"bathroom_number": "", "bedroom_number": 6, "car_spaces": 0, "commission": 0, "construction_year": 0, "datasource_name": "OnTheMarket.com", "img_height": 300, "img_url": "https://imgs.nestimg.com/6_bedroom_detached_house_for_sale_110580090414657478.jpg", "img_width": 400, "keywords": "Detached, Grade II, Listed", "latitude": 50.9552, "lister_url": "https://www.nestoria.co.uk/detail/0000000110580090414657478/title/5/31-10?serpUid=&pt=1&ot=1&l=somerset&did=105_high1&t_sec=9&t_or=45&t_pvid=null&utm_source=api&utm_medium=external", "listing_type": "buy", "location_accuracy": 9, "longitude": -2.73758, "price": 1350000, "price_currency": "\u00a3", "price_formatted": "\u00a31,350,000", "price_high": 1350000, "price_low": 1350000, "price_type": "fixed", "property_type": "house", "size": 0, "size_type": "net", "summary": "Late 17th centuryvillage house situated in private groundsa detache...", "thumb_height": 60, "thumb_url": "https://imgs.nestimg.com/medium/6_bedroom_detached_house_for_sale_110580090414657478.jpg", "thumb_width": 80, "title": "Windsor Lane, Stoke-Sub-Hamdon, Somerset, TA14", "updated_in_days": 14, "updated_in_days_formatted": "first seen 2 weeks ago"}, {"bathroom_number": "", "bedroom_number": 3, "car_spaces": 0, "commission": 0, "construction_year": 0, "datasource_name": "OnTheMarket.com", "img_height": 300, "img_url": "https://imgs.nestimg.com/3_bedroom_detached_bungalow_for_sale_111656084064125958.jpg", "img_width": 400, "keywords": "Detached, Garden, No Chain, Double Bedroom, Garage, Kitchen, Bungalow", "latitude": 51.3575, "lister_url": "https://www.nestoria.co.uk/detail/0000000111656084064125958/title/5/31-11?serpUid=&pt=1&ot=1&l=somerset&did=105_high1&t_sec=9&t_or=45&t_pvid=null&utm_source=api&utm_medium=external", "listing_type": "buy", "location_accuracy": 9, "longitude": -2.94344, "price": 340000, "price_currency": "\u00a3", "price_formatted": "\u00a3340,000", "price_high": 340000, "price_low": 340000, "price_type": "fixed", "property_type": "house", "size": 0, "size_type": "net", "summary": "Well presented detached bungalow. Three double beds. Open plan kitc...", "thumb_height": 60, "thumb_url": "https://imgs.nestimg.com/medium/3_bedroom_detached_bungalow_for_sale_111656084064125958.jpg", "thumb_width": 80, "title": "Westbrook Road, Milton, Weston-super-Mare, North Somerset. BS22", "updated_in_days": 12, "updated_in_days_formatted": "first seen last week"}, {"bathroom_number": "", "bedroom_number": 1, "car_spaces": 0, "commission": 0, "construction_year": 0, "datasource_name": "OnTheMarket.com", "img_height": 300, "img_url": "https://imgs.nestimg.com/1_bedroom_ground_flat_for_sale_111519981097023194.jpg", "img_width": 400, "keywords": "No Chain, Conversion", "latitude": 51.1799, "lister_name": "Wilkie May & Tuckwood", "lister_url": "https://www.nestoria.co.uk/detail/0000000111519981097023194/title/5/31-12?serpUid=&pt=1&ot=1&l=somerset&did=105_high1&t_sec=9&t_or=45&t_pvid=null&utm_source=api&utm_medium=external", "listing_type": "buy", "location_accuracy": 9, "longitude": -3.32732, "price": 135000, "price_currency": "\u00a3", "price_formatted": "\u00a3135,000", "price_high": 135000, "price_low": 135000, "price_type": "fixed", "property_type": "flat", "size": 0, "size_type": "net", "summary": "A newly converted and large one-bedroom ground floor apartment fini...", "thumb_height": 60, "thumb_url": "https://imgs.nestimg.com/medium/1_bedroom_ground_flat_for_sale_111519981097023194.jpg", "thumb_width": 80, "title": "Doniford Road, Watchet, Somerset TA23", "updated_in_days": 34, "updated_in_days_formatted": "first seen over a month ago"}, {"bathroom_number": "", "bedroom_number": 3, "car_spaces": 0, "commission": 0, "construction_year": 0, "datasource_name": "OnTheMarket.com", "img_height": 300, "img_url": "https://imgs.nestimg.com/3_bedroom_detached_bungalow_for_sale_111303411992525289.jpg", "img_width": 400, "keywords": "Detached, Garden, Double Garage, Conservatory, Bungalow", "latitude": 51.3154, "lister_url": "https://www.nestoria.co.uk/detail/0000000111303411992525289/title/5/31-13?serpUid=&pt=1&ot=1&l=somerset&did=105_high1&t_sec=9&t_or=45&t_pvid=null&utm_source=api&utm_medium=external", "listing_type": "buy", "location_accuracy": 9, "longitude": -2.96191, "price": 387000, "price_currency": "\u00a3", "price_formatted": "\u00a3387,000", "price_high": 387000, "price_low": 387000, "price_type": "fixed", "property_type": "house", "size": 0, "size_type": "net", "summary": "Ly detached bungalow on bleadon hill. Views to the mendips. Three b...", "thumb_height": 60, "thumb_url": "https://imgs.nestimg.com/medium/3_bedroom_detached_bungalow_for_sale_111303411992525289.jpg", "thumb_width": 80, "title": "Purn Lane, Bleadon Hill, Weston-super-Mare, North Somerset. BS24", "updated_in_days": 25, "updated_in_days_formatted": "first seen 3 weeks ago"}, {"bathroom_number": "", "bedroom_number": 4, "car_spaces": 0, "commission": 0, "construction_year": 0, "datasource_name": "OnTheMarket.com", "img_height": 300, "img_url": "https://imgs.nestimg.com/4_bedroom_semi_detached_house_for_sale_111080760434360777.jpg", "img_width": 400, "keywords": "Semi-Detached, No Chain, Garage", "latitude": 51.179276, "lister_name": "Wilkie May & Tuckwood", "lister_url": "https://www.nestoria.co.uk/detail/0000000111080760434360777/title/5/31-14?serpUid=&pt=1&ot=1&l=somerset&did=105_high1&t_sec=9&t_or=45&t_pvid=null&utm_source=api&utm_medium=external", "listing_type": "buy", "location_accuracy": 9, "longitude": -3.318947, "price": 335000, "price_currency": "\u00a3", "price_formatted": "\u00a3335,000", "price_high": 335000, "price_low": 335000, "price_type": "fixed", "property_type": "house", "size": 0, "size_type": "net", "summary": "No onward chain a ly presented detached 4 bedroom executive style f...", "thumb_height": 60, "thumb_url": "https://imgs.nestimg.com/medium/4_bedroom_semi_detached_house_for_sale_111080760434360777.jpg", "thumb_width": 80, "title": "Helwell Street, Watchet, Taunton, Somerset TA23", "updated_in_days": 105, "updated_in_days_formatted": "first seen over a month ago"}, {"bathroom_number": "", "bedroom_number": 3, "car_spaces": 0, "commission": 0, "construction_year": 0, "datasource_name": "OnTheMarket.com", "img_height": 300, "img_url": "https://imgs.nestimg.com/3_bedroom_maisonette_for_sale_111186361468514411.jpg", "img_width": 400, "keywords": "Maisonette", "latitude": 51.2441, "lister_url": "https://www.nestoria.co.uk/detail/0000000111186361468514411/title/5/31-15?serpUid=&pt=1&ot=1&l=somerset&did=105_high1&t_sec=9&t_or=45&t_pvid=null&utm_source=api&utm_medium=external", "listing_type": "buy", "location_accuracy": 9, "longitude": -2.9993, "price": 185000, "price_currency": "\u00a3", "price_formatted": "\u00a3185,000", "price_high": 185000, "price_low": 185000, "price_type": "fixed", "property_type": "flat", "size": 0, "size_type": "net", "summary": "A 3 bedroom maisonette over 1st & 2nd floors of the building with s...", "thumb_height": 60, "thumb_url": "https://imgs.nestimg.com/medium/3_bedroom_maisonette_for_sale_111186361468514411.jpg", "thumb_width": 80, "title": "Grove Road, Burnham-on-Sea, Somerset", "updated_in_days": 88, "updated_in_days_formatted": "first seen over a month ago"}], "locations": [{"center_lat": 51.080967, "center_long": -3.045432, "long_title": "Somerset, county", "place_name": "somerset", "title": "Somerset"}], "page": 31, "sort": "nestoria_rank", "status_code": "200", "status_text": "OK", "thanks": "For using the Nestoria API.", "total_pages": 410, "total_results": 6149, "_cu5t0mP434m_": "remove"}}