{"request": {"country": "uk", "language": "en", "location": "somerset", "num_res": "15", "offset": 465, "output": "json_xs", "page": 32, "product_type": "realestate", "property_type": "property", "size_type": "net", "size_unit": "m2", "sort": "nestoria_rank", "listing_type": "buy"}, "response": {"application_response_code": "100", "application_response_text": "listings returned for one unambiguous location", "attribution": {"img_height": 22, "img_url": "https://resources.nestimg.com/nestoria/img/pbr_v1.png", "img_width": 183, "link_to_img": "http://www.nestoria.com"}, "created_http": "Tue, 18 Jun 2019 17:29:22 GMT", "created_unix": 1560878962, "link_to_url": "https://www.nestoria.co.uk/somerset/property/buy/32", "listings": [{"bathroom_number": "", "bedroom_number": 3, "car_spaces": 0, "commission": 0, "construction_year": 0, "datasource_name": "OnTheMarket.com", "img_height": 300, "img_url": "https://imgs.nestimg.com/3_bedroom_semi_detached_house_for_sale_111223315869739026.jpg", "img_width": 400, "keywords": "Garden, Semi-Detached, Modern, Parking", "latitude": 51.178, "lister_url": "https://www.nestoria.co.uk/detail/0000000111223315869739026/title/5/32-1?serpUid=&pt=1&ot=1&l=somerset&did=105_high1&t_sec=9&t_or=45&t_pvid=null&utm_source=api&utm_medium=external", "listing_type": "buy", "location_accuracy": 9, "longitude": -3.32121, "price": 249950, "price_currency": "\u00a3", "price_formatted": "\u00a3249,950", "price_high": 249950, "price_low": 249950, "price_type": "fixed", "property_type": "house", "size": 0, "size_type": "net", "summary": "A well presented three bedroom semi-detached modern house, featurin...", "thumb_height": 60, "thumb_url": "https://imgs.nestimg.com/medium/3_bedroom_semi_detached_house_for_sale_111223315869739026.jpg", "thumb_width": 80, "title": "Mariners Way, Watchet, Somerset, TA23", "updated_in_days": 82, "updated_in_days_formatted": "first seen over a month ago"}, {"bathroom_number": "", "bedroom_number": 4, "car_spaces": 0, "commission": 0, "construction_year": 0, "datasource_name": "OnTheMarket.com", "img_height": 300, "img_url": "https://imgs.nestimg.com/4_bedroom_detached_house_for_sale_111681014697944477.jpg", "img_width": 400, "keywords": "Detached, Double Bedroom", "latitude": 51.2765, "lister_url": "https://www.nestoria.co.uk/detail/0000000111681014697944477/title/5/32-2?serpUid=&pt=1&ot=1&l=somerset&did=105_high1&t_sec=9&t_or=45&t_pvid=null&utm_source=api&utm_medium=external", "listing_type": "buy", "location_accuracy": 9, "longitude": -2.76902, "price": 565000, "price_currency": "\u00a3", "price_formatted": "\u00a3565,000", "price_high": 565000, "price_low": 565000, "price_type": "fixed", "property_type": "house", "size": 0, "size_type": "net", "summary": "Redcliffe house is a four double bedroom detached house located jus...", "thumb_height": 60, "thumb_url": "https://imgs.nestimg.com/medium/4_bedroom_detached_house_for_sale_111681014697944477.jpg", "thumb_width": 80, "title": "Redcliffe House, 101 Redcliffe Street, CHEDDAR, Somerset", "updated_in_days": 8, "updated_in_days_formatted": "first seen last week"}, {"bathroom_number": "", "bedroom_number": 5, "car_spaces": 0, "commission": 0, "construction_year": 0, "datasource_name": "OnTheMarket.com", "img_height": 300, "img_url": "https://imgs.nestimg.com/5_bedroom_detached_house_for_sale_111594154363201645.jpg", "img_width": 400, "keywords": "Detached", "latitude": 51.226, "lister_url": "https://www.nestoria.co.uk/detail/0000000111594154363201645/title/5/32-3?serpUid=&pt=1&ot=1&l=somerset&did=105_high1&t_sec=9&t_or=45&t_pvid=null&utm_source=api&utm_medium=external", "listing_type": "buy", "location_accuracy": 9, "longitude": -2.81759, "price": 575000, "price_currency": "\u00a3", "price_formatted": "\u00a3575,000", "price_high": 575000, "price_low": 575000, "price_type": "fixed", "property_type": "house", "size": 0, "size_type": "net", "summary": "This and light five bedroom detached family home is located on the ...", "thumb_height": 60, "thumb_url": "https://imgs.nestimg.com/medium/5_bedroom_detached_house_for_sale_111594154363201645.jpg", "thumb_width": 80, "title": "16 Saxon Way, WEDMORE, Somerset", "updated_in_days": 22, "updated_in_days_formatted": "first seen 3 weeks ago"}, {"bathroom_number": "", "bedroom_number": 3, "car_spaces": 0, "commission": 0, "construction_year": 0, "datasource_name": "OnTheMarket.com", "img_height": 300, "img_url": "https://imgs.nestimg.com/3_bedroom_semi_detached_house_for_sale_111025260753135815.jpg", "img_width": 400, "keywords": "Semi-Detached, Modern, Parking", "latitude": 51.1785, "lister_name": "Wilkie May & Tuckwood", "lister_url": "https://www.nestoria.co.uk/detail/0000000111025260753135815/title/5/32-4?serpUid=&pt=1&ot=1&l=somerset&did=105_high1&t_sec=9&t_or=45&t_pvid=null&utm_source=api&utm_medium=external", "listing_type": "buy", "location_accuracy": 9, "longitude": -3.3209, "price": 235000, "price_currency": "\u00a3", "price_formatted": "\u00a3235,000", "price_high": 235000, "price_low": 235000, "price_type": "fixed", "property_type": "house", "size": 0, "size_type": "net", "summary": "Situated in a favourable position a modern 3 bedroom semi detached ...", "thumb_height": 60, "thumb_url": "https://imgs.nestimg.com/medium/3_bedroom_semi_detached_house_for_sale_111025260753135815.jpg", "thumb_width": 80, "title": "Watchet, Somerset TA23 - Modern", "updated_in_days": 114, "updated_in_days_formatted": "first seen over a month ago"}, {"bathroom_number": "", "bedroom_number": 3, "car_spaces": 0, "commission": 0, "construction_year": 0, "datasource_name": "OnTheMarket.com", "img_height": 300, "img_url": "https://imgs.nestimg.com/3_bedroom_detached_bungalow_for_sale_110908086836298853.jpg", "img_width": 400, "keywords": "Detached, Garden, Double Bedroom, Bungalow, Reception", "latitude": 51.1775, "lister_url": "https://www.nestoria.co.uk/detail/0000000110908086836298853/title/5/32-5?serpUid=&pt=1&ot=1&l=somerset&did=105_high1&t_sec=9&t_or=45&t_pvid=null&utm_source=api&utm_medium=external", "listing_type": "buy", "location_accuracy": 9, "longitude": -3.33522, "price": 349950, "price_currency": "\u00a3", "price_formatted": "\u00a3349,950", "price_high": 349950, "price_low": 349950, "price_type": "fixed", "property_type": "house", "size": 0, "size_type": "net", "summary": "Introducing a three double bedroom, two reception room detached bun...", "thumb_height": 60, "thumb_url": "https://imgs.nestimg.com/medium/3_bedroom_detached_bungalow_for_sale_110908086836298853.jpg", "thumb_width": 80, "title": "Brendon Road, Watchet, Somerset, TA23", "updated_in_days": 133, "updated_in_days_formatted": "first seen over a month ago"}, {"bathroom_number": "", "bedroom_number": 2, "car_spaces": 0, "commission": 0, "construction_year": 0, "datasource_name": "OnTheMarket.com", "img_height": 300, "img_url": "https://imgs.nestimg.com/2_bedroom_detached_bungalow_for_sale_111575826549904468.jpg", "img_width": 400, "keywords": "Detached, Bungalow", "latitude": 50.8831, "lister_name": "Greenslade Taylor Hunt", "lister_url": "https://www.nestoria.co.uk/detail/0000000111575826549904468/title/5/32-6?serpUid=&pt=1&ot=1&l=somerset&did=105_high1&t_sec=9&t_or=45&t_pvid=null&utm_source=api&utm_medium=external", "listing_type": "buy", "location_accuracy": 9, "longitude": -2.87751, "price": 305000, "price_currency": "\u00a3", "price_formatted": "\u00a3305,000", "price_high": 305000, "price_low": 305000, "price_type": "fixed", "property_type": "house", "size": 0, "size_type": "net", "summary": "A 2 bedroom single storey lodge on the swandown development of just...", "thumb_height": 60, "thumb_url": "https://imgs.nestimg.com/medium/2_bedroom_detached_bungalow_for_sale_111575826549904468.jpg", "thumb_width": 80, "title": "Swandown, Cricket St. Thomas, Chard, Somerset, TA20", "updated_in_days": 25, "updated_in_days_formatted": "first seen 3 weeks ago"}, {"bathroom_number": "", "bedroom_number": 4, "car_spaces": 0, "commission": 0, "construction_year": 0, "datasource_name": "OnTheMarket.com", "img_height": 300, "img_url": "https://imgs.nestimg.com/4_bedroom_detached_house_for_sale_111025258912980502.jpg", "img_width": 400, "keywords": "Detached, Garden, Garage", "latitude": 50.949, "lister_name": "Stags", "lister_url": "https://www.nestoria.co.uk/detail/0000000111025258912980502/title/5/32-7?serpUid=&pt=1&ot=1&l=somerset&did=105_high1&t_sec=9&t_or=45&t_pvid=null&utm_source=api&utm_medium=external", "listing_type": "buy", "location_accuracy": 9, "longitude": -2.80779, "price": 435000, "price_currency": "\u00a3", "price_formatted": "\u00a3435,000", "price_high": 435000, "price_low": 435000, "price_type": "fixed", "property_type": "house", "size": 0, "size_type": "net", "summary": "A and ly presented 4 bedroom home located within easy walking dista...", "thumb_height": 60, "thumb_url": "https://imgs.nestimg.com/medium/4_bedroom_detached_house_for_sale_111025258912980502.jpg", "thumb_width": 80, "title": "Millbrook Court, Prigg Lane, South Petherton, Somerset, TA13", "updated_in_days": 114, "updated_in_days_formatted": "first seen over a month ago"}, {"bathroom_number": "", "bedroom_number": 7, "car_spaces": 0, "commission": 0, "construction_year": 0, "datasource_name": "OnTheMarket.com", "img_height": 300, "img_url": "https://imgs.nestimg.com/7_bedroom_character_property_for_sale_111550952716502611.jpg", "img_width": 400, "keywords": "Grade II, Listed", "latitude": 51.0007, "lister_name": "Savills", "lister_url": "https://www.nestoria.co.uk/detail/0000000111550952716502611/title/5/32-8?serpUid=&pt=1&ot=1&l=somerset&did=105_high1&t_sec=9&t_or=45&t_pvid=null&utm_source=api&utm_medium=external", "listing_type": "buy", "location_accuracy": 9, "longitude": -3.31726, "price": 1000000, "price_currency": "\u00a3", "price_formatted": "\u00a31,000,000", "price_high": 1000000, "price_low": 1000000, "price_type": "fixed", "property_type": "property", "size": 0, "size_type": "net", "summary": "An historic, late 15th century grade ii listed manor, with selectio...", "thumb_height": 60, "thumb_url": "https://imgs.nestimg.com/medium/7_bedroom_character_property_for_sale_111550952716502611.jpg", "thumb_width": 80, "title": "Kittisford, Wellington, Somerset, TA21", "updated_in_days": 29, "updated_in_days_formatted": "first seen last month"}, {"bathroom_number": "", "bedroom_number": 3, "car_spaces": 0, "commission": 0, "construction_year": 0, "datasource_name": "OnTheMarket.com", "img_height": 300, "img_url": "https://imgs.nestimg.com/3_bedroom_apartment_for_sale_111056506068734501.jpg", "img_width": 400, "keywords": "Grade II, Listed", "latitude": 50.8863, "lister_name": "Stags", "lister_url": "https://www.nestoria.co.uk/detail/0000000111056506068734501/title/5/32-9?serpUid=&pt=1&ot=1&l=somerset&did=105_high1&t_sec=9&t_or=45&t_pvid=null&utm_source=api&utm_medium=external", "listing_type": "buy", "location_accuracy": 9, "longitude": -2.78746, "price": 265000, "price_currency": "\u00a3", "price_formatted": "\u00a3265,000", "price_high": 265000, "price_low": 265000, "price_type": "fixed", "property_type": "flat", "size": 0, "size_type": "net", "summary": "A first floor apartment in a grade ii listed building with far reac...", "thumb_height": 60, "thumb_url": "https://imgs.nestimg.com/medium/3_bedroom_apartment_for_sale_111056506068734501.jpg", "thumb_width": 80, "title": "De Combe House, Mount Pleasant, Crewkerne, Somerset, TA18", "updated_in_days": 11, "updated_in_days_formatted": "first seen last week"}, {"bathroom_number": "", "bedroom_number": 2, "car_spaces": 0, "commission": 0, "construction_year": 0, "datasource_name": "OnTheMarket.com", "img_height": 300, "img_url": "https://imgs.nestimg.com/2_bedroom_semi_detached_house_for_sale_111155185520638725.jpg", "img_width": 400, "keywords": "Semi-Detached, Cul-de-Sac", "latitude": 51.2638, "lister_url": "https://www.nestoria.co.uk/detail/0000000111155185520638725/title/5/32-10?serpUid=&pt=1&ot=1&l=somerset&did=105_high1&t_sec=9&t_or=45&t_pvid=null&utm_source=api&utm_medium=external", "listing_type": "buy", "location_accuracy": 9, "longitude": -2.93397, "price": 245000, "price_currency": "\u00a3", "price_formatted": "\u00a3245,000", "price_high": 245000, "price_low": 245000, "price_type": "fixed", "property_type": "house", "size": 0, "size_type": "net", "summary": "A 2 bedroom semi detached house in a small cul-de-sac setting in a ...", "thumb_height": 60, "thumb_url": "https://imgs.nestimg.com/medium/2_bedroom_semi_detached_house_for_sale_111155185520638725.jpg", "thumb_width": 80, "title": "Manor Close, East Brent, Somerset", "updated_in_days": 53, "updated_in_days_formatted": "first seen over a month ago"}, {"bathroom_number": "", "bedroom_number": 5, "car_spaces": 0, "commission": 0, "construction_year": 0, "datasource_name": "OnTheMarket.com", "img_height": 300, "img_url": "https://imgs.nestimg.com/5_bedroom_detached_house_for_sale_111334259861687269.jpg", "img_width": 400, "keywords": "Detached, Conversion", "latitude": 50.8685, "lister_name": "Greenslade Taylor Hunt", "lister_url": "https://www.nestoria.co.uk/detail/0000000111334259861687269/title/5/32-11?serpUid=&pt=1&ot=1&l=somerset&did=105_high1&t_sec=9&t_or=45&t_pvid=null&utm_source=api&utm_medium=external", "listing_type": "buy", "location_accuracy": 9, "longitude": -2.83885, "price": 595000, "price_currency": "\u00a3", "price_formatted": "\u00a3595,000", "price_high": 595000, "price_low": 595000, "price_type": "fixed", "property_type": "house", "size": 0, "size_type": "net", "summary": "A fine detached five bedroom barn conversion occupying a private po...", "thumb_height": 60, "thumb_url": "https://imgs.nestimg.com/medium/5_bedroom_detached_house_for_sale_111334259861687269.jpg", "thumb_width": 80, "title": "Farm Lane, Woolminstone, Crewkerne, Somerset, TA18", "updated_in_days": 10, "updated_in_days_formatted": "first seen last week"}, {"bathroom_number": "", "bedroom_number": 6, "car_spaces": 0, "commission": 0, "construction_year": 0, "datasource_name": "OnTheMarket.com", "img_height": 300, "img_url": "https://imgs.nestimg.com/6_bedroom_detached_house_for_sale_110258395106268745.jpg", "img_width": 400, "keywords": "Detached", "latitude": 50.9152, "lister_name": "Greenslade Taylor Hunt", "lister_url": "https://www.nestoria.co.uk/detail/0000000110258395106268745/title/5/32-12?serpUid=&pt=1&ot=1&l=somerset&did=105_high1&t_sec=9&t_or=45&t_pvid=null&utm_source=api&utm_medium=external", "listing_type": "buy", "location_accuracy": 9, "longitude": -3.03193, "price": 735000, "price_currency": "\u00a3", "price_formatted": "\u00a3735,000", "price_high": 735000, "price_low": 735000, "price_type": "fixed", "property_type": "house", "size": 0, "size_type": "net", "summary": "An outstanding 5/6 bedroom detached country house occupying a eleva...", "thumb_height": 60, "thumb_url": "https://imgs.nestimg.com/medium/6_bedroom_detached_house_for_sale_110258395106268745.jpg", "thumb_width": 80, "title": "Buckland St. Mary, Chard, Somerset, TA20", "updated_in_days": 238, "updated_in_days_formatted": "first seen over a month ago"}, {"bathroom_number": "", "bedroom_number": 1, "car_spaces": 0, "commission": 0, "construction_year": 0, "datasource_name": "OnTheMarket.com", "img_height": 300, "img_url": "https://imgs.nestimg.com/1_bedroom_detached_bungalow_for_sale_109176247557774146.jpg", "img_width": 400, "keywords": "Detached, Bungalow", "latitude": 51.1808, "lister_name": "Webbers", "lister_url": "https://www.nestoria.co.uk/detail/0000000109176247557774146/title/5/32-13?serpUid=&pt=1&ot=1&l=somerset&did=105_high1&t_sec=9&t_or=45&t_pvid=null&utm_source=api&utm_medium=external", "listing_type": "buy", "location_accuracy": 9, "longitude": -3.29834, "price": 26995, "price_currency": "\u00a3", "price_formatted": "\u00a326,995", "price_high": 26995, "price_low": 26995, "price_type": "fixed", "property_type": "house", "size": 0, "size_type": "net", "summary": "Prices from \u00a326,995 an exciting range of new fully equipped luxury ...", "thumb_height": 60, "thumb_url": "https://imgs.nestimg.com/medium/1_bedroom_detached_bungalow_for_sale_109176247557774146.jpg", "thumb_width": 80, "title": "Nr Watchet, Somerset - Bungalow", "updated_in_days": 413, "updated_in_days_formatted": "first seen over a month ago"}, {"bathroom_number": "", "bedroom_number": 3, "car_spaces": 0, "commission": 0, "construction_year": 0, "datasource_name": "OnTheMarket.com", "img_height": 300, "img_url": "https://imgs.nestimg.com/3_bedroom_detached_bungalow_for_sale_111489638852386587.jpg", "img_width": 400, "keywords": "Detached, Garden, Bungalow, Modern", "latitude": 51.1611, "lister_name": "Wilkie May & Tuckwood", "lister_url": "https://www.nestoria.co.uk/detail/0000000111489638852386587/title/5/32-14?serpUid=&pt=1&ot=1&l=somerset&did=105_high1&t_sec=9&t_or=45&t_pvid=null&utm_source=api&utm_medium=external", "listing_type": "buy", "location_accuracy": 9, "longitude": -3.36782, "price": 299950, "price_currency": "\u00a3", "price_formatted": "\u00a3299,950", "price_high": 299950, "price_low": 299950, "price_type": "fixed", "property_type": "house", "size": 0, "size_type": "net", "summary": "Detached bungalow with 150ft garden a modern detached 3 bedroom bun...", "thumb_height": 60, "thumb_url": "https://imgs.nestimg.com/medium/3_bedroom_detached_bungalow_for_sale_111489638852386587.jpg", "thumb_width": 80, "title": "Station Road, Washford, Somerset TA23", "updated_in_days": 39, "updated_in_days_formatted": "first seen over a month ago"}, {"bathroom_number": "", "bedroom_number": 4, "car_spaces": 0, "commission": 0, "construction_year": 0, "datasource_name": "OnTheMarket.com", "img_height": 300, "img_url": "https://imgs.nestimg.com/4_bedroom_terraced_house_for_sale_111550952449112062.jpg", "img_width": 400, "keywords": "Grade II, Listed", "latitude": 51.0556, "lister_url": "https://www.nestoria.co.uk/detail/0000000111550952449112062/title/5/32-15?serpUid=&pt=1&ot=1&l=somerset&did=105_high1&t_sec=9&t_or=45&t_pvid=null&utm_source=api&utm_medium=external", "listing_type": "buy", "location_accuracy": 9, "longitude": -2.72708, "price": 575000, "price_currency": "\u00a3", "price_formatted": "\u00a3575,000", "price_high": 575000, "price_low": 575000, "price_type": "fixed", "property_type": "house", "size": 0, "size_type": "net", "summary": "A pretty grade ii listed property bursting with character and situa...", "thumb_height": 60, "thumb_url": "https://imgs.nestimg.com/medium/4_bedroom_terraced_house_for_sale_111550952449112062.jpg", "thumb_width": 80, "title": "North Street, Somerton, Somerset, TA11", "updated_in_days": 29, "updated_in_days_formatted": "first seen last month"}], "locations": [{"center_lat": 51.080967, "center_long": -3.045432, "long_title": "Somerset, county", "place_name": "somerset", "title": "Somerset"}], "page": 32, "sort": "nestoria_rank", "status_code": "200", "status_text": "OK", "thanks": "For using the Nestoria API.", "total_pages": 410, "total_results": 6149, "_cu5t0mP434m_": "remove"}}