{"request": {"country": "uk", "language": "en", "location": "somerset", "num_res": "15", "offset": 480, "output": "json_xs", "page": 33, "product_type": "realestate", "property_type": "property", "size_type": "net", "size_unit": "m2", "sort": "nestoria_rank", "listing_type": "buy"}, "response": {"application_response_code": "100", "application_response_text": "listings returned for one unambiguous location", "attribution": {"img_height": 22, "img_url": "https://resources.nestimg.com/nestoria/img/pbr_v1.png", "img_width": 183, "link_to_img": "http://www.nestoria.com"}, "created_http": "Tue, 18 Jun 2019 17:29:23 GMT", "created_unix": 1560878963, "link_to_url": "https://www.nestoria.co.uk/somerset/property/buy/33", "listings": [{"bathroom_number": 2, "bedroom_number": 4, "car_spaces": 0, "commission": 0, "construction_year": 0, "datasource_name": "OnTheMarket.com", "img_height": 300, "img_url": "https://imgs.nestimg.com/4_bedroom_semi_detached_house_for_sale_110363524020500830.jpg", "img_width": 400, "keywords": "Freehold, Garden, Semi-Detached, Conversion, Kitchen, Parking, Reception", "latitude": 51.1672, "lister_name": "Greenslade Taylor Hunt", "lister_url": "https://www.nestoria.co.uk/detail/0000000110363524020500830/title/5/33-1?serpUid=&pt=1&ot=1&l=somerset&did=105_high1&t_sec=9&t_or=45&t_pvid=null&utm_source=api&utm_medium=external", "listing_type": "buy", "location_accuracy": 9, "longitude": -2.61856, "price": 500000, "price_currency": "\u00a3", "price_formatted": "\u00a3500,000", "price_high": 500000, "price_low": 500000, "price_type": "fixed", "property_type": "house", "size": 0, "size_type": "net", "summary": "A large attached barn conversion offering large 4 bedroom, 2 bathro...", "thumb_height": 60, "thumb_url": "https://imgs.nestimg.com/medium/4_bedroom_semi_detached_house_for_sale_110363524020500830.jpg", "thumb_width": 80, "title": "Lower Westholme, Pilton, Shepton Mallet, Somerset, BA4", "updated_in_days": 96, "updated_in_days_formatted": "first seen over a month ago"}, {"bathroom_number": "", "bedroom_number": 5, "car_spaces": 0, "commission": 0, "construction_year": 0, "datasource_name": "OnTheMarket.com", "img_height": 300, "img_url": "https://imgs.nestimg.com/5_bedroom_house_for_sale_111557528252003108.jpg", "img_width": 400, "keywords": "Detached", "latitude": 50.9306, "lister_name": "Greenslade Taylor Hunt", "lister_url": "https://www.nestoria.co.uk/detail/0000000111557528252003108/title/5/33-2?serpUid=&pt=1&ot=1&l=somerset&did=105_high1&t_sec=9&t_or=45&t_pvid=null&utm_source=api&utm_medium=external", "listing_type": "buy", "location_accuracy": 9, "longitude": -2.8439, "price": 495000, "price_currency": "\u00a3", "price_formatted": "\u00a3495,000", "price_high": 495000, "price_low": 495000, "price_type": "fixed", "property_type": "house", "size": 0, "size_type": "net", "summary": "A large detached natural stone 5 bedroom family house with accommod...", "thumb_height": 60, "thumb_url": "https://imgs.nestimg.com/medium/5_bedroom_house_for_sale_111557528252003108.jpg", "thumb_width": 80, "title": "Water Street, Seavington, Ilminster, Somerset, TA19", "updated_in_days": 28, "updated_in_days_formatted": "first seen last month"}, {"bathroom_number": "", "bedroom_number": 5, "car_spaces": 0, "commission": 0, "construction_year": 0, "datasource_name": "OnTheMarket.com", "img_height": 300, "img_url": "https://imgs.nestimg.com/5_bedroom_semi_detached_house_for_sale_111056505977479858.jpg", "img_width": 400, "keywords": "Semi-Detached, Grade II, Listed", "latitude": 50.9707, "lister_name": "Greenslade Taylor Hunt", "lister_url": "https://www.nestoria.co.uk/detail/0000000111056505977479858/title/5/33-3?serpUid=&pt=1&ot=1&l=somerset&did=105_high1&t_sec=9&t_or=45&t_pvid=null&utm_source=api&utm_medium=external", "listing_type": "buy", "location_accuracy": 9, "longitude": -2.76614, "price": 1250000, "price_currency": "\u00a3", "price_formatted": "\u00a31,250,000", "price_high": 1250000, "price_low": 1250000, "price_type": "fixed", "property_type": "house", "size": 0, "size_type": "net", "summary": "A grade ii listed property comprising three separate dwellings, pre...", "thumb_height": 60, "thumb_url": "https://imgs.nestimg.com/medium/5_bedroom_semi_detached_house_for_sale_111056505977479858.jpg", "thumb_width": 80, "title": "The Green, Martock, Somerset, TA12", "updated_in_days": 109, "updated_in_days_formatted": "first seen over a month ago"}, {"bathroom_number": "", "bedroom_number": 2, "car_spaces": 0, "commission": 0, "construction_year": 0, "datasource_name": "OnTheMarket.com", "img_height": 300, "img_url": "https://imgs.nestimg.com/2_bedroom_flat_for_sale_111668301418413686.jpg", "img_width": 400, "keywords": "No Chain, Double Bedroom, Lift, Parking", "latitude": 51.3543, "lister_url": "https://www.nestoria.co.uk/detail/0000000111668301418413686/title/5/33-4?serpUid=&pt=1&ot=1&l=somerset&did=105_high1&t_sec=9&t_or=45&t_pvid=null&utm_source=api&utm_medium=external", "listing_type": "buy", "location_accuracy": 9, "longitude": -2.99141, "price": 130000, "price_currency": "\u00a3", "price_formatted": "\u00a3130,000", "price_high": 130000, "price_low": 130000, "price_type": "fixed", "property_type": "flat", "size": 0, "size_type": "net", "summary": "Sea views. Sea views. Top floor flat. Two double bedrooms. Lift acc...", "thumb_height": 60, "thumb_url": "https://imgs.nestimg.com/medium/2_bedroom_flat_for_sale_111668301418413686.jpg", "thumb_width": 80, "title": "Addington Court, Madeira Road, Weston-super-Mare, North Somerset. BS23", "updated_in_days": 10, "updated_in_days_formatted": "first seen last week"}, {"bathroom_number": "", "bedroom_number": 4, "car_spaces": 0, "commission": 0, "construction_year": 0, "datasource_name": "OnTheMarket.com", "img_height": 300, "img_url": "https://imgs.nestimg.com/4_bedroom_detached_house_for_sale_111538332190330810.jpg", "img_width": 400, "keywords": "Detached, En suite, Detached Garage, Refurbished, Double Bedroom", "latitude": 51.335, "lister_url": "https://www.nestoria.co.uk/detail/0000000111538332190330810/title/5/33-5?serpUid=&pt=1&ot=1&l=somerset&did=105_high1&t_sec=9&t_or=45&t_pvid=null&utm_source=api&utm_medium=external", "listing_type": "buy", "location_accuracy": 9, "longitude": -2.97789, "price": 450000, "price_currency": "\u00a3", "price_formatted": "\u00a3450,000", "price_high": 450000, "price_low": 450000, "price_type": "fixed", "property_type": "house", "size": 0, "size_type": "net", "summary": "Close to the seafront & town centre. High spec refurbished detached...", "thumb_height": 60, "thumb_url": "https://imgs.nestimg.com/medium/4_bedroom_detached_house_for_sale_111538332190330810.jpg", "thumb_width": 80, "title": "Quantock Road, Weston-super-Mare, North Somerset. BS23", "updated_in_days": 31, "updated_in_days_formatted": "first seen over a month ago"}, {"bathroom_number": "", "bedroom_number": 3, "car_spaces": 0, "commission": 0, "construction_year": 0, "datasource_name": "OnTheMarket.com", "img_height": 300, "img_url": "https://imgs.nestimg.com/3_bedroom_detached_house_for_sale_111681008551927483.jpg", "img_width": 400, "keywords": "Detached", "latitude": 50.9151, "lister_name": "Greenslade Taylor Hunt", "lister_url": "https://www.nestoria.co.uk/detail/0000000111681008551927483/title/5/33-6?serpUid=&pt=1&ot=1&l=somerset&did=105_high1&t_sec=9&t_or=45&t_pvid=null&utm_source=api&utm_medium=external", "listing_type": "buy", "location_accuracy": 9, "longitude": -2.72009, "price": 415000, "price_currency": "\u00a3", "price_formatted": "\u00a3415,000", "price_high": 415000, "price_low": 415000, "price_type": "fixed", "property_type": "house", "size": 0, "size_type": "net", "summary": "Last plot remaining a , architect designed, new home, set within th...", "thumb_height": 60, "thumb_url": "https://imgs.nestimg.com/medium/3_bedroom_detached_house_for_sale_111681008551927483.jpg", "thumb_width": 80, "title": "Underhayes Court, East Chinnock, Yeovil, Somerset, BA22", "updated_in_days": 8, "updated_in_days_formatted": "first seen last week"}, {"bathroom_number": "", "bedroom_number": 4, "car_spaces": 0, "commission": 0, "construction_year": 0, "datasource_name": "OnTheMarket.com", "img_height": 300, "img_url": "https://imgs.nestimg.com/4_bedroom_detached_bungalow_for_sale_111457722788777548.jpg", "img_width": 400, "keywords": "Detached, Garden, Swimming Pool, Bungalow", "latitude": 51.2607, "lister_url": "https://www.nestoria.co.uk/detail/0000000111457722788777548/title/5/33-7?serpUid=&pt=1&ot=1&l=somerset&did=105_high1&t_sec=9&t_or=45&t_pvid=null&utm_source=api&utm_medium=external", "listing_type": "buy", "location_accuracy": 9, "longitude": -2.84837, "price": 775000, "price_currency": "\u00a3", "price_formatted": "\u00a3775,000", "price_high": 775000, "price_low": 775000, "price_type": "fixed", "property_type": "house", "size": 0, "size_type": "net", "summary": "Sandy acre is a large four bedroom detached property on one level a...", "thumb_height": 60, "thumb_url": "https://imgs.nestimg.com/medium/4_bedroom_detached_bungalow_for_sale_111457722788777548.jpg", "thumb_width": 80, "title": "Sandy Acre, Mill Lane, STONE ALLERTON, Somerset", "updated_in_days": 44, "updated_in_days_formatted": "first seen over a month ago"}, {"bathroom_number": "", "bedroom_number": 2, "car_spaces": 0, "commission": 0, "construction_year": 0, "datasource_name": "OnTheMarket.com", "img_height": 300, "img_url": "https://imgs.nestimg.com/2_bedroom_semi_detached_house_for_sale_110839801300868631.jpg", "img_width": 400, "keywords": "Semi-Detached, Cottage", "latitude": 50.9626, "lister_name": "Greenslade Taylor Hunt", "lister_url": "https://www.nestoria.co.uk/detail/0000000110839801300868631/title/5/33-8?serpUid=&pt=1&ot=1&l=somerset&did=105_high1&t_sec=9&t_or=45&t_pvid=null&utm_source=api&utm_medium=external", "listing_type": "buy", "location_accuracy": 9, "longitude": -3.27169, "price": 235000, "price_currency": "\u00a3", "price_formatted": "\u00a3235,000", "price_high": 235000, "price_low": 235000, "price_type": "fixed", "property_type": "house", "size": 0, "size_type": "net", "summary": "A superb semi-detached village cottage currently used as a holiday ...", "thumb_height": 60, "thumb_url": "https://imgs.nestimg.com/medium/2_bedroom_semi_detached_house_for_sale_110839801300868631.jpg", "thumb_width": 80, "title": "Gorlegg, Sampford Arundel, Wellington, Somerset, TA21", "updated_in_days": 144, "updated_in_days_formatted": "first seen over a month ago"}, {"bathroom_number": "", "bedroom_number": 3, "car_spaces": 0, "commission": 0, "construction_year": 0, "datasource_name": "OnTheMarket.com", "img_height": 300, "img_url": "https://imgs.nestimg.com/3_bedroom_terraced_house_for_sale_111291602859443890.jpg", "img_width": 400, "keywords": "Ex Local Auth, Terraced", "latitude": 51.2429, "lister_url": "https://www.nestoria.co.uk/detail/0000000111291602859443890/title/5/33-9?serpUid=&pt=1&ot=1&l=somerset&did=105_high1&t_sec=9&t_or=45&t_pvid=null&utm_source=api&utm_medium=external", "listing_type": "buy", "location_accuracy": 9, "longitude": -2.80803, "price": 285000, "price_currency": "\u00a3", "price_formatted": "\u00a3285,000", "price_high": 285000, "price_low": 285000, "price_type": "fixed", "property_type": "house", "size": 0, "size_type": "net", "summary": "This is a three to four bedroom terraced property located just a mi...", "thumb_height": 60, "thumb_url": "https://imgs.nestimg.com/medium/3_bedroom_terraced_house_for_sale_111291602859443890.jpg", "thumb_width": 80, "title": "3 Council Houses, Rughill, COCKLAKE, Wedmore, Somerset", "updated_in_days": 19, "updated_in_days_formatted": "first seen 2 weeks ago"}, {"bathroom_number": "", "bedroom_number": 5, "car_spaces": 0, "commission": 0, "construction_year": 0, "datasource_name": "OnTheMarket.com", "img_height": 300, "img_url": "https://imgs.nestimg.com/5_bedroom_house_for_sale_111489637803529468.jpg", "img_width": 400, "keywords": "Detached, Garden, Double Garage, Double Bedroom, Kitchen, Modern, Reception", "latitude": 51.020535, "lister_url": "https://www.nestoria.co.uk/detail/0000000111489637803529468/title/5/33-10?serpUid=&pt=1&ot=1&l=somerset&did=105_high1&t_sec=9&t_or=45&t_pvid=null&utm_source=api&utm_medium=external", "listing_type": "buy", "location_accuracy": 9, "longitude": -2.605706, "price": 595000, "price_currency": "\u00a3", "price_formatted": "\u00a3595,000", "price_high": 595000, "price_low": 595000, "price_type": "fixed", "property_type": "house", "size": 0, "size_type": "net", "summary": "A natural stone, modern detached house with 5 double bedrooms! Larg...", "thumb_height": 60, "thumb_url": "https://imgs.nestimg.com/medium/5_bedroom_house_for_sale_111489637803529468.jpg", "thumb_width": 80, "title": "Fore Street, West Camel, Somerset, BA22", "updated_in_days": 39, "updated_in_days_formatted": "first seen over a month ago"}, {"bathroom_number": "", "bedroom_number": 1, "car_spaces": 0, "commission": 0, "construction_year": 0, "datasource_name": "OnTheMarket.com", "img_height": 300, "img_url": "https://imgs.nestimg.com/1_bedroom_apartment_for_sale_111111700548305363.jpg", "img_width": 400, "keywords": "", "latitude": 50.9251, "lister_name": "Greenslade Taylor Hunt", "lister_url": "https://www.nestoria.co.uk/detail/0000000111111700548305363/title/5/33-11?serpUid=&pt=1&ot=1&l=somerset&did=105_high1&t_sec=9&t_or=45&t_pvid=null&utm_source=api&utm_medium=external", "listing_type": "buy", "location_accuracy": 9, "longitude": -2.90947, "price": 175000, "price_currency": "\u00a3", "price_formatted": "\u00a3175,000", "price_high": 175000, "price_low": 175000, "price_type": "fixed", "property_type": "flat", "size": 0, "size_type": "net", "summary": "A one bedroom ground floor apartment, located in the favoured georg...", "thumb_height": 60, "thumb_url": "https://imgs.nestimg.com/medium/1_bedroom_apartment_for_sale_111111700548305363.jpg", "thumb_width": 80, "title": "George Maher Court, Shudrick Lane, Ilminster, Somerset, TA19", "updated_in_days": 100, "updated_in_days_formatted": "first seen over a month ago"}, {"bathroom_number": "", "bedroom_number": 4, "car_spaces": 0, "commission": 0, "construction_year": 0, "datasource_name": "OnTheMarket.com", "img_height": 300, "img_url": "https://imgs.nestimg.com/4_bedroom_detached_house_for_sale_111624985540448060.jpg", "img_width": 400, "keywords": "Detached", "latitude": 51.03314, "lister_name": "Savills", "lister_url": "https://www.nestoria.co.uk/detail/0000000111624985540448060/title/5/33-12?serpUid=&pt=1&ot=1&l=somerset&did=105_high1&t_sec=9&t_or=45&t_pvid=null&utm_source=api&utm_medium=external", "listing_type": "buy", "location_accuracy": 9, "longitude": -2.69297, "price": 850000, "price_currency": "\u00a3", "price_formatted": "\u00a3850,000", "price_high": 850000, "price_low": 850000, "price_type": "fixed", "property_type": "house", "size": 0, "size_type": "net", "summary": "And versatile family home in a plot close to the centre of this vil...", "thumb_height": 60, "thumb_url": "https://imgs.nestimg.com/medium/4_bedroom_detached_house_for_sale_111624985540448060.jpg", "thumb_width": 80, "title": "Kingsdon, Somerton, Somerset, TA11", "updated_in_days": 17, "updated_in_days_formatted": "first seen 2 weeks ago"}, {"bathroom_number": "", "bedroom_number": 5, "car_spaces": 0, "commission": 0, "construction_year": 0, "datasource_name": "OnTheMarket.com", "img_height": 300, "img_url": "https://imgs.nestimg.com/5_bedroom_detached_house_for_sale_111489632981948328.jpg", "img_width": 400, "keywords": "Detached, Garden", "latitude": 50.8863, "lister_name": "Greenslade Taylor Hunt", "lister_url": "https://www.nestoria.co.uk/detail/0000000111489632981948328/title/5/33-13?serpUid=&pt=1&ot=1&l=somerset&did=105_high1&t_sec=9&t_or=45&t_pvid=null&utm_source=api&utm_medium=external", "listing_type": "buy", "location_accuracy": 9, "longitude": -2.96328, "price": 725000, "price_currency": "\u00a3", "price_formatted": "\u00a3725,000", "price_high": 725000, "price_low": 725000, "price_type": "fixed", "property_type": "house", "size": 0, "size_type": "net", "summary": "An detached country house offering 4 bedroom accommodation together...", "thumb_height": 60, "thumb_url": "https://imgs.nestimg.com/medium/5_bedroom_detached_house_for_sale_111489632981948328.jpg", "thumb_width": 80, "title": "Cuttifords Door, Chard, Somerset, TA20", "updated_in_days": 39, "updated_in_days_formatted": "first seen over a month ago"}, {"bathroom_number": "", "bedroom_number": 4, "car_spaces": 0, "commission": 0, "construction_year": 0, "datasource_name": "OnTheMarket.com", "img_height": 300, "img_url": "https://imgs.nestimg.com/4_bedroom_detached_house_for_sale_111575817132638249.jpg", "img_width": 400, "keywords": "Detached, Garden, Parking, Cottage", "latitude": 50.8444, "lister_name": "Greenslade Taylor Hunt", "lister_url": "https://www.nestoria.co.uk/detail/0000000111575817132638249/title/5/33-14?serpUid=&pt=1&ot=1&l=somerset&did=105_high1&t_sec=9&t_or=45&t_pvid=null&utm_source=api&utm_medium=external", "listing_type": "buy", "location_accuracy": 9, "longitude": -2.94073, "price": 425000, "price_currency": "\u00a3", "price_formatted": "\u00a3425,000", "price_high": 425000, "price_low": 425000, "price_type": "fixed", "property_type": "house", "size": 0, "size_type": "net", "summary": "A and imaginatively presented 4 bedroom detached period cottage set...", "thumb_height": 60, "thumb_url": "https://imgs.nestimg.com/medium/4_bedroom_detached_house_for_sale_111575817132638249.jpg", "thumb_width": 80, "title": "Chard Junction, Chard, Somerset, TA20", "updated_in_days": 25, "updated_in_days_formatted": "first seen 3 weeks ago"}, {"bathroom_number": "", "bedroom_number": 2, "car_spaces": 0, "commission": 0, "construction_year": 0, "datasource_name": "OnTheMarket.com", "img_height": 300, "img_url": "https://imgs.nestimg.com/2_bedroom_semi_detached_bungalow_for_sale_111550949192479065.jpg", "img_width": 400, "keywords": "Semi-Detached, No Chain, Bungalow", "latitude": 50.8661, "lister_name": "Greenslade Taylor Hunt", "lister_url": "https://www.nestoria.co.uk/detail/0000000111550949192479065/title/5/33-15?serpUid=&pt=1&ot=1&l=somerset&did=105_high1&t_sec=9&t_or=45&t_pvid=null&utm_source=api&utm_medium=external", "listing_type": "buy", "location_accuracy": 9, "longitude": -2.96224, "price": 214950, "price_currency": "\u00a3", "price_formatted": "\u00a3214,950", "price_high": 214950, "price_low": 214950, "price_type": "fixed", "property_type": "house", "size": 0, "size_type": "net", "summary": "A 2 bedroom bungalow in the favoured area of grange park benefittin...", "thumb_height": 60, "thumb_url": "https://imgs.nestimg.com/medium/2_bedroom_semi_detached_bungalow_for_sale_111550949192479065.jpg", "thumb_width": 80, "title": "King Alfred Drive, Chard, Somerset, TA20", "updated_in_days": 29, "updated_in_days_formatted": "first seen last month"}], "locations": [{"center_lat": 51.080967, "center_long": -3.045432, "long_title": "Somerset, county", "place_name": "somerset", "title": "Somerset"}], "page": 33, "sort": "nestoria_rank", "status_code": "200", "status_text": "OK", "thanks": "For using the Nestoria API.", "total_pages": 410, "total_results": 6149, "_cu5t0mP434m_": "remove"}}