{"request": {"country": "uk", "language": "en", "location": "somerset", "num_res": "15", "offset": 495, "output": "json_xs", "page": 34, "product_type": "realestate", "property_type": "property", "size_type": "net", "size_unit": "m2", "sort": "nestoria_rank", "listing_type": "buy"}, "response": {"application_response_code": "100", "application_response_text": "listings returned for one unambiguous location", "attribution": {"img_height": 22, "img_url": "https://resources.nestimg.com/nestoria/img/pbr_v1.png", "img_width": 183, "link_to_img": "http://www.nestoria.com"}, "created_http": "Tue, 18 Jun 2019 17:29:25 GMT", "created_unix": 1560878965, "link_to_url": "https://www.nestoria.co.uk/somerset/property/buy/34", "listings": [{"bathroom_number": "", "bedroom_number": 4, "car_spaces": 0, "commission": 0, "construction_year": 0, "datasource_name": "OnTheMarket.com", "img_height": 300, "img_url": "https://imgs.nestimg.com/4_bedroom_terraced_house_for_sale_111427149313711703.jpg", "img_width": 400, "keywords": "Freehold, Mews, Terraced, Reception", "latitude": 50.9082, "lister_name": "Greenslade Taylor Hunt", "lister_url": "https://www.nestoria.co.uk/detail/0000000111427149313711703/title/5/34-1?serpUid=&pt=1&ot=1&l=somerset&did=105_high1&t_sec=9&t_or=45&t_pvid=null&utm_source=api&utm_medium=external", "listing_type": "buy", "location_accuracy": 9, "longitude": -2.82891, "price": 390000, "price_currency": "\u00a3", "price_formatted": "\u00a3390,000", "price_high": 390000, "price_low": 390000, "price_type": "fixed", "property_type": "house", "size": 0, "size_type": "net", "summary": "Set on the north east corner of the brettingham court development, ...", "thumb_height": 60, "thumb_url": "https://imgs.nestimg.com/medium/4_bedroom_terraced_house_for_sale_111427149313711703.jpg", "thumb_width": 80, "title": "Brettingham Court, Hinton St. George, Somerset, TA17", "updated_in_days": 49, "updated_in_days_formatted": "first seen over a month ago"}, {"bathroom_number": "", "bedroom_number": 2, "car_spaces": 0, "commission": 0, "construction_year": 0, "datasource_name": "OnTheMarket.com", "img_height": 300, "img_url": "https://imgs.nestimg.com/2_bedroom_detached_bungalow_for_sale_111457716876776990.jpg", "img_width": 400, "keywords": "Detached, No Chain, Bungalow", "latitude": 51.1358, "lister_url": "https://www.nestoria.co.uk/detail/0000000111457716876776990/title/5/34-2?serpUid=&pt=1&ot=1&l=somerset&did=105_high1&t_sec=9&t_or=45&t_pvid=null&utm_source=api&utm_medium=external", "listing_type": "buy", "location_accuracy": 9, "longitude": -3.38538, "price": 275000, "price_currency": "\u00a3", "price_formatted": "\u00a3275,000", "price_high": 275000, "price_low": 275000, "price_type": "fixed", "property_type": "house", "size": 0, "size_type": "net", "summary": "Well presented 2 bedroom bungalow with views over the valley and on...", "thumb_height": 60, "thumb_url": "https://imgs.nestimg.com/medium/2_bedroom_detached_bungalow_for_sale_111457716876776990.jpg", "thumb_width": 80, "title": "Roadwater, Watchet, Somerset, TA23", "updated_in_days": 44, "updated_in_days_formatted": "first seen over a month ago"}, {"bathroom_number": "", "bedroom_number": 1, "car_spaces": 0, "commission": 0, "construction_year": 0, "datasource_name": "OnTheMarket.com", "img_height": 300, "img_url": "https://imgs.nestimg.com/1_bedroom_retirement_property_for_sale_109800595814731710.jpg", "img_width": 400, "keywords": "", "latitude": 50.9268, "lister_name": "Greenslade Taylor Hunt", "lister_url": "https://www.nestoria.co.uk/detail/0000000109800595814731710/title/5/34-3?serpUid=&pt=1&ot=1&l=somerset&did=105_high1&t_sec=9&t_or=45&t_pvid=null&utm_source=api&utm_medium=external", "listing_type": "buy", "location_accuracy": 9, "longitude": -2.91091, "price": 116500, "price_currency": "\u00a3", "price_formatted": "\u00a3116,500", "price_high": 116500, "price_low": 116500, "price_type": "fixed", "property_type": "property", "size": 0, "size_type": "net", "summary": "A second floor one bedroom retirement apartment for the over 60s wi...", "thumb_height": 60, "thumb_url": "https://imgs.nestimg.com/medium/1_bedroom_retirement_property_for_sale_109800595814731710.jpg", "thumb_width": 80, "title": "Victoria Court, Silver Street, Ilminster, Somerset, TA19", "updated_in_days": 189, "updated_in_days_formatted": "first seen over a month ago"}, {"bathroom_number": "", "bedroom_number": 5, "car_spaces": 0, "commission": 0, "construction_year": 0, "datasource_name": "OnTheMarket.com", "img_height": 300, "img_url": "https://imgs.nestimg.com/5_bedroom_terraced_house_for_sale_111489640883072627.jpg", "img_width": 400, "keywords": "Terraced, Georgian", "latitude": 51.181, "lister_name": "Wilkie May & Tuckwood", "lister_url": "https://www.nestoria.co.uk/detail/0000000111489640883072627/title/5/34-4?serpUid=&pt=1&ot=1&l=somerset&did=105_high1&t_sec=9&t_or=45&t_pvid=null&utm_source=api&utm_medium=external", "listing_type": "buy", "location_accuracy": 9, "longitude": -3.32789, "price": 495000, "price_currency": "\u00a3", "price_formatted": "\u00a3495,000", "price_high": 495000, "price_low": 495000, "price_type": "fixed", "property_type": "house", "size": 0, "size_type": "net", "summary": "A must see a 5 bedroom georgian house terraced georgian property ov...", "thumb_height": 60, "thumb_url": "https://imgs.nestimg.com/medium/5_bedroom_terraced_house_for_sale_111489640883072627.jpg", "thumb_width": 80, "title": "Seaview Terrace, Watchet, Somerset TA23", "updated_in_days": 39, "updated_in_days_formatted": "first seen over a month ago"}, {"bathroom_number": "", "bedroom_number": 3, "car_spaces": 0, "commission": 0, "construction_year": 0, "datasource_name": "OnTheMarket.com", "img_height": 300, "img_url": "https://imgs.nestimg.com/3_bedroom_semi_detached_house_for_sale_111322442408964244.jpg", "img_width": 400, "keywords": "Freehold, Garden, Semi-Detached, Grade II, Cottage, Listed", "latitude": 50.9393, "lister_name": "Greenslade Taylor Hunt", "lister_url": "https://www.nestoria.co.uk/detail/0000000111322442408964244/title/5/34-5?serpUid=&pt=1&ot=1&l=somerset&did=105_high1&t_sec=9&t_or=45&t_pvid=null&utm_source=api&utm_medium=external", "listing_type": "buy", "location_accuracy": 9, "longitude": -2.69929, "price": 325000, "price_currency": "\u00a3", "price_formatted": "\u00a3325,000", "price_high": 325000, "price_low": 325000, "price_type": "fixed", "property_type": "house", "size": 0, "size_type": "net", "summary": "A , grade ii listed, double fronted cottage, dating back to 1793, o...", "thumb_height": 60, "thumb_url": "https://imgs.nestimg.com/medium/3_bedroom_semi_detached_house_for_sale_111322442408964244.jpg", "thumb_width": 80, "title": "Lower Odcombe, Yeovil, Somerset, BA22", "updated_in_days": 35, "updated_in_days_formatted": "first seen over a month ago"}, {"bathroom_number": "", "bedroom_number": "", "car_spaces": 0, "commission": 0, "construction_year": 0, "datasource_name": "OnTheMarket.com", "img_height": 300, "img_url": "https://imgs.nestimg.com/land_for_sale_111557529274727969.jpg", "img_width": 400, "keywords": "Freehold", "latitude": 51.0369, "lister_name": "Greenslade Taylor Hunt", "lister_url": "https://www.nestoria.co.uk/detail/0000000111557529274727969/title/5/34-6?serpUid=&pt=1&ot=1&l=somerset&did=105_high1&t_sec=9&t_or=45&t_pvid=null&utm_source=api&utm_medium=external", "listing_type": "buy", "location_accuracy": 9, "longitude": -3.25287, "price": 80000, "price_currency": "\u00a3", "price_formatted": "\u00a380,000", "price_high": 80000, "price_low": 80000, "price_type": "fixed", "property_type": "land", "size": 0, "size_type": "net", "summary": "A block of ancient woodland enjoying an abundance of wildlife, flor...", "thumb_height": 60, "thumb_url": "https://imgs.nestimg.com/medium/land_for_sale_111557529274727969.jpg", "thumb_width": 80, "title": "Milverton, Taunton, Somerset, TA4", "updated_in_days": 28, "updated_in_days_formatted": "first seen last month"}, {"bathroom_number": "", "bedroom_number": 4, "car_spaces": 0, "commission": 0, "construction_year": 0, "datasource_name": "OnTheMarket.com", "img_height": 300, "img_url": "https://imgs.nestimg.com/4_bedroom_detached_house_for_sale_111247952177249301.jpg", "img_width": 400, "keywords": "Detached, No Chain", "latitude": 51.175, "lister_url": "https://www.nestoria.co.uk/detail/0000000111247952177249301/title/5/34-7?serpUid=&pt=1&ot=1&l=somerset&did=105_high1&t_sec=9&t_or=45&t_pvid=null&utm_source=api&utm_medium=external", "listing_type": "buy", "location_accuracy": 9, "longitude": -3.31221, "price": 299000, "price_currency": "\u00a3", "price_formatted": "\u00a3299,000", "price_high": 299000, "price_low": 299000, "price_type": "fixed", "property_type": "house", "size": 0, "size_type": "net", "summary": "A well presented and detached 4 bedroom family house built in 2005 ...", "thumb_height": 60, "thumb_url": "https://imgs.nestimg.com/medium/4_bedroom_detached_house_for_sale_111247952177249301.jpg", "thumb_width": 80, "title": "Rangoon Road, Watchet, Somerset, TA23", "updated_in_days": 78, "updated_in_days_formatted": "first seen over a month ago"}, {"bathroom_number": "", "bedroom_number": 3, "car_spaces": 0, "commission": 0, "construction_year": 0, "datasource_name": "OnTheMarket.com", "img_height": 300, "img_url": "https://imgs.nestimg.com/3_bedroom_semi_detached_house_for_sale_111204816284281812.jpg", "img_width": 400, "keywords": "Freehold, Semi-Detached", "latitude": 51.1976, "lister_url": "https://www.nestoria.co.uk/detail/0000000111204816284281812/title/5/34-8?serpUid=&pt=1&ot=1&l=somerset&did=105_high1&t_sec=9&t_or=45&t_pvid=null&utm_source=api&utm_medium=external", "listing_type": "buy", "location_accuracy": 9, "longitude": -3.46835, "price": 274950, "price_currency": "\u00a3", "price_formatted": "\u00a3274,950", "price_high": 274950, "price_low": 274950, "price_type": "fixed", "property_type": "house", "size": 0, "size_type": "net", "summary": "A three bedroom semi detached house situated in a convenient positi...", "thumb_height": 60, "thumb_url": "https://imgs.nestimg.com/medium/3_bedroom_semi_detached_house_for_sale_111204816284281812.jpg", "thumb_width": 80, "title": "Alcombe Road, Minehead, Somerset, TA24", "updated_in_days": 7, "updated_in_days_formatted": "first seen last week"}, {"bathroom_number": "", "bedroom_number": 3, "car_spaces": 0, "commission": 0, "construction_year": 0, "datasource_name": "OnTheMarket.com", "img_height": 300, "img_url": "https://imgs.nestimg.com/3_bedroom_semi_detached_house_for_sale_111204815598978592.jpg", "img_width": 400, "keywords": "Garden, Semi-Detached, No Chain, Double Bedroom, Kitchen", "latitude": 51.333534, "lister_url": "https://www.nestoria.co.uk/detail/0000000111204815598978592/title/5/34-9?serpUid=&pt=1&ot=1&l=somerset&did=105_high1&t_sec=9&t_or=45&t_pvid=null&utm_source=api&utm_medium=external", "listing_type": "buy", "location_accuracy": 9, "longitude": -2.9463525, "price": 230000, "price_currency": "\u00a3", "price_formatted": "\u00a3230,000", "price_high": 230000, "price_low": 230000, "price_type": "fixed", "property_type": "house", "size": 0, "size_type": "net", "summary": "The home is being sold with no onward chain complications and benef...", "thumb_height": 60, "thumb_url": "https://imgs.nestimg.com/medium/3_bedroom_semi_detached_house_for_sale_111204815598978592.jpg", "thumb_width": 80, "title": "Hosegood Drive, BS24, Somerset", "updated_in_days": 38, "updated_in_days_formatted": "first seen over a month ago"}, {"bathroom_number": "", "bedroom_number": 5, "car_spaces": 0, "commission": 0, "construction_year": 0, "datasource_name": "OnTheMarket.com", "img_height": 300, "img_url": "https://imgs.nestimg.com/5_bedroom_detached_house_for_sale_109318409412137023.jpg", "img_width": 400, "keywords": "Detached, Cottage", "latitude": 51.00734, "lister_name": "Knight Frank", "lister_url": "https://www.nestoria.co.uk/detail/0000000109318409412137023/title/5/34-10?serpUid=&pt=1&ot=1&l=somerset&did=105_high1&t_sec=9&t_or=45&t_pvid=null&utm_source=api&utm_medium=external", "listing_type": "buy", "location_accuracy": 9, "longitude": -2.768965, "price": 725000, "price_currency": "\u00a3", "price_formatted": "\u00a3725,000", "price_high": 725000, "price_low": 725000, "price_type": "fixed", "property_type": "house", "size": 0, "size_type": "net", "summary": "5 bed cottage with paddock near langport ta10 an south-facing stone...", "thumb_height": 60, "thumb_url": "https://imgs.nestimg.com/medium/5_bedroom_detached_house_for_sale_109318409412137023.jpg", "thumb_width": 80, "title": "Church Lane, Long Load, Langport, Somerset, TA10", "updated_in_days": 390, "updated_in_days_formatted": "first seen over a month ago"}, {"bathroom_number": "", "bedroom_number": 4, "car_spaces": 0, "commission": 0, "construction_year": 0, "datasource_name": "OnTheMarket.com", "img_height": 300, "img_url": "https://imgs.nestimg.com/4_bedroom_detached_house_for_sale_111235562186050389.jpg", "img_width": 400, "keywords": "Detached", "latitude": 51.2645, "lister_url": "https://www.nestoria.co.uk/detail/0000000111235562186050389/title/5/34-11?serpUid=&pt=1&ot=1&l=somerset&did=105_high1&t_sec=9&t_or=45&t_pvid=null&utm_source=api&utm_medium=external", "listing_type": "buy", "location_accuracy": 9, "longitude": -2.9383, "price": 379950, "price_currency": "\u00a3", "price_formatted": "\u00a3379,950", "price_high": 379950, "price_low": 379950, "price_type": "fixed", "property_type": "house", "size": 0, "size_type": "net", "summary": "A 4 bedroom, detached house, within the sought after village of eas...", "thumb_height": 60, "thumb_url": "https://imgs.nestimg.com/medium/4_bedroom_detached_house_for_sale_111235562186050389.jpg", "thumb_width": 80, "title": "Popham Close, East Brent, Somerset", "updated_in_days": 80, "updated_in_days_formatted": "first seen over a month ago"}, {"bathroom_number": "", "bedroom_number": 5, "car_spaces": 0, "commission": 0, "construction_year": 0, "datasource_name": "OnTheMarket.com", "img_height": 300, "img_url": "https://imgs.nestimg.com/5_bedroom_detached_house_for_sale_111050024731220992.jpg", "img_width": 400, "keywords": "Detached, Garden, Bungalow, Parking", "latitude": 51.134, "lister_name": "Stags", "lister_url": "https://www.nestoria.co.uk/detail/0000000111050024731220992/title/5/34-12?serpUid=&pt=1&ot=1&l=somerset&did=105_high1&t_sec=9&t_or=45&t_pvid=null&utm_source=api&utm_medium=external", "listing_type": "buy", "location_accuracy": 9, "longitude": -3.40329, "price": 795000, "price_currency": "\u00a3", "price_formatted": "\u00a3795,000", "price_high": 795000, "price_low": 795000, "price_type": "fixed", "property_type": "house", "size": 0, "size_type": "net", "summary": "A 3 bedroom house with detached 2 bedroom bungalow, office/workshop...", "thumb_height": 60, "thumb_url": "https://imgs.nestimg.com/medium/5_bedroom_detached_house_for_sale_111050024731220992.jpg", "thumb_width": 80, "title": "Rodhuish, Exmoor, Somerset, TA24", "updated_in_days": 69, "updated_in_days_formatted": "first seen over a month ago"}, {"bathroom_number": "", "bedroom_number": 5, "car_spaces": 0, "commission": 0, "construction_year": 0, "datasource_name": "OnTheMarket.com", "img_height": 300, "img_url": "https://imgs.nestimg.com/5_bedroom_detached_house_for_sale_110914522555956011.jpg", "img_width": 400, "keywords": "Detached, Garden, Conversion", "latitude": 51.245464, "lister_name": "Knight Frank", "lister_url": "https://www.nestoria.co.uk/detail/0000000110914522555956011/title/5/34-13?serpUid=&pt=1&ot=1&l=somerset&did=105_high1&t_sec=9&t_or=45&t_pvid=null&utm_source=api&utm_medium=external", "listing_type": "buy", "location_accuracy": 9, "longitude": -2.816321, "price": 1250000, "price_currency": "\u00a3", "price_formatted": "\u00a31,250,000", "price_high": 1250000, "price_low": 1250000, "price_type": "fixed", "property_type": "house", "size": 0, "size_type": "net", "summary": "Newly converted barn near wedmore, bs28 for sale. A carefully desig...", "thumb_height": 60, "thumb_url": "https://imgs.nestimg.com/medium/5_bedroom_detached_house_for_sale_110914522555956011.jpg", "thumb_width": 80, "title": "Crickham, Wedmore, Somerset, BS28", "updated_in_days": 90, "updated_in_days_formatted": "first seen over a month ago"}, {"bathroom_number": "", "bedroom_number": 3, "car_spaces": 0, "commission": 0, "construction_year": 0, "datasource_name": "OnTheMarket.com", "img_height": 300, "img_url": "https://imgs.nestimg.com/3_bedroom_semi_detached_bungalow_for_sale_111489634934473650.jpg", "img_width": 400, "keywords": "Freehold, Garden, Semi-Detached, Conservatory, Conversion, Garage, Kitchen, Bungalow", "latitude": 50.9075, "lister_name": "Greenslade Taylor Hunt", "lister_url": "https://www.nestoria.co.uk/detail/0000000111489634934473650/title/5/34-14?serpUid=&pt=1&ot=1&l=somerset&did=105_high1&t_sec=9&t_or=45&t_pvid=null&utm_source=api&utm_medium=external", "listing_type": "buy", "location_accuracy": 9, "longitude": -2.68836, "price": 425000, "price_currency": "\u00a3", "price_formatted": "\u00a3425,000", "price_high": 425000, "price_low": 425000, "price_type": "fixed", "property_type": "house", "size": 0, "size_type": "net", "summary": "A single storey barn conversion quietly situated within this appeal...", "thumb_height": 60, "thumb_url": "https://imgs.nestimg.com/medium/3_bedroom_semi_detached_bungalow_for_sale_111489634934473650.jpg", "thumb_width": 80, "title": "Moor Lane, Hardington Moor, Yeovil, Somerset, BA22", "updated_in_days": 39, "updated_in_days_formatted": "first seen over a month ago"}, {"bathroom_number": "", "bedroom_number": 2, "car_spaces": 0, "commission": 0, "construction_year": 0, "datasource_name": "OnTheMarket.com", "img_height": 300, "img_url": "https://imgs.nestimg.com/2_bedroom_terraced_house_for_sale_111365743738673254.jpg", "img_width": 400, "keywords": "No Chain, Terraced, Kitchen, Parking", "latitude": 51.3474, "lister_url": "https://www.nestoria.co.uk/detail/0000000111365743738673254/title/5/34-15?serpUid=&pt=1&ot=1&l=somerset&did=105_high1&t_sec=9&t_or=45&t_pvid=null&utm_source=api&utm_medium=external", "listing_type": "buy", "location_accuracy": 9, "longitude": -2.94263, "price": 175000, "price_currency": "\u00a3", "price_formatted": "\u00a3175,000", "price_high": 175000, "price_low": 175000, "price_type": "fixed", "property_type": "house", "size": 0, "size_type": "net", "summary": "Ideal first time buy. Two bedrooms. Lounge/diner. Kitchene you look...", "thumb_height": 60, "thumb_url": "https://imgs.nestimg.com/medium/2_bedroom_terraced_house_for_sale_111365743738673254.jpg", "thumb_width": 80, "title": "The Barrows, Locking Castle, Weston-super-Mare, North Somerset. BS22", "updated_in_days": 12, "updated_in_days_formatted": "first seen last week"}], "locations": [{"center_lat": 51.080967, "center_long": -3.045432, "long_title": "Somerset, county", "place_name": "somerset", "title": "Somerset"}], "page": 34, "sort": "nestoria_rank", "status_code": "200", "status_text": "OK", "thanks": "For using the Nestoria API.", "total_pages": 410, "total_results": 6149, "_cu5t0mP434m_": "remove"}}