{"request": {"country": "uk", "language": "en", "location": "somerset", "num_res": "15", "offset": 510, "output": "json_xs", "page": 35, "product_type": "realestate", "property_type": "property", "size_type": "net", "size_unit": "m2", "sort": "nestoria_rank", "listing_type": "buy"}, "response": {"application_response_code": "100", "application_response_text": "listings returned for one unambiguous location", "attribution": {"img_height": 22, "img_url": "https://resources.nestimg.com/nestoria/img/pbr_v1.png", "img_width": 183, "link_to_img": "http://www.nestoria.com"}, "created_http": "Tue, 18 Jun 2019 17:29:26 GMT", "created_unix": 1560878966, "link_to_url": "https://www.nestoria.co.uk/somerset/property/buy/35", "listings": [{"bathroom_number": "", "bedroom_number": "", "car_spaces": 0, "commission": 0, "construction_year": 0, "datasource_name": "OnTheMarket.com", "img_height": 300, "img_url": "https://imgs.nestimg.com/land_for_sale_111322438974029318.jpg", "img_width": 400, "keywords": "", "latitude": 51.2482, "lister_url": "https://www.nestoria.co.uk/detail/0000000111322438974029318/title/5/35-1?serpUid=&pt=1&ot=1&l=somerset&did=105_high1&t_sec=9&t_or=45&t_pvid=null&utm_source=api&utm_medium=external", "listing_type": "buy", "location_accuracy": 9, "longitude": -3.00035, "price": 180000, "price_currency": "\u00a3", "price_formatted": "\u00a3180,000", "price_high": 180000, "price_low": 180000, "price_type": "fixed", "property_type": "land", "size": 0, "size_type": "net", "summary": "A building plot with the benefit of planning permission to build a ...", "thumb_height": 60, "thumb_url": "https://imgs.nestimg.com/medium/land_for_sale_111322438974029318.jpg", "thumb_width": 80, "title": "Gore Road, Burnham-on-Sea, Somerset", "updated_in_days": 10, "updated_in_days_formatted": "first seen last week"}, {"bathroom_number": "", "bedroom_number": 2, "car_spaces": 0, "commission": 0, "construction_year": 0, "datasource_name": "OnTheMarket.com", "img_height": 300, "img_url": "https://imgs.nestimg.com/2_bedroom_bungalow_for_sale_111538329367771424.jpg", "img_width": 400, "keywords": "Garden, No Chain, Garage, Bungalow", "latitude": 51.3539, "lister_url": "https://www.nestoria.co.uk/detail/0000000111538329367771424/title/5/35-2?serpUid=&pt=1&ot=1&l=somerset&did=105_high1&t_sec=9&t_or=45&t_pvid=null&utm_source=api&utm_medium=external", "listing_type": "buy", "location_accuracy": 9, "longitude": -2.96116, "price": 150000, "price_currency": "\u00a3", "price_formatted": "\u00a3150,000", "price_high": 150000, "price_low": 150000, "price_type": "fixed", "property_type": "house", "size": 0, "size_type": "net", "summary": "Spanish style villa/bungalowtwo bedroomsroof terrace garden with vi...", "thumb_height": 60, "thumb_url": "https://imgs.nestimg.com/medium/2_bedroom_bungalow_for_sale_111538329367771424.jpg", "thumb_width": 80, "title": "Snowdon Vale, Weston-super-Mare, North Somerset. BS23", "updated_in_days": 17, "updated_in_days_formatted": "first seen 2 weeks ago"}, {"bathroom_number": "", "bedroom_number": 4, "car_spaces": 0, "commission": 0, "construction_year": 0, "datasource_name": "OnTheMarket.com", "img_height": 300, "img_url": "https://imgs.nestimg.com/4_bedroom_detached_bungalow_for_sale_111266576638514818.jpg", "img_width": 400, "keywords": "Detached, Freehold, No Chain, Garage, Bungalow", "latitude": 50.9154, "lister_name": "Greenslade Taylor Hunt", "lister_url": "https://www.nestoria.co.uk/detail/0000000111266576638514818/title/5/35-3?serpUid=&pt=1&ot=1&l=somerset&did=105_high1&t_sec=9&t_or=45&t_pvid=null&utm_source=api&utm_medium=external", "listing_type": "buy", "location_accuracy": 9, "longitude": -2.76057, "price": 325000, "price_currency": "\u00a3", "price_formatted": "\u00a3325,000", "price_high": 325000, "price_low": 325000, "price_type": "fixed", "property_type": "house", "size": 0, "size_type": "net", "summary": "A 4 bedroom detached chalet bungalow situated on the outskirts of t...", "thumb_height": 60, "thumb_url": "https://imgs.nestimg.com/medium/4_bedroom_detached_bungalow_for_sale_111266576638514818.jpg", "thumb_width": 80, "title": "Duckpool Lane, West Chinnock, Crewkerne, Somerset, TA18", "updated_in_days": 75, "updated_in_days_formatted": "first seen over a month ago"}, {"bathroom_number": "", "bedroom_number": 5, "car_spaces": 0, "commission": 0, "construction_year": 0, "datasource_name": "OnTheMarket.com", "img_height": 300, "img_url": "https://imgs.nestimg.com/5_bedroom_house_for_sale_111013109601166505.jpg", "img_width": 400, "keywords": "Detached, Freehold, Garden, Double Garage, Modern", "latitude": 51.1117, "lister_name": "Greenslade Taylor Hunt", "lister_url": "https://www.nestoria.co.uk/detail/0000000111013109601166505/title/5/35-4?serpUid=&pt=1&ot=1&l=somerset&did=105_high1&t_sec=9&t_or=45&t_pvid=null&utm_source=api&utm_medium=external", "listing_type": "buy", "location_accuracy": 9, "longitude": -2.64574, "price": 500000, "price_currency": "\u00a3", "price_formatted": "\u00a3500,000", "price_high": 500000, "price_low": 500000, "price_type": "fixed", "property_type": "house", "size": 0, "size_type": "net", "summary": "Wow incredible 5 bed detached modern family home, close to millfiel...", "thumb_height": 60, "thumb_url": "https://imgs.nestimg.com/medium/5_bedroom_house_for_sale_111013109601166505.jpg", "thumb_width": 80, "title": "Archbishop Close, Baltonsborough, Glastonbury, Somerset, BA6", "updated_in_days": 116, "updated_in_days_formatted": "first seen over a month ago"}, {"bathroom_number": "", "bedroom_number": 1, "car_spaces": 0, "commission": 0, "construction_year": 0, "datasource_name": "OnTheMarket.com", "img_height": 300, "img_url": "https://imgs.nestimg.com/1_bedroom_terraced_house_for_sale_111186362413463610.jpg", "img_width": 400, "keywords": "Grade II, Terraced, Cottage, Listed", "latitude": 50.9388, "lister_name": "Greenslade Taylor Hunt", "lister_url": "https://www.nestoria.co.uk/detail/0000000111186362413463610/title/5/35-5?serpUid=&pt=1&ot=1&l=somerset&did=105_high1&t_sec=9&t_or=45&t_pvid=null&utm_source=api&utm_medium=external", "listing_type": "buy", "location_accuracy": 9, "longitude": -2.75911, "price": 265000, "price_currency": "\u00a3", "price_formatted": "\u00a3265,000", "price_high": 265000, "price_low": 265000, "price_type": "fixed", "property_type": "house", "size": 0, "size_type": "net", "summary": "An idyllic grade ii listed chocolate box cottage presented to a sta...", "thumb_height": 60, "thumb_url": "https://imgs.nestimg.com/medium/1_bedroom_terraced_house_for_sale_111186362413463610.jpg", "thumb_width": 80, "title": "Blackspur Cottages, Norton Sub Hamdon, Stoke-Sub-Hamdon, Somerset, TA14", "updated_in_days": 53, "updated_in_days_formatted": "first seen over a month ago"}, {"bathroom_number": "", "bedroom_number": 3, "car_spaces": 0, "commission": 0, "construction_year": 0, "datasource_name": "OnTheMarket.com", "img_height": 300, "img_url": "https://imgs.nestimg.com/3_bedroom_house_for_sale_111192286239413914.jpg", "img_width": 400, "keywords": "Grade II, Listed", "latitude": 51.054703, "lister_name": "Knight Frank", "lister_url": "https://www.nestoria.co.uk/detail/0000000111192286239413914/title/5/35-6?serpUid=&pt=1&ot=1&l=somerset&did=105_high1&t_sec=9&t_or=45&t_pvid=null&utm_source=api&utm_medium=external", "listing_type": "buy", "location_accuracy": 9, "longitude": -2.727285, "price": 495000, "price_currency": "\u00a3", "price_formatted": "\u00a3495,000", "price_high": 495000, "price_low": 495000, "price_type": "fixed", "property_type": "house", "size": 0, "size_type": "net", "summary": "3 bed grade ii listed townhouse in somerton ta11 an historically im...", "thumb_height": 60, "thumb_url": "https://imgs.nestimg.com/medium/3_bedroom_house_for_sale_111192286239413914.jpg", "thumb_width": 80, "title": "Broad Street, Somerton, Somerset, TA11", "updated_in_days": 87, "updated_in_days_formatted": "first seen over a month ago"}, {"bathroom_number": "", "bedroom_number": 2, "car_spaces": 0, "commission": 0, "construction_year": 0, "datasource_name": "OnTheMarket.com", "img_height": 300, "img_url": "https://imgs.nestimg.com/2_bedroom_apartment_for_sale_111093423531125563.jpg", "img_width": 400, "keywords": "Leasehold, No Chain", "latitude": 51.1822, "lister_url": "https://www.nestoria.co.uk/detail/0000000111093423531125563/title/5/35-7?serpUid=&pt=1&ot=1&l=somerset&did=105_high1&t_sec=9&t_or=45&t_pvid=null&utm_source=api&utm_medium=external", "listing_type": "buy", "location_accuracy": 9, "longitude": -3.33641, "price": 155000, "price_currency": "\u00a3", "price_formatted": "\u00a3155,000", "price_high": 155000, "price_low": 155000, "price_type": "fixed", "property_type": "flat", "size": 0, "size_type": "net", "summary": "An ly presented first floor two bedroom flat with superb views acro...", "thumb_height": 60, "thumb_url": "https://imgs.nestimg.com/medium/2_bedroom_apartment_for_sale_111093423531125563.jpg", "thumb_width": 80, "title": "Lorna Doone, West Street, Watchet, Somerset, TA23", "updated_in_days": 103, "updated_in_days_formatted": "first seen over a month ago"}, {"bathroom_number": "", "bedroom_number": 3, "car_spaces": 0, "commission": 0, "construction_year": 0, "datasource_name": "OnTheMarket.com", "img_height": 300, "img_url": "https://imgs.nestimg.com/3_bedroom_terraced_house_for_sale_111489639106745968.jpg", "img_width": 400, "keywords": "Garden, Terraced, Double Bedroom, Modern, Parking", "latitude": 51.2058, "lister_name": "Greenslade Taylor Hunt", "lister_url": "https://www.nestoria.co.uk/detail/0000000111489639106745968/title/5/35-8?serpUid=&pt=1&ot=1&l=somerset&did=105_high1&t_sec=9&t_or=45&t_pvid=null&utm_source=api&utm_medium=external", "listing_type": "buy", "location_accuracy": 9, "longitude": -2.65348, "price": 270000, "price_currency": "\u00a3", "price_formatted": "\u00a3270,000", "price_high": 270000, "price_low": 270000, "price_type": "fixed", "property_type": "house", "size": 0, "size_type": "net", "summary": "A and modern, 3 double bedroom town-house with accommodation, sunny...", "thumb_height": 60, "thumb_url": "https://imgs.nestimg.com/medium/3_bedroom_terraced_house_for_sale_111489639106745968.jpg", "thumb_width": 80, "title": "West Street, Wells, Somerset, BA5", "updated_in_days": 20, "updated_in_days_formatted": "first seen 2 weeks ago"}, {"bathroom_number": "", "bedroom_number": 4, "car_spaces": 0, "commission": 0, "construction_year": 0, "datasource_name": "OnTheMarket.com", "img_height": 300, "img_url": "https://imgs.nestimg.com/4_bedroom_detached_house_for_sale_111489638076611227.jpg", "img_width": 400, "keywords": "Detached", "latitude": 51.2233, "lister_url": "https://www.nestoria.co.uk/detail/0000000111489638076611227/title/5/35-9?serpUid=&pt=1&ot=1&l=somerset&did=105_high1&t_sec=9&t_or=45&t_pvid=null&utm_source=api&utm_medium=external", "listing_type": "buy", "location_accuracy": 9, "longitude": -2.81465, "price": 650000, "price_currency": "\u00a3", "price_formatted": "\u00a3650,000", "price_high": 650000, "price_low": 650000, "price_type": "fixed", "property_type": "house", "size": 0, "size_type": "net", "summary": "The farmhouse is an stone built detached property located only a sh...", "thumb_height": 60, "thumb_url": "https://imgs.nestimg.com/medium/4_bedroom_detached_house_for_sale_111489638076611227.jpg", "thumb_width": 80, "title": "The Farmhouse, West End, WEDMORE, Somerset", "updated_in_days": 39, "updated_in_days_formatted": "first seen over a month ago"}, {"bathroom_number": "", "bedroom_number": 7, "car_spaces": 0, "commission": 0, "construction_year": 0, "datasource_name": "OnTheMarket.com", "img_height": 300, "img_url": "https://imgs.nestimg.com/7_bedroom_detached_house_for_sale_111402757322354553.jpg", "img_width": 400, "keywords": "Detached, Grade II, Cottage, Listed", "latitude": 51.17798, "lister_name": "Savills", "lister_url": "https://www.nestoria.co.uk/detail/0000000111402757322354553/title/5/35-10?serpUid=&pt=1&ot=1&l=somerset&did=105_high1&t_sec=9&t_or=45&t_pvid=null&utm_source=api&utm_medium=external", "listing_type": "buy", "location_accuracy": 9, "longitude": -3.38095, "price": 1475000, "price_currency": "\u00a3", "price_formatted": "\u00a31,475,000", "price_high": 1475000, "price_low": 1475000, "price_type": "fixed", "property_type": "house", "size": 0, "size_type": "net", "summary": "Grade ii listed manor house and cottage in parkland setting between...", "thumb_height": 60, "thumb_url": "https://imgs.nestimg.com/medium/7_bedroom_detached_house_for_sale_111402757322354553.jpg", "thumb_width": 80, "title": "Chapel Cleeve, Minehead, Somerset, TA24", "updated_in_days": 53, "updated_in_days_formatted": "first seen over a month ago"}, {"bathroom_number": "", "bedroom_number": 6, "car_spaces": 0, "commission": 0, "construction_year": 0, "datasource_name": "OnTheMarket.com", "img_height": 300, "img_url": "https://imgs.nestimg.com/6_bedroom_detached_house_for_sale_111173867126986960.jpg", "img_width": 400, "keywords": "Detached, No Chain", "latitude": 51.1785, "lister_name": "Wilkie May & Tuckwood", "lister_url": "https://www.nestoria.co.uk/detail/0000000111173867126986960/title/5/35-11?serpUid=&pt=1&ot=1&l=somerset&did=105_high1&t_sec=9&t_or=45&t_pvid=null&utm_source=api&utm_medium=external", "listing_type": "buy", "location_accuracy": 9, "longitude": -3.33078, "price": 449950, "price_currency": "\u00a3", "price_formatted": "\u00a3449,950", "price_high": 449950, "price_low": 449950, "price_type": "fixed", "property_type": "house", "size": 0, "size_type": "net", "summary": "No onward chain a 6 bedroom detached executive family home situated...", "thumb_height": 60, "thumb_url": "https://imgs.nestimg.com/medium/6_bedroom_detached_house_for_sale_111173867126986960.jpg", "thumb_width": 80, "title": "St Decumans Road, Watchet, Somerset TA23", "updated_in_days": 90, "updated_in_days_formatted": "first seen over a month ago"}, {"bathroom_number": "", "bedroom_number": 4, "car_spaces": 0, "commission": 0, "construction_year": 0, "datasource_name": "OnTheMarket.com", "img_height": 300, "img_url": "https://imgs.nestimg.com/4_bedroom_detached_house_for_sale_111477756141671342.jpg", "img_width": 400, "keywords": "Detached", "latitude": 50.8698, "lister_name": "Greenslade Taylor Hunt", "lister_url": "https://www.nestoria.co.uk/detail/0000000111477756141671342/title/5/35-12?serpUid=&pt=1&ot=1&l=somerset&did=105_high1&t_sec=9&t_or=45&t_pvid=null&utm_source=api&utm_medium=external", "listing_type": "buy", "location_accuracy": 9, "longitude": -2.97128, "price": 375000, "price_currency": "\u00a3", "price_formatted": "\u00a3375,000", "price_high": 375000, "price_low": 375000, "price_type": "fixed", "property_type": "house", "size": 0, "size_type": "net", "summary": "A well proportioned 4 bedroom detached house occupying a wide corne...", "thumb_height": 60, "thumb_url": "https://imgs.nestimg.com/medium/4_bedroom_detached_house_for_sale_111477756141671342.jpg", "thumb_width": 80, "title": "Toms Close, Chard, Somerset, TA20", "updated_in_days": 41, "updated_in_days_formatted": "first seen over a month ago"}, {"bathroom_number": "", "bedroom_number": 3, "car_spaces": 0, "commission": 0, "construction_year": 0, "datasource_name": "OnTheMarket.com", "img_height": 300, "img_url": "https://imgs.nestimg.com/3_bedroom_detached_house_for_sale_111038015715450207.jpg", "img_width": 400, "keywords": "Detached", "latitude": 50.8792, "lister_name": "Greenslade Taylor Hunt", "lister_url": "https://www.nestoria.co.uk/detail/0000000111038015715450207/title/5/35-13?serpUid=&pt=1&ot=1&l=somerset&did=105_high1&t_sec=9&t_or=45&t_pvid=null&utm_source=api&utm_medium=external", "listing_type": "buy", "location_accuracy": 9, "longitude": -2.96578, "price": 219950, "price_currency": "\u00a3", "price_formatted": "\u00a3219,950", "price_high": 219950, "price_low": 219950, "price_type": "fixed", "property_type": "house", "size": 0, "size_type": "net", "summary": "An and well maintained 3 bedroom link detached house set on a pleas...", "thumb_height": 60, "thumb_url": "https://imgs.nestimg.com/medium/3_bedroom_detached_house_for_sale_111038015715450207.jpg", "thumb_width": 80, "title": "Lillington Way, Chard, Somerset, TA20", "updated_in_days": 38, "updated_in_days_formatted": "first seen over a month ago"}, {"bathroom_number": "", "bedroom_number": 2, "car_spaces": 0, "commission": 0, "construction_year": 0, "datasource_name": "OnTheMarket.com", "img_height": 300, "img_url": "https://imgs.nestimg.com/2_bedroom_apartment_for_sale_111359017640317362.jpg", "img_width": 400, "keywords": "Leasehold, Maisonette", "latitude": 50.9548, "lister_name": "Greenslade Taylor Hunt", "lister_url": "https://www.nestoria.co.uk/detail/0000000111359017640317362/title/5/35-14?serpUid=&pt=1&ot=1&l=somerset&did=105_high1&t_sec=9&t_or=45&t_pvid=null&utm_source=api&utm_medium=external", "listing_type": "buy", "location_accuracy": 9, "longitude": -2.75216, "price": 210000, "price_currency": "\u00a3", "price_formatted": "\u00a3210,000", "price_high": 210000, "price_low": 210000, "price_type": "fixed", "property_type": "flat", "size": 0, "size_type": "net", "summary": "First floor maisonette situated in the prestigious brocks mount dev...", "thumb_height": 60, "thumb_url": "https://imgs.nestimg.com/medium/2_bedroom_apartment_for_sale_111359017640317362.jpg", "thumb_width": 80, "title": "Brocks Mount, Stoke-Sub-Hamdon, Somerset, TA14", "updated_in_days": 60, "updated_in_days_formatted": "first seen over a month ago"}, {"bathroom_number": "", "bedroom_number": 6, "car_spaces": 0, "commission": 0, "construction_year": 0, "datasource_name": "OnTheMarket.com", "img_height": 300, "img_url": "https://imgs.nestimg.com/6_bedroom_semi_detached_house_for_sale_110951113168767787.jpg", "img_width": 400, "keywords": "Semi-Detached", "latitude": 51.1816, "lister_name": "Wilkie May & Tuckwood", "lister_url": "https://www.nestoria.co.uk/detail/0000000110951113168767787/title/5/35-15?serpUid=&pt=1&ot=1&l=somerset&did=105_high1&t_sec=9&t_or=45&t_pvid=null&utm_source=api&utm_medium=external", "listing_type": "buy", "location_accuracy": 9, "longitude": -3.32934, "price": 289950, "price_currency": "\u00a3", "price_formatted": "\u00a3289,950", "price_high": 289950, "price_low": 289950, "price_type": "fixed", "property_type": "house", "size": 0, "size_type": "net", "summary": "A 6 bedroom, 4 storey semi-detached house, occupying a central posi...", "thumb_height": 60, "thumb_url": "https://imgs.nestimg.com/medium/6_bedroom_semi_detached_house_for_sale_110951113168767787.jpg", "thumb_width": 80, "title": "Watchet, Somerset TA23", "updated_in_days": 126, "updated_in_days_formatted": "first seen over a month ago"}], "locations": [{"center_lat": 51.080967, "center_long": -3.045432, "long_title": "Somerset, county", "place_name": "somerset", "title": "Somerset"}], "page": 35, "sort": "nestoria_rank", "status_code": "200", "status_text": "OK", "thanks": "For using the Nestoria API.", "total_pages": 410, "total_results": 6149, "_cu5t0mP434m_": "remove"}}