{"request": {"country": "uk", "language": "en", "location": "somerset", "num_res": "15", "offset": 525, "output": "json_xs", "page": 36, "product_type": "realestate", "property_type": "property", "size_type": "net", "size_unit": "m2", "sort": "nestoria_rank", "listing_type": "buy"}, "response": {"application_response_code": "100", "application_response_text": "listings returned for one unambiguous location", "attribution": {"img_height": 22, "img_url": "https://resources.nestimg.com/nestoria/img/pbr_v1.png", "img_width": 183, "link_to_img": "http://www.nestoria.com"}, "created_http": "Tue, 18 Jun 2019 17:29:28 GMT", "created_unix": 1560878968, "link_to_url": "https://www.nestoria.co.uk/somerset/property/buy/36", "listings": [{"bathroom_number": "", "bedroom_number": 1, "car_spaces": 0, "commission": 0, "construction_year": 0, "datasource_name": "OnTheMarket.com", "img_height": 300, "img_url": "https://imgs.nestimg.com/1_bedroom_detached_house_for_sale_111266575417283497.jpg", "img_width": 400, "keywords": "Detached, Purpose Built, Bungalow", "latitude": 50.8883, "lister_name": "Greenslade Taylor Hunt", "lister_url": "https://www.nestoria.co.uk/detail/0000000111266575417283497/title/5/36-1?serpUid=&pt=1&ot=1&l=somerset&did=105_high1&t_sec=9&t_or=45&t_pvid=null&utm_source=api&utm_medium=external", "listing_type": "buy", "location_accuracy": 9, "longitude": -2.86983, "price": 325000, "price_currency": "\u00a3", "price_formatted": "\u00a3325,000", "price_high": 325000, "price_low": 325000, "price_type": "fixed", "property_type": "house", "size": 0, "size_type": "net", "summary": "Holiday cabin, farm buildings and woodland. A unique opportunity to...", "thumb_height": 60, "thumb_url": "https://imgs.nestimg.com/medium/1_bedroom_detached_house_for_sale_111266575417283497.jpg", "thumb_width": 80, "title": "Higher Chillington, Ilminster, Somerset, TA19", "updated_in_days": 75, "updated_in_days_formatted": "first seen over a month ago"}, {"bathroom_number": "", "bedroom_number": 4, "car_spaces": 0, "commission": 0, "construction_year": 0, "datasource_name": "OnTheMarket.com", "img_height": 300, "img_url": "https://imgs.nestimg.com/4_bedroom_detached_house_for_sale_111526294726583244.jpg", "img_width": 400, "keywords": "Detached", "latitude": 51.30742, "lister_name": "Knight Frank", "lister_url": "https://www.nestoria.co.uk/detail/0000000111526294726583244/title/5/36-2?serpUid=&pt=1&ot=1&l=somerset&did=105_high1&t_sec=9&t_or=45&t_pvid=null&utm_source=api&utm_medium=external", "listing_type": "buy", "location_accuracy": 9, "longitude": -2.821007, "price": 1100000, "price_currency": "\u00a3", "price_formatted": "\u00a31,100,000", "price_high": 1100000, "price_low": 1100000, "price_type": "fixed", "property_type": "house", "size": 0, "size_type": "net", "summary": "4 bedroom house for sale in sidcot, near bristol. This house has to...", "thumb_height": 60, "thumb_url": "https://imgs.nestimg.com/medium/4_bedroom_detached_house_for_sale_111526294726583244.jpg", "thumb_width": 80, "title": "Oakridge Lane, Sidcot, Winscombe, North Somerset, BS25", "updated_in_days": 10, "updated_in_days_formatted": "first seen last week"}, {"bathroom_number": "", "bedroom_number": 4, "car_spaces": 0, "commission": 0, "construction_year": 0, "datasource_name": "OnTheMarket.com", "img_height": 300, "img_url": "https://imgs.nestimg.com/4_bedroom_end_of_terrace_house_for_sale_111501254667587611.jpg", "img_width": 400, "keywords": "Freehold, Garden, Terraced, Garage", "latitude": 51.0568, "lister_name": "Greenslade Taylor Hunt", "lister_url": "https://www.nestoria.co.uk/detail/0000000111501254667587611/title/5/36-3?serpUid=&pt=1&ot=1&l=somerset&did=105_high1&t_sec=9&t_or=45&t_pvid=null&utm_source=api&utm_medium=external", "listing_type": "buy", "location_accuracy": 9, "longitude": -2.62639, "price": 495000, "price_currency": "\u00a3", "price_formatted": "\u00a3495,000", "price_high": 495000, "price_low": 495000, "price_type": "fixed", "property_type": "house", "size": 0, "size_type": "net", "summary": "A gorgeous, four bedroom family home located in the incredibly soug...", "thumb_height": 60, "thumb_url": "https://imgs.nestimg.com/medium/4_bedroom_end_of_terrace_house_for_sale_111501254667587611.jpg", "thumb_width": 80, "title": "Church Street, Babcary, Somerton, Somerset, TA11", "updated_in_days": 37, "updated_in_days_formatted": "first seen over a month ago"}, {"bathroom_number": "", "bedroom_number": 2, "car_spaces": 0, "commission": 0, "construction_year": 0, "datasource_name": "OnTheMarket.com", "img_height": 300, "img_url": "https://imgs.nestimg.com/2_bedroom_detached_house_for_sale_111229515911598203.jpg", "img_width": 400, "keywords": "Detached, Cottage", "latitude": 51.2287, "lister_url": "https://www.nestoria.co.uk/detail/0000000111229515911598203/title/5/36-4?serpUid=&pt=1&ot=1&l=somerset&did=105_high1&t_sec=9&t_or=45&t_pvid=null&utm_source=api&utm_medium=external", "listing_type": "buy", "location_accuracy": 9, "longitude": -2.80897, "price": 395000, "price_currency": "\u00a3", "price_formatted": "\u00a3395,000", "price_high": 395000, "price_low": 395000, "price_type": "fixed", "property_type": "house", "size": 0, "size_type": "net", "summary": "Two bedroom cottage at the heart of the village. This two bedroom c...", "thumb_height": 60, "thumb_url": "https://imgs.nestimg.com/medium/2_bedroom_detached_house_for_sale_111229515911598203.jpg", "thumb_width": 80, "title": "The Coaching Inn, Cheddar Road, WEDMORE, Somerset", "updated_in_days": 81, "updated_in_days_formatted": "first seen over a month ago"}, {"bathroom_number": "", "bedroom_number": 2, "car_spaces": 0, "commission": 0, "construction_year": 0, "datasource_name": "OnTheMarket.com", "img_height": 300, "img_url": "https://imgs.nestimg.com/2_bedroom_flat_for_sale_111402756884875477.jpg", "img_width": 400, "keywords": "Garden, Kitchen, Gas Central Heating", "latitude": 51.3346, "lister_url": "https://www.nestoria.co.uk/detail/0000000111402756884875477/title/5/36-5?serpUid=&pt=1&ot=1&l=somerset&did=105_high1&t_sec=9&t_or=45&t_pvid=null&utm_source=api&utm_medium=external", "listing_type": "buy", "location_accuracy": 9, "longitude": -2.97949, "price": 119950, "price_currency": "\u00a3", "price_formatted": "\u00a3119,950", "price_high": 119950, "price_low": 119950, "price_type": "fixed", "property_type": "flat", "size": 0, "size_type": "net", "summary": "Ground floor apartment located near to weston sea front. The accomm...", "thumb_height": 60, "thumb_url": "https://imgs.nestimg.com/medium/2_bedroom_flat_for_sale_111402756884875477.jpg", "thumb_width": 80, "title": "Quantock Road, Somerset - Garden", "updated_in_days": 53, "updated_in_days_formatted": "first seen over a month ago"}, {"bathroom_number": "", "bedroom_number": 4, "car_spaces": 0, "commission": 0, "construction_year": 0, "datasource_name": "OnTheMarket.com", "img_height": 300, "img_url": "https://imgs.nestimg.com/4_bedroom_house_for_sale_110802590260886784.jpg", "img_width": 400, "keywords": "Detached, Garden, Grade II, Conversion, Garage, Kitchen, Cottage", "latitude": 50.917915, "lister_url": "https://www.nestoria.co.uk/detail/0000000110802590260886784/title/5/36-6?serpUid=&pt=1&ot=1&l=somerset&did=105_high1&t_sec=9&t_or=45&t_pvid=null&utm_source=api&utm_medium=external", "listing_type": "buy", "location_accuracy": 9, "longitude": -2.68297, "price": 538000, "price_currency": "\u00a3", "price_formatted": "\u00a3538,000", "price_high": 538000, "price_low": 538000, "price_type": "fixed", "property_type": "house", "size": 0, "size_type": "net", "summary": "This former bakery comprises a period ham stone 3/4 bed cottage and...", "thumb_height": 60, "thumb_url": "https://imgs.nestimg.com/medium/4_bedroom_house_for_sale_110802590260886784.jpg", "thumb_width": 80, "title": "East Street, West Coker, YEOVIL, Somerset, BA22", "updated_in_days": 120, "updated_in_days_formatted": "first seen over a month ago"}, {"bathroom_number": "", "bedroom_number": 3, "car_spaces": 0, "commission": 0, "construction_year": 0, "datasource_name": "OnTheMarket.com", "img_height": 300, "img_url": "https://imgs.nestimg.com/3_bedroom_terraced_house_for_sale_111637557910990736.jpg", "img_width": 400, "keywords": "Garden, En suite, Terraced, Kitchen, Cottage", "latitude": 50.997, "lister_url": "https://www.nestoria.co.uk/detail/0000000111637557910990736/title/5/36-7?serpUid=&pt=1&ot=1&l=somerset&did=105_high1&t_sec=9&t_or=45&t_pvid=null&utm_source=api&utm_medium=external", "listing_type": "buy", "location_accuracy": 9, "longitude": -2.61325, "price": 325000, "price_currency": "\u00a3", "price_formatted": "\u00a3325,000", "price_high": 325000, "price_low": 325000, "price_type": "fixed", "property_type": "house", "size": 0, "size_type": "net", "summary": "A , double fronted cottage with a garden situated in a peaceful rur...", "thumb_height": 60, "thumb_url": "https://imgs.nestimg.com/medium/3_bedroom_terraced_house_for_sale_111637557910990736.jpg", "thumb_width": 80, "title": "Higher Chilton, Chilton Cantelo, Yeovil, Somerset, BA22", "updated_in_days": 15, "updated_in_days_formatted": "first seen 2 weeks ago"}, {"bathroom_number": "", "bedroom_number": 3, "car_spaces": 0, "commission": 0, "construction_year": 0, "datasource_name": "OnTheMarket.com", "img_height": 300, "img_url": "https://imgs.nestimg.com/3_bedroom_detached_bungalow_for_sale_111229510523862936.jpg", "img_width": 400, "keywords": "Detached, Freehold, Garden, Double Bedroom, Bungalow, Parking", "latitude": 51.2469, "lister_name": "Greenslade Taylor Hunt", "lister_url": "https://www.nestoria.co.uk/detail/0000000111229510523862936/title/5/36-8?serpUid=&pt=1&ot=1&l=somerset&did=105_high1&t_sec=9&t_or=45&t_pvid=null&utm_source=api&utm_medium=external", "listing_type": "buy", "location_accuracy": 9, "longitude": -2.73883, "price": 325000, "price_currency": "\u00a3", "price_formatted": "\u00a3325,000", "price_high": 325000, "price_low": 325000, "price_type": "fixed", "property_type": "house", "size": 0, "size_type": "net", "summary": "A well-proportioned and appealing three double bedroom, detached bu...", "thumb_height": 60, "thumb_url": "https://imgs.nestimg.com/medium/3_bedroom_detached_bungalow_for_sale_111229510523862936.jpg", "thumb_width": 80, "title": "Stoke Street, Rodney Stoke, Somerset, BS27", "updated_in_days": 81, "updated_in_days_formatted": "first seen over a month ago"}, {"bathroom_number": "", "bedroom_number": 4, "car_spaces": 0, "commission": 0, "construction_year": 0, "datasource_name": "OnTheMarket.com", "img_height": 300, "img_url": "https://imgs.nestimg.com/4_bedroom_detached_house_for_sale_109707786194543727.jpg", "img_width": 400, "keywords": "Detached", "latitude": 51.2256, "lister_url": "https://www.nestoria.co.uk/detail/0000000109707786194543727/title/5/36-9?serpUid=&pt=1&ot=1&l=somerset&did=105_high1&t_sec=9&t_or=45&t_pvid=null&utm_source=api&utm_medium=external", "listing_type": "buy", "location_accuracy": 9, "longitude": -2.84296, "price": 725000, "price_currency": "\u00a3", "price_formatted": "\u00a3725,000", "price_high": 725000, "price_low": 725000, "price_type": "fixed", "property_type": "house", "size": 0, "size_type": "net", "summary": "Family home measuring around 3600 square feet. A superb detached fo...", "thumb_height": 60, "thumb_url": "https://imgs.nestimg.com/medium/4_bedroom_detached_house_for_sale_109707786194543727.jpg", "thumb_width": 80, "title": "Manna House, Redmans Hill, BLACKFORD, Wedmore, Somerset", "updated_in_days": 327, "updated_in_days_formatted": "first seen over a month ago"}, {"bathroom_number": "", "bedroom_number": 4, "car_spaces": 0, "commission": 0, "construction_year": 0, "datasource_name": "OnTheMarket.com", "img_height": 300, "img_url": "https://imgs.nestimg.com/4_bedroom_detached_house_for_sale_111662468933812179.jpg", "img_width": 400, "keywords": "Detached, Garden, Kitchen", "latitude": 51.3558, "lister_url": "https://www.nestoria.co.uk/detail/0000000111662468933812179/title/5/36-10?serpUid=&pt=1&ot=1&l=somerset&did=105_high1&t_sec=9&t_or=45&t_pvid=null&utm_source=api&utm_medium=external", "listing_type": "buy", "location_accuracy": 9, "longitude": -2.95039, "price": 285000, "price_currency": "\u00a3", "price_formatted": "\u00a3285,000", "price_high": 285000, "price_low": 285000, "price_type": "fixed", "property_type": "house", "size": 0, "size_type": "net", "summary": "Well presented detached house with views! .four bedrooms. Lounge/di...", "thumb_height": 60, "thumb_url": "https://imgs.nestimg.com/medium/4_bedroom_detached_house_for_sale_111662468933812179.jpg", "thumb_width": 80, "title": "The Crescent, Milton , Weston-super-Mare, North Somerset. BS22", "updated_in_days": 11, "updated_in_days_formatted": "first seen last week"}, {"bathroom_number": "", "bedroom_number": 4, "car_spaces": 0, "commission": 0, "construction_year": 0, "datasource_name": "OnTheMarket.com", "img_height": 300, "img_url": "https://imgs.nestimg.com/4_bedroom_detached_house_for_sale_111359022569202403.jpg", "img_width": 400, "keywords": "Detached, Garden, En suite, No Chain", "latitude": 50.9031, "lister_name": "Greenslade Taylor Hunt", "lister_url": "https://www.nestoria.co.uk/detail/0000000111359022569202403/title/5/36-11?serpUid=&pt=1&ot=1&l=somerset&did=105_high1&t_sec=9&t_or=45&t_pvid=null&utm_source=api&utm_medium=external", "listing_type": "buy", "location_accuracy": 9, "longitude": -2.7935, "price": 380000, "price_currency": "\u00a3", "price_formatted": "\u00a3380,000", "price_high": 380000, "price_low": 380000, "price_type": "fixed", "property_type": "house", "size": 0, "size_type": "net", "summary": "This superb four bedroom detached farmhouse has been fully renovate...", "thumb_height": 60, "thumb_url": "https://imgs.nestimg.com/medium/4_bedroom_detached_house_for_sale_111359022569202403.jpg", "thumb_width": 80, "title": "Pye Corner, Merriott, Somerset, TA16", "updated_in_days": 60, "updated_in_days_formatted": "first seen over a month ago"}, {"bathroom_number": "", "bedroom_number": 4, "car_spaces": 0, "commission": 0, "construction_year": 0, "datasource_name": "OnTheMarket.com", "img_height": 300, "img_url": "https://imgs.nestimg.com/4_bedroom_detached_house_for_sale_110233604038352575.jpg", "img_width": 400, "keywords": "Detached, Garden, Garage, Cottage", "latitude": 51.0882, "lister_name": "Stags", "lister_url": "https://www.nestoria.co.uk/detail/0000000110233604038352575/title/5/36-12?serpUid=&pt=1&ot=1&l=somerset&did=105_high1&t_sec=9&t_or=45&t_pvid=null&utm_source=api&utm_medium=external", "listing_type": "buy", "location_accuracy": 9, "longitude": -2.65039, "price": 900000, "price_currency": "\u00a3", "price_formatted": "\u00a3900,000", "price_high": 900000, "price_low": 900000, "price_type": "fixed", "property_type": "house", "size": 0, "size_type": "net", "summary": "A 4 bedroom period farmhouse built from the local blue lias stone w...", "thumb_height": 60, "thumb_url": "https://imgs.nestimg.com/medium/4_bedroom_detached_house_for_sale_110233604038352575.jpg", "thumb_width": 80, "title": "Double Gates Drove, Barton St David, Somerton, Somerset, TA11", "updated_in_days": 242, "updated_in_days_formatted": "first seen over a month ago"}, {"bathroom_number": "", "bedroom_number": 2, "car_spaces": 0, "commission": 0, "construction_year": 0, "datasource_name": "OnTheMarket.com", "img_height": 300, "img_url": "https://imgs.nestimg.com/2_bedroom_terraced_bungalow_for_sale_110938659927861409.jpg", "img_width": 400, "keywords": "Terraced, Bungalow", "latitude": 51.2897, "lister_url": "https://www.nestoria.co.uk/detail/0000000110938659927861409/title/5/36-13?serpUid=&pt=1&ot=1&l=somerset&did=105_high1&t_sec=9&t_or=45&t_pvid=null&utm_source=api&utm_medium=external", "listing_type": "buy", "location_accuracy": 9, "longitude": -3.01212, "price": 167500, "price_currency": "\u00a3", "price_formatted": "\u00a3167,500", "price_high": 167500, "price_low": 167500, "price_type": "fixed", "property_type": "house", "size": 0, "size_type": "net", "summary": "A superb 2 bedroom bungalow which has recently been renovated and b...", "thumb_height": 60, "thumb_url": "https://imgs.nestimg.com/medium/2_bedroom_terraced_bungalow_for_sale_110938659927861409.jpg", "thumb_width": 80, "title": "Maple House, Knoll Park, Brean, Somerset", "updated_in_days": 100, "updated_in_days_formatted": "first seen over a month ago"}, {"bathroom_number": "", "bedroom_number": 4, "car_spaces": 0, "commission": 0, "construction_year": 0, "datasource_name": "OnTheMarket.com", "img_height": 300, "img_url": "https://imgs.nestimg.com/4_bedroom_detached_house_for_sale_111402759739266027.jpg", "img_width": 400, "keywords": "Detached", "latitude": 51.2241, "lister_url": "https://www.nestoria.co.uk/detail/0000000111402759739266027/title/5/36-14?serpUid=&pt=1&ot=1&l=somerset&did=105_high1&t_sec=9&t_or=45&t_pvid=null&utm_source=api&utm_medium=external", "listing_type": "buy", "location_accuracy": 9, "longitude": -2.80613, "price": 575000, "price_currency": "\u00a3", "price_formatted": "\u00a3575,000", "price_high": 575000, "price_low": 575000, "price_type": "fixed", "property_type": "house", "size": 0, "size_type": "net", "summary": "Sundial house is a detached family home within walking distance of ...", "thumb_height": 60, "thumb_url": "https://imgs.nestimg.com/medium/4_bedroom_detached_house_for_sale_111402759739266027.jpg", "thumb_width": 80, "title": "Sundial House, Mudgley Road, WEDMORE, Somerset", "updated_in_days": 53, "updated_in_days_formatted": "first seen over a month ago"}, {"bathroom_number": "", "bedroom_number": 3, "car_spaces": 0, "commission": 0, "construction_year": 0, "datasource_name": "OnTheMarket.com", "img_height": 300, "img_url": "https://imgs.nestimg.com/3_bedroom_detached_house_for_sale_111309463368752617.jpg", "img_width": 400, "keywords": "Detached", "latitude": 50.8747, "lister_name": "Greenslade Taylor Hunt", "lister_url": "https://www.nestoria.co.uk/detail/0000000111309463368752617/title/5/36-15?serpUid=&pt=1&ot=1&l=somerset&did=105_high1&t_sec=9&t_or=45&t_pvid=null&utm_source=api&utm_medium=external", "listing_type": "buy", "location_accuracy": 9, "longitude": -2.94436, "price": 600000, "price_currency": "\u00a3", "price_formatted": "\u00a3600,000", "price_high": 600000, "price_low": 600000, "price_type": "fixed", "property_type": "house", "size": 0, "size_type": "net", "summary": "A fine individual detached house full of opportunities set in an id...", "thumb_height": 60, "thumb_url": "https://imgs.nestimg.com/medium/3_bedroom_detached_house_for_sale_111309463368752617.jpg", "thumb_width": 80, "title": "Chard, Somerset, TA20 - Detached", "updated_in_days": 68, "updated_in_days_formatted": "first seen over a month ago"}], "locations": [{"center_lat": 51.080967, "center_long": -3.045432, "long_title": "Somerset, county", "place_name": "somerset", "title": "Somerset"}], "page": 36, "sort": "nestoria_rank", "status_code": "200", "status_text": "OK", "thanks": "For using the Nestoria API.", "total_pages": 410, "total_results": 6149, "_cu5t0mP434m_": "remove"}}