{"request": {"country": "uk", "language": "en", "location": "somerset", "num_res": "15", "offset": 540, "output": "json_xs", "page": 37, "product_type": "realestate", "property_type": "property", "size_type": "net", "size_unit": "m2", "sort": "nestoria_rank", "listing_type": "buy"}, "response": {"application_response_code": "100", "application_response_text": "listings returned for one unambiguous location", "attribution": {"img_height": 22, "img_url": "https://resources.nestimg.com/nestoria/img/pbr_v1.png", "img_width": 183, "link_to_img": "http://www.nestoria.com"}, "created_http": "Tue, 18 Jun 2019 17:29:29 GMT", "created_unix": 1560878969, "link_to_url": "https://www.nestoria.co.uk/somerset/property/buy/37", "listings": [{"bathroom_number": "", "bedroom_number": 3, "car_spaces": 0, "commission": 0, "construction_year": 0, "datasource_name": "OnTheMarket.com", "img_height": 300, "img_url": "https://imgs.nestimg.com/3_bedroom_house_for_sale_111427152137450788.jpg", "img_width": 400, "keywords": "Detached, Garden, Grade II, Double Garage, Fireplace, Cellar, Listed", "latitude": 51.004364, "lister_url": "https://www.nestoria.co.uk/detail/0000000111427152137450788/title/5/37-1?serpUid=&pt=1&ot=1&l=somerset&did=105_high1&t_sec=9&t_or=45&t_pvid=null&utm_source=api&utm_medium=external", "listing_type": "buy", "location_accuracy": 9, "longitude": -2.411878, "price": 450000, "price_currency": "\u00a3", "price_formatted": "\u00a3450,000", "price_high": 450000, "price_low": 450000, "price_type": "fixed", "property_type": "house", "size": 0, "size_type": "net", "summary": "Situated in a third of an acre of gardens backing on to the histori...", "thumb_height": 60, "thumb_url": "https://imgs.nestimg.com/medium/3_bedroom_house_for_sale_111427152137450788.jpg", "thumb_width": 80, "title": "School Lane, TEMPLECOMBE, Somerset, BA8", "updated_in_days": 7, "updated_in_days_formatted": "first seen last week"}, {"bathroom_number": "", "bedroom_number": 2, "car_spaces": 0, "commission": 0, "construction_year": 0, "datasource_name": "OnTheMarket.com", "img_height": 300, "img_url": "https://imgs.nestimg.com/2_bedroom_apartment_for_sale_110908089054719436.jpg", "img_width": 400, "keywords": "Conversion, High Ceilings, Victorian, Double Bedroom, Loft", "latitude": 50.9469, "lister_name": "Greenslade Taylor Hunt", "lister_url": "https://www.nestoria.co.uk/detail/0000000110908089054719436/title/5/37-2?serpUid=&pt=1&ot=1&l=somerset&did=105_high1&t_sec=9&t_or=45&t_pvid=null&utm_source=api&utm_medium=external", "listing_type": "buy", "location_accuracy": 9, "longitude": -2.64948, "price": 165000, "price_currency": "\u00a3", "price_formatted": "\u00a3165,000", "price_high": 165000, "price_low": 165000, "price_type": "fixed", "property_type": "flat", "size": 0, "size_type": "net", "summary": "A two bedroom apartment in an converted victorian house. Benefittin...", "thumb_height": 60, "thumb_url": "https://imgs.nestimg.com/medium/2_bedroom_apartment_for_sale_110908089054719436.jpg", "thumb_width": 80, "title": "Summerlands, Yeovil, Somerset, BA21", "updated_in_days": 33, "updated_in_days_formatted": "first seen over a month ago"}, {"bathroom_number": "", "bedroom_number": 7, "car_spaces": 0, "commission": 0, "construction_year": 0, "datasource_name": "OnTheMarket.com", "img_height": 300, "img_url": "https://imgs.nestimg.com/7_bedroom_detached_house_for_sale_111440827145369442.jpg", "img_width": 400, "keywords": "Detached", "latitude": 51.26999, "lister_name": "Savills", "lister_url": "https://www.nestoria.co.uk/detail/0000000111440827145369442/title/5/37-3?serpUid=&pt=1&ot=1&l=somerset&did=105_high1&t_sec=9&t_or=45&t_pvid=null&utm_source=api&utm_medium=external", "listing_type": "buy", "location_accuracy": 9, "longitude": -2.84179, "price": 1150000, "price_currency": "\u00a3", "price_formatted": "\u00a31,150,000", "price_high": 1150000, "price_low": 1150000, "price_type": "fixed", "property_type": "house", "size": 0, "size_type": "net", "summary": "An period home in the heart of a peaceful village with private grounds", "thumb_height": 60, "thumb_url": "https://imgs.nestimg.com/medium/7_bedroom_detached_house_for_sale_111440827145369442.jpg", "thumb_width": 80, "title": "Sparrow Hill Way, Weare, Axbridge, Somerset, BS26", "updated_in_days": 35, "updated_in_days_formatted": "first seen over a month ago"}, {"bathroom_number": "", "bedroom_number": 4, "car_spaces": 0, "commission": 0, "construction_year": 0, "datasource_name": "OnTheMarket.com", "img_height": 300, "img_url": "https://imgs.nestimg.com/4_bedroom_detached_house_for_sale_111594154020103143.jpg", "img_width": 400, "keywords": "Detached", "latitude": 50.9381, "lister_url": "https://www.nestoria.co.uk/detail/0000000111594154020103143/title/5/37-4?serpUid=&pt=1&ot=1&l=somerset&did=105_high1&t_sec=9&t_or=45&t_pvid=null&utm_source=api&utm_medium=external", "listing_type": "buy", "location_accuracy": 9, "longitude": -2.75947, "price": 650000, "price_currency": "\u00a3", "price_formatted": "\u00a3650,000", "price_high": 650000, "price_low": 650000, "price_type": "fixed", "property_type": "house", "size": 0, "size_type": "net", "summary": "A thoughtfully designed hamstone property with well proportioned li...", "thumb_height": 60, "thumb_url": "https://imgs.nestimg.com/medium/4_bedroom_detached_house_for_sale_111594154020103143.jpg", "thumb_width": 80, "title": "Higher Street, Norton Sub Hamdon, Stoke-Sub-Hamdon, Somerset, TA14", "updated_in_days": 22, "updated_in_days_formatted": "first seen 3 weeks ago"}, {"bathroom_number": "", "bedroom_number": 4, "car_spaces": 0, "commission": 0, "construction_year": 0, "datasource_name": "OnTheMarket.com", "img_height": 300, "img_url": "https://imgs.nestimg.com/4_bedroom_detached_house_for_sale_111186367105018956.jpg", "img_width": 400, "keywords": "Detached", "latitude": 51.2254, "lister_url": "https://www.nestoria.co.uk/detail/0000000111186367105018956/title/5/37-5?serpUid=&pt=1&ot=1&l=somerset&did=105_high1&t_sec=9&t_or=45&t_pvid=null&utm_source=api&utm_medium=external", "listing_type": "buy", "location_accuracy": 9, "longitude": -2.81901, "price": 595000, "price_currency": "\u00a3", "price_formatted": "\u00a3595,000", "price_high": 595000, "price_low": 595000, "price_type": "fixed", "property_type": "house", "size": 0, "size_type": "net", "summary": "Field house is an four bedroom detached family home within walking ...", "thumb_height": 60, "thumb_url": "https://imgs.nestimg.com/medium/4_bedroom_detached_house_for_sale_111186367105018956.jpg", "thumb_width": 80, "title": "Field House, Quab Lane, WEDMORE, Somerset", "updated_in_days": 88, "updated_in_days_formatted": "first seen over a month ago"}, {"bathroom_number": "", "bedroom_number": "", "car_spaces": 0, "commission": 0, "construction_year": 0, "datasource_name": "OnTheMarket.com", "img_height": 300, "img_url": "https://imgs.nestimg.com/land_for_sale_110988629707131836.jpg", "img_width": 400, "keywords": "", "latitude": 51.0076, "lister_name": "Stags", "lister_url": "https://www.nestoria.co.uk/detail/0000000110988629707131836/title/5/37-6?serpUid=&pt=1&ot=1&l=somerset&did=105_high1&t_sec=9&t_or=45&t_pvid=null&utm_source=api&utm_medium=external", "listing_type": "buy", "location_accuracy": 9, "longitude": -3.18909, "price": 265000, "price_currency": "\u00a3", "price_formatted": "\u00a3265,000", "price_high": 265000, "price_low": 265000, "price_type": "fixed", "property_type": "land", "size": 0, "size_type": "net", "summary": "A superb smallholding of 9 fields with stream frontage, hay shed an...", "thumb_height": 60, "thumb_url": "https://imgs.nestimg.com/medium/land_for_sale_110988629707131836.jpg", "thumb_width": 80, "title": "Langs Farm, Oake Road, Taunton, Somerset, TA4", "updated_in_days": 120, "updated_in_days_formatted": "first seen over a month ago"}, {"bathroom_number": "", "bedroom_number": "", "car_spaces": 0, "commission": 0, "construction_year": 0, "datasource_name": "OnTheMarket.com", "img_height": 300, "img_url": "https://imgs.nestimg.com/land_for_sale_111155181974262982.jpg", "img_width": 400, "keywords": "Parking", "latitude": 51.2193, "lister_url": "https://www.nestoria.co.uk/detail/0000000111155181974262982/title/5/37-7?serpUid=&pt=1&ot=1&l=somerset&did=105_high1&t_sec=9&t_or=45&t_pvid=null&utm_source=api&utm_medium=external", "listing_type": "buy", "location_accuracy": 9, "longitude": -2.97568, "price": 550000, "price_currency": "\u00a3", "price_formatted": "\u00a3550,000", "price_high": 550000, "price_low": 550000, "price_type": "fixed", "property_type": "land", "size": 0, "size_type": "net", "summary": "Prime development site planning granted for 29 apartments an exciti...", "thumb_height": 60, "thumb_url": "https://imgs.nestimg.com/medium/land_for_sale_111155181974262982.jpg", "thumb_width": 80, "title": "Market Street, Highbridge, Highbridge, Somerset", "updated_in_days": 32, "updated_in_days_formatted": "first seen over a month ago"}, {"bathroom_number": "", "bedroom_number": 5, "car_spaces": 0, "commission": 0, "construction_year": 0, "datasource_name": "OnTheMarket.com", "img_height": 300, "img_url": "https://imgs.nestimg.com/5_bedroom_equestrian_facility_for_sale_111099712078135195.jpg", "img_width": 400, "keywords": "Grade II, Listed", "latitude": 51.02879, "lister_name": "Savills", "lister_url": "https://www.nestoria.co.uk/detail/0000000111099712078135195/title/5/37-8?serpUid=&pt=1&ot=1&l=somerset&did=105_high1&t_sec=9&t_or=45&t_pvid=null&utm_source=api&utm_medium=external", "listing_type": "buy", "location_accuracy": 9, "longitude": -2.69654, "price": 1950000, "price_currency": "\u00a3", "price_formatted": "\u00a31,950,000", "price_high": 1950000, "price_low": 1950000, "price_type": "fixed", "property_type": "house", "size": 0, "size_type": "net", "summary": "An grade ii listed country house with gardensand paddocks amounting...", "thumb_height": 60, "thumb_url": "https://imgs.nestimg.com/medium/5_bedroom_equestrian_facility_for_sale_111099712078135195.jpg", "thumb_width": 80, "title": "Kingsdon, Somerton, Somerset, TA11", "updated_in_days": 102, "updated_in_days_formatted": "first seen over a month ago"}, {"bathroom_number": "", "bedroom_number": 3, "car_spaces": 0, "commission": 0, "construction_year": 0, "datasource_name": "OnTheMarket.com", "img_height": 300, "img_url": "https://imgs.nestimg.com/3_bedroom_detached_bungalow_for_sale_111544377795051261.jpg", "img_width": 400, "keywords": "Detached, Freehold, No Chain, Bungalow", "latitude": 51.1745, "lister_url": "https://www.nestoria.co.uk/detail/0000000111544377795051261/title/5/37-9?serpUid=&pt=1&ot=1&l=somerset&did=105_high1&t_sec=9&t_or=45&t_pvid=null&utm_source=api&utm_medium=external", "listing_type": "buy", "location_accuracy": 9, "longitude": -3.42003, "price": 329500, "price_currency": "\u00a3", "price_formatted": "\u00a3329,500", "price_high": 329500, "price_low": 329500, "price_type": "fixed", "property_type": "house", "size": 0, "size_type": "net", "summary": "No onward chain a ly presented and modernised three/four bedroom de...", "thumb_height": 60, "thumb_url": "https://imgs.nestimg.com/medium/3_bedroom_detached_bungalow_for_sale_111544377795051261.jpg", "thumb_width": 80, "title": "Carhampton, Minehead, Somerset, TA24", "updated_in_days": 30, "updated_in_days_formatted": "first seen over a month ago"}, {"bathroom_number": "", "bedroom_number": 5, "car_spaces": 0, "commission": 0, "construction_year": 0, "datasource_name": "OnTheMarket.com", "img_height": 300, "img_url": "https://imgs.nestimg.com/5_bedroom_detached_house_for_sale_111668301969603597.jpg", "img_width": 400, "keywords": "Detached, Garden, Garage, Kitchen", "latitude": 51.3727, "lister_url": "https://www.nestoria.co.uk/detail/0000000111668301969603597/title/5/37-10?serpUid=&pt=1&ot=1&l=somerset&did=105_high1&t_sec=9&t_or=45&t_pvid=null&utm_source=api&utm_medium=external", "listing_type": "buy", "location_accuracy": 9, "longitude": -2.91225, "price": 325000, "price_currency": "\u00a3", "price_formatted": "\u00a3325,000", "price_high": 325000, "price_low": 325000, "price_type": "fixed", "property_type": "house", "size": 0, "size_type": "net", "summary": "Well presented extended detached house. Five beds. Two recs. Large ...", "thumb_height": 60, "thumb_url": "https://imgs.nestimg.com/medium/5_bedroom_detached_house_for_sale_111668301969603597.jpg", "thumb_width": 80, "title": "Locksbrook Road, Worle, Weston-super-Mare, North Somerset. BS22", "updated_in_days": 10, "updated_in_days_formatted": "first seen last week"}, {"bathroom_number": "", "bedroom_number": 3, "car_spaces": 0, "commission": 0, "construction_year": 0, "datasource_name": "OnTheMarket.com", "img_height": 300, "img_url": "https://imgs.nestimg.com/3_bedroom_detached_bungalow_for_sale_111427148833833978.jpg", "img_width": 400, "keywords": "Detached, No Chain, Bungalow, Cul-de-Sac", "latitude": 50.8435, "lister_name": "Greenslade Taylor Hunt", "lister_url": "https://www.nestoria.co.uk/detail/0000000111427148833833978/title/5/37-11?serpUid=&pt=1&ot=1&l=somerset&did=105_high1&t_sec=9&t_or=45&t_pvid=null&utm_source=api&utm_medium=external", "listing_type": "buy", "location_accuracy": 9, "longitude": -2.94684, "price": 300000, "price_currency": "\u00a3", "price_formatted": "\u00a3300,000", "price_high": 300000, "price_low": 300000, "price_type": "fixed", "property_type": "house", "size": 0, "size_type": "net", "summary": "Distinctive detached 3 bedroom bungalow in a secluded cul de sac an...", "thumb_height": 60, "thumb_url": "https://imgs.nestimg.com/medium/3_bedroom_detached_bungalow_for_sale_111427148833833978.jpg", "thumb_width": 80, "title": "Garden Court, South Chard, Chard, Somerset, TA20", "updated_in_days": 49, "updated_in_days_formatted": "first seen over a month ago"}, {"bathroom_number": "", "bedroom_number": 5, "car_spaces": 0, "commission": 0, "construction_year": 0, "datasource_name": "OnTheMarket.com", "img_height": 300, "img_url": "https://imgs.nestimg.com/5_bedroom_detached_house_for_sale_111575824847529576.jpg", "img_width": 400, "keywords": "Detached, Garden", "latitude": 50.88587, "lister_name": "Knight Frank", "lister_url": "https://www.nestoria.co.uk/detail/0000000111575824847529576/title/5/37-12?serpUid=&pt=1&ot=1&l=somerset&did=105_high1&t_sec=9&t_or=45&t_pvid=null&utm_source=api&utm_medium=external", "listing_type": "buy", "location_accuracy": 9, "longitude": -2.791126, "price": 695000, "price_currency": "\u00a3", "price_formatted": "\u00a3695,000", "price_high": 695000, "price_low": 695000, "price_type": "fixed", "property_type": "house", "size": 0, "size_type": "net", "summary": "A well-presented 5 bedroom 1920s villa in crewkerne ta18 built in 1...", "thumb_height": 60, "thumb_url": "https://imgs.nestimg.com/medium/5_bedroom_detached_house_for_sale_111575824847529576.jpg", "thumb_width": 80, "title": "East Street, Crewkerne, Somerset, TA18", "updated_in_days": 25, "updated_in_days_formatted": "first seen 3 weeks ago"}, {"bathroom_number": "", "bedroom_number": 2, "car_spaces": 0, "commission": 0, "construction_year": 0, "datasource_name": "OnTheMarket.com", "img_height": 300, "img_url": "https://imgs.nestimg.com/2_bedroom_apartment_for_sale_110480919518099912.jpg", "img_width": 400, "keywords": "Leasehold, Shared Garden, No Chain, Modern", "latitude": 51.2804, "lister_name": "Greenslade Taylor Hunt", "lister_url": "https://www.nestoria.co.uk/detail/0000000110480919518099912/title/5/37-13?serpUid=&pt=1&ot=1&l=somerset&did=105_high1&t_sec=9&t_or=45&t_pvid=null&utm_source=api&utm_medium=external", "listing_type": "buy", "location_accuracy": 9, "longitude": -2.77889, "price": 235000, "price_currency": "\u00a3", "price_formatted": "\u00a3235,000", "price_high": 235000, "price_low": 235000, "price_type": "fixed", "property_type": "flat", "size": 0, "size_type": "net", "summary": "No onward chain. A super and modern 2 bedroom 1st floor apartment w...", "thumb_height": 60, "thumb_url": "https://imgs.nestimg.com/medium/2_bedroom_apartment_for_sale_110480919518099912.jpg", "thumb_width": 80, "title": "Acacia Court, Tweentown, Cheddar, Somerset, BS27", "updated_in_days": 84, "updated_in_days_formatted": "first seen over a month ago"}, {"bathroom_number": "", "bedroom_number": 3, "car_spaces": 0, "commission": 0, "construction_year": 0, "datasource_name": "OnTheMarket.com", "img_height": 300, "img_url": "https://imgs.nestimg.com/3_bedroom_park_home_for_sale_111253926656394306.jpg", "img_width": 400, "keywords": "", "latitude": 51.1808, "lister_name": "Wilkie May & Tuckwood", "lister_url": "https://www.nestoria.co.uk/detail/0000000111253926656394306/title/5/37-14?serpUid=&pt=1&ot=1&l=somerset&did=105_high1&t_sec=9&t_or=45&t_pvid=null&utm_source=api&utm_medium=external", "listing_type": "buy", "location_accuracy": 9, "longitude": -3.29834, "price": 39950, "price_currency": "\u00a3", "price_formatted": "\u00a339,950", "price_high": 39950, "price_low": 39950, "price_type": "fixed", "property_type": "property", "size": 0, "size_type": "net", "summary": "All fittings and fixtures included in sale a 2015 swift bordeaux 38...", "thumb_height": 60, "thumb_url": "https://imgs.nestimg.com/medium/3_bedroom_park_home_for_sale_111253926656394306.jpg", "thumb_width": 80, "title": "Haven, Doniford, Watchet, Somerset TA23", "updated_in_days": 77, "updated_in_days_formatted": "first seen over a month ago"}, {"bathroom_number": "", "bedroom_number": 3, "car_spaces": 0, "commission": 0, "construction_year": 0, "datasource_name": "OnTheMarket.com", "img_height": 300, "img_url": "https://imgs.nestimg.com/3_bedroom_apartment_for_sale_111600421920130872.jpg", "img_width": 400, "keywords": "Parking", "latitude": 50.8876, "lister_name": "Stags", "lister_url": "https://www.nestoria.co.uk/detail/0000000111600421920130872/title/5/37-15?serpUid=&pt=1&ot=1&l=somerset&did=105_high1&t_sec=9&t_or=45&t_pvid=null&utm_source=api&utm_medium=external", "listing_type": "buy", "location_accuracy": 9, "longitude": -2.7955, "price": 172500, "price_currency": "\u00a3", "price_formatted": "\u00a3172,500", "price_high": 172500, "price_low": 172500, "price_type": "fixed", "property_type": "flat", "size": 0, "size_type": "net", "summary": "An ly and ly presented 3 bedroom top floor apartment close to town ...", "thumb_height": 60, "thumb_url": "https://imgs.nestimg.com/medium/3_bedroom_apartment_for_sale_111600421920130872.jpg", "thumb_width": 80, "title": "Tannery Court, North Street, Crewkerne, Somerset, TA18", "updated_in_days": 20, "updated_in_days_formatted": "first seen 2 weeks ago"}], "locations": [{"center_lat": 51.080967, "center_long": -3.045432, "long_title": "Somerset, county", "place_name": "somerset", "title": "Somerset"}], "page": 37, "sort": "nestoria_rank", "status_code": "200", "status_text": "OK", "thanks": "For using the Nestoria API.", "total_pages": 410, "total_results": 6149, "_cu5t0mP434m_": "remove"}}