{"request": {"country": "uk", "language": "en", "location": "somerset", "num_res": "15", "offset": 555, "output": "json_xs", "page": 38, "product_type": "realestate", "property_type": "property", "size_type": "net", "size_unit": "m2", "sort": "nestoria_rank", "listing_type": "buy"}, "response": {"application_response_code": "100", "application_response_text": "listings returned for one unambiguous location", "attribution": {"img_height": 22, "img_url": "https://resources.nestimg.com/nestoria/img/pbr_v1.png", "img_width": 183, "link_to_img": "http://www.nestoria.com"}, "created_http": "Tue, 18 Jun 2019 17:29:31 GMT", "created_unix": 1560878971, "link_to_url": "https://www.nestoria.co.uk/somerset/property/buy/38", "listings": [{"bathroom_number": "", "bedroom_number": 3, "car_spaces": 0, "commission": 0, "construction_year": 0, "datasource_name": "OnTheMarket.com", "img_height": 300, "img_url": "https://imgs.nestimg.com/3_bedroom_detached_bungalow_for_sale_111105672403089141.jpg", "img_width": 400, "keywords": "Detached, Freehold, Garden, Garage, Bungalow", "latitude": 50.9344, "lister_name": "Greenslade Taylor Hunt", "lister_url": "https://www.nestoria.co.uk/detail/0000000111105672403089141/title/5/38-1?serpUid=&pt=1&ot=1&l=somerset&did=105_high1&t_sec=9&t_or=45&t_pvid=null&utm_source=api&utm_medium=external", "listing_type": "buy", "location_accuracy": 9, "longitude": -2.70512, "price": 395000, "price_currency": "\u00a3", "price_formatted": "\u00a3395,000", "price_high": 395000, "price_low": 395000, "price_type": "fixed", "property_type": "house", "size": 0, "size_type": "net", "summary": "Detached hamstone 3 bedroom bungalow, with garage and parking. Vill...", "thumb_height": 60, "thumb_url": "https://imgs.nestimg.com/medium/3_bedroom_detached_bungalow_for_sale_111105672403089141.jpg", "thumb_width": 80, "title": "Westbury Gardens, Higher Odcombe, Yeovil, Somerset, BA22", "updated_in_days": 101, "updated_in_days_formatted": "first seen over a month ago"}, {"bathroom_number": "", "bedroom_number": 6, "car_spaces": 0, "commission": 0, "construction_year": 0, "datasource_name": "OnTheMarket.com", "img_height": 300, "img_url": "https://imgs.nestimg.com/6_bedroom_detached_house_for_sale_111099713781624185.jpg", "img_width": 400, "keywords": "Detached, Grade II, Conversion, Victorian, Listed", "latitude": 50.915985, "lister_name": "Knight Frank", "lister_url": "https://www.nestoria.co.uk/detail/0000000111099713781624185/title/5/38-2?serpUid=&pt=1&ot=1&l=somerset&did=105_high1&t_sec=9&t_or=45&t_pvid=null&utm_source=api&utm_medium=external", "listing_type": "buy", "location_accuracy": 9, "longitude": -2.719845, "price": 1150000, "price_currency": "\u00a3", "price_formatted": "\u00a31,150,000", "price_high": 1150000, "price_low": 1150000, "price_type": "fixed", "property_type": "house", "size": 0, "size_type": "net", "summary": "6 bedroom grade ii listed former rectory with converted coach house...", "thumb_height": 60, "thumb_url": "https://imgs.nestimg.com/medium/6_bedroom_detached_house_for_sale_111099713781624185.jpg", "thumb_width": 80, "title": "Weston Street, East Chinnock, Yeovil, Somerset, BA22", "updated_in_days": 102, "updated_in_days_formatted": "first seen over a month ago"}, {"bathroom_number": "", "bedroom_number": 4, "car_spaces": 0, "commission": 0, "construction_year": 0, "datasource_name": "OnTheMarket.com", "img_height": 300, "img_url": "https://imgs.nestimg.com/4_bedroom_semi_detached_house_for_sale_109615571753011789.jpg", "img_width": 400, "keywords": "Semi-Detached", "latitude": 50.859, "lister_name": "Greenslade Taylor Hunt", "lister_url": "https://www.nestoria.co.uk/detail/0000000109615571753011789/title/5/38-3?serpUid=&pt=1&ot=1&l=somerset&did=105_high1&t_sec=9&t_or=45&t_pvid=null&utm_source=api&utm_medium=external", "listing_type": "buy", "location_accuracy": 9, "longitude": -2.96907, "price": 399950, "price_currency": "\u00a3", "price_formatted": "\u00a3399,950", "price_high": 399950, "price_low": 399950, "price_type": "fixed", "property_type": "house", "size": 0, "size_type": "net", "summary": "A well proportioned attached 3/4 bedroom period house with single s...", "thumb_height": 60, "thumb_url": "https://imgs.nestimg.com/medium/4_bedroom_semi_detached_house_for_sale_109615571753011789.jpg", "thumb_width": 80, "title": "Bounds Lane, Chard, Somerset, TA20", "updated_in_days": 342, "updated_in_days_formatted": "first seen over a month ago"}, {"bathroom_number": "", "bedroom_number": 4, "car_spaces": 0, "commission": 0, "construction_year": 0, "datasource_name": "OnTheMarket.com", "img_height": 300, "img_url": "https://imgs.nestimg.com/4_bedroom_detached_house_for_sale_110839802085573654.jpg", "img_width": 400, "keywords": "Detached, En suite, No Chain, Garage, Kitchen, Reception", "latitude": 51.3508, "lister_url": "https://www.nestoria.co.uk/detail/0000000110839802085573654/title/5/38-4?serpUid=&pt=1&ot=1&l=somerset&did=105_high1&t_sec=9&t_or=45&t_pvid=null&utm_source=api&utm_medium=external", "listing_type": "buy", "location_accuracy": 9, "longitude": -2.92123, "price": 315000, "price_currency": "\u00a3", "price_formatted": "\u00a3315,000", "price_high": 315000, "price_low": 315000, "price_type": "fixed", "property_type": "house", "size": 0, "size_type": "net", "summary": "Ly presented detached house. Four bedrooms. Master with ensuite. Tw...", "thumb_height": 60, "thumb_url": "https://imgs.nestimg.com/medium/4_bedroom_detached_house_for_sale_110839802085573654.jpg", "thumb_width": 80, "title": "Old Mill Way, Weston Village, Weston-super-Mare, North Somerset. BS24", "updated_in_days": 53, "updated_in_days_formatted": "first seen over a month ago"}, {"bathroom_number": "", "bedroom_number": 3, "car_spaces": 0, "commission": 0, "construction_year": 0, "datasource_name": "OnTheMarket.com", "img_height": 300, "img_url": "https://imgs.nestimg.com/3_bedroom_semi_detached_house_for_sale_111557529131835540.jpg", "img_width": 400, "keywords": "Garden, Semi-Detached, No Chain, Conservatory, Garage", "latitude": 51.3544, "lister_url": "https://www.nestoria.co.uk/detail/0000000111557529131835540/title/5/38-5?serpUid=&pt=1&ot=1&l=somerset&did=105_high1&t_sec=9&t_or=45&t_pvid=null&utm_source=api&utm_medium=external", "listing_type": "buy", "location_accuracy": 9, "longitude": -2.9256, "price": 230000, "price_currency": "\u00a3", "price_formatted": "\u00a3230,000", "price_high": 230000, "price_low": 230000, "price_type": "fixed", "property_type": "house", "size": 0, "size_type": "net", "summary": "Well presented semi detached house. Three bedrooms. L-shaped lounge...", "thumb_height": 60, "thumb_url": "https://imgs.nestimg.com/medium/3_bedroom_semi_detached_house_for_sale_111557529131835540.jpg", "thumb_width": 80, "title": "Plover Close, Mead Vale, Weston-super-Mare, North Somerset. BS22", "updated_in_days": 28, "updated_in_days_formatted": "first seen last month"}, {"bathroom_number": "", "bedroom_number": 4, "car_spaces": 0, "commission": 0, "construction_year": 0, "datasource_name": "OnTheMarket.com", "img_height": 300, "img_url": "https://imgs.nestimg.com/4_bedroom_detached_bungalow_for_sale_111457721252528878.jpg", "img_width": 400, "keywords": "Detached, Bungalow", "latitude": 51.3219, "lister_url": "https://www.nestoria.co.uk/detail/0000000111457721252528878/title/5/38-6?serpUid=&pt=1&ot=1&l=somerset&did=105_high1&t_sec=9&t_or=45&t_pvid=null&utm_source=api&utm_medium=external", "listing_type": "buy", "location_accuracy": 9, "longitude": -3.01101, "price": 265000, "price_currency": "\u00a3", "price_formatted": "\u00a3265,000", "price_high": 265000, "price_low": 265000, "price_type": "fixed", "property_type": "house", "size": 0, "size_type": "net", "summary": "An extended and improved 4 bed detached bungalow set in the lee of ...", "thumb_height": 60, "thumb_url": "https://imgs.nestimg.com/medium/4_bedroom_detached_bungalow_for_sale_111457721252528878.jpg", "thumb_width": 80, "title": "Brean Road, Brean Down, Somerset", "updated_in_days": 44, "updated_in_days_formatted": "first seen over a month ago"}, {"bathroom_number": "", "bedroom_number": 3, "car_spaces": 0, "commission": 0, "construction_year": 0, "datasource_name": "OnTheMarket.com", "img_height": 300, "img_url": "https://imgs.nestimg.com/3_bedroom_house_for_sale_110623528400122917.jpg", "img_width": 400, "keywords": "Garden, Semi-Detached, Conservatory, Double Bedroom, Kitchen, Parking", "latitude": 50.940525, "lister_url": "https://www.nestoria.co.uk/detail/0000000110623528400122917/title/5/38-7?serpUid=&pt=1&ot=1&l=somerset&did=105_high1&t_sec=9&t_or=45&t_pvid=null&utm_source=api&utm_medium=external", "listing_type": "buy", "location_accuracy": 9, "longitude": -2.644631, "price": 190000, "price_currency": "\u00a3", "price_formatted": "\u00a3190,000", "price_high": 190000, "price_low": 190000, "price_type": "fixed", "property_type": "house", "size": 0, "size_type": "net", "summary": "Three bedroom semi-detached house in no-through road address! Off r...", "thumb_height": 60, "thumb_url": "https://imgs.nestimg.com/medium/3_bedroom_house_for_sale_110623528400122917.jpg", "thumb_width": 80, "title": "Seaton Road, YEOVIL, Somerset, BA20", "updated_in_days": 72, "updated_in_days_formatted": "first seen over a month ago"}, {"bathroom_number": "", "bedroom_number": 2, "car_spaces": 0, "commission": 0, "construction_year": 0, "datasource_name": "OnTheMarket.com", "img_height": 300, "img_url": "https://imgs.nestimg.com/2_bedroom_flat_for_sale_111662469973759870.jpg", "img_width": 400, "keywords": "Cul-de-Sac", "latitude": 51.3489, "lister_url": "https://www.nestoria.co.uk/detail/0000000111662469973759870/title/5/38-8?serpUid=&pt=1&ot=1&l=somerset&did=105_high1&t_sec=9&t_or=45&t_pvid=null&utm_source=api&utm_medium=external", "listing_type": "buy", "location_accuracy": 9, "longitude": -2.95462, "price": 114950, "price_currency": "\u00a3", "price_formatted": "\u00a3114,950", "price_high": 114950, "price_low": 114950, "price_type": "fixed", "property_type": "flat", "size": 0, "size_type": "net", "summary": "First floor flat situated in a cul-de-sac location in milton which ...", "thumb_height": 60, "thumb_url": "https://imgs.nestimg.com/medium/2_bedroom_flat_for_sale_111662469973759870.jpg", "thumb_width": 80, "title": "Acacia Avenue, BS23, North Somerset", "updated_in_days": 11, "updated_in_days_formatted": "first seen last week"}, {"bathroom_number": "", "bedroom_number": 3, "car_spaces": 0, "commission": 0, "construction_year": 0, "datasource_name": "OnTheMarket.com", "img_height": 300, "img_url": "https://imgs.nestimg.com/3_bedroom_detached_house_for_sale_111693437427811316.jpg", "img_width": 400, "keywords": "Detached, Conservatory, Cul-de-Sac", "latitude": 51.24144, "lister_url": "https://www.nestoria.co.uk/detail/0000000111693437427811316/title/5/38-9?serpUid=&pt=1&ot=1&l=somerset&did=105_high1&t_sec=9&t_or=45&t_pvid=null&utm_source=api&utm_medium=external", "listing_type": "buy", "location_accuracy": 9, "longitude": -2.4463089, "price": 224950, "price_currency": "\u00a3", "price_formatted": "\u00a3224,950", "price_high": 224950, "price_low": 224950, "price_type": "fixed", "property_type": "house", "size": 0, "size_type": "net", "summary": "Set in a quiet cul-de-sac location in the mendip village of colefor...", "thumb_height": 60, "thumb_url": "https://imgs.nestimg.com/medium/3_bedroom_detached_house_for_sale_111693437427811316.jpg", "thumb_width": 80, "title": "Lawrence Road, Coleford, RADSTOCK, Somerset, BA3", "updated_in_days": 6, "updated_in_days_formatted": "first seen 6 days ago"}, {"bathroom_number": "", "bedroom_number": 3, "car_spaces": 0, "commission": 0, "construction_year": 0, "datasource_name": "OnTheMarket.com", "img_height": 300, "img_url": "https://imgs.nestimg.com/3_bedroom_semi_detached_house_for_sale_110740868967435312.jpg", "img_width": 400, "keywords": "Semi-Detached, Grade II, No Chain, Garage, Cottage, Listed", "latitude": 50.9211, "lister_name": "Greenslade Taylor Hunt", "lister_url": "https://www.nestoria.co.uk/detail/0000000110740868967435312/title/5/38-10?serpUid=&pt=1&ot=1&l=somerset&did=105_high1&t_sec=9&t_or=45&t_pvid=null&utm_source=api&utm_medium=external", "listing_type": "buy", "location_accuracy": 9, "longitude": -2.68379, "price": 279950, "price_currency": "\u00a3", "price_formatted": "\u00a3279,950", "price_high": 279950, "price_low": 279950, "price_type": "fixed", "property_type": "house", "size": 0, "size_type": "net", "summary": "Ly renovated grade ii listed cottage, 3 bedrooms, garage, no onward...", "thumb_height": 60, "thumb_url": "https://imgs.nestimg.com/medium/3_bedroom_semi_detached_house_for_sale_110740868967435312.jpg", "thumb_width": 80, "title": "High Street, West Coker, Yeovil, Somerset, BA22", "updated_in_days": 41, "updated_in_days_formatted": "first seen over a month ago"}, {"bathroom_number": "", "bedroom_number": 4, "car_spaces": 0, "commission": 0, "construction_year": 0, "datasource_name": "OnTheMarket.com", "img_height": 300, "img_url": "https://imgs.nestimg.com/4_bedroom_detached_bungalow_for_sale_111111698125686883.jpg", "img_width": 400, "keywords": "Detached, Bungalow, Modern, Cul-de-Sac", "latitude": 51.1776, "lister_url": "https://www.nestoria.co.uk/detail/0000000111111698125686883/title/5/38-11?serpUid=&pt=1&ot=1&l=somerset&did=105_high1&t_sec=9&t_or=45&t_pvid=null&utm_source=api&utm_medium=external", "listing_type": "buy", "location_accuracy": 9, "longitude": -3.40598, "price": 405000, "price_currency": "\u00a3", "price_formatted": "\u00a3405,000", "price_high": 405000, "price_low": 405000, "price_type": "fixed", "property_type": "house", "size": 0, "size_type": "net", "summary": "A modern and well presented four bedroom detached chalet bungalow s...", "thumb_height": 60, "thumb_url": "https://imgs.nestimg.com/medium/4_bedroom_detached_bungalow_for_sale_111111698125686883.jpg", "thumb_width": 80, "title": "Southlands, Blue Anchor, Minehead, Somerset, TA24", "updated_in_days": 100, "updated_in_days_formatted": "first seen over a month ago"}, {"bathroom_number": "", "bedroom_number": 3, "car_spaces": 0, "commission": 0, "construction_year": 0, "datasource_name": "OnTheMarket.com", "img_height": 300, "img_url": "https://imgs.nestimg.com/3_bedroom_terraced_house_for_sale_111186361743242335.jpg", "img_width": 400, "keywords": "No Chain, Terraced, Garage, Kitchen", "latitude": 51.3517, "lister_url": "https://www.nestoria.co.uk/detail/0000000111186361743242335/title/5/38-12?serpUid=&pt=1&ot=1&l=somerset&did=105_high1&t_sec=9&t_or=45&t_pvid=null&utm_source=api&utm_medium=external", "listing_type": "buy", "location_accuracy": 9, "longitude": -2.92735, "price": 187500, "price_currency": "\u00a3", "price_formatted": "\u00a3187,500", "price_high": 187500, "price_low": 187500, "price_type": "fixed", "property_type": "house", "size": 0, "size_type": "net", "summary": "Mid terrace three bedroom home which has been updated throughout to...", "thumb_height": 60, "thumb_url": "https://imgs.nestimg.com/medium/3_bedroom_terraced_house_for_sale_111186361743242335.jpg", "thumb_width": 80, "title": "Pelican Close, BS22, North Somerset", "updated_in_days": 19, "updated_in_days_formatted": "first seen 2 weeks ago"}, {"bathroom_number": "", "bedroom_number": 4, "car_spaces": 0, "commission": 0, "construction_year": 0, "datasource_name": "OnTheMarket.com", "img_height": 300, "img_url": "https://imgs.nestimg.com/4_bedroom_detached_house_for_sale_111581681952626369.jpg", "img_width": 400, "keywords": "Detached", "latitude": 50.848, "lister_name": "Greenslade Taylor Hunt", "lister_url": "https://www.nestoria.co.uk/detail/0000000111581681952626369/title/5/38-13?serpUid=&pt=1&ot=1&l=somerset&did=105_high1&t_sec=9&t_or=45&t_pvid=null&utm_source=api&utm_medium=external", "listing_type": "buy", "location_accuracy": 9, "longitude": -2.94256, "price": 375000, "price_currency": "\u00a3", "price_formatted": "\u00a3375,000", "price_high": 375000, "price_low": 375000, "price_type": "fixed", "property_type": "house", "size": 0, "size_type": "net", "summary": "A smart 4 bedroom detached house in a idyllic location on the edge ...", "thumb_height": 60, "thumb_url": "https://imgs.nestimg.com/medium/4_bedroom_detached_house_for_sale_111581681952626369.jpg", "thumb_width": 80, "title": "Higher Coombses, Tatworth, Somerset, TA20", "updated_in_days": 24, "updated_in_days_formatted": "first seen 3 weeks ago"}, {"bathroom_number": "", "bedroom_number": 4, "car_spaces": 0, "commission": 0, "construction_year": 0, "datasource_name": "OnTheMarket.com", "img_height": 300, "img_url": "https://imgs.nestimg.com/4_bedroom_equestrian_facility_for_sale_110709910667358728.jpg", "img_width": 400, "keywords": "Detached", "latitude": 50.8883, "lister_url": "https://www.nestoria.co.uk/detail/0000000110709910667358728/title/5/38-14?serpUid=&pt=1&ot=1&l=somerset&did=105_high1&t_sec=9&t_or=45&t_pvid=null&utm_source=api&utm_medium=external", "listing_type": "buy", "location_accuracy": 9, "longitude": -2.86983, "price": 875000, "price_currency": "\u00a3", "price_formatted": "\u00a3875,000", "price_high": 875000, "price_low": 875000, "price_type": "fixed", "property_type": "house", "size": 0, "size_type": "net", "summary": "A most , and versatile period family home nestled in grounds of app...", "thumb_height": 60, "thumb_url": "https://imgs.nestimg.com/medium/4_bedroom_equestrian_facility_for_sale_110709910667358728.jpg", "thumb_width": 80, "title": "Higher Chillington, Ilminster, Somerset, TA19", "updated_in_days": 165, "updated_in_days_formatted": "first seen over a month ago"}, {"bathroom_number": "", "bedroom_number": 8, "car_spaces": 0, "commission": 0, "construction_year": 0, "datasource_name": "OnTheMarket.com", "img_height": 300, "img_url": "https://imgs.nestimg.com/8_bedroom_detached_house_for_sale_109058807738185872.jpg", "img_width": 400, "keywords": "Detached, Freehold", "latitude": 51.1485, "lister_name": "Greenslade Taylor Hunt", "lister_url": "https://www.nestoria.co.uk/detail/0000000109058807738185872/title/5/38-15?serpUid=&pt=1&ot=1&l=somerset&did=105_high1&t_sec=9&t_or=45&t_pvid=null&utm_source=api&utm_medium=external", "listing_type": "buy", "location_accuracy": 9, "longitude": -2.71069, "price": 1250000, "price_currency": "\u00a3", "price_formatted": "\u00a31,250,000", "price_high": 1250000, "price_low": 1250000, "price_type": "fixed", "property_type": "house", "size": 0, "size_type": "net", "summary": "One of glastonbury's finest houses which incorporates a family home...", "thumb_height": 60, "thumb_url": "https://imgs.nestimg.com/medium/8_bedroom_detached_house_for_sale_109058807738185872.jpg", "thumb_width": 80, "title": "Glastonbury, Somerset, BA6 - Detached", "updated_in_days": 432, "updated_in_days_formatted": "first seen over a month ago"}], "locations": [{"center_lat": 51.080967, "center_long": -3.045432, "long_title": "Somerset, county", "place_name": "somerset", "title": "Somerset"}], "page": 38, "sort": "nestoria_rank", "status_code": "200", "status_text": "OK", "thanks": "For using the Nestoria API.", "total_pages": 410, "total_results": 6149, "_cu5t0mP434m_": "remove"}}