{"request": {"country": "uk", "language": "en", "location": "somerset", "num_res": "15", "offset": 570, "output": "json_xs", "page": 39, "product_type": "realestate", "property_type": "property", "size_type": "net", "size_unit": "m2", "sort": "nestoria_rank", "listing_type": "buy"}, "response": {"application_response_code": "100", "application_response_text": "listings returned for one unambiguous location", "attribution": {"img_height": 22, "img_url": "https://resources.nestimg.com/nestoria/img/pbr_v1.png", "img_width": 183, "link_to_img": "http://www.nestoria.com"}, "created_http": "Tue, 18 Jun 2019 17:29:33 GMT", "created_unix": 1560878973, "link_to_url": "https://www.nestoria.co.uk/somerset/property/buy/39", "listings": [{"bathroom_number": "", "bedroom_number": 3, "car_spaces": 0, "commission": 0, "construction_year": 0, "datasource_name": "OnTheMarket.com", "img_height": 300, "img_url": "https://imgs.nestimg.com/3_bedroom_semi_detached_house_for_sale_111575827873959570.jpg", "img_width": 400, "keywords": "Garden, Semi-Detached, Parking", "latitude": 51.2078, "lister_name": "Greenslade Taylor Hunt", "lister_url": "https://www.nestoria.co.uk/detail/0000000111575827873959570/title/5/39-1?serpUid=&pt=1&ot=1&l=somerset&did=105_high1&t_sec=9&t_or=45&t_pvid=null&utm_source=api&utm_medium=external", "listing_type": "buy", "location_accuracy": 9, "longitude": -2.65884, "price": 235000, "price_currency": "\u00a3", "price_formatted": "\u00a3235,000", "price_high": 235000, "price_low": 235000, "price_type": "fixed", "property_type": "house", "size": 0, "size_type": "net", "summary": "A superb three bedroom semi-detached property with off-road parking...", "thumb_height": 60, "thumb_url": "https://imgs.nestimg.com/medium/3_bedroom_semi_detached_house_for_sale_111575827873959570.jpg", "thumb_width": 80, "title": "Balch Road, Wells, Somerset, BA5", "updated_in_days": 25, "updated_in_days_formatted": "first seen 3 weeks ago"}, {"bathroom_number": "", "bedroom_number": 3, "car_spaces": 0, "commission": 0, "construction_year": 0, "datasource_name": "OnTheMarket.com", "img_height": 300, "img_url": "https://imgs.nestimg.com/3_bedroom_semi_detached_house_for_sale_111613018986631658.jpg", "img_width": 400, "keywords": "Semi-Detached, No Chain, Cottage", "latitude": 51.1829, "lister_url": "https://www.nestoria.co.uk/detail/0000000111613018986631658/title/5/39-2?serpUid=&pt=1&ot=1&l=somerset&did=105_high1&t_sec=9&t_or=45&t_pvid=null&utm_source=api&utm_medium=external", "listing_type": "buy", "location_accuracy": 9, "longitude": -3.44419, "price": 207500, "price_currency": "\u00a3", "price_formatted": "\u00a3207,500", "price_high": 207500, "price_low": 207500, "price_type": "fixed", "property_type": "house", "size": 0, "size_type": "net", "summary": "No onward chain a three bedroom character cottage situated at the f...", "thumb_height": 60, "thumb_url": "https://imgs.nestimg.com/medium/3_bedroom_semi_detached_house_for_sale_111613018986631658.jpg", "thumb_width": 80, "title": "Castle Hill, Dunster, Minehead, Somerset, TA24", "updated_in_days": 19, "updated_in_days_formatted": "first seen 2 weeks ago"}, {"bathroom_number": "", "bedroom_number": 2, "car_spaces": 0, "commission": 0, "construction_year": 0, "datasource_name": "OnTheMarket.com", "img_height": 300, "img_url": "https://imgs.nestimg.com/2_bedroom_semi_detached_house_for_sale_110988633772599335.jpg", "img_width": 400, "keywords": "Garden, Semi-Detached, Garage", "latitude": 50.9328, "lister_name": "Greenslade Taylor Hunt", "lister_url": "https://www.nestoria.co.uk/detail/0000000110988633772599335/title/5/39-3?serpUid=&pt=1&ot=1&l=somerset&did=105_high1&t_sec=9&t_or=45&t_pvid=null&utm_source=api&utm_medium=external", "listing_type": "buy", "location_accuracy": 9, "longitude": -2.66317, "price": 180000, "price_currency": "\u00a3", "price_formatted": "\u00a3180,000", "price_high": 180000, "price_low": 180000, "price_type": "fixed", "property_type": "house", "size": 0, "size_type": "net", "summary": "A superb two bedroom, semi-detached house located on the sought aft...", "thumb_height": 60, "thumb_url": "https://imgs.nestimg.com/medium/2_bedroom_semi_detached_house_for_sale_110988633772599335.jpg", "thumb_width": 80, "title": "The Briars, Yeovil, Somerset, BA20", "updated_in_days": 27, "updated_in_days_formatted": "first seen 3 weeks ago"}, {"bathroom_number": "", "bedroom_number": 6, "car_spaces": 0, "commission": 0, "construction_year": 0, "datasource_name": "OnTheMarket.com", "img_height": 300, "img_url": "https://imgs.nestimg.com/6_bedroom_detached_house_for_sale_110981944877373296.jpg", "img_width": 400, "keywords": "Detached", "latitude": 51.09562, "lister_name": "Savills", "lister_url": "https://www.nestoria.co.uk/detail/0000000110981944877373296/title/5/39-4?serpUid=&pt=1&ot=1&l=somerset&did=105_high1&t_sec=9&t_or=45&t_pvid=null&utm_source=api&utm_medium=external", "listing_type": "buy", "location_accuracy": 9, "longitude": -2.68352, "price": 1450000, "price_currency": "\u00a3", "price_formatted": "\u00a31,450,000", "price_high": 1450000, "price_low": 1450000, "price_type": "fixed", "property_type": "house", "size": 0, "size_type": "net", "summary": "A and ly appointed contemporary home situated in the idyllic and ou...", "thumb_height": 60, "thumb_url": "https://imgs.nestimg.com/medium/6_bedroom_detached_house_for_sale_110981944877373296.jpg", "thumb_width": 80, "title": "Barton Road, Butleigh, Glastonbury, Somerset, BA6", "updated_in_days": 121, "updated_in_days_formatted": "first seen over a month ago"}, {"bathroom_number": "", "bedroom_number": 2, "car_spaces": 0, "commission": 0, "construction_year": 0, "datasource_name": "OnTheMarket.com", "img_height": 300, "img_url": "https://imgs.nestimg.com/2_bedroom_semi_detached_house_for_sale_111303407805147156.jpg", "img_width": 400, "keywords": "Semi-Detached, Conversion, Parking, Cottage", "latitude": 51.3245, "lister_url": "https://www.nestoria.co.uk/detail/0000000111303407805147156/title/5/39-5?serpUid=&pt=1&ot=1&l=somerset&did=105_high1&t_sec=9&t_or=45&t_pvid=null&utm_source=api&utm_medium=external", "listing_type": "buy", "location_accuracy": 9, "longitude": -2.93479, "price": 130000, "price_currency": "\u00a3", "price_formatted": "\u00a3130,000", "price_high": 130000, "price_low": 130000, "price_type": "fixed", "property_type": "house", "size": 0, "size_type": "net", "summary": "Hutton village. Planning approved for conversion for a two bedroom ...", "thumb_height": 60, "thumb_url": "https://imgs.nestimg.com/medium/2_bedroom_semi_detached_house_for_sale_111303407805147156.jpg", "thumb_width": 80, "title": "Main Road, Hutton , Weston-super-Mare, North Somerset. BS24", "updated_in_days": 69, "updated_in_days_formatted": "first seen over a month ago"}, {"bathroom_number": "", "bedroom_number": 6, "car_spaces": 0, "commission": 0, "construction_year": 0, "datasource_name": "OnTheMarket.com", "img_height": 300, "img_url": "https://imgs.nestimg.com/6_bedroom_detached_house_5280034461871325198.jpg", "img_width": 400, "keywords": "Detached, Garden, Grade II, Swimming Pool, Modern, Reception, Georgian, Listed", "latitude": 51.322693, "lister_name": "Knight Frank", "lister_url": "https://www.nestoria.co.uk/detail/0000005280034461871325198/title/5/39-6?serpUid=&pt=1&ot=1&l=somerset&did=105_high1&t_sec=9&t_or=45&t_pvid=null&utm_source=api&utm_medium=external", "listing_type": "buy", "location_accuracy": 9, "longitude": -2.791606, "price": 1800000, "price_currency": "\u00a3", "price_formatted": "\u00a31,800,000", "price_high": 1800000, "price_low": 1800000, "price_type": "fixed", "property_type": "house", "size": 0, "size_type": "net", "summary": "Classic georgian former rectory for sale in north somerset. A grade...", "thumb_height": 60, "thumb_url": "https://imgs.nestimg.com/medium/6_bedroom_detached_house_5280034461871325198.jpg", "thumb_width": 80, "title": "Rowberrow, Winscombe, Bristol, North Somerset, BS25", "updated_in_days": 193, "updated_in_days_formatted": "first seen over a month ago"}, {"bathroom_number": "", "bedroom_number": 1, "car_spaces": 0, "commission": 0, "construction_year": 0, "datasource_name": "OnTheMarket.com", "img_height": 300, "img_url": "https://imgs.nestimg.com/1_bedroom_flat_for_sale_111489639331318578.jpg", "img_width": 400, "keywords": "En suite, Balcony, Kitchen", "latitude": 51.3514, "lister_url": "https://www.nestoria.co.uk/detail/0000000111489639331318578/title/5/39-7?serpUid=&pt=1&ot=1&l=somerset&did=105_high1&t_sec=9&t_or=45&t_pvid=null&utm_source=api&utm_medium=external", "listing_type": "buy", "location_accuracy": 9, "longitude": -2.98987, "price": 175000, "price_currency": "\u00a3", "price_formatted": "\u00a3175,000", "price_high": 175000, "price_low": 175000, "price_type": "fixed", "property_type": "flat", "size": 0, "size_type": "net", "summary": "An ideal investment property located within the knighstone theatre ...", "thumb_height": 60, "thumb_url": "https://imgs.nestimg.com/medium/1_bedroom_flat_for_sale_111489639331318578.jpg", "thumb_width": 80, "title": "Knightstone Causeway, Somerset", "updated_in_days": 39, "updated_in_days_formatted": "first seen over a month ago"}, {"bathroom_number": "", "bedroom_number": 5, "car_spaces": 0, "commission": 0, "construction_year": 0, "datasource_name": "OnTheMarket.com", "img_height": 300, "img_url": "https://imgs.nestimg.com/5_bedroom_house_for_sale_111538332576932699.jpg", "img_width": 400, "keywords": "", "latitude": 51.05773, "lister_name": "Strutt & Parker", "lister_url": "https://www.nestoria.co.uk/detail/0000000111538332576932699/title/5/39-8?serpUid=&pt=1&ot=1&l=somerset&did=105_high1&t_sec=9&t_or=45&t_pvid=null&utm_source=api&utm_medium=external", "listing_type": "buy", "location_accuracy": 9, "longitude": -3.42201, "price": 1600000, "price_currency": "\u00a3", "price_formatted": "\u00a31,600,000", "price_high": 1600000, "price_low": 1600000, "price_type": "fixed", "property_type": "house", "size": 0, "size_type": "net", "summary": "An well renovated house set in approximately 110 acres in the footh...", "thumb_height": 60, "thumb_url": "https://imgs.nestimg.com/medium/5_bedroom_house_for_sale_111538332576932699.jpg", "thumb_width": 80, "title": "Upton, Taunton, Somerset", "updated_in_days": 31, "updated_in_days_formatted": "first seen over a month ago"}, {"bathroom_number": "", "bedroom_number": 3, "car_spaces": 0, "commission": 0, "construction_year": 0, "datasource_name": "OnTheMarket.com", "img_height": 300, "img_url": "https://imgs.nestimg.com/3_bedroom_terraced_house_for_sale_111624982591092509.jpg", "img_width": 400, "keywords": "Freehold, Grade II, Terraced, Georgian, Listed", "latitude": 51.2037, "lister_url": "https://www.nestoria.co.uk/detail/0000000111624982591092509/title/5/39-9?serpUid=&pt=1&ot=1&l=somerset&did=105_high1&t_sec=9&t_or=45&t_pvid=null&utm_source=api&utm_medium=external", "listing_type": "buy", "location_accuracy": 9, "longitude": -3.4802, "price": 280000, "price_currency": "\u00a3", "price_formatted": "\u00a3280,000", "price_high": 280000, "price_low": 280000, "price_type": "fixed", "property_type": "house", "size": 0, "size_type": "net", "summary": "A grade ii listed georgian terraced town house of considerable char...", "thumb_height": 60, "thumb_url": "https://imgs.nestimg.com/medium/3_bedroom_terraced_house_for_sale_111624982591092509.jpg", "thumb_width": 80, "title": "Bampton Street, Minehead, Somerset, TA24", "updated_in_days": 17, "updated_in_days_formatted": "first seen 2 weeks ago"}, {"bathroom_number": "", "bedroom_number": 3, "car_spaces": 0, "commission": 0, "construction_year": 0, "datasource_name": "OnTheMarket.com", "img_height": 300, "img_url": "https://imgs.nestimg.com/3_bedroom_terraced_house_for_sale_111656085628841401.jpg", "img_width": 400, "keywords": "Garden, Terraced, Cottage, Listed", "latitude": 51.1967, "lister_name": "Greenslade Taylor Hunt", "lister_url": "https://www.nestoria.co.uk/detail/0000000111656085628841401/title/5/39-10?serpUid=&pt=1&ot=1&l=somerset&did=105_high1&t_sec=9&t_or=45&t_pvid=null&utm_source=api&utm_medium=external", "listing_type": "buy", "location_accuracy": 9, "longitude": -2.58797, "price": 275000, "price_currency": "\u00a3", "price_formatted": "\u00a3275,000", "price_high": 275000, "price_low": 275000, "price_type": "fixed", "property_type": "house", "size": 0, "size_type": "net", "summary": "A grade ll listed three bedroom cottage packed full of character, w...", "thumb_height": 60, "thumb_url": "https://imgs.nestimg.com/medium/3_bedroom_terraced_house_for_sale_111656085628841401.jpg", "thumb_width": 80, "title": "Long Street, Croscombe, Wells, Somerset, BA5", "updated_in_days": 12, "updated_in_days_formatted": "first seen last week"}, {"bathroom_number": "", "bedroom_number": 4, "car_spaces": 0, "commission": 0, "construction_year": 0, "datasource_name": "OnTheMarket.com", "img_height": 300, "img_url": "https://imgs.nestimg.com/4_bedroom_detached_house_for_sale_111204811774082412.jpg", "img_width": 400, "keywords": "Detached, Freehold, Garden, Conservatory, Garage", "latitude": 50.9443, "lister_name": "Greenslade Taylor Hunt", "lister_url": "https://www.nestoria.co.uk/detail/0000000111204811774082412/title/5/39-11?serpUid=&pt=1&ot=1&l=somerset&did=105_high1&t_sec=9&t_or=45&t_pvid=null&utm_source=api&utm_medium=external", "listing_type": "buy", "location_accuracy": 9, "longitude": -2.64527, "price": 340000, "price_currency": "\u00a3", "price_formatted": "\u00a3340,000", "price_high": 340000, "price_low": 340000, "price_type": "fixed", "property_type": "house", "size": 0, "size_type": "net", "summary": "Ly presented, four bedroom detached home located in a sought after ...", "thumb_height": 60, "thumb_url": "https://imgs.nestimg.com/medium/4_bedroom_detached_house_for_sale_111204811774082412.jpg", "thumb_width": 80, "title": "Parcroft Gardens, Yeovil, Somerset, BA20", "updated_in_days": 85, "updated_in_days_formatted": "first seen over a month ago"}, {"bathroom_number": "", "bedroom_number": 7, "car_spaces": 0, "commission": 0, "construction_year": 0, "datasource_name": "OnTheMarket.com", "img_height": 300, "img_url": "https://imgs.nestimg.com/7_bedroom_detached_house_for_sale_111445543632573887.jpg", "img_width": 400, "keywords": "Detached, Garden, Grade II, Cottage, Listed", "latitude": 50.84008, "lister_name": "Knight Frank", "lister_url": "https://www.nestoria.co.uk/detail/0000000111445543632573887/title/5/39-12?serpUid=&pt=1&ot=1&l=somerset&did=105_high1&t_sec=9&t_or=45&t_pvid=null&utm_source=api&utm_medium=external", "listing_type": "buy", "location_accuracy": 9, "longitude": -2.841686, "price": 1850000, "price_currency": "\u00a3", "price_formatted": "\u00a31,850,000", "price_high": 1850000, "price_low": 1850000, "price_type": "fixed", "property_type": "house", "size": 0, "size_type": "net", "summary": "A ly positioned 7 bed country house with far-reaching views a grade...", "thumb_height": 60, "thumb_url": "https://imgs.nestimg.com/medium/7_bedroom_detached_house_for_sale_111445543632573887.jpg", "thumb_width": 80, "title": "Greenham, Somerset, TA18 - Detached", "updated_in_days": 46, "updated_in_days_formatted": "first seen over a month ago"}, {"bathroom_number": "", "bedroom_number": 12, "car_spaces": 0, "commission": 0, "construction_year": 0, "datasource_name": "OnTheMarket.com", "img_height": 300, "img_url": "https://imgs.nestimg.com/12_bedroom_detached_house_for_sale_110641914861577393.jpg", "img_width": 400, "keywords": "Detached, Garden, Grade II, Swimming Pool, Cottage, Listed", "latitude": 51.1915, "lister_name": "Stags", "lister_url": "https://www.nestoria.co.uk/detail/0000000110641914861577393/title/5/39-13?serpUid=&pt=1&ot=1&l=somerset&did=105_high1&t_sec=9&t_or=45&t_pvid=null&utm_source=api&utm_medium=external", "listing_type": "buy", "location_accuracy": 9, "longitude": -3.45852, "price": 1375000, "price_currency": "\u00a3", "price_formatted": "\u00a31,375,000", "price_high": 1375000, "price_low": 1375000, "price_type": "fixed", "property_type": "house", "size": 0, "size_type": "net", "summary": "16th century grade ii listed 6 bedroom manor house in landscaped ga...", "thumb_height": 60, "thumb_url": "https://imgs.nestimg.com/medium/12_bedroom_detached_house_for_sale_110641914861577393.jpg", "thumb_width": 80, "title": "Ellicombe, Dunster, Somerset, TA24", "updated_in_days": 176, "updated_in_days_formatted": "first seen over a month ago"}, {"bathroom_number": "", "bedroom_number": 2, "car_spaces": 0, "commission": 0, "construction_year": 0, "datasource_name": "OnTheMarket.com", "img_height": 300, "img_url": "https://imgs.nestimg.com/2_bedroom_detached_bungalow_for_sale_111514311268280990.jpg", "img_width": 400, "keywords": "Detached, Conservatory, Double Bedroom, Kitchen, Bungalow, Cul-de-Sac", "latitude": 51.3577, "lister_url": "https://www.nestoria.co.uk/detail/0000000111514311268280990/title/5/39-14?serpUid=&pt=1&ot=1&l=somerset&did=105_high1&t_sec=9&t_or=45&t_pvid=null&utm_source=api&utm_medium=external", "listing_type": "buy", "location_accuracy": 9, "longitude": -2.92235, "price": 219950, "price_currency": "\u00a3", "price_formatted": "\u00a3219,950", "price_high": 219950, "price_low": 219950, "price_type": "fixed", "property_type": "house", "size": 0, "size_type": "net", "summary": "Detached bungalow in the area of south worle. Located in a cul-de-s...", "thumb_height": 60, "thumb_url": "https://imgs.nestimg.com/medium/2_bedroom_detached_bungalow_for_sale_111514311268280990.jpg", "thumb_width": 80, "title": "35 Coralberry Drive, North Somerset", "updated_in_days": 35, "updated_in_days_formatted": "first seen over a month ago"}, {"bathroom_number": "", "bedroom_number": 6, "car_spaces": 0, "commission": 0, "construction_year": 0, "datasource_name": "OnTheMarket.com", "img_height": 300, "img_url": "https://imgs.nestimg.com/6_bedroom_link_detached_house_for_sale_111371188023199426.jpg", "img_width": 400, "keywords": "Detached", "latitude": 50.94026, "lister_name": "Savills", "lister_url": "https://www.nestoria.co.uk/detail/0000000111371188023199426/title/5/39-15?serpUid=&pt=1&ot=1&l=somerset&did=105_high1&t_sec=9&t_or=45&t_pvid=null&utm_source=api&utm_medium=external", "listing_type": "buy", "location_accuracy": 9, "longitude": -2.75841, "price": 1350000, "price_currency": "\u00a3", "price_formatted": "\u00a31,350,000", "price_high": 1350000, "price_low": 1350000, "price_type": "fixed", "property_type": "house", "size": 0, "size_type": "net", "summary": "Most stone village house on the edge of this sought after village", "thumb_height": 60, "thumb_url": "https://imgs.nestimg.com/medium/6_bedroom_link_detached_house_for_sale_111371188023199426.jpg", "thumb_width": 80, "title": "Great Street, Norton Sub Hamdon, Stoke-Sub-Hamdon, Somerset, TA14", "updated_in_days": 58, "updated_in_days_formatted": "first seen over a month ago"}], "locations": [{"center_lat": 51.080967, "center_long": -3.045432, "long_title": "Somerset, county", "place_name": "somerset", "title": "Somerset"}], "page": 39, "sort": "nestoria_rank", "status_code": "200", "status_text": "OK", "thanks": "For using the Nestoria API.", "total_pages": 410, "total_results": 6149, "_cu5t0mP434m_": "remove"}}