{"request": {"country": "uk", "language": "en", "location": "somerset", "num_res": "15", "offset": 30, "output": "json_xs", "page": 3, "product_type": "realestate", "property_type": "property", "size_type": "net", "size_unit": "m2", "sort": "nestoria_rank", "listing_type": "buy"}, "response": {"application_response_code": "100", "application_response_text": "listings returned for one unambiguous location", "attribution": {"img_height": 22, "img_url": "https://resources.nestimg.com/nestoria/img/pbr_v1.png", "img_width": 183, "link_to_img": "http://www.nestoria.com"}, "created_http": "Tue, 18 Jun 2019 17:28:37 GMT", "created_unix": 1560878917, "link_to_url": "https://www.nestoria.co.uk/somerset/property/buy/3", "listings": [{"bathroom_number": "", "bedroom_number": 4, "car_spaces": 0, "commission": 0, "construction_year": 0, "datasource_name": "OnTheMarket.com", "img_height": 300, "img_url": "https://imgs.nestimg.com/4_bedroom_detached_house_for_sale_111495038543093322.jpg", "img_width": 400, "keywords": "Detached, Garden, Double Garage, Double Bedroom, Kitchen, Reception", "latitude": 51.36, "lister_url": "https://www.nestoria.co.uk/detail/0000000111495038543093322/title/5/3-1?serpUid=&pt=1&ot=1&l=somerset&did=105_high1&t_sec=9&t_or=45&t_pvid=null&utm_source=api&utm_medium=external", "listing_type": "buy", "location_accuracy": 9, "longitude": -2.95607, "price": 500000, "price_currency": "\u00a3", "price_formatted": "\u00a3500,000", "price_high": 500000, "price_low": 500000, "price_type": "fixed", "property_type": "house", "size": 0, "size_type": "net", "summary": "Detached house. Four double beds. Two reception rooms plus large ki...", "thumb_height": 60, "thumb_url": "https://imgs.nestimg.com/medium/4_bedroom_detached_house_for_sale_111495038543093322.jpg", "thumb_width": 80, "title": "Worlebury Hill Road, Worlebury, Weston-super-Mare, North Somerset. BS22", "updated_in_days": 3, "updated_in_days_formatted": "first seen 3 days ago"}, {"bathroom_number": "", "bedroom_number": 4, "car_spaces": 0, "commission": 0, "construction_year": 0, "datasource_name": "OnTheMarket.com", "img_height": 300, "img_url": "https://imgs.nestimg.com/4_bedroom_terraced_house_for_sale_111711533461472193.jpg", "img_width": 400, "keywords": "Terraced", "latitude": 50.8643, "lister_name": "Greenslade Taylor Hunt", "lister_url": "https://www.nestoria.co.uk/detail/0000000111711533461472193/title/5/3-2?serpUid=&pt=1&ot=1&l=somerset&did=105_high1&t_sec=9&t_or=45&t_pvid=null&utm_source=api&utm_medium=external", "listing_type": "buy", "location_accuracy": 9, "longitude": -2.96325, "price": 205000, "price_currency": "\u00a3", "price_formatted": "\u00a3205,000", "price_high": 205000, "price_low": 205000, "price_type": "fixed", "property_type": "house", "size": 0, "size_type": "net", "summary": "A smart and 4 bedroom house on the outskirts of the town within eas...", "thumb_height": 60, "thumb_url": "https://imgs.nestimg.com/medium/4_bedroom_terraced_house_for_sale_111711533461472193.jpg", "thumb_width": 80, "title": "Halcombe, Chard, Somerset, TA20", "updated_in_days": 3, "updated_in_days_formatted": "first seen 3 days ago"}, {"bathroom_number": "", "bedroom_number": 2, "car_spaces": 0, "commission": 0, "construction_year": 0, "datasource_name": "OnTheMarket.com", "img_height": 300, "img_url": "https://imgs.nestimg.com/2_bedroom_semi_detached_house_for_sale_111699715306017448.jpg", "img_width": 400, "keywords": "Garden, Semi-Detached, Fireplace, Garage, Kitchen, Cottage", "latitude": 51.0117, "lister_name": "Stags", "lister_url": "https://www.nestoria.co.uk/detail/0000000111699715306017448/title/5/3-3?serpUid=&pt=1&ot=1&l=somerset&did=105_high1&t_sec=9&t_or=45&t_pvid=null&utm_source=api&utm_medium=external", "listing_type": "buy", "location_accuracy": 9, "longitude": -3.16322, "price": 299950, "price_currency": "\u00a3", "price_formatted": "\u00a3299,950", "price_high": 299950, "price_low": 299950, "price_type": "fixed", "property_type": "house", "size": 0, "size_type": "net", "summary": "A two bedroom semi-detached cottage set in a rural location on the ...", "thumb_height": 60, "thumb_url": "https://imgs.nestimg.com/medium/2_bedroom_semi_detached_house_for_sale_111699715306017448.jpg", "thumb_width": 80, "title": "Hele, Taunton, Somerset, TA4 - Garden", "updated_in_days": 5, "updated_in_days_formatted": "first seen 5 days ago"}, {"bathroom_number": "", "bedroom_number": 4, "car_spaces": 0, "commission": 0, "construction_year": 0, "datasource_name": "OnTheMarket.com", "img_height": 300, "img_url": "https://imgs.nestimg.com/4_bedroom_semi_detached_house_for_sale_111526287785916469.jpg", "img_width": 400, "keywords": "Garden, Semi-Detached, En suite, Victorian, Parking", "latitude": 51.351, "lister_url": "https://www.nestoria.co.uk/detail/0000000111526287785916469/title/5/3-4?serpUid=&pt=1&ot=1&l=somerset&did=105_high1&t_sec=9&t_or=45&t_pvid=null&utm_source=api&utm_medium=external", "listing_type": "buy", "location_accuracy": 9, "longitude": -2.97065, "price": 450000, "price_currency": "\u00a3", "price_formatted": "\u00a3450,000", "price_high": 450000, "price_low": 450000, "price_type": "fixed", "property_type": "house", "size": 0, "size_type": "net", "summary": "Victorian semi detached house. Character & charm in abundance. Four...", "thumb_height": 60, "thumb_url": "https://imgs.nestimg.com/medium/4_bedroom_semi_detached_house_for_sale_111526287785916469.jpg", "thumb_width": 80, "title": "Montpelier, Weston-super-Mare, North Somerset. BS23", "updated_in_days": 3, "updated_in_days_formatted": "first seen 3 days ago"}, {"bathroom_number": "", "bedroom_number": 4, "car_spaces": 0, "commission": 0, "construction_year": 0, "datasource_name": "OnTheMarket.com", "img_height": 300, "img_url": "https://imgs.nestimg.com/4_bedroom_semi_detached_house_for_sale_111711524535395232.jpg", "img_width": 400, "keywords": "Semi-Detached, Cottage", "latitude": 50.8432, "lister_name": "Greenslade Taylor Hunt", "lister_url": "https://www.nestoria.co.uk/detail/0000000111711524535395232/title/5/3-5?serpUid=&pt=1&ot=1&l=somerset&did=105_high1&t_sec=9&t_or=45&t_pvid=null&utm_source=api&utm_medium=external", "listing_type": "buy", "location_accuracy": 9, "longitude": -2.95607, "price": 375000, "price_currency": "\u00a3", "price_formatted": "\u00a3375,000", "price_high": 375000, "price_low": 375000, "price_type": "fixed", "property_type": "house", "size": 0, "size_type": "net", "summary": "A 4 bedroom character cottage in a glorious location in a residenti...", "thumb_height": 60, "thumb_url": "https://imgs.nestimg.com/medium/4_bedroom_semi_detached_house_for_sale_111711524535395232.jpg", "thumb_width": 80, "title": "St. Margarets Lane, South Chard, Chard, Somerset, TA20", "updated_in_days": 3, "updated_in_days_formatted": "first seen 3 days ago"}, {"bathroom_number": "", "bedroom_number": 3, "car_spaces": 0, "commission": 0, "construction_year": 0, "datasource_name": "OnTheMarket.com", "img_height": 300, "img_url": "https://imgs.nestimg.com/3_bedroom_semi_detached_house_for_sale_111699713989878215.jpg", "img_width": 400, "keywords": "Freehold, Semi-Detached, No Chain", "latitude": 51.0264, "lister_name": "Greenslade Taylor Hunt", "lister_url": "https://www.nestoria.co.uk/detail/0000000111699713989878215/title/5/3-6?serpUid=&pt=1&ot=1&l=somerset&did=105_high1&t_sec=9&t_or=45&t_pvid=null&utm_source=api&utm_medium=external", "listing_type": "buy", "location_accuracy": 9, "longitude": -3.1089, "price": 275000, "price_currency": "\u00a3", "price_formatted": "\u00a3275,000", "price_high": 275000, "price_low": 275000, "price_type": "fixed", "property_type": "house", "size": 0, "size_type": "net", "summary": "A three bedroomed semi detached house occupying a corner location w...", "thumb_height": 60, "thumb_url": "https://imgs.nestimg.com/medium/3_bedroom_semi_detached_house_for_sale_111699713989878215.jpg", "thumb_width": 80, "title": "Spencer Avenue, Taunton, Somerset, TA2", "updated_in_days": 5, "updated_in_days_formatted": "first seen 5 days ago"}, {"bathroom_number": "", "bedroom_number": "", "car_spaces": 0, "commission": 0, "construction_year": 0, "datasource_name": "OnTheMarket.com", "img_height": 300, "img_url": "https://imgs.nestimg.com/land_for_sale_111711532830974985.jpg", "img_width": 400, "keywords": "", "latitude": 50.9383, "lister_name": "Stags", "lister_url": "https://www.nestoria.co.uk/detail/0000000111711532830974985/title/5/3-7?serpUid=&pt=1&ot=1&l=somerset&did=105_high1&t_sec=9&t_or=45&t_pvid=null&utm_source=api&utm_medium=external", "listing_type": "buy", "location_accuracy": 9, "longitude": -3.14546, "price": 330000, "price_currency": "\u00a3", "price_formatted": "\u00a3330,000", "price_high": 330000, "price_low": 330000, "price_type": "fixed", "property_type": "land", "size": 0, "size_type": "net", "summary": "65 acres of pasture, conservation land and woodland with outstandin...", "thumb_height": 60, "thumb_url": "https://imgs.nestimg.com/medium/land_for_sale_111711532830974985.jpg", "thumb_width": 80, "title": "Churchstanton, Taunton, Somerset, TA3", "updated_in_days": 3, "updated_in_days_formatted": "first seen 3 days ago"}, {"bathroom_number": "", "bedroom_number": 3, "car_spaces": 0, "commission": 0, "construction_year": 0, "datasource_name": "OnTheMarket.com", "img_height": 300, "img_url": "https://imgs.nestimg.com/3_bedroom_detached_bungalow_for_sale_111711527003053822.jpg", "img_width": 400, "keywords": "Detached, No Chain, Refurbished, Kitchen, Bungalow, Parking", "latitude": 51.3622, "lister_url": "https://www.nestoria.co.uk/detail/0000000111711527003053822/title/5/3-8?serpUid=&pt=1&ot=1&l=somerset&did=105_high1&t_sec=9&t_or=45&t_pvid=null&utm_source=api&utm_medium=external", "listing_type": "buy", "location_accuracy": 9, "longitude": -2.89753, "price": 315000, "price_currency": "\u00a3", "price_formatted": "\u00a3315,000", "price_high": 315000, "price_low": 315000, "price_type": "fixed", "property_type": "house", "size": 0, "size_type": "net", "summary": "Urbished throughout. Detached bungalow. St georges. Three beds. Lar...", "thumb_height": 60, "thumb_url": "https://imgs.nestimg.com/medium/3_bedroom_detached_bungalow_for_sale_111711527003053822.jpg", "thumb_width": 80, "title": "Station Road, St Georges, Weston-super-Mare, North Somerset. BS22", "updated_in_days": 3, "updated_in_days_formatted": "first seen 3 days ago"}, {"bathroom_number": "", "bedroom_number": 5, "car_spaces": 0, "commission": 0, "construction_year": 0, "datasource_name": "OnTheMarket.com", "img_height": 300, "img_url": "https://imgs.nestimg.com/5_bedroom_detached_house_for_sale_111080756247864898.jpg", "img_width": 400, "keywords": "Detached, En suite, Kitchen, Cottage, Reception", "latitude": 51.1171, "lister_name": "Stags", "lister_url": "https://www.nestoria.co.uk/detail/0000000111080756247864898/title/5/3-9?serpUid=&pt=1&ot=1&l=somerset&did=105_high1&t_sec=9&t_or=45&t_pvid=null&utm_source=api&utm_medium=external", "listing_type": "buy", "location_accuracy": 9, "longitude": -3.05324, "price": 695000, "price_currency": "\u00a3", "price_formatted": "\u00a3695,000", "price_high": 695000, "price_low": 695000, "price_type": "fixed", "property_type": "house", "size": 0, "size_type": "net", "summary": "A period house with separate cottage and grounds of approximately 1...", "thumb_height": 60, "thumb_url": "https://imgs.nestimg.com/medium/5_bedroom_detached_house_for_sale_111080756247864898.jpg", "thumb_width": 80, "title": "Enmore, Bridgwater, Somerset, TA5", "updated_in_days": 6, "updated_in_days_formatted": "first seen 6 days ago"}, {"bathroom_number": "", "bedroom_number": 3, "car_spaces": 0, "commission": 0, "construction_year": 0, "datasource_name": "OnTheMarket.com", "img_height": 300, "img_url": "https://imgs.nestimg.com/3_bedroom_detached_house_for_sale_111489638144512872.jpg", "img_width": 400, "keywords": "Detached, Garden, Garage", "latitude": 51.3584, "lister_url": "https://www.nestoria.co.uk/detail/0000000111489638144512872/title/5/3-10?serpUid=&pt=1&ot=1&l=somerset&did=105_high1&t_sec=9&t_or=45&t_pvid=null&utm_source=api&utm_medium=external", "listing_type": "buy", "location_accuracy": 9, "longitude": -2.94576, "price": 275000, "price_currency": "\u00a3", "price_formatted": "\u00a3275,000", "price_high": 275000, "price_low": 275000, "price_type": "fixed", "property_type": "house", "size": 0, "size_type": "net", "summary": "Non estate. Detached house. Three beds. Large lounge/dining area. D...", "thumb_height": 60, "thumb_url": "https://imgs.nestimg.com/medium/3_bedroom_detached_house_for_sale_111489638144512872.jpg", "thumb_width": 80, "title": "Spring Hill, Worle, Weston-super-Mare, North Somerset. BS22", "updated_in_days": 3, "updated_in_days_formatted": "first seen 3 days ago"}, {"bathroom_number": "", "bedroom_number": 2, "car_spaces": 0, "commission": 0, "construction_year": 0, "datasource_name": "OnTheMarket.com", "img_height": 300, "img_url": "https://imgs.nestimg.com/2_bedroom_house_for_sale_111705541308330593.jpg", "img_width": 400, "keywords": "Freehold, Garden, Semi-Detached, Parking", "latitude": 50.9215, "lister_name": "Greenslade Taylor Hunt", "lister_url": "https://www.nestoria.co.uk/detail/0000000111705541308330593/title/5/3-11?serpUid=&pt=1&ot=1&l=somerset&did=105_high1&t_sec=9&t_or=45&t_pvid=null&utm_source=api&utm_medium=external", "listing_type": "buy", "location_accuracy": 9, "longitude": -2.90988, "price": 195000, "price_currency": "\u00a3", "price_formatted": "\u00a3195,000", "price_high": 195000, "price_low": 195000, "price_type": "fixed", "property_type": "house", "size": 0, "size_type": "net", "summary": "A high specification 2 double bedroomed semi-detached house, situat...", "thumb_height": 60, "thumb_url": "https://imgs.nestimg.com/medium/2_bedroom_house_for_sale_111705541308330593.jpg", "thumb_width": 80, "title": "Statcombe, Listercombe Close, Ilminster, Somerset, TA19", "updated_in_days": 4, "updated_in_days_formatted": "first seen 4 days ago"}, {"bathroom_number": "", "bedroom_number": 3, "car_spaces": 0, "commission": 0, "construction_year": 0, "datasource_name": "OnTheMarket.com", "img_height": 300, "img_url": "https://imgs.nestimg.com/3_bedroom_end_of_terrace_house_for_sale_111705545053249639.jpg", "img_width": 400, "keywords": "Garden, No Chain, Terraced, Garage, Cottage", "latitude": 51.1608, "lister_name": "Wilkie May & Tuckwood", "lister_url": "https://www.nestoria.co.uk/detail/0000000111705545053249639/title/5/3-12?serpUid=&pt=1&ot=1&l=somerset&did=105_high1&t_sec=9&t_or=45&t_pvid=null&utm_source=api&utm_medium=external", "listing_type": "buy", "location_accuracy": 9, "longitude": -3.36048, "price": 199950, "price_currency": "\u00a3", "price_formatted": "\u00a3199,950", "price_high": 199950, "price_low": 199950, "price_type": "fixed", "property_type": "house", "size": 0, "size_type": "net", "summary": "No onward chain a ly presented two/three bedroom end of terrace cot...", "thumb_height": 60, "thumb_url": "https://imgs.nestimg.com/medium/3_bedroom_end_of_terrace_house_for_sale_111705545053249639.jpg", "thumb_width": 80, "title": "Washford, Watchet, Somerset TA23", "updated_in_days": 4, "updated_in_days_formatted": "first seen 4 days ago"}, {"bathroom_number": "", "bedroom_number": 4, "car_spaces": 0, "commission": 0, "construction_year": 0, "datasource_name": "OnTheMarket.com", "img_height": 300, "img_url": "https://imgs.nestimg.com/4_bedroom_detached_bungalow_for_sale_111538333034654281.jpg", "img_width": 400, "keywords": "Detached, Bungalow, Parking", "latitude": 51.1749, "lister_name": "Wilkie May & Tuckwood", "lister_url": "https://www.nestoria.co.uk/detail/0000000111538333034654281/title/5/3-13?serpUid=&pt=1&ot=1&l=somerset&did=105_high1&t_sec=9&t_or=45&t_pvid=null&utm_source=api&utm_medium=external", "listing_type": "buy", "location_accuracy": 9, "longitude": -3.32692, "price": 320000, "price_currency": "\u00a3", "price_formatted": "\u00a3320,000", "price_high": 320000, "price_low": 320000, "price_type": "fixed", "property_type": "house", "size": 0, "size_type": "net", "summary": "Good sized level plot an incredibly four bedroom detached 1950's bu...", "thumb_height": 60, "thumb_url": "https://imgs.nestimg.com/medium/4_bedroom_detached_bungalow_for_sale_111538333034654281.jpg", "thumb_width": 80, "title": "Penny Lea, Watchet, Somerset TA23", "updated_in_days": 4, "updated_in_days_formatted": "first seen 4 days ago"}, {"bathroom_number": "", "bedroom_number": 3, "car_spaces": 0, "commission": 0, "construction_year": 0, "datasource_name": "OnTheMarket.com", "img_height": 300, "img_url": "https://imgs.nestimg.com/3_bedroom_semi_detached_house_for_sale_111711534028252845.jpg", "img_width": 400, "keywords": "Garden, Semi-Detached, Garage", "latitude": 51.3645, "lister_url": "https://www.nestoria.co.uk/detail/0000000111711534028252845/title/5/3-14?serpUid=&pt=1&ot=1&l=somerset&did=105_high1&t_sec=9&t_or=45&t_pvid=null&utm_source=api&utm_medium=external", "listing_type": "buy", "location_accuracy": 9, "longitude": -2.93142, "price": 265000, "price_currency": "\u00a3", "price_formatted": "\u00a3265,000", "price_high": 265000, "price_low": 265000, "price_type": "fixed", "property_type": "house", "size": 0, "size_type": "net", "summary": "Semi detached house on worle hillside. Three bedrooms. Two recs. Lo...", "thumb_height": 60, "thumb_url": "https://imgs.nestimg.com/medium/3_bedroom_semi_detached_house_for_sale_111711534028252845.jpg", "thumb_width": 80, "title": "Hill End, Lower Kewstoke Road, Worle, Weston-super-Mare, North Somerset. BS22", "updated_in_days": 3, "updated_in_days_formatted": "first seen 3 days ago"}, {"bathroom_number": "", "bedroom_number": 3, "car_spaces": 0, "commission": 0, "construction_year": 0, "datasource_name": "OnTheMarket.com", "img_height": 300, "img_url": "https://imgs.nestimg.com/3_bedroom_house_for_sale_111705542461917518.jpg", "img_width": 400, "keywords": "Detached, Double Bedroom, Cottage", "latitude": 50.9296, "lister_name": "Greenslade Taylor Hunt", "lister_url": "https://www.nestoria.co.uk/detail/0000000111705542461917518/title/5/3-15?serpUid=&pt=1&ot=1&l=somerset&did=105_high1&t_sec=9&t_or=45&t_pvid=null&utm_source=api&utm_medium=external", "listing_type": "buy", "location_accuracy": 9, "longitude": -2.85705, "price": 295000, "price_currency": "\u00a3", "price_formatted": "\u00a3295,000", "price_high": 295000, "price_low": 295000, "price_type": "fixed", "property_type": "house", "size": 0, "size_type": "net", "summary": "A 3 double bedroom semi detached natural stone character cottage, s...", "thumb_height": 60, "thumb_url": "https://imgs.nestimg.com/medium/3_bedroom_house_for_sale_111705542461917518.jpg", "thumb_width": 80, "title": "West Street, Seavington St Mary, Ilminster, Somerset, TA19", "updated_in_days": 4, "updated_in_days_formatted": "first seen 4 days ago"}], "locations": [{"center_lat": 51.080967, "center_long": -3.045432, "long_title": "Somerset, county", "place_name": "somerset", "title": "Somerset"}], "page": 3, "sort": "nestoria_rank", "status_code": "200", "status_text": "OK", "thanks": "For using the Nestoria API.", "total_pages": 410, "total_results": 6149, "_cu5t0mP434m_": "remove"}}