{"request": {"country": "uk", "language": "en", "location": "somerset", "num_res": "15", "offset": 585, "output": "json_xs", "page": 40, "product_type": "realestate", "property_type": "property", "size_type": "net", "size_unit": "m2", "sort": "nestoria_rank", "listing_type": "buy"}, "response": {"application_response_code": "100", "application_response_text": "listings returned for one unambiguous location", "attribution": {"img_height": 22, "img_url": "https://resources.nestimg.com/nestoria/img/pbr_v1.png", "img_width": 183, "link_to_img": "http://www.nestoria.com"}, "created_http": "Tue, 18 Jun 2019 17:29:35 GMT", "created_unix": 1560878975, "link_to_url": "https://www.nestoria.co.uk/somerset/property/buy/40", "listings": [{"bathroom_number": "", "bedroom_number": 5, "car_spaces": 0, "commission": 0, "construction_year": 0, "datasource_name": "OnTheMarket.com", "img_height": 300, "img_url": "https://imgs.nestimg.com/5_bedroom_semi_detached_house_for_sale_111656078605581560.jpg", "img_width": 400, "keywords": "Semi-Detached, Conversion", "latitude": 51.2015, "lister_url": "https://www.nestoria.co.uk/detail/0000000111656078605581560/title/5/40-1?serpUid=&pt=1&ot=1&l=somerset&did=105_high1&t_sec=9&t_or=45&t_pvid=null&utm_source=api&utm_medium=external", "listing_type": "buy", "location_accuracy": 9, "longitude": -3.48053, "price": 350000, "price_currency": "\u00a3", "price_formatted": "\u00a3350,000", "price_high": 350000, "price_low": 350000, "price_type": "fixed", "property_type": "house", "size": 0, "size_type": "net", "summary": "A semi detached five bedroom family house with adjoining commercial...", "thumb_height": 60, "thumb_url": "https://imgs.nestimg.com/medium/5_bedroom_semi_detached_house_for_sale_111656078605581560.jpg", "thumb_width": 80, "title": "Cher, Minehead, Somerset, TA24", "updated_in_days": 12, "updated_in_days_formatted": "first seen last week"}, {"bathroom_number": "", "bedroom_number": 4, "car_spaces": 0, "commission": 0, "construction_year": 0, "datasource_name": "OnTheMarket.com", "img_height": 300, "img_url": "https://imgs.nestimg.com/4_bedroom_detached_house_for_sale_110394697376469452.jpg", "img_width": 400, "keywords": "Detached, Garden, Double Garage, Double Bedroom, Reception", "latitude": 50.9158, "lister_name": "Stags", "lister_url": "https://www.nestoria.co.uk/detail/0000000110394697376469452/title/5/40-2?serpUid=&pt=1&ot=1&l=somerset&did=105_high1&t_sec=9&t_or=45&t_pvid=null&utm_source=api&utm_medium=external", "listing_type": "buy", "location_accuracy": 9, "longitude": -2.70414, "price": 575000, "price_currency": "\u00a3", "price_formatted": "\u00a3575,000", "price_high": 575000, "price_low": 575000, "price_type": "fixed", "property_type": "house", "size": 0, "size_type": "net", "summary": "A architect-designed house uniquely laid out to take advantage of v...", "thumb_height": 60, "thumb_url": "https://imgs.nestimg.com/medium/4_bedroom_detached_house_for_sale_110394697376469452.jpg", "thumb_width": 80, "title": "West Coker Hill, West Coker, Yeovil, Somerset, BA22", "updated_in_days": 216, "updated_in_days_formatted": "first seen over a month ago"}, {"bathroom_number": "", "bedroom_number": 5, "car_spaces": 0, "commission": 0, "construction_year": 0, "datasource_name": "OnTheMarket.com", "img_height": 300, "img_url": "https://imgs.nestimg.com/5_bedroom_detached_house_for_sale_111198417393846523.jpg", "img_width": 400, "keywords": "Detached, Freehold, Garden, New Build", "latitude": 50.9992, "lister_name": "Greenslade Taylor Hunt", "lister_url": "https://www.nestoria.co.uk/detail/0000000111198417393846523/title/5/40-3?serpUid=&pt=1&ot=1&l=somerset&did=105_high1&t_sec=9&t_or=45&t_pvid=null&utm_source=api&utm_medium=external", "listing_type": "buy", "location_accuracy": 9, "longitude": -2.65853, "price": 545000, "price_currency": "\u00a3", "price_formatted": "\u00a3545,000", "price_high": 545000, "price_low": 545000, "price_type": "fixed", "property_type": "house", "size": 0, "size_type": "net", "summary": "Old forge court is an , new development by pearce properties, in th...", "thumb_height": 60, "thumb_url": "https://imgs.nestimg.com/medium/5_bedroom_detached_house_for_sale_111198417393846523.jpg", "thumb_width": 80, "title": "Plot 4 The Old Forge Court, Limington, Somerset, BA22", "updated_in_days": 86, "updated_in_days_formatted": "first seen over a month ago"}, {"bathroom_number": "", "bedroom_number": 4, "car_spaces": 0, "commission": 0, "construction_year": 0, "datasource_name": "OnTheMarket.com", "img_height": 300, "img_url": "https://imgs.nestimg.com/4_bedroom_detached_house_for_sale_111198420895860152.jpg", "img_width": 400, "keywords": "Detached, Freehold, New Build, Cul-de-Sac", "latitude": 50.9992, "lister_name": "Greenslade Taylor Hunt", "lister_url": "https://www.nestoria.co.uk/detail/0000000111198420895860152/title/5/40-4?serpUid=&pt=1&ot=1&l=somerset&did=105_high1&t_sec=9&t_or=45&t_pvid=null&utm_source=api&utm_medium=external", "listing_type": "buy", "location_accuracy": 9, "longitude": -2.65853, "price": 535000, "price_currency": "\u00a3", "price_formatted": "\u00a3535,000", "price_high": 535000, "price_low": 535000, "price_type": "fixed", "property_type": "house", "size": 0, "size_type": "net", "summary": "New build with a paddockan four bedroom detached house set at the e...", "thumb_height": 60, "thumb_url": "https://imgs.nestimg.com/medium/4_bedroom_detached_house_for_sale_111198420895860152.jpg", "thumb_width": 80, "title": "Plot 5 The Old Forge Court, Limington, Somerset, BA22", "updated_in_days": 86, "updated_in_days_formatted": "first seen over a month ago"}, {"bathroom_number": "", "bedroom_number": 4, "car_spaces": 0, "commission": 0, "construction_year": 0, "datasource_name": "OnTheMarket.com", "img_height": 300, "img_url": "https://imgs.nestimg.com/4_bedroom_detached_bungalow_for_sale_111563228768639299.jpg", "img_width": 400, "keywords": "Detached, Garden, Conservatory, Bungalow, Parking", "latitude": 51.3328, "lister_url": "https://www.nestoria.co.uk/detail/0000000111563228768639299/title/5/40-5?serpUid=&pt=1&ot=1&l=somerset&did=105_high1&t_sec=9&t_or=45&t_pvid=null&utm_source=api&utm_medium=external", "listing_type": "buy", "location_accuracy": 9, "longitude": -2.8285, "price": 345000, "price_currency": "\u00a3", "price_formatted": "\u00a3345,000", "price_high": 345000, "price_low": 345000, "price_type": "fixed", "property_type": "house", "size": 0, "size_type": "net", "summary": "Detached bungalow in the village of sandford. Lounge & conservatory...", "thumb_height": 60, "thumb_url": "https://imgs.nestimg.com/medium/4_bedroom_detached_bungalow_for_sale_111563228768639299.jpg", "thumb_width": 80, "title": "Greenhill Road, Sandford, North Somerset. BS25", "updated_in_days": 27, "updated_in_days_formatted": "first seen 3 weeks ago"}, {"bathroom_number": "", "bedroom_number": 3, "car_spaces": 0, "commission": 0, "construction_year": 0, "datasource_name": "OnTheMarket.com", "img_height": 300, "img_url": "https://imgs.nestimg.com/3_bedroom_bungalow_for_sale_111402755707489154.jpg", "img_width": 400, "keywords": "Garden, Garage, Bungalow, Cul-de-Sac", "latitude": 50.8705, "lister_name": "Stags", "lister_url": "https://www.nestoria.co.uk/detail/0000000111402755707489154/title/5/40-6?serpUid=&pt=1&ot=1&l=somerset&did=105_high1&t_sec=9&t_or=45&t_pvid=null&utm_source=api&utm_medium=external", "listing_type": "buy", "location_accuracy": 9, "longitude": -2.76731, "price": 320000, "price_currency": "\u00a3", "price_formatted": "\u00a3320,000", "price_high": 320000, "price_low": 320000, "price_type": "fixed", "property_type": "house", "size": 0, "size_type": "net", "summary": "A ly presented 3 bedroom bungalow in a cul-de-sac location within a...", "thumb_height": 60, "thumb_url": "https://imgs.nestimg.com/medium/3_bedroom_bungalow_for_sale_111402755707489154.jpg", "thumb_width": 80, "title": "Packers Way, Misterton, Crewkerne, Somerset, TA18", "updated_in_days": 53, "updated_in_days_formatted": "first seen over a month ago"}, {"bathroom_number": "", "bedroom_number": 4, "car_spaces": 0, "commission": 0, "construction_year": 0, "datasource_name": "OnTheMarket.com", "img_height": 300, "img_url": "https://imgs.nestimg.com/4_bedroom_detached_house_for_sale_111569515928628615.jpg", "img_width": 400, "keywords": "Detached", "latitude": 51.0352, "lister_url": "https://www.nestoria.co.uk/detail/0000000111569515928628615/title/5/40-7?serpUid=&pt=1&ot=1&l=somerset&did=105_high1&t_sec=9&t_or=45&t_pvid=null&utm_source=api&utm_medium=external", "listing_type": "buy", "location_accuracy": 9, "longitude": -3.44595, "price": 725000, "price_currency": "\u00a3", "price_formatted": "\u00a3725,000", "price_high": 725000, "price_low": 725000, "price_type": "fixed", "property_type": "house", "size": 0, "size_type": "net", "summary": "A ly presented character property enjoying a private and tranquil s...", "thumb_height": 60, "thumb_url": "https://imgs.nestimg.com/medium/4_bedroom_detached_house_for_sale_111569515928628615.jpg", "thumb_width": 80, "title": "Skilgate, Taunton, Somerset, TA4", "updated_in_days": 26, "updated_in_days_formatted": "first seen 3 weeks ago"}, {"bathroom_number": "", "bedroom_number": 3, "car_spaces": 0, "commission": 0, "construction_year": 0, "datasource_name": "OnTheMarket.com", "img_height": 300, "img_url": "https://imgs.nestimg.com/3_bedroom_end_of_terrace_house_for_sale_111662469886155254.jpg", "img_width": 400, "keywords": "Freehold, Terraced", "latitude": 51.2045, "lister_url": "https://www.nestoria.co.uk/detail/0000000111662469886155254/title/5/40-8?serpUid=&pt=1&ot=1&l=somerset&did=105_high1&t_sec=9&t_or=45&t_pvid=null&utm_source=api&utm_medium=external", "listing_type": "buy", "location_accuracy": 9, "longitude": -3.47517, "price": 275000, "price_currency": "\u00a3", "price_formatted": "\u00a3275,000", "price_high": 275000, "price_low": 275000, "price_type": "fixed", "property_type": "house", "size": 0, "size_type": "net", "summary": "A well-presented and three bedroom end of terrace house situated in...", "thumb_height": 60, "thumb_url": "https://imgs.nestimg.com/medium/3_bedroom_end_of_terrace_house_for_sale_111662469886155254.jpg", "thumb_width": 80, "title": "Irnham Road, Minehead, Somerset, TA24", "updated_in_days": 11, "updated_in_days_formatted": "first seen last week"}, {"bathroom_number": "", "bedroom_number": 3, "car_spaces": 0, "commission": 0, "construction_year": 0, "datasource_name": "OnTheMarket.com", "img_height": 300, "img_url": "https://imgs.nestimg.com/3_bedroom_detached_house_for_sale_111514311651255495.jpg", "img_width": 400, "keywords": "Detached, Fireplace, Victorian", "latitude": 51.2811, "lister_url": "https://www.nestoria.co.uk/detail/0000000111514311651255495/title/5/40-9?serpUid=&pt=1&ot=1&l=somerset&did=105_high1&t_sec=9&t_or=45&t_pvid=null&utm_source=api&utm_medium=external", "listing_type": "buy", "location_accuracy": 9, "longitude": -2.78, "price": 395000, "price_currency": "\u00a3", "price_formatted": "\u00a3395,000", "price_high": 395000, "price_low": 395000, "price_type": "fixed", "property_type": "house", "size": 0, "size_type": "net", "summary": "Beulah is an three bedroom detached victorian property in the heart...", "thumb_height": 60, "thumb_url": "https://imgs.nestimg.com/medium/3_bedroom_detached_house_for_sale_111514311651255495.jpg", "thumb_width": 80, "title": "Beulah, Upper North Street, CHEDDAR, Somerset", "updated_in_days": 35, "updated_in_days_formatted": "first seen over a month ago"}, {"bathroom_number": "", "bedroom_number": 3, "car_spaces": 0, "commission": 0, "construction_year": 0, "datasource_name": "OnTheMarket.com", "img_height": 300, "img_url": "https://imgs.nestimg.com/3_bedroom_semi_detached_house_for_sale_110964060501219501.jpg", "img_width": 400, "keywords": "Semi-Detached, No Chain, Conversion, Garage", "latitude": 50.9056, "lister_name": "Greenslade Taylor Hunt", "lister_url": "https://www.nestoria.co.uk/detail/0000000110964060501219501/title/5/40-10?serpUid=&pt=1&ot=1&l=somerset&did=105_high1&t_sec=9&t_or=45&t_pvid=null&utm_source=api&utm_medium=external", "listing_type": "buy", "location_accuracy": 9, "longitude": -2.68126, "price": 395000, "price_currency": "\u00a3", "price_formatted": "\u00a3395,000", "price_high": 395000, "price_low": 395000, "price_type": "fixed", "property_type": "house", "size": 0, "size_type": "net", "summary": "A , 3 bedroom barn conversion located in the rural surroundings of ...", "thumb_height": 60, "thumb_url": "https://imgs.nestimg.com/medium/3_bedroom_semi_detached_house_for_sale_110964060501219501.jpg", "thumb_width": 80, "title": "Hardington Moor, Yeovil, Somerset, BA22", "updated_in_days": 46, "updated_in_days_formatted": "first seen over a month ago"}, {"bathroom_number": "", "bedroom_number": 6, "car_spaces": 0, "commission": 0, "construction_year": 0, "datasource_name": "OnTheMarket.com", "img_height": 300, "img_url": "https://imgs.nestimg.com/6_bedroom_detached_house_for_sale_111681012970311098.jpg", "img_width": 400, "keywords": "Detached, Garden, Swimming Pool", "latitude": 51.365974, "lister_name": "Knight Frank", "lister_url": "https://www.nestoria.co.uk/detail/0000000111681012970311098/title/5/40-11?serpUid=&pt=1&ot=1&l=somerset&did=105_high1&t_sec=9&t_or=45&t_pvid=null&utm_source=api&utm_medium=external", "listing_type": "buy", "location_accuracy": 9, "longitude": -2.764469, "price": 2200000, "price_currency": "\u00a3", "price_formatted": "\u00a32,200,000", "price_high": 2200000, "price_low": 2200000, "price_type": "fixed", "property_type": "house", "size": 0, "size_type": "net", "summary": "A fine family home in an elevated position overlooking the wrington...", "thumb_height": 60, "thumb_url": "https://imgs.nestimg.com/medium/6_bedroom_detached_house_for_sale_111681012970311098.jpg", "thumb_width": 80, "title": "Bullhouse Lane, Wrington, Bristol, Somerset, BS40", "updated_in_days": 8, "updated_in_days_formatted": "first seen last week"}, {"bathroom_number": "", "bedroom_number": 3, "car_spaces": 0, "commission": 0, "construction_year": 0, "datasource_name": "OnTheMarket.com", "img_height": 300, "img_url": "https://imgs.nestimg.com/3_bedroom_semi_detached_house_for_sale_111328522711943949.jpg", "img_width": 400, "keywords": "Freehold, Semi-Detached, Grade II, Cottage, Listed", "latitude": 51.1836, "lister_url": "https://www.nestoria.co.uk/detail/0000000111328522711943949/title/5/40-12?serpUid=&pt=1&ot=1&l=somerset&did=105_high1&t_sec=9&t_or=45&t_pvid=null&utm_source=api&utm_medium=external", "listing_type": "buy", "location_accuracy": 9, "longitude": -3.44739, "price": 395000, "price_currency": "\u00a3", "price_formatted": "\u00a3395,000", "price_high": 395000, "price_low": 395000, "price_type": "fixed", "property_type": "house", "size": 0, "size_type": "net", "summary": "A well maintained three bedroom semi detached grade ii listed chara...", "thumb_height": 60, "thumb_url": "https://imgs.nestimg.com/medium/3_bedroom_semi_detached_house_for_sale_111328522711943949.jpg", "thumb_width": 80, "title": "St. Georges Street, Dunster, Minehead, Somerset, TA24", "updated_in_days": 65, "updated_in_days_formatted": "first seen over a month ago"}, {"bathroom_number": "", "bedroom_number": 3, "car_spaces": 0, "commission": 0, "construction_year": 0, "datasource_name": "OnTheMarket.com", "img_height": 300, "img_url": "https://imgs.nestimg.com/3_bedroom_semi_detached_house_for_sale_110505698242390064.jpg", "img_width": 400, "keywords": "Semi-Detached, Refurbished", "latitude": 50.917305, "lister_url": "https://www.nestoria.co.uk/detail/0000000110505698242390064/title/5/40-13?serpUid=&pt=1&ot=1&l=somerset&did=105_high1&t_sec=9&t_or=45&t_pvid=null&utm_source=api&utm_medium=external", "listing_type": "buy", "location_accuracy": 9, "longitude": -2.761501, "price": 270000, "price_currency": "\u00a3", "price_formatted": "\u00a3270,000", "price_high": 270000, "price_low": 270000, "price_type": "fixed", "property_type": "house", "size": 0, "size_type": "net", "summary": "Recently refurbished 3 bedroom semi-detached family home situated i...", "thumb_height": 60, "thumb_url": "https://imgs.nestimg.com/medium/3_bedroom_semi_detached_house_for_sale_110505698242390064.jpg", "thumb_width": 80, "title": "Layne Terrace, West Chinnock, Crewkerne, Somerset. TA18", "updated_in_days": 57, "updated_in_days_formatted": "first seen over a month ago"}, {"bathroom_number": "", "bedroom_number": "", "car_spaces": 0, "commission": 0, "construction_year": 0, "datasource_name": "OnTheMarket.com", "img_height": 300, "img_url": "https://imgs.nestimg.com/land_for_sale_110938658697800475.jpg", "img_width": 400, "keywords": "", "latitude": 51.2037, "lister_url": "https://www.nestoria.co.uk/detail/0000000110938658697800475/title/5/40-14?serpUid=&pt=1&ot=1&l=somerset&did=105_high1&t_sec=9&t_or=45&t_pvid=null&utm_source=api&utm_medium=external", "listing_type": "buy", "location_accuracy": 9, "longitude": -2.93888, "price": 75000, "price_currency": "\u00a3", "price_formatted": "\u00a375,000", "price_high": 75000, "price_low": 75000, "price_type": "fixed", "property_type": "land", "size": 0, "size_type": "net", "summary": "A building plot with planning for a detatched dwelling", "thumb_height": 60, "thumb_url": "https://imgs.nestimg.com/medium/land_for_sale_110938658697800475.jpg", "thumb_width": 80, "title": "Church Road, East Huntspill, Somerset", "updated_in_days": 110, "updated_in_days_formatted": "first seen over a month ago"}, {"bathroom_number": "", "bedroom_number": 3, "car_spaces": 0, "commission": 0, "construction_year": 0, "datasource_name": "OnTheMarket.com", "img_height": 300, "img_url": "https://imgs.nestimg.com/3_bedroom_semi_detached_house_for_sale_111303407551419661.jpg", "img_width": 400, "keywords": "Garden, Semi-Detached, No Chain, Parking", "latitude": 51.3486, "lister_url": "https://www.nestoria.co.uk/detail/0000000111303407551419661/title/5/40-15?serpUid=&pt=1&ot=1&l=somerset&did=105_high1&t_sec=9&t_or=45&t_pvid=null&utm_source=api&utm_medium=external", "listing_type": "buy", "location_accuracy": 9, "longitude": -2.9517, "price": 260000, "price_currency": "\u00a3", "price_formatted": "\u00a3260,000", "price_high": 260000, "price_low": 260000, "price_type": "fixed", "property_type": "house", "size": 0, "size_type": "net", "summary": "Are you looking for your next project? .three bed semi detached hou...", "thumb_height": 60, "thumb_url": "https://imgs.nestimg.com/medium/3_bedroom_semi_detached_house_for_sale_111303407551419661.jpg", "thumb_width": 80, "title": "Locking Road, Weston-super-Mare, North Somerset. BS23", "updated_in_days": 39, "updated_in_days_formatted": "first seen over a month ago"}], "locations": [{"center_lat": 51.080967, "center_long": -3.045432, "long_title": "Somerset, county", "place_name": "somerset", "title": "Somerset"}], "page": 40, "sort": "nestoria_rank", "status_code": "200", "status_text": "OK", "thanks": "For using the Nestoria API.", "total_pages": 410, "total_results": 6149, "_cu5t0mP434m_": "remove"}}