{"request": {"country": "uk", "language": "en", "location": "somerset", "num_res": "15", "offset": 600, "output": "json_xs", "page": 41, "product_type": "realestate", "property_type": "property", "size_type": "net", "size_unit": "m2", "sort": "nestoria_rank", "listing_type": "buy"}, "response": {"application_response_code": "100", "application_response_text": "listings returned for one unambiguous location", "attribution": {"img_height": 22, "img_url": "https://resources.nestimg.com/nestoria/img/pbr_v1.png", "img_width": 183, "link_to_img": "http://www.nestoria.com"}, "created_http": "Tue, 18 Jun 2019 17:29:36 GMT", "created_unix": 1560878976, "link_to_url": "https://www.nestoria.co.uk/somerset/property/buy/41", "listings": [{"bathroom_number": "", "bedroom_number": "", "car_spaces": 0, "commission": 0, "construction_year": 0, "datasource_name": "OnTheMarket.com", "img_height": 300, "img_url": "https://imgs.nestimg.com/land_for_sale_111581697236685496.jpg", "img_width": 400, "keywords": "", "latitude": 51.052, "lister_name": "Stags", "lister_url": "https://www.nestoria.co.uk/detail/0000000111581697236685496/title/5/41-1?serpUid=&pt=1&ot=1&l=somerset&did=105_high1&t_sec=9&t_or=45&t_pvid=null&utm_source=api&utm_medium=external", "listing_type": "buy", "location_accuracy": 9, "longitude": -3.3131, "price": 130000, "price_currency": "\u00a3", "price_formatted": "\u00a3130,000", "price_high": 130000, "price_low": 130000, "price_type": "fixed", "property_type": "land", "size": 0, "size_type": "net", "summary": "18.35 acres of grass land close to the edge of wiveliscombe, with v...", "thumb_height": 60, "thumb_url": "https://imgs.nestimg.com/medium/land_for_sale_111581697236685496.jpg", "thumb_width": 80, "title": "Langley Cross, Wiveliscombe, Taunton, Somerset, TA4", "updated_in_days": 24, "updated_in_days_formatted": "first seen 3 weeks ago"}, {"bathroom_number": "", "bedroom_number": "", "car_spaces": 0, "commission": 0, "construction_year": 0, "datasource_name": "OnTheMarket.com", "img_height": 300, "img_url": "https://imgs.nestimg.com/land_for_sale_111581696587070950.jpg", "img_width": 400, "keywords": "", "latitude": 51.052, "lister_name": "Stags", "lister_url": "https://www.nestoria.co.uk/detail/0000000111581696587070950/title/5/41-2?serpUid=&pt=1&ot=1&l=somerset&did=105_high1&t_sec=9&t_or=45&t_pvid=null&utm_source=api&utm_medium=external", "listing_type": "buy", "location_accuracy": 9, "longitude": -3.3131, "price": 55000, "price_currency": "\u00a3", "price_formatted": "\u00a355,000", "price_high": 55000, "price_low": 55000, "price_type": "fixed", "property_type": "land", "size": 0, "size_type": "net", "summary": "A south-facing pasture field near to wiveliscombe, with views over ...", "thumb_height": 60, "thumb_url": "https://imgs.nestimg.com/medium/land_for_sale_111581696587070950.jpg", "thumb_width": 80, "title": "Langley Cross, Wiveliscombe, Taunton, Somerset, TA4", "updated_in_days": 24, "updated_in_days_formatted": "first seen 3 weeks ago"}, {"bathroom_number": "", "bedroom_number": "", "car_spaces": 0, "commission": 0, "construction_year": 0, "datasource_name": "OnTheMarket.com", "img_height": 300, "img_url": "https://imgs.nestimg.com/land_for_sale_111581695828659149.jpg", "img_width": 400, "keywords": "", "latitude": 51.052, "lister_name": "Stags", "lister_url": "https://www.nestoria.co.uk/detail/0000000111581695828659149/title/5/41-3?serpUid=&pt=1&ot=1&l=somerset&did=105_high1&t_sec=9&t_or=45&t_pvid=null&utm_source=api&utm_medium=external", "listing_type": "buy", "location_accuracy": 9, "longitude": -3.3131, "price": 75000, "price_currency": "\u00a3", "price_formatted": "\u00a375,000", "price_high": 75000, "price_low": 75000, "price_type": "fixed", "property_type": "land", "size": 0, "size_type": "net", "summary": "A level grass field close to the edge of wiveliscombe, with the rem...", "thumb_height": 60, "thumb_url": "https://imgs.nestimg.com/medium/land_for_sale_111581695828659149.jpg", "thumb_width": 80, "title": "Langley Cross, Wiveliscombe, Taunton, Somerset, TA4", "updated_in_days": 24, "updated_in_days_formatted": "first seen 3 weeks ago"}, {"bathroom_number": "", "bedroom_number": 2, "car_spaces": 0, "commission": 0, "construction_year": 0, "datasource_name": "OnTheMarket.com", "img_height": 300, "img_url": "https://imgs.nestimg.com/2_bedroom_flat_for_sale_111402759989363112.jpg", "img_width": 400, "keywords": "", "latitude": 51.3437, "lister_url": "https://www.nestoria.co.uk/detail/0000000111402759989363112/title/5/41-4?serpUid=&pt=1&ot=1&l=somerset&did=105_high1&t_sec=9&t_or=45&t_pvid=null&utm_source=api&utm_medium=external", "listing_type": "buy", "location_accuracy": 9, "longitude": -2.97864, "price": 185000, "price_currency": "\u00a3", "price_formatted": "\u00a3185,000", "price_high": 185000, "price_low": 185000, "price_type": "fixed", "property_type": "flat", "size": 0, "size_type": "net", "summary": "A 2 bedroom 2nd floor flat within short walking distance of the beach", "thumb_height": 60, "thumb_url": "https://imgs.nestimg.com/medium/2_bedroom_flat_for_sale_111402759989363112.jpg", "thumb_width": 80, "title": "Eddington Crt, 30 Beach Rd, Weston-s-Mare, North Somerset", "updated_in_days": 14, "updated_in_days_formatted": "first seen 2 weeks ago"}, {"bathroom_number": "", "bedroom_number": 6, "car_spaces": 0, "commission": 0, "construction_year": 0, "datasource_name": "OnTheMarket.com", "img_height": 300, "img_url": "https://imgs.nestimg.com/6_bedroom_detached_house_for_sale_111440829735392670.jpg", "img_width": 400, "keywords": "Detached", "latitude": 51.300312, "lister_name": "Knight Frank", "lister_url": "https://www.nestoria.co.uk/detail/0000000111440829735392670/title/5/41-5?serpUid=&pt=1&ot=1&l=somerset&did=105_high1&t_sec=9&t_or=45&t_pvid=null&utm_source=api&utm_medium=external", "listing_type": "buy", "location_accuracy": 9, "longitude": -2.8857, "price": 775000, "price_currency": "\u00a3", "price_formatted": "\u00a3775,000", "price_high": 775000, "price_low": 775000, "price_type": "fixed", "property_type": "house", "size": 0, "size_type": "net", "summary": "Recently renovated 6 bedroom house for sale in webbington, axbridge...", "thumb_height": 60, "thumb_url": "https://imgs.nestimg.com/medium/6_bedroom_detached_house_for_sale_111440829735392670.jpg", "thumb_width": 80, "title": "Barton Road, Webbington, Axbridge, North Somerset, BS26", "updated_in_days": 47, "updated_in_days_formatted": "first seen over a month ago"}, {"bathroom_number": "", "bedroom_number": 3, "car_spaces": 0, "commission": 0, "construction_year": 0, "datasource_name": "OnTheMarket.com", "img_height": 300, "img_url": "https://imgs.nestimg.com/3_bedroom_detached_house_for_sale_111001016310046737.jpg", "img_width": 400, "keywords": "Detached, Garden, Garage, Kitchen, Bungalow", "latitude": 51.3267, "lister_url": "https://www.nestoria.co.uk/detail/0000000111001016310046737/title/5/41-6?serpUid=&pt=1&ot=1&l=somerset&did=105_high1&t_sec=9&t_or=45&t_pvid=null&utm_source=api&utm_medium=external", "listing_type": "buy", "location_accuracy": 9, "longitude": -2.86175, "price": 365000, "price_currency": "\u00a3", "price_formatted": "\u00a3365,000", "price_high": 365000, "price_low": 365000, "price_type": "fixed", "property_type": "house", "size": 0, "size_type": "net", "summary": "A renovated detached bungalow enjoying views over open countryside....", "thumb_height": 60, "thumb_url": "https://imgs.nestimg.com/medium/3_bedroom_detached_house_for_sale_111001016310046737.jpg", "thumb_width": 80, "title": "Dark Lane, Banwell, North Somerset, BS29", "updated_in_days": 118, "updated_in_days_formatted": "first seen over a month ago"}, {"bathroom_number": "", "bedroom_number": 3, "car_spaces": 0, "commission": 0, "construction_year": 0, "datasource_name": "OnTheMarket.com", "img_height": 300, "img_url": "https://imgs.nestimg.com/3_bedroom_semi_detached_house_for_sale_111284653020623855.jpg", "img_width": 400, "keywords": "Garden, Semi-Detached, Double Bedroom, Kitchen, Parking", "latitude": 51.324, "lister_url": "https://www.nestoria.co.uk/detail/0000000111284653020623855/title/5/41-7?serpUid=&pt=1&ot=1&l=somerset&did=105_high1&t_sec=9&t_or=45&t_pvid=null&utm_source=api&utm_medium=external", "listing_type": "buy", "location_accuracy": 9, "longitude": -2.83566, "price": 325000, "price_currency": "\u00a3", "price_formatted": "\u00a3325,000", "price_high": 325000, "price_low": 325000, "price_type": "fixed", "property_type": "house", "size": 0, "size_type": "net", "summary": "Well presented, extended three bedroom semi detached house. The pro...", "thumb_height": 60, "thumb_url": "https://imgs.nestimg.com/medium/3_bedroom_semi_detached_house_for_sale_111284653020623855.jpg", "thumb_width": 80, "title": "Sandford Road, BS25, North Somerset", "updated_in_days": 72, "updated_in_days_formatted": "first seen over a month ago"}, {"bathroom_number": "", "bedroom_number": 3, "car_spaces": 0, "commission": 0, "construction_year": 0, "datasource_name": "OnTheMarket.com", "img_height": 300, "img_url": "https://imgs.nestimg.com/3_bedroom_terraced_house_for_sale_109707787256376067.jpg", "img_width": 400, "keywords": "Grade II, Terraced, Double Bedroom, Cottage, Reception, Listed", "latitude": 51.205, "lister_url": "https://www.nestoria.co.uk/detail/0000000109707787256376067/title/5/41-8?serpUid=&pt=1&ot=1&l=somerset&did=105_high1&t_sec=9&t_or=45&t_pvid=null&utm_source=api&utm_medium=external", "listing_type": "buy", "location_accuracy": 9, "longitude": -2.64958, "price": 335000, "price_currency": "\u00a3", "price_formatted": "\u00a3335,000", "price_high": 335000, "price_low": 335000, "price_type": "fixed", "property_type": "house", "size": 0, "size_type": "net", "summary": "Grade two listed three storey character cottage. Situated in the he...", "thumb_height": 60, "thumb_url": "https://imgs.nestimg.com/medium/3_bedroom_terraced_house_for_sale_109707787256376067.jpg", "thumb_width": 80, "title": "WELLS, Somerset - Reception, Grade II", "updated_in_days": 327, "updated_in_days_formatted": "first seen over a month ago"}, {"bathroom_number": "", "bedroom_number": 3, "car_spaces": 0, "commission": 0, "construction_year": 0, "datasource_name": "OnTheMarket.com", "img_height": 300, "img_url": "https://imgs.nestimg.com/3_bedroom_detached_house_for_sale_111624981263581084.jpg", "img_width": 400, "keywords": "Detached, Freehold, Modern", "latitude": 51.2037, "lister_url": "https://www.nestoria.co.uk/detail/0000000111624981263581084/title/5/41-9?serpUid=&pt=1&ot=1&l=somerset&did=105_high1&t_sec=9&t_or=45&t_pvid=null&utm_source=api&utm_medium=external", "listing_type": "buy", "location_accuracy": 9, "longitude": -3.48531, "price": 285000, "price_currency": "\u00a3", "price_formatted": "\u00a3285,000", "price_high": 285000, "price_low": 285000, "price_type": "fixed", "property_type": "house", "size": 0, "size_type": "net", "summary": "A modern detached split level house occupying a fine position on th...", "thumb_height": 60, "thumb_url": "https://imgs.nestimg.com/medium/3_bedroom_detached_house_for_sale_111624981263581084.jpg", "thumb_width": 80, "title": "Regents Way, Minehead, Somerset, TA24", "updated_in_days": 17, "updated_in_days_formatted": "first seen 2 weeks ago"}, {"bathroom_number": "", "bedroom_number": 4, "car_spaces": 0, "commission": 0, "construction_year": 0, "datasource_name": "OnTheMarket.com", "img_height": 300, "img_url": "https://imgs.nestimg.com/4_bedroom_detached_house_for_sale_111198417661304152.jpg", "img_width": 400, "keywords": "Detached, Freehold, Modern", "latitude": 50.9992, "lister_name": "Greenslade Taylor Hunt", "lister_url": "https://www.nestoria.co.uk/detail/0000000111198417661304152/title/5/41-10?serpUid=&pt=1&ot=1&l=somerset&did=105_high1&t_sec=9&t_or=45&t_pvid=null&utm_source=api&utm_medium=external", "listing_type": "buy", "location_accuracy": 9, "longitude": -2.65853, "price": 490000, "price_currency": "\u00a3", "price_formatted": "\u00a3490,000", "price_high": 490000, "price_low": 490000, "price_type": "fixed", "property_type": "house", "size": 0, "size_type": "net", "summary": "New to the marketperfectly combing country character with superb mo...", "thumb_height": 60, "thumb_url": "https://imgs.nestimg.com/medium/4_bedroom_detached_house_for_sale_111198417661304152.jpg", "thumb_width": 80, "title": "Plot 2 The Old Forge Court, Limington, Somerset, BA22", "updated_in_days": 86, "updated_in_days_formatted": "first seen over a month ago"}, {"bathroom_number": "", "bedroom_number": 2, "car_spaces": 0, "commission": 0, "construction_year": 0, "datasource_name": "OnTheMarket.com", "img_height": 300, "img_url": "https://imgs.nestimg.com/2_bedroom_detached_bungalow_for_sale_110833951805202780.jpg", "img_width": 400, "keywords": "Detached, Garden, Garage, Bungalow, Modern", "latitude": 51.1956, "lister_url": "https://www.nestoria.co.uk/detail/0000000110833951805202780/title/5/41-11?serpUid=&pt=1&ot=1&l=somerset&did=105_high1&t_sec=9&t_or=45&t_pvid=null&utm_source=api&utm_medium=external", "listing_type": "buy", "location_accuracy": 9, "longitude": -3.45651, "price": 249950, "price_currency": "\u00a3", "price_formatted": "\u00a3249,950", "price_high": 249950, "price_low": 249950, "price_type": "fixed", "property_type": "house", "size": 0, "size_type": "net", "summary": "A two bedroom modern detached bungalow of traditional brick and blo...", "thumb_height": 60, "thumb_url": "https://imgs.nestimg.com/medium/2_bedroom_detached_bungalow_for_sale_110833951805202780.jpg", "thumb_width": 80, "title": "Mallard Road, Minehead, Somerset, TA24", "updated_in_days": 145, "updated_in_days_formatted": "first seen over a month ago"}, {"bathroom_number": "", "bedroom_number": 4, "car_spaces": 0, "commission": 0, "construction_year": 0, "datasource_name": "OnTheMarket.com", "img_height": 300, "img_url": "https://imgs.nestimg.com/4_bedroom_detached_house_for_sale_111631120421426329.jpg", "img_width": 400, "keywords": "Detached", "latitude": 51.2129, "lister_name": "Greenslade Taylor Hunt", "lister_url": "https://www.nestoria.co.uk/detail/0000000111631120421426329/title/5/41-12?serpUid=&pt=1&ot=1&l=somerset&did=105_high1&t_sec=9&t_or=45&t_pvid=null&utm_source=api&utm_medium=external", "listing_type": "buy", "location_accuracy": 9, "longitude": -2.65931, "price": 450000, "price_currency": "\u00a3", "price_formatted": "\u00a3450,000", "price_high": 450000, "price_low": 450000, "price_type": "fixed", "property_type": "house", "size": 0, "size_type": "net", "summary": "Must be viewed. A most , unique and incredible grand design.", "thumb_height": 60, "thumb_url": "https://imgs.nestimg.com/medium/4_bedroom_detached_house_for_sale_111631120421426329.jpg", "thumb_width": 80, "title": "Welsford Avenue, Wells, Somerset, BA5", "updated_in_days": 16, "updated_in_days_formatted": "first seen 2 weeks ago"}, {"bathroom_number": "", "bedroom_number": 3, "car_spaces": 0, "commission": 0, "construction_year": 0, "datasource_name": "OnTheMarket.com", "img_height": 300, "img_url": "https://imgs.nestimg.com/3_bedroom_detached_bungalow_for_sale_111457723006106607.jpg", "img_width": 400, "keywords": "Detached, Garden, Garage, Kitchen, Bungalow", "latitude": 51.3563, "lister_url": "https://www.nestoria.co.uk/detail/0000000111457723006106607/title/5/41-13?serpUid=&pt=1&ot=1&l=somerset&did=105_high1&t_sec=9&t_or=45&t_pvid=null&utm_source=api&utm_medium=external", "listing_type": "buy", "location_accuracy": 9, "longitude": -2.92351, "price": 255000, "price_currency": "\u00a3", "price_formatted": "\u00a3255,000", "price_high": 255000, "price_low": 255000, "price_type": "fixed", "property_type": "house", "size": 0, "size_type": "net", "summary": "Detached bungalow that has been extended and located within easy re...", "thumb_height": 60, "thumb_url": "https://imgs.nestimg.com/medium/3_bedroom_detached_bungalow_for_sale_111457723006106607.jpg", "thumb_width": 80, "title": "Sandpiper Drive, Somerset - Detached", "updated_in_days": 44, "updated_in_days_formatted": "first seen over a month ago"}, {"bathroom_number": "", "bedroom_number": 3, "car_spaces": 0, "commission": 0, "construction_year": 0, "datasource_name": "OnTheMarket.com", "img_height": 300, "img_url": "https://imgs.nestimg.com/3_bedroom_detached_house_for_sale_111514309275698262.jpg", "img_width": 400, "keywords": "Detached", "latitude": 51.069, "lister_name": "Greenslade Taylor Hunt", "lister_url": "https://www.nestoria.co.uk/detail/0000000111514309275698262/title/5/41-14?serpUid=&pt=1&ot=1&l=somerset&did=105_high1&t_sec=9&t_or=45&t_pvid=null&utm_source=api&utm_medium=external", "listing_type": "buy", "location_accuracy": 9, "longitude": -2.64763, "price": 399950, "price_currency": "\u00a3", "price_formatted": "\u00a3399,950", "price_high": 399950, "price_low": 399950, "price_type": "fixed", "property_type": "house", "size": 0, "size_type": "net", "summary": "Lakeview, a prestigious and unique development of luxury 3, 4 and 5...", "thumb_height": 60, "thumb_url": "https://imgs.nestimg.com/medium/3_bedroom_detached_house_for_sale_111514309275698262.jpg", "thumb_width": 80, "title": "Keinton Mandeville, Somerton, Somerset, TA11", "updated_in_days": 35, "updated_in_days_formatted": "first seen over a month ago"}, {"bathroom_number": "", "bedroom_number": 3, "car_spaces": 0, "commission": 0, "construction_year": 0, "datasource_name": "OnTheMarket.com", "img_height": 300, "img_url": "https://imgs.nestimg.com/3_bedroom_semi_detached_house_for_sale_111093425963678858.jpg", "img_width": 400, "keywords": "Garden, Semi-Detached, No Chain, Garage", "latitude": 51.3526, "lister_url": "https://www.nestoria.co.uk/detail/0000000111093425963678858/title/5/41-15?serpUid=&pt=1&ot=1&l=somerset&did=105_high1&t_sec=9&t_or=45&t_pvid=null&utm_source=api&utm_medium=external", "listing_type": "buy", "location_accuracy": 9, "longitude": -2.94175, "price": 205000, "price_currency": "\u00a3", "price_formatted": "\u00a3205,000", "price_high": 205000, "price_low": 205000, "price_type": "fixed", "property_type": "house", "size": 0, "size_type": "net", "summary": "Semi detached house. Three beds. Tucked away position. Close to sch...", "thumb_height": 60, "thumb_url": "https://imgs.nestimg.com/medium/3_bedroom_semi_detached_house_for_sale_111093425963678858.jpg", "thumb_width": 80, "title": "Chelswood Gardens, Milton, Weston-super-Mare, North Somerset. BS22", "updated_in_days": 72, "updated_in_days_formatted": "first seen over a month ago"}], "locations": [{"center_lat": 51.080967, "center_long": -3.045432, "long_title": "Somerset, county", "place_name": "somerset", "title": "Somerset"}], "page": 41, "sort": "nestoria_rank", "status_code": "200", "status_text": "OK", "thanks": "For using the Nestoria API.", "total_pages": 410, "total_results": 6149, "_cu5t0mP434m_": "remove"}}