{"request": {"country": "uk", "language": "en", "location": "somerset", "num_res": "15", "offset": 615, "output": "json_xs", "page": 42, "product_type": "realestate", "property_type": "property", "size_type": "net", "size_unit": "m2", "sort": "nestoria_rank", "listing_type": "buy"}, "response": {"application_response_code": "100", "application_response_text": "listings returned for one unambiguous location", "attribution": {"img_height": 22, "img_url": "https://resources.nestimg.com/nestoria/img/pbr_v1.png", "img_width": 183, "link_to_img": "http://www.nestoria.com"}, "created_http": "Tue, 18 Jun 2019 17:29:38 GMT", "created_unix": 1560878978, "link_to_url": "https://www.nestoria.co.uk/somerset/property/buy/42", "listings": [{"bathroom_number": "", "bedroom_number": 3, "car_spaces": 0, "commission": 0, "construction_year": 0, "datasource_name": "OnTheMarket.com", "img_height": 300, "img_url": "https://imgs.nestimg.com/3_bedroom_house_for_sale_111192287723938541.jpg", "img_width": 400, "keywords": "Freehold, Garden, Grade II, Parking, Cottage, Listed", "latitude": 51.1946, "lister_url": "https://www.nestoria.co.uk/detail/0000000111192287723938541/title/5/42-1?serpUid=&pt=1&ot=1&l=somerset&did=105_high1&t_sec=9&t_or=45&t_pvid=null&utm_source=api&utm_medium=external", "listing_type": "buy", "location_accuracy": 9, "longitude": -3.46641, "price": 295000, "price_currency": "\u00a3", "price_formatted": "\u00a3295,000", "price_high": 295000, "price_low": 295000, "price_type": "fixed", "property_type": "house", "size": 0, "size_type": "net", "summary": "A three bedroom attached grade ii listed cottage of considerable ch...", "thumb_height": 60, "thumb_url": "https://imgs.nestimg.com/medium/3_bedroom_house_for_sale_111192287723938541.jpg", "thumb_width": 80, "title": "Manor Road, Minehead, Somerset, TA24", "updated_in_days": 87, "updated_in_days_formatted": "first seen over a month ago"}, {"bathroom_number": "", "bedroom_number": 5, "car_spaces": 0, "commission": 0, "construction_year": 0, "datasource_name": "OnTheMarket.com", "img_height": 300, "img_url": "https://imgs.nestimg.com/5_bedroom_detached_house_for_sale_111050023058378973.jpg", "img_width": 400, "keywords": "Detached, Double Garage, Conversion", "latitude": 50.997738, "lister_name": "Knight Frank", "lister_url": "https://www.nestoria.co.uk/detail/0000000111050023058378973/title/5/42-2?serpUid=&pt=1&ot=1&l=somerset&did=105_high1&t_sec=9&t_or=45&t_pvid=null&utm_source=api&utm_medium=external", "listing_type": "buy", "location_accuracy": 9, "longitude": -2.614395, "price": 715000, "price_currency": "\u00a3", "price_formatted": "\u00a3715,000", "price_high": 715000, "price_low": 715000, "price_type": "fixed", "property_type": "house", "size": 0, "size_type": "net", "summary": "5 bedroom period barn conversion with double garage in chilton cant...", "thumb_height": 60, "thumb_url": "https://imgs.nestimg.com/medium/5_bedroom_detached_house_for_sale_111050023058378973.jpg", "thumb_width": 80, "title": "Higher Farm, Chilton Cantelo, Yeovil, Somerset, BA22", "updated_in_days": 60, "updated_in_days_formatted": "first seen over a month ago"}, {"bathroom_number": "", "bedroom_number": 4, "car_spaces": 0, "commission": 0, "construction_year": 0, "datasource_name": "OnTheMarket.com", "img_height": 300, "img_url": "https://imgs.nestimg.com/4_bedroom_apartment_for_sale_111445540930345776.jpg", "img_width": 400, "keywords": "Maisonette", "latitude": 51.2062, "lister_url": "https://www.nestoria.co.uk/detail/0000000111445540930345776/title/5/42-3?serpUid=&pt=1&ot=1&l=somerset&did=105_high1&t_sec=9&t_or=45&t_pvid=null&utm_source=api&utm_medium=external", "listing_type": "buy", "location_accuracy": 9, "longitude": -3.47425, "price": 105000, "price_currency": "\u00a3", "price_formatted": "\u00a3105,000", "price_high": 105000, "price_low": 105000, "price_type": "fixed", "property_type": "flat", "size": 0, "size_type": "net", "summary": "A four bedroom first and second floor maisonette situated in a conv...", "thumb_height": 60, "thumb_url": "https://imgs.nestimg.com/medium/4_bedroom_apartment_for_sale_111445540930345776.jpg", "thumb_width": 80, "title": "The Avenue, Minehead, Somerset, TA24", "updated_in_days": 11, "updated_in_days_formatted": "first seen last week"}, {"bathroom_number": "", "bedroom_number": 5, "car_spaces": 0, "commission": 0, "construction_year": 0, "datasource_name": "OnTheMarket.com", "img_height": 300, "img_url": "https://imgs.nestimg.com/5_bedroom_detached_house_for_sale_111501252575843542.jpg", "img_width": 400, "keywords": "Detached", "latitude": 51.069, "lister_name": "Greenslade Taylor Hunt", "lister_url": "https://www.nestoria.co.uk/detail/0000000111501252575843542/title/5/42-4?serpUid=&pt=1&ot=1&l=somerset&did=105_high1&t_sec=9&t_or=45&t_pvid=null&utm_source=api&utm_medium=external", "listing_type": "buy", "location_accuracy": 9, "longitude": -2.64763, "price": 525000, "price_currency": "\u00a3", "price_formatted": "\u00a3525,000", "price_high": 525000, "price_low": 525000, "price_type": "fixed", "property_type": "house", "size": 0, "size_type": "net", "summary": "A super five bedroom family home in plot", "thumb_height": 60, "thumb_url": "https://imgs.nestimg.com/medium/5_bedroom_detached_house_for_sale_111501252575843542.jpg", "thumb_width": 80, "title": "Church Street, Keinton Mandeville, Somerton, Somerset, TA11", "updated_in_days": 37, "updated_in_days_formatted": "first seen over a month ago"}, {"bathroom_number": "", "bedroom_number": 3, "car_spaces": 0, "commission": 0, "construction_year": 0, "datasource_name": "OnTheMarket.com", "img_height": 300, "img_url": "https://imgs.nestimg.com/3_bedroom_detached_bungalow_for_sale_110066356643514409.jpg", "img_width": 400, "keywords": "Detached, Conservatory, Garage, Kitchen, Bungalow", "latitude": 51.3628, "lister_url": "https://www.nestoria.co.uk/detail/0000000110066356643514409/title/5/42-5?serpUid=&pt=1&ot=1&l=somerset&did=105_high1&t_sec=9&t_or=45&t_pvid=null&utm_source=api&utm_medium=external", "listing_type": "buy", "location_accuracy": 9, "longitude": -2.95702, "price": 400000, "price_currency": "\u00a3", "price_formatted": "\u00a3400,000", "price_high": 400000, "price_low": 400000, "price_type": "fixed", "property_type": "house", "size": 0, "size_type": "net", "summary": "Detached bungalow in worlebury. Three bedrooms. Two recs. Kitchen/d...", "thumb_height": 60, "thumb_url": "https://imgs.nestimg.com/medium/3_bedroom_detached_bungalow_for_sale_110066356643514409.jpg", "thumb_width": 80, "title": "Woodspring Avenue, Worlebury, Weston-super-Mare, North Somerset. BS22", "updated_in_days": 100, "updated_in_days_formatted": "first seen over a month ago"}, {"bathroom_number": "", "bedroom_number": 4, "car_spaces": 0, "commission": 0, "construction_year": 0, "datasource_name": "OnTheMarket.com", "img_height": 300, "img_url": "https://imgs.nestimg.com/4_bedroom_detached_house_for_sale_111025258311792020.jpg", "img_width": 400, "keywords": "Detached", "latitude": 50.9392, "lister_name": "Greenslade Taylor Hunt", "lister_url": "https://www.nestoria.co.uk/detail/0000000111025258311792020/title/5/42-6?serpUid=&pt=1&ot=1&l=somerset&did=105_high1&t_sec=9&t_or=45&t_pvid=null&utm_source=api&utm_medium=external", "listing_type": "buy", "location_accuracy": 9, "longitude": -2.74278, "price": 915000, "price_currency": "\u00a3", "price_formatted": "\u00a3915,000", "price_high": 915000, "price_low": 915000, "price_type": "fixed", "property_type": "house", "size": 0, "size_type": "net", "summary": "A unique detached residence occupying a private spot in the hamlet ...", "thumb_height": 60, "thumb_url": "https://imgs.nestimg.com/medium/4_bedroom_detached_house_for_sale_111025258311792020.jpg", "thumb_width": 80, "title": "Little Norton, Norton Sub Hamdon, Stoke-Sub-Hamdon, Somerset, TA14", "updated_in_days": 105, "updated_in_days_formatted": "first seen over a month ago"}, {"bathroom_number": "", "bedroom_number": 6, "car_spaces": 0, "commission": 0, "construction_year": 0, "datasource_name": "OnTheMarket.com", "img_height": 300, "img_url": "https://imgs.nestimg.com/6_bedroom_detached_house_for_sale_109083595803617396.jpg", "img_width": 400, "keywords": "Detached, Garden, Grade II, Listed", "latitude": 51.10986, "lister_name": "Strutt & Parker", "lister_url": "https://www.nestoria.co.uk/detail/0000000109083595803617396/title/5/42-7?serpUid=&pt=1&ot=1&l=somerset&did=105_high1&t_sec=9&t_or=45&t_pvid=null&utm_source=api&utm_medium=external", "listing_type": "buy", "location_accuracy": 9, "longitude": -2.61224, "price": 1750000, "price_currency": "\u00a3", "price_formatted": "\u00a31,750,000", "price_high": 1750000, "price_low": 1750000, "price_type": "fixed", "property_type": "house", "size": 0, "size_type": "net", "summary": "An appealing historic manor house, listed grade ii with gardens and...", "thumb_height": 60, "thumb_url": "https://imgs.nestimg.com/medium/6_bedroom_detached_house_for_sale_109083595803617396.jpg", "thumb_width": 80, "title": "Lottisham, Glastonbury, Somerset", "updated_in_days": 428, "updated_in_days_formatted": "first seen over a month ago"}, {"bathroom_number": "", "bedroom_number": 2, "car_spaces": 0, "commission": 0, "construction_year": 0, "datasource_name": "OnTheMarket.com", "img_height": 300, "img_url": "https://imgs.nestimg.com/2_bedroom_bungalow_for_sale_111118066943207788.jpg", "img_width": 400, "keywords": "Garden, No Chain, Terraced, Garage, Bungalow", "latitude": 51.2117, "lister_name": "Greenslade Taylor Hunt", "lister_url": "https://www.nestoria.co.uk/detail/0000000111118066943207788/title/5/42-8?serpUid=&pt=1&ot=1&l=somerset&did=105_high1&t_sec=9&t_or=45&t_pvid=null&utm_source=api&utm_medium=external", "listing_type": "buy", "location_accuracy": 9, "longitude": -2.63612, "price": 250000, "price_currency": "\u00a3", "price_formatted": "\u00a3250,000", "price_high": 250000, "price_low": 250000, "price_type": "fixed", "property_type": "house", "size": 0, "size_type": "net", "summary": "A well-presented two bedroom end terrace bungalow with garage, sout...", "thumb_height": 60, "thumb_url": "https://imgs.nestimg.com/medium/2_bedroom_bungalow_for_sale_111118066943207788.jpg", "thumb_width": 80, "title": "Woodbury Avenue, Wells, Somerset, BA5", "updated_in_days": 51, "updated_in_days_formatted": "first seen over a month ago"}, {"bathroom_number": "", "bedroom_number": 3, "car_spaces": 0, "commission": 0, "construction_year": 0, "datasource_name": "OnTheMarket.com", "img_height": 300, "img_url": "https://imgs.nestimg.com/3_bedroom_semi_detached_house_for_sale_111278481146444242.jpg", "img_width": 400, "keywords": "Freehold, Garden, Semi-Detached, Double Bedroom, Off Street Parking", "latitude": 50.9427, "lister_name": "Greenslade Taylor Hunt", "lister_url": "https://www.nestoria.co.uk/detail/0000000111278481146444242/title/5/42-9?serpUid=&pt=1&ot=1&l=somerset&did=105_high1&t_sec=9&t_or=45&t_pvid=null&utm_source=api&utm_medium=external", "listing_type": "buy", "location_accuracy": 9, "longitude": -2.61241, "price": 360000, "price_currency": "\u00a3", "price_formatted": "\u00a3360,000", "price_high": 360000, "price_low": 360000, "price_type": "fixed", "property_type": "house", "size": 0, "size_type": "net", "summary": "An , 17th century family home, set on a private road, offering supe...", "thumb_height": 60, "thumb_url": "https://imgs.nestimg.com/medium/3_bedroom_semi_detached_house_for_sale_111278481146444242.jpg", "thumb_width": 80, "title": "Chudleigh Mill, Sherborne Road, Yeovil, Somerset, BA21", "updated_in_days": 73, "updated_in_days_formatted": "first seen over a month ago"}, {"bathroom_number": "", "bedroom_number": 2, "car_spaces": 0, "commission": 0, "construction_year": 0, "datasource_name": "OnTheMarket.com", "img_height": 300, "img_url": "https://imgs.nestimg.com/2_bedroom_flat_for_sale_111359014949195399.jpg", "img_width": 400, "keywords": "Balcony, Kitchen, Parking", "latitude": 51.353, "lister_url": "https://www.nestoria.co.uk/detail/0000000111359014949195399/title/5/42-10?serpUid=&pt=1&ot=1&l=somerset&did=105_high1&t_sec=9&t_or=45&t_pvid=null&utm_source=api&utm_medium=external", "listing_type": "buy", "location_accuracy": 9, "longitude": -2.98793, "price": 185000, "price_currency": "\u00a3", "price_formatted": "\u00a3185,000", "price_high": 185000, "price_low": 185000, "price_type": "fixed", "property_type": "flat", "size": 0, "size_type": "net", "summary": "An two bedroom fourth floor apartment with easy access to weston se...", "thumb_height": 60, "thumb_url": "https://imgs.nestimg.com/medium/2_bedroom_flat_for_sale_111359014949195399.jpg", "thumb_width": 80, "title": "Knightstone Road, Somerset - Balcony", "updated_in_days": 60, "updated_in_days_formatted": "first seen over a month ago"}, {"bathroom_number": "", "bedroom_number": 4, "car_spaces": 0, "commission": 0, "construction_year": 0, "datasource_name": "OnTheMarket.com", "img_height": 300, "img_url": "https://imgs.nestimg.com/4_bedroom_detached_house_for_sale_111581693253820792.jpg", "img_width": 400, "keywords": "Detached, En suite, Double Garage", "latitude": 51.3738, "lister_url": "https://www.nestoria.co.uk/detail/0000000111581693253820792/title/5/42-11?serpUid=&pt=1&ot=1&l=somerset&did=105_high1&t_sec=9&t_or=45&t_pvid=null&utm_source=api&utm_medium=external", "listing_type": "buy", "location_accuracy": 9, "longitude": -2.91208, "price": 425000, "price_currency": "\u00a3", "price_formatted": "\u00a3425,000", "price_high": 425000, "price_low": 425000, "price_type": "fixed", "property_type": "house", "size": 0, "size_type": "net", "summary": "Ly presented detached house. Large plot. Four beds, master with ens...", "thumb_height": 60, "thumb_url": "https://imgs.nestimg.com/medium/4_bedroom_detached_house_for_sale_111581693253820792.jpg", "thumb_width": 80, "title": "Warrilow Close, Worle, Weston Super Mare, North Somerset. BS22", "updated_in_days": 24, "updated_in_days_formatted": "first seen 3 weeks ago"}, {"bathroom_number": "", "bedroom_number": 1, "car_spaces": 0, "commission": 0, "construction_year": 0, "datasource_name": "OnTheMarket.com", "img_height": 300, "img_url": "https://imgs.nestimg.com/1_bedroom_flat_for_sale_111038016876507293.jpg", "img_width": 400, "keywords": "Garden, No Chain, Double Bedroom, Kitchen", "latitude": 51.3476, "lister_url": "https://www.nestoria.co.uk/detail/0000000111038016876507293/title/5/42-12?serpUid=&pt=1&ot=1&l=somerset&did=105_high1&t_sec=9&t_or=45&t_pvid=null&utm_source=api&utm_medium=external", "listing_type": "buy", "location_accuracy": 9, "longitude": -2.96738, "price": 114950, "price_currency": "\u00a3", "price_formatted": "\u00a3114,950", "price_high": 114950, "price_low": 114950, "price_type": "fixed", "property_type": "flat", "size": 0, "size_type": "net", "summary": "Floor flat situated on a level location close to weston town centre...", "thumb_height": 60, "thumb_url": "https://imgs.nestimg.com/medium/1_bedroom_flat_for_sale_111038016876507293.jpg", "thumb_width": 80, "title": "First Floor Flat, 33, BS23, Somerset", "updated_in_days": 84, "updated_in_days_formatted": "first seen over a month ago"}, {"bathroom_number": "", "bedroom_number": 1, "car_spaces": 0, "commission": 0, "construction_year": 0, "datasource_name": "OnTheMarket.com", "img_height": 300, "img_url": "https://imgs.nestimg.com/1_bedroom_flat_for_sale_111575827265773473.jpg", "img_width": 400, "keywords": "Kitchen", "latitude": 51.3506, "lister_url": "https://www.nestoria.co.uk/detail/0000000111575827265773473/title/5/42-13?serpUid=&pt=1&ot=1&l=somerset&did=105_high1&t_sec=9&t_or=45&t_pvid=null&utm_source=api&utm_medium=external", "listing_type": "buy", "location_accuracy": 9, "longitude": -2.98048, "price": 56950, "price_currency": "\u00a3", "price_formatted": "\u00a356,950", "price_high": 56950, "price_low": 56950, "price_type": "fixed", "property_type": "flat", "size": 0, "size_type": "net", "summary": "Investors only first floor flat with open plan kitchen sitting room...", "thumb_height": 60, "thumb_url": "https://imgs.nestimg.com/medium/1_bedroom_flat_for_sale_111575827265773473.jpg", "thumb_width": 80, "title": "West Street, Somerset", "updated_in_days": 25, "updated_in_days_formatted": "first seen 3 weeks ago"}, {"bathroom_number": "", "bedroom_number": "", "car_spaces": 0, "commission": 0, "construction_year": 0, "datasource_name": "OnTheMarket.com", "img_height": 300, "img_url": "https://imgs.nestimg.com/land_for_sale_111440827598994110.jpg", "img_width": 400, "keywords": "", "latitude": 50.968, "lister_url": "https://www.nestoria.co.uk/detail/0000000111440827598994110/title/5/42-14?serpUid=&pt=1&ot=1&l=somerset&did=105_high1&t_sec=9&t_or=45&t_pvid=null&utm_source=api&utm_medium=external", "listing_type": "buy", "location_accuracy": 9, "longitude": -2.83184, "price": 550000, "price_currency": "\u00a3", "price_formatted": "\u00a3550,000", "price_high": 550000, "price_low": 550000, "price_type": "fixed", "property_type": "land", "size": 0, "size_type": "net", "summary": "A well situated residential development site for five dwellings tot...", "thumb_height": 60, "thumb_url": "https://imgs.nestimg.com/medium/land_for_sale_111440827598994110.jpg", "thumb_width": 80, "title": "South Petherton, Somerset, TA13", "updated_in_days": 47, "updated_in_days_formatted": "first seen over a month ago"}, {"bathroom_number": "", "bedroom_number": "", "car_spaces": 0, "commission": 0, "construction_year": 0, "datasource_name": "OnTheMarket.com", "img_height": 300, "img_url": "https://imgs.nestimg.com/land_for_sale_109651669950478733.jpg", "img_width": 400, "keywords": "", "latitude": 51.223, "lister_name": "Greenslade Taylor Hunt", "lister_url": "https://www.nestoria.co.uk/detail/0000000109651669950478733/title/5/42-15?serpUid=&pt=1&ot=1&l=somerset&did=105_high1&t_sec=9&t_or=45&t_pvid=null&utm_source=api&utm_medium=external", "listing_type": "buy", "location_accuracy": 9, "longitude": -2.96236, "price": 150000, "price_currency": "\u00a3", "price_formatted": "\u00a3150,000", "price_high": 150000, "price_low": 150000, "price_type": "fixed", "property_type": "land", "size": 0, "size_type": "net", "summary": "The land currently forms part of a larger former agricultural level...", "thumb_height": 60, "thumb_url": "https://imgs.nestimg.com/medium/land_for_sale_109651669950478733.jpg", "thumb_width": 80, "title": "Zoned Employment Land, Isleport Road, Highbridge, Somerset, TA9", "updated_in_days": 336, "updated_in_days_formatted": "first seen over a month ago"}], "locations": [{"center_lat": 51.080967, "center_long": -3.045432, "long_title": "Somerset, county", "place_name": "somerset", "title": "Somerset"}], "page": 42, "sort": "nestoria_rank", "status_code": "200", "status_text": "OK", "thanks": "For using the Nestoria API.", "total_pages": 410, "total_results": 6149, "_cu5t0mP434m_": "remove"}}