{"request": {"country": "uk", "language": "en", "location": "somerset", "num_res": "15", "offset": 630, "output": "json_xs", "page": 43, "product_type": "realestate", "property_type": "property", "size_type": "net", "size_unit": "m2", "sort": "nestoria_rank", "listing_type": "buy"}, "response": {"application_response_code": "100", "application_response_text": "listings returned for one unambiguous location", "attribution": {"img_height": 22, "img_url": "https://resources.nestimg.com/nestoria/img/pbr_v1.png", "img_width": 183, "link_to_img": "http://www.nestoria.com"}, "created_http": "Tue, 18 Jun 2019 17:29:39 GMT", "created_unix": 1560878979, "link_to_url": "https://www.nestoria.co.uk/somerset/property/buy/43", "listings": [{"bathroom_number": "", "bedroom_number": 3, "car_spaces": 0, "commission": 0, "construction_year": 0, "datasource_name": "OnTheMarket.com", "img_height": 300, "img_url": "https://imgs.nestimg.com/3_bedroom_end_of_terrace_house_for_sale_111322434428615801.jpg", "img_width": 400, "keywords": "Garden, Terraced, Kitchen, Parking", "latitude": 51.3593, "lister_url": "https://www.nestoria.co.uk/detail/0000000111322434428615801/title/5/43-1?serpUid=&pt=1&ot=1&l=somerset&did=105_high1&t_sec=9&t_or=45&t_pvid=null&utm_source=api&utm_medium=external", "listing_type": "buy", "location_accuracy": 9, "longitude": -2.92731, "price": 179950, "price_currency": "\u00a3", "price_formatted": "\u00a3179,950", "price_high": 179950, "price_low": 179950, "price_type": "fixed", "property_type": "house", "size": 0, "size_type": "net", "summary": "3 bedroom home situated a short walk from worle high street. This h...", "thumb_height": 60, "thumb_url": "https://imgs.nestimg.com/medium/3_bedroom_end_of_terrace_house_for_sale_111322434428615801.jpg", "thumb_width": 80, "title": "Mendip Avenue, North Somerset", "updated_in_days": 66, "updated_in_days_formatted": "first seen over a month ago"}, {"bathroom_number": "", "bedroom_number": 1, "car_spaces": 0, "commission": 0, "construction_year": 0, "datasource_name": "OnTheMarket.com", "img_height": 300, "img_url": "https://imgs.nestimg.com/1_bedroom_flat_for_sale_111557528341631845.jpg", "img_width": 400, "keywords": "Kitchen", "latitude": 51.3514, "lister_url": "https://www.nestoria.co.uk/detail/0000000111557528341631845/title/5/43-2?serpUid=&pt=1&ot=1&l=somerset&did=105_high1&t_sec=9&t_or=45&t_pvid=null&utm_source=api&utm_medium=external", "listing_type": "buy", "location_accuracy": 9, "longitude": -2.98987, "price": 189000, "price_currency": "\u00a3", "price_formatted": "\u00a3189,000", "price_high": 189000, "price_low": 189000, "price_type": "fixed", "property_type": "flat", "size": 0, "size_type": "net", "summary": "Unique one bedroom property on knightstone island in good decorativ...", "thumb_height": 60, "thumb_url": "https://imgs.nestimg.com/medium/1_bedroom_flat_for_sale_111557528341631845.jpg", "thumb_width": 80, "title": "Knightstone Causeway, Somerset", "updated_in_days": 28, "updated_in_days_formatted": "first seen last month"}, {"bathroom_number": "", "bedroom_number": 2, "car_spaces": 0, "commission": 0, "construction_year": 0, "datasource_name": "OnTheMarket.com", "img_height": 300, "img_url": "https://imgs.nestimg.com/2_bedroom_flat_for_sale_111440828092333552.jpg", "img_width": 400, "keywords": "Shared Ownership", "latitude": 51.3369, "lister_url": "https://www.nestoria.co.uk/detail/0000000111440828092333552/title/5/43-3?serpUid=&pt=1&ot=1&l=somerset&did=105_high1&t_sec=9&t_or=45&t_pvid=null&utm_source=api&utm_medium=external", "listing_type": "buy", "location_accuracy": 9, "longitude": -2.95826, "price": 62500, "price_currency": "\u00a3", "price_formatted": "\u00a362,500", "price_high": 62500, "price_low": 62500, "price_type": "fixed", "property_type": "flat", "size": 0, "size_type": "net", "summary": "Well presented 2 bedroom property situated on the park estate westo...", "thumb_height": 60, "thumb_url": "https://imgs.nestimg.com/medium/2_bedroom_flat_for_sale_111440828092333552.jpg", "thumb_width": 80, "title": "Ankatel Close, Somerset", "updated_in_days": 47, "updated_in_days_formatted": "first seen over a month ago"}, {"bathroom_number": "", "bedroom_number": 4, "car_spaces": 0, "commission": 0, "construction_year": 0, "datasource_name": "OnTheMarket.com", "img_height": 300, "img_url": "https://imgs.nestimg.com/4_bedroom_semi_detached_house_for_sale_110401298461565515.jpg", "img_width": 400, "keywords": "Semi-Detached", "latitude": 51.2025, "lister_name": "Greenslade Taylor Hunt", "lister_url": "https://www.nestoria.co.uk/detail/0000000110401298461565515/title/5/43-4?serpUid=&pt=1&ot=1&l=somerset&did=105_high1&t_sec=9&t_or=45&t_pvid=null&utm_source=api&utm_medium=external", "listing_type": "buy", "location_accuracy": 9, "longitude": -2.66001, "price": 340000, "price_currency": "\u00a3", "price_formatted": "\u00a3340,000", "price_high": 340000, "price_low": 340000, "price_type": "fixed", "property_type": "house", "size": 0, "size_type": "net", "summary": "A superb four bedroom semi-detached property with accommodation in ...", "thumb_height": 60, "thumb_url": "https://imgs.nestimg.com/medium/4_bedroom_semi_detached_house_for_sale_110401298461565515.jpg", "thumb_width": 80, "title": "Osmond Drive, Wells, Somerset, BA5", "updated_in_days": 33, "updated_in_days_formatted": "first seen over a month ago"}, {"bathroom_number": "", "bedroom_number": 4, "car_spaces": 0, "commission": 0, "construction_year": 0, "datasource_name": "OnTheMarket.com", "img_height": 300, "img_url": "https://imgs.nestimg.com/4_bedroom_detached_house_for_sale_111198417326806089.jpg", "img_width": 400, "keywords": "Detached, Freehold", "latitude": 50.9992, "lister_name": "Greenslade Taylor Hunt", "lister_url": "https://www.nestoria.co.uk/detail/0000000111198417326806089/title/5/43-5?serpUid=&pt=1&ot=1&l=somerset&did=105_high1&t_sec=9&t_or=45&t_pvid=null&utm_source=api&utm_medium=external", "listing_type": "buy", "location_accuracy": 9, "longitude": -2.65853, "price": 495000, "price_currency": "\u00a3", "price_formatted": "\u00a3495,000", "price_high": 495000, "price_low": 495000, "price_type": "fixed", "property_type": "house", "size": 0, "size_type": "net", "summary": "Superb house in an new developmentplot 3, old forge court is a 4 be...", "thumb_height": 60, "thumb_url": "https://imgs.nestimg.com/medium/4_bedroom_detached_house_for_sale_111198417326806089.jpg", "thumb_width": 80, "title": "Plot 3 The Old Forge Court, Limington, Somerset, BA22", "updated_in_days": 86, "updated_in_days_formatted": "first seen over a month ago"}, {"bathroom_number": "", "bedroom_number": 4, "car_spaces": 0, "commission": 0, "construction_year": 0, "datasource_name": "OnTheMarket.com", "img_height": 300, "img_url": "https://imgs.nestimg.com/4_bedroom_detached_house_for_sale_111198419292342541.jpg", "img_width": 400, "keywords": "Detached, Freehold", "latitude": 50.9992, "lister_name": "Greenslade Taylor Hunt", "lister_url": "https://www.nestoria.co.uk/detail/0000000111198419292342541/title/5/43-6?serpUid=&pt=1&ot=1&l=somerset&did=105_high1&t_sec=9&t_or=45&t_pvid=null&utm_source=api&utm_medium=external", "listing_type": "buy", "location_accuracy": 9, "longitude": -2.65853, "price": 480000, "price_currency": "\u00a3", "price_formatted": "\u00a3480,000", "price_high": 480000, "price_low": 480000, "price_type": "fixed", "property_type": "house", "size": 0, "size_type": "net", "summary": "Old forge court is a development of 5 luxury homes built by local r...", "thumb_height": 60, "thumb_url": "https://imgs.nestimg.com/medium/4_bedroom_detached_house_for_sale_111198419292342541.jpg", "thumb_width": 80, "title": "Plot 1 The Old Forge Court, Limington, Somerset, BA22", "updated_in_days": 86, "updated_in_days_formatted": "first seen over a month ago"}, {"bathroom_number": "", "bedroom_number": 3, "car_spaces": 0, "commission": 0, "construction_year": 0, "datasource_name": "OnTheMarket.com", "img_height": 300, "img_url": "https://imgs.nestimg.com/3_bedroom_semi_detached_house_for_sale_111223321761548182.jpg", "img_width": 400, "keywords": "Garden, Semi-Detached, Conservatory, Garage", "latitude": 50.9529, "lister_name": "Greenslade Taylor Hunt", "lister_url": "https://www.nestoria.co.uk/detail/0000000111223321761548182/title/5/43-7?serpUid=&pt=1&ot=1&l=somerset&did=105_high1&t_sec=9&t_or=45&t_pvid=null&utm_source=api&utm_medium=external", "listing_type": "buy", "location_accuracy": 9, "longitude": -2.65116, "price": 210000, "price_currency": "\u00a3", "price_formatted": "\u00a3210,000", "price_high": 210000, "price_low": 210000, "price_type": "fixed", "property_type": "house", "size": 0, "size_type": "net", "summary": "A three bedroom, semi-detached house, located in a convenient locat...", "thumb_height": 60, "thumb_url": "https://imgs.nestimg.com/medium/3_bedroom_semi_detached_house_for_sale_111223321761548182.jpg", "thumb_width": 80, "title": "Eliotts Drive, Yeovil, Somerset, BA21", "updated_in_days": 82, "updated_in_days_formatted": "first seen over a month ago"}, {"bathroom_number": "", "bedroom_number": 1, "car_spaces": 0, "commission": 0, "construction_year": 0, "datasource_name": "OnTheMarket.com", "img_height": 300, "img_url": "https://imgs.nestimg.com/1_bedroom_apartment_for_sale_111501253380922844.jpg", "img_width": 400, "keywords": "Shared Garden, Kitchen, Lift, Parking", "latitude": 51.0198, "lister_name": "Stags", "lister_url": "https://www.nestoria.co.uk/detail/0000000111501253380922844/title/5/43-8?serpUid=&pt=1&ot=1&l=somerset&did=105_high1&t_sec=9&t_or=45&t_pvid=null&utm_source=api&utm_medium=external", "listing_type": "buy", "location_accuracy": 9, "longitude": -3.53243, "price": 150000, "price_currency": "\u00a3", "price_formatted": "\u00a3150,000", "price_high": 150000, "price_low": 150000, "price_type": "fixed", "property_type": "flat", "size": 0, "size_type": "net", "summary": "An individually designed luxury top floor apartment with parking an...", "thumb_height": 60, "thumb_url": "https://imgs.nestimg.com/medium/1_bedroom_apartment_for_sale_111501253380922844.jpg", "thumb_width": 80, "title": "Brushford, Dulverton, Somerset, TA22", "updated_in_days": 37, "updated_in_days_formatted": "first seen over a month ago"}, {"bathroom_number": "", "bedroom_number": 2, "car_spaces": 0, "commission": 0, "construction_year": 0, "datasource_name": "OnTheMarket.com", "img_height": 300, "img_url": "https://imgs.nestimg.com/2_bedroom_flat_for_sale_111457725198530068.jpg", "img_width": 400, "keywords": "Garage, Kitchen", "latitude": 51.3462, "lister_url": "https://www.nestoria.co.uk/detail/0000000111457725198530068/title/5/43-9?serpUid=&pt=1&ot=1&l=somerset&did=105_high1&t_sec=9&t_or=45&t_pvid=null&utm_source=api&utm_medium=external", "listing_type": "buy", "location_accuracy": 9, "longitude": -2.92866, "price": 129950, "price_currency": "\u00a3", "price_formatted": "\u00a3129,950", "price_high": 129950, "price_low": 129950, "price_type": "fixed", "property_type": "flat", "size": 0, "size_type": "net", "summary": "Ground floor apartment located in weston village which would be a g...", "thumb_height": 60, "thumb_url": "https://imgs.nestimg.com/medium/2_bedroom_flat_for_sale_111457725198530068.jpg", "thumb_width": 80, "title": "Stroud Way, Somerset", "updated_in_days": 44, "updated_in_days_formatted": "first seen over a month ago"}, {"bathroom_number": 3, "bedroom_number": 5, "car_spaces": 0, "commission": 0, "construction_year": 0, "datasource_name": "OnTheMarket.com", "img_height": 300, "img_url": "https://imgs.nestimg.com/5_bedroom_detached_house_for_sale_111303415398406342.jpg", "img_width": 400, "keywords": "Detached, Garden, Garage", "latitude": 51.1816, "lister_url": "https://www.nestoria.co.uk/detail/0000000111303415398406342/title/5/43-10?serpUid=&pt=1&ot=1&l=somerset&did=105_high1&t_sec=9&t_or=45&t_pvid=null&utm_source=api&utm_medium=external", "listing_type": "buy", "location_accuracy": 9, "longitude": -2.53983, "price": 300000, "price_currency": "\u00a3", "price_formatted": "\u00a3300,000", "price_high": 300000, "price_low": 300000, "price_type": "fixed", "property_type": "house", "size": 0, "size_type": "net", "summary": "5 bed, 3 bathroom, detached corner plot with garage, front and rear...", "thumb_height": 60, "thumb_url": "https://imgs.nestimg.com/medium/5_bedroom_detached_house_for_sale_111303415398406342.jpg", "thumb_width": 80, "title": "SHEPTON MALLET, Somerset - Garden", "updated_in_days": 69, "updated_in_days_formatted": "first seen over a month ago"}, {"bathroom_number": "", "bedroom_number": 2, "car_spaces": 0, "commission": 0, "construction_year": 0, "datasource_name": "OnTheMarket.com", "img_height": 300, "img_url": "https://imgs.nestimg.com/2_bedroom_semi_detached_bungalow_for_sale_111272699452572858.jpg", "img_width": 400, "keywords": "Freehold, Semi-Detached, Bungalow, Cul-de-Sac", "latitude": 51.2035, "lister_url": "https://www.nestoria.co.uk/detail/0000000111272699452572858/title/5/43-11?serpUid=&pt=1&ot=1&l=somerset&did=105_high1&t_sec=9&t_or=45&t_pvid=null&utm_source=api&utm_medium=external", "listing_type": "buy", "location_accuracy": 9, "longitude": -3.49767, "price": 199500, "price_currency": "\u00a3", "price_formatted": "\u00a3199,500", "price_high": 199500, "price_low": 199500, "price_type": "fixed", "property_type": "house", "size": 0, "size_type": "net", "summary": "A two bedroom semi detached bungalow situated in a quiet location i...", "thumb_height": 60, "thumb_url": "https://imgs.nestimg.com/medium/2_bedroom_semi_detached_bungalow_for_sale_111272699452572858.jpg", "thumb_width": 80, "title": "Home Meadow, Minehead, Somerset, TA24", "updated_in_days": 20, "updated_in_days_formatted": "first seen 2 weeks ago"}, {"bathroom_number": "", "bedroom_number": 3, "car_spaces": 0, "commission": 0, "construction_year": 0, "datasource_name": "OnTheMarket.com", "img_height": 300, "img_url": "https://imgs.nestimg.com/3_bedroom_detached_house_for_sale_111507739958980047.jpg", "img_width": 400, "keywords": "Detached", "latitude": 50.87, "lister_name": "Stags", "lister_url": "https://www.nestoria.co.uk/detail/0000000111507739958980047/title/5/43-12?serpUid=&pt=1&ot=1&l=somerset&did=105_high1&t_sec=9&t_or=45&t_pvid=null&utm_source=api&utm_medium=external", "listing_type": "buy", "location_accuracy": 9, "longitude": -2.77214, "price": 435000, "price_currency": "\u00a3", "price_formatted": "\u00a3435,000", "price_high": 435000, "price_low": 435000, "price_type": "fixed", "property_type": "house", "size": 0, "size_type": "net", "summary": "Ly presented detached period home in a village ten minutes walk fro...", "thumb_height": 60, "thumb_url": "https://imgs.nestimg.com/medium/3_bedroom_detached_house_for_sale_111507739958980047.jpg", "thumb_width": 80, "title": "Middle Street, Misterton, Crewkerne, Somerset, TA18", "updated_in_days": 36, "updated_in_days_formatted": "first seen over a month ago"}, {"bathroom_number": "", "bedroom_number": 2, "car_spaces": 0, "commission": 0, "construction_year": 0, "datasource_name": "OnTheMarket.com", "img_height": 300, "img_url": "https://imgs.nestimg.com/2_bedroom_lodge_for_sale_111411507249791797.jpg", "img_width": 400, "keywords": "", "latitude": 51.182, "lister_url": "https://www.nestoria.co.uk/detail/0000000111411507249791797/title/5/43-13?serpUid=&pt=1&ot=1&l=somerset&did=105_high1&t_sec=9&t_or=45&t_pvid=null&utm_source=api&utm_medium=external", "listing_type": "buy", "location_accuracy": 9, "longitude": -3.39687, "price": 99995, "price_currency": "\u00a3", "price_formatted": "\u00a399,995", "price_high": 99995, "price_low": 99995, "price_type": "fixed", "property_type": "house", "size": 0, "size_type": "net", "summary": "Offers invited through adkins estate agents brand new 40ft x 20ft 2...", "thumb_height": 60, "thumb_url": "https://imgs.nestimg.com/medium/2_bedroom_lodge_for_sale_111411507249791797.jpg", "thumb_width": 80, "title": "Bay View - Minehead - Somerset - TA24", "updated_in_days": 51, "updated_in_days_formatted": "first seen over a month ago"}, {"bathroom_number": "", "bedroom_number": 3, "car_spaces": 0, "commission": 0, "construction_year": 0, "datasource_name": "OnTheMarket.com", "img_height": 300, "img_url": "https://imgs.nestimg.com/3_bedroom_semi_detached_house_for_sale_111260123115561944.jpg", "img_width": 400, "keywords": "Garden, Semi-Detached, Conservatory, Garage", "latitude": 51.2107, "lister_name": "Greenslade Taylor Hunt", "lister_url": "https://www.nestoria.co.uk/detail/0000000111260123115561944/title/5/43-14?serpUid=&pt=1&ot=1&l=somerset&did=105_high1&t_sec=9&t_or=45&t_pvid=null&utm_source=api&utm_medium=external", "listing_type": "buy", "location_accuracy": 9, "longitude": -2.62419, "price": 305000, "price_currency": "\u00a3", "price_formatted": "\u00a3305,000", "price_high": 305000, "price_low": 305000, "price_type": "fixed", "property_type": "house", "size": 0, "size_type": "net", "summary": "Book your viewing through greenslade taylor hunt first and ly prese...", "thumb_height": 60, "thumb_url": "https://imgs.nestimg.com/medium/3_bedroom_semi_detached_house_for_sale_111260123115561944.jpg", "thumb_width": 80, "title": "Kings Castle Road, Wells, Somerset, BA5", "updated_in_days": 73, "updated_in_days_formatted": "first seen over a month ago"}, {"bathroom_number": "", "bedroom_number": 4, "car_spaces": 0, "commission": 0, "construction_year": 0, "datasource_name": "OnTheMarket.com", "img_height": 300, "img_url": "https://imgs.nestimg.com/4_bedroom_semi_detached_house_for_sale_111581692466500194.jpg", "img_width": 400, "keywords": "Semi-Detached, Parking", "latitude": 51.2117, "lister_name": "Greenslade Taylor Hunt", "lister_url": "https://www.nestoria.co.uk/detail/0000000111581692466500194/title/5/43-15?serpUid=&pt=1&ot=1&l=somerset&did=105_high1&t_sec=9&t_or=45&t_pvid=null&utm_source=api&utm_medium=external", "listing_type": "buy", "location_accuracy": 9, "longitude": -2.64061, "price": 390000, "price_currency": "\u00a3", "price_formatted": "\u00a3390,000", "price_high": 390000, "price_low": 390000, "price_type": "fixed", "property_type": "house", "size": 0, "size_type": "net", "summary": "A superb 4 bedroom attached character property situated in the hear...", "thumb_height": 60, "thumb_url": "https://imgs.nestimg.com/medium/4_bedroom_semi_detached_house_for_sale_111581692466500194.jpg", "thumb_width": 80, "title": "Chantry Close, St. Thomas Street, Wells, Somerset, BA5", "updated_in_days": 24, "updated_in_days_formatted": "first seen 3 weeks ago"}], "locations": [{"center_lat": 51.080967, "center_long": -3.045432, "long_title": "Somerset, county", "place_name": "somerset", "title": "Somerset"}], "page": 43, "sort": "nestoria_rank", "status_code": "200", "status_text": "OK", "thanks": "For using the Nestoria API.", "total_pages": 410, "total_results": 6149, "_cu5t0mP434m_": "remove"}}