{"request": {"country": "uk", "language": "en", "location": "somerset", "num_res": "15", "offset": 645, "output": "json_xs", "page": 44, "product_type": "realestate", "property_type": "property", "size_type": "net", "size_unit": "m2", "sort": "nestoria_rank", "listing_type": "buy"}, "response": {"application_response_code": "100", "application_response_text": "listings returned for one unambiguous location", "attribution": {"img_height": 22, "img_url": "https://resources.nestimg.com/nestoria/img/pbr_v1.png", "img_width": 183, "link_to_img": "http://www.nestoria.com"}, "created_http": "Tue, 18 Jun 2019 17:29:41 GMT", "created_unix": 1560878981, "link_to_url": "https://www.nestoria.co.uk/somerset/property/buy/44", "listings": [{"bathroom_number": "", "bedroom_number": 5, "car_spaces": 0, "commission": 0, "construction_year": 0, "datasource_name": "OnTheMarket.com", "img_height": 300, "img_url": "https://imgs.nestimg.com/5_bedroom_detached_house_for_sale_111495038500911764.jpg", "img_width": 400, "keywords": "Detached, Garden", "latitude": 51.3194, "lister_name": "David James", "lister_url": "https://www.nestoria.co.uk/detail/0000000111495038500911764/title/5/44-1?serpUid=&pt=1&ot=1&l=somerset&did=105_high1&t_sec=9&t_or=45&t_pvid=null&utm_source=api&utm_medium=external", "listing_type": "buy", "location_accuracy": 9, "longitude": -2.78976, "price": 650000, "price_currency": "\u00a3", "price_formatted": "\u00a3650,000", "price_high": 650000, "price_low": 650000, "price_type": "fixed", "property_type": "house", "size": 0, "size_type": "net", "summary": "A detached farmhouse with barn, outbuildings, garden and paddock. I...", "thumb_height": 60, "thumb_url": "https://imgs.nestimg.com/medium/5_bedroom_detached_house_for_sale_111495038500911764.jpg", "thumb_width": 80, "title": "Rowberrow, Somerset - Garden", "updated_in_days": 35, "updated_in_days_formatted": "first seen over a month ago"}, {"bathroom_number": "", "bedroom_number": 4, "car_spaces": 0, "commission": 0, "construction_year": 0, "datasource_name": "OnTheMarket.com", "img_height": 300, "img_url": "https://imgs.nestimg.com/4_bedroom_detached_house_for_sale_111402762921693568.jpg", "img_width": 400, "keywords": "Detached, Double Bedroom", "latitude": 50.955456, "lister_name": "Greenslade Taylor Hunt", "lister_url": "https://www.nestoria.co.uk/detail/0000000111402762921693568/title/5/44-2?serpUid=&pt=1&ot=1&l=somerset&did=105_high1&t_sec=9&t_or=45&t_pvid=null&utm_source=api&utm_medium=external", "listing_type": "buy", "location_accuracy": 9, "longitude": -2.6696167, "price": 415000, "price_currency": "\u00a3", "price_formatted": "\u00a3415,000", "price_high": 415000, "price_low": 415000, "price_type": "fixed", "property_type": "house", "size": 0, "size_type": "net", "summary": "A unique, four double bedroom detached home on the sought after bri...", "thumb_height": 60, "thumb_url": "https://imgs.nestimg.com/medium/4_bedroom_detached_house_for_sale_111402762921693568.jpg", "thumb_width": 80, "title": "Hillrick Crescent, Yeovil, Somerset, BA21", "updated_in_days": 53, "updated_in_days_formatted": "first seen over a month ago"}, {"bathroom_number": "", "bedroom_number": 4, "car_spaces": 0, "commission": 0, "construction_year": 0, "datasource_name": "OnTheMarket.com", "img_height": 300, "img_url": "https://imgs.nestimg.com/4_bedroom_detached_house_for_sale_111161509316489409.jpg", "img_width": 400, "keywords": "Detached, Modern", "latitude": 50.9264, "lister_name": "Greenslade Taylor Hunt", "lister_url": "https://www.nestoria.co.uk/detail/0000000111161509316489409/title/5/44-3?serpUid=&pt=1&ot=1&l=somerset&did=105_high1&t_sec=9&t_or=45&t_pvid=null&utm_source=api&utm_medium=external", "listing_type": "buy", "location_accuracy": 9, "longitude": -2.65974, "price": 525000, "price_currency": "\u00a3", "price_formatted": "\u00a3525,000", "price_high": 525000, "price_low": 525000, "price_type": "fixed", "property_type": "house", "size": 0, "size_type": "net", "summary": "A , modern, four bedroom detached house set on a plot on the sought...", "thumb_height": 60, "thumb_url": "https://imgs.nestimg.com/medium/4_bedroom_detached_house_for_sale_111161509316489409.jpg", "thumb_width": 80, "title": "Nash Lane, Yeovil, Somerset, BA20", "updated_in_days": 35, "updated_in_days_formatted": "first seen over a month ago"}, {"bathroom_number": "", "bedroom_number": 3, "car_spaces": 0, "commission": 0, "construction_year": 0, "datasource_name": "OnTheMarket.com", "img_height": 300, "img_url": "https://imgs.nestimg.com/3_bedroom_semi_detached_house_for_sale_110908091617662766.jpg", "img_width": 400, "keywords": "Garden, Semi-Detached, Terraced, Parking", "latitude": 51.1991, "lister_url": "https://www.nestoria.co.uk/detail/0000000110908091617662766/title/5/44-4?serpUid=&pt=1&ot=1&l=somerset&did=105_high1&t_sec=9&t_or=45&t_pvid=null&utm_source=api&utm_medium=external", "listing_type": "buy", "location_accuracy": 9, "longitude": -3.4663, "price": 275000, "price_currency": "\u00a3", "price_formatted": "\u00a3275,000", "price_high": 275000, "price_low": 275000, "price_type": "fixed", "property_type": "house", "size": 0, "size_type": "net", "summary": "The property comprises a three bedroom semi detached house , having...", "thumb_height": 60, "thumb_url": "https://imgs.nestimg.com/medium/3_bedroom_semi_detached_house_for_sale_110908091617662766.jpg", "thumb_width": 80, "title": "Fownes Road, Minehead, Somerset, TA24", "updated_in_days": 133, "updated_in_days_formatted": "first seen over a month ago"}, {"bathroom_number": "", "bedroom_number": 2, "car_spaces": 0, "commission": 0, "construction_year": 0, "datasource_name": "OnTheMarket.com", "img_height": 300, "img_url": "https://imgs.nestimg.com/2_bedroom_flat_for_sale_110914521400741327.jpg", "img_width": 400, "keywords": "Double Bedroom", "latitude": 51.3469, "lister_url": "https://www.nestoria.co.uk/detail/0000000110914521400741327/title/5/44-5?serpUid=&pt=1&ot=1&l=somerset&did=105_high1&t_sec=9&t_or=45&t_pvid=null&utm_source=api&utm_medium=external", "listing_type": "buy", "location_accuracy": 9, "longitude": -2.92754, "price": 124950, "price_currency": "\u00a3", "price_formatted": "\u00a3124,950", "price_high": 124950, "price_low": 124950, "price_type": "fixed", "property_type": "flat", "size": 0, "size_type": "net", "summary": "An investment purchase to add to your property portfolio or would b...", "thumb_height": 60, "thumb_url": "https://imgs.nestimg.com/medium/2_bedroom_flat_for_sale_110914521400741327.jpg", "thumb_width": 80, "title": "Griffen Road, Weston-Super-Mare, North Somerset, BS24", "updated_in_days": 34, "updated_in_days_formatted": "first seen over a month ago"}, {"bathroom_number": "", "bedroom_number": 5, "car_spaces": 0, "commission": 0, "construction_year": 0, "datasource_name": "OnTheMarket.com", "img_height": 300, "img_url": "https://imgs.nestimg.com/5_bedroom_detached_house_for_sale_111411503981683851.jpg", "img_width": 400, "keywords": "Detached, Garden, Parking, Cottage", "latitude": 51.1963, "lister_name": "Greenslade Taylor Hunt", "lister_url": "https://www.nestoria.co.uk/detail/0000000111411503981683851/title/5/44-6?serpUid=&pt=1&ot=1&l=somerset&did=105_high1&t_sec=9&t_or=45&t_pvid=null&utm_source=api&utm_medium=external", "listing_type": "buy", "location_accuracy": 9, "longitude": -2.59045, "price": 500000, "price_currency": "\u00a3", "price_formatted": "\u00a3500,000", "price_high": 500000, "price_low": 500000, "price_type": "fixed", "property_type": "house", "size": 0, "size_type": "net", "summary": "A and characterful 5 bedroom detached cottage with off-road parking...", "thumb_height": 60, "thumb_url": "https://imgs.nestimg.com/medium/5_bedroom_detached_house_for_sale_111411503981683851.jpg", "thumb_width": 80, "title": "Old Street, Croscombe, Wells, Somerset, BA5", "updated_in_days": 26, "updated_in_days_formatted": "first seen 3 weeks ago"}, {"bathroom_number": "", "bedroom_number": 3, "car_spaces": 0, "commission": 0, "construction_year": 0, "datasource_name": "OnTheMarket.com", "img_height": 300, "img_url": "https://imgs.nestimg.com/3_bedroom_semi_detached_house_for_sale_111557528177140815.jpg", "img_width": 400, "keywords": "Garden, Semi-Detached, Conservatory, Garage, Kitchen, Cottage, Reception", "latitude": 51.3847, "lister_url": "https://www.nestoria.co.uk/detail/0000000111557528177140815/title/5/44-7?serpUid=&pt=1&ot=1&l=somerset&did=105_high1&t_sec=9&t_or=45&t_pvid=null&utm_source=api&utm_medium=external", "listing_type": "buy", "location_accuracy": 9, "longitude": -2.81524, "price": 425000, "price_currency": "\u00a3", "price_formatted": "\u00a3425,000", "price_high": 425000, "price_low": 425000, "price_type": "fixed", "property_type": "house", "size": 0, "size_type": "net", "summary": "A character cottage situated in the heart of yatton village. Offeri...", "thumb_height": 60, "thumb_url": "https://imgs.nestimg.com/medium/3_bedroom_semi_detached_house_for_sale_111557528177140815.jpg", "thumb_width": 80, "title": "High Street, Yatton, North Somerset, BS49", "updated_in_days": 28, "updated_in_days_formatted": "first seen last month"}, {"bathroom_number": "", "bedroom_number": 2, "car_spaces": 0, "commission": 0, "construction_year": 0, "datasource_name": "OnTheMarket.com", "img_height": 300, "img_url": "https://imgs.nestimg.com/2_bedroom_house_for_sale_111272693366983471.jpg", "img_width": 400, "keywords": "Mews, En suite, Balcony, Parking, Cottage", "latitude": 51.2047, "lister_url": "https://www.nestoria.co.uk/detail/0000000111272693366983471/title/5/44-8?serpUid=&pt=1&ot=1&l=somerset&did=105_high1&t_sec=9&t_or=45&t_pvid=null&utm_source=api&utm_medium=external", "listing_type": "buy", "location_accuracy": 9, "longitude": -3.47565, "price": 165000, "price_currency": "\u00a3", "price_formatted": "\u00a3165,000", "price_high": 165000, "price_low": 165000, "price_type": "fixed", "property_type": "house", "size": 0, "size_type": "net", "summary": "A well maintained two bedroom attached mews style cottage, with ens...", "thumb_height": 60, "thumb_url": "https://imgs.nestimg.com/medium/2_bedroom_house_for_sale_111272693366983471.jpg", "thumb_width": 80, "title": "Irnham Mews, Minehead, Somerset, TA24", "updated_in_days": 74, "updated_in_days_formatted": "first seen over a month ago"}, {"bathroom_number": "", "bedroom_number": 3, "car_spaces": 0, "commission": 0, "construction_year": 0, "datasource_name": "OnTheMarket.com", "img_height": 300, "img_url": "https://imgs.nestimg.com/3_bedroom_bungalow_for_sale_111489636387243912.jpg", "img_width": 400, "keywords": "Detached, Freehold, Bungalow", "latitude": 51.1947, "lister_url": "https://www.nestoria.co.uk/detail/0000000111489636387243912/title/5/44-9?serpUid=&pt=1&ot=1&l=somerset&did=105_high1&t_sec=9&t_or=45&t_pvid=null&utm_source=api&utm_medium=external", "listing_type": "buy", "location_accuracy": 9, "longitude": -3.46255, "price": 340000, "price_currency": "\u00a3", "price_formatted": "\u00a3340,000", "price_high": 340000, "price_low": 340000, "price_type": "fixed", "property_type": "house", "size": 0, "size_type": "net", "summary": "A ly presented modernised and extended three bedroom detached bunga...", "thumb_height": 60, "thumb_url": "https://imgs.nestimg.com/medium/3_bedroom_bungalow_for_sale_111489636387243912.jpg", "thumb_width": 80, "title": "Dunster Close, Minehead, Somerset, TA24", "updated_in_days": 39, "updated_in_days_formatted": "first seen over a month ago"}, {"bathroom_number": "", "bedroom_number": 6, "car_spaces": 0, "commission": 0, "construction_year": 0, "datasource_name": "OnTheMarket.com", "img_height": 300, "img_url": "https://imgs.nestimg.com/6_bedroom_detached_house_for_sale_111217147839278827.jpg", "img_width": 400, "keywords": "Detached, Freehold, Garden, Garage", "latitude": 51.2032, "lister_url": "https://www.nestoria.co.uk/detail/0000000111217147839278827/title/5/44-10?serpUid=&pt=1&ot=1&l=somerset&did=105_high1&t_sec=9&t_or=45&t_pvid=null&utm_source=api&utm_medium=external", "listing_type": "buy", "location_accuracy": 9, "longitude": -3.47626, "price": 435000, "price_currency": "\u00a3", "price_formatted": "\u00a3435,000", "price_high": 435000, "price_low": 435000, "price_type": "fixed", "property_type": "house", "size": 0, "size_type": "net", "summary": "A six bedroom individual detached house with accommodation arranged...", "thumb_height": 60, "thumb_url": "https://imgs.nestimg.com/medium/6_bedroom_detached_house_for_sale_111217147839278827.jpg", "thumb_width": 80, "title": "Warden Road, Minehead, Somerset, TA24", "updated_in_days": 83, "updated_in_days_formatted": "first seen over a month ago"}, {"bathroom_number": "", "bedroom_number": 4, "car_spaces": 0, "commission": 0, "construction_year": 0, "datasource_name": "OnTheMarket.com", "img_height": 300, "img_url": "https://imgs.nestimg.com/4_bedroom_detached_house_for_sale_110759315374764186.jpg", "img_width": 400, "keywords": "Detached, Garden, En suite, Garage, Kitchen", "latitude": 51.3716, "lister_url": "https://www.nestoria.co.uk/detail/0000000110759315374764186/title/5/44-11?serpUid=&pt=1&ot=1&l=somerset&did=105_high1&t_sec=9&t_or=45&t_pvid=null&utm_source=api&utm_medium=external", "listing_type": "buy", "location_accuracy": 9, "longitude": -2.91106, "price": 285000, "price_currency": "\u00a3", "price_formatted": "\u00a3285,000", "price_high": 285000, "price_low": 285000, "price_type": "fixed", "property_type": "house", "size": 0, "size_type": "net", "summary": "Well presented detached house. Four beds. Two ensuites. Two recse y...", "thumb_height": 60, "thumb_url": "https://imgs.nestimg.com/medium/4_bedroom_detached_house_for_sale_110759315374764186.jpg", "thumb_width": 80, "title": "Kelston Road, Worle, Weston-super-Mare, North Somerset. BS22", "updated_in_days": 157, "updated_in_days_formatted": "first seen over a month ago"}, {"bathroom_number": "", "bedroom_number": 6, "car_spaces": 0, "commission": 0, "construction_year": 0, "datasource_name": "OnTheMarket.com", "img_height": 300, "img_url": "https://imgs.nestimg.com/6_bedroom_detached_house_for_sale_110623531223443799.jpg", "img_width": 400, "keywords": "Detached, Garden, Cottage, Listed", "latitude": 51.1915, "lister_url": "https://www.nestoria.co.uk/detail/0000000110623531223443799/title/5/44-12?serpUid=&pt=1&ot=1&l=somerset&did=105_high1&t_sec=9&t_or=45&t_pvid=null&utm_source=api&utm_medium=external", "listing_type": "buy", "location_accuracy": 9, "longitude": -3.45852, "price": 1375000, "price_currency": "\u00a3", "price_formatted": "\u00a31,375,000", "price_high": 1375000, "price_low": 1375000, "price_type": "fixed", "property_type": "house", "size": 0, "size_type": "net", "summary": "Sixteenth century manor house, listed grade ll, with four successfu...", "thumb_height": 60, "thumb_url": "https://imgs.nestimg.com/medium/6_bedroom_detached_house_for_sale_110623531223443799.jpg", "thumb_width": 80, "title": "Ellicombe, Nr Minehead, Somerset, TA24", "updated_in_days": 179, "updated_in_days_formatted": "first seen over a month ago"}, {"bathroom_number": "", "bedroom_number": 1, "car_spaces": 0, "commission": 0, "construction_year": 0, "datasource_name": "OnTheMarket.com", "img_height": 300, "img_url": "https://imgs.nestimg.com/1_bedroom_chalet_for_sale_109707785901350496.jpg", "img_width": 400, "keywords": "Furnished", "latitude": 51.2114, "lister_url": "https://www.nestoria.co.uk/detail/0000000109707785901350496/title/5/44-13?serpUid=&pt=1&ot=1&l=somerset&did=105_high1&t_sec=9&t_or=45&t_pvid=null&utm_source=api&utm_medium=external", "listing_type": "buy", "location_accuracy": 9, "longitude": -2.67211, "price": 120000, "price_currency": "\u00a3", "price_formatted": "\u00a3120,000", "price_high": 120000, "price_low": 120000, "price_type": "fixed", "property_type": "house", "size": 0, "size_type": "net", "summary": "Set in idyllic surroundings in the somerset countryside this outsta...", "thumb_height": 60, "thumb_url": "https://imgs.nestimg.com/medium/1_bedroom_chalet_for_sale_109707785901350496.jpg", "thumb_width": 80, "title": "Haybridge, WELLS, Somerset", "updated_in_days": 327, "updated_in_days_formatted": "first seen over a month ago"}, {"bathroom_number": "", "bedroom_number": 3, "car_spaces": 0, "commission": 0, "construction_year": 0, "datasource_name": "OnTheMarket.com", "img_height": 300, "img_url": "https://imgs.nestimg.com/3_bedroom_detached_house_for_sale_111056513435222327.jpg", "img_width": 400, "keywords": "Detached", "latitude": 50.9158, "lister_name": "Greenslade Taylor Hunt", "lister_url": "https://www.nestoria.co.uk/detail/0000000111056513435222327/title/5/44-14?serpUid=&pt=1&ot=1&l=somerset&did=105_high1&t_sec=9&t_or=45&t_pvid=null&utm_source=api&utm_medium=external", "listing_type": "buy", "location_accuracy": 9, "longitude": -2.70414, "price": 525000, "price_currency": "\u00a3", "price_formatted": "\u00a3525,000", "price_high": 525000, "price_low": 525000, "price_type": "fixed", "property_type": "house", "size": 0, "size_type": "net", "summary": "A superb detached, period home, offering unrivalled views across th...", "thumb_height": 60, "thumb_url": "https://imgs.nestimg.com/medium/3_bedroom_detached_house_for_sale_111056513435222327.jpg", "thumb_width": 80, "title": "West Coker Hill, West Coker, Yeovil, Somerset, BA22", "updated_in_days": 60, "updated_in_days_formatted": "first seen over a month ago"}, {"bathroom_number": "", "bedroom_number": 8, "car_spaces": 0, "commission": 0, "construction_year": 0, "datasource_name": "OnTheMarket.com", "img_height": 300, "img_url": "https://imgs.nestimg.com/4_bedroom_terraced_house_for_sale_108977818945718469.jpg", "img_width": 400, "keywords": "Terraced", "latitude": 51.34661, "lister_url": "https://www.nestoria.co.uk/detail/0000000108977818945718469/title/5/44-15?serpUid=&pt=1&ot=1&l=somerset&did=105_high1&t_sec=9&t_or=45&t_pvid=null&utm_source=api&utm_medium=external", "listing_type": "buy", "location_accuracy": 9, "longitude": -2.972601, "price": 430000, "price_currency": "\u00a3", "price_formatted": "\u00a3430,000", "price_high": 430000, "price_low": 430000, "price_type": "fixed", "property_type": "house", "size": 0, "size_type": "net", "summary": "This is the perfect time to purchase an investment with a healthy 1...", "thumb_height": 60, "thumb_url": "https://imgs.nestimg.com/medium/4_bedroom_terraced_house_for_sale_108977818945718469.jpg", "thumb_width": 80, "title": "Locking Road, Weston-Super-Mare, North Somerset", "updated_in_days": 34, "updated_in_days_formatted": "first seen over a month ago"}], "locations": [{"center_lat": 51.080967, "center_long": -3.045432, "long_title": "Somerset, county", "place_name": "somerset", "title": "Somerset"}], "page": 44, "sort": "nestoria_rank", "status_code": "200", "status_text": "OK", "thanks": "For using the Nestoria API.", "total_pages": 410, "total_results": 6149, "_cu5t0mP434m_": "remove"}}