{"request": {"country": "uk", "language": "en", "location": "somerset", "num_res": "15", "offset": 660, "output": "json_xs", "page": 45, "product_type": "realestate", "property_type": "property", "size_type": "net", "size_unit": "m2", "sort": "nestoria_rank", "listing_type": "buy"}, "response": {"application_response_code": "100", "application_response_text": "listings returned for one unambiguous location", "attribution": {"img_height": 22, "img_url": "https://resources.nestimg.com/nestoria/img/pbr_v1.png", "img_width": 183, "link_to_img": "http://www.nestoria.com"}, "created_http": "Tue, 18 Jun 2019 17:29:42 GMT", "created_unix": 1560878982, "link_to_url": "https://www.nestoria.co.uk/somerset/property/buy/45", "listings": [{"bathroom_number": "", "bedroom_number": 6, "car_spaces": 0, "commission": 0, "construction_year": 0, "datasource_name": "OnTheMarket.com", "img_height": 300, "img_url": "https://imgs.nestimg.com/6_bedroom_detached_house_for_sale_111569521341905594.jpg", "img_width": 400, "keywords": "Detached, Garden", "latitude": 50.908623, "lister_name": "Knight Frank", "lister_url": "https://www.nestoria.co.uk/detail/0000000111569521341905594/title/5/45-1?serpUid=&pt=1&ot=1&l=somerset&did=105_high1&t_sec=9&t_or=45&t_pvid=null&utm_source=api&utm_medium=external", "listing_type": "buy", "location_accuracy": 9, "longitude": -2.674627, "price": 2475000, "price_currency": "\u00a3", "price_formatted": "\u00a32,475,000", "price_high": 2475000, "price_low": 2475000, "price_type": "fixed", "property_type": "house", "size": 0, "size_type": "net", "summary": "A state of the art iconic house with far reaching views waterfalls ...", "thumb_height": 60, "thumb_url": "https://imgs.nestimg.com/medium/6_bedroom_detached_house_for_sale_111569521341905594.jpg", "thumb_width": 80, "title": "Primrose Hill, East Coker, Yeovil, Somerset, BA22", "updated_in_days": 26, "updated_in_days_formatted": "first seen 3 weeks ago"}, {"bathroom_number": "", "bedroom_number": 2, "car_spaces": 0, "commission": 0, "construction_year": 0, "datasource_name": "OnTheMarket.com", "img_height": 300, "img_url": "https://imgs.nestimg.com/2_bedroom_semi_detached_bungalow_for_sale_111118066568810995.jpg", "img_width": 400, "keywords": "Semi-Detached, Bungalow, Cul-de-Sac", "latitude": 51.1996, "lister_url": "https://www.nestoria.co.uk/detail/0000000111118066568810995/title/5/45-2?serpUid=&pt=1&ot=1&l=somerset&did=105_high1&t_sec=9&t_or=45&t_pvid=null&utm_source=api&utm_medium=external", "listing_type": "buy", "location_accuracy": 9, "longitude": -3.47968, "price": 219950, "price_currency": "\u00a3", "price_formatted": "\u00a3219,950", "price_high": 219950, "price_low": 219950, "price_type": "fixed", "property_type": "house", "size": 0, "size_type": "net", "summary": "On onward chain a well presented two bedroom semi detached bungalow...", "thumb_height": 60, "thumb_url": "https://imgs.nestimg.com/medium/2_bedroom_semi_detached_bungalow_for_sale_111118066568810995.jpg", "thumb_width": 80, "title": "Cherfield, Minehead, Somerset, TA24", "updated_in_days": 28, "updated_in_days_formatted": "first seen last month"}, {"bathroom_number": "", "bedroom_number": 3, "car_spaces": 0, "commission": 0, "construction_year": 0, "datasource_name": "OnTheMarket.com", "img_height": 300, "img_url": "https://imgs.nestimg.com/3_bedroom_semi_detached_house_for_sale_111204812573054540.jpg", "img_width": 400, "keywords": "Semi-Detached, Conservatory, Kitchen", "latitude": 51.3503, "lister_url": "https://www.nestoria.co.uk/detail/0000000111204812573054540/title/5/45-3?serpUid=&pt=1&ot=1&l=somerset&did=105_high1&t_sec=9&t_or=45&t_pvid=null&utm_source=api&utm_medium=external", "listing_type": "buy", "location_accuracy": 9, "longitude": -2.93036, "price": 219950, "price_currency": "\u00a3", "price_formatted": "\u00a3219,950", "price_high": 219950, "price_low": 219950, "price_type": "fixed", "property_type": "house", "size": 0, "size_type": "net", "summary": "3 bedroom property situated on the locking castle estate close to l...", "thumb_height": 60, "thumb_url": "https://imgs.nestimg.com/medium/3_bedroom_semi_detached_house_for_sale_111204812573054540.jpg", "thumb_width": 80, "title": "Aspen Park Road, BS22, North Somerset", "updated_in_days": 84, "updated_in_days_formatted": "first seen over a month ago"}, {"bathroom_number": "", "bedroom_number": 2, "car_spaces": 0, "commission": 0, "construction_year": 0, "datasource_name": "OnTheMarket.com", "img_height": 300, "img_url": "https://imgs.nestimg.com/2_bedroom_detached_bungalow_for_sale_111186362396960206.jpg", "img_width": 400, "keywords": "Detached, Garden, Bungalow", "latitude": 51.3517, "lister_url": "https://www.nestoria.co.uk/detail/0000000111186362396960206/title/5/45-4?serpUid=&pt=1&ot=1&l=somerset&did=105_high1&t_sec=9&t_or=45&t_pvid=null&utm_source=api&utm_medium=external", "listing_type": "buy", "location_accuracy": 9, "longitude": -2.93863, "price": 285000, "price_currency": "\u00a3", "price_formatted": "\u00a3285,000", "price_high": 285000, "price_low": 285000, "price_type": "fixed", "property_type": "house", "size": 0, "size_type": "net", "summary": "A well maintained 2 bedroom detached bungalow set within feature ga...", "thumb_height": 60, "thumb_url": "https://imgs.nestimg.com/medium/2_bedroom_detached_bungalow_for_sale_111186362396960206.jpg", "thumb_width": 80, "title": "Garsdale Road, Weston-super-Mare, North Somerset", "updated_in_days": 88, "updated_in_days_formatted": "first seen over a month ago"}, {"bathroom_number": "", "bedroom_number": 3, "car_spaces": 0, "commission": 0, "construction_year": 0, "datasource_name": "OnTheMarket.com", "img_height": 300, "img_url": "https://imgs.nestimg.com/3_bedroom_detached_house_for_sale_111581693754496261.jpg", "img_width": 400, "keywords": "Detached, Freehold", "latitude": 51.2004, "lister_url": "https://www.nestoria.co.uk/detail/0000000111581693754496261/title/5/45-5?serpUid=&pt=1&ot=1&l=somerset&did=105_high1&t_sec=9&t_or=45&t_pvid=null&utm_source=api&utm_medium=external", "listing_type": "buy", "location_accuracy": 9, "longitude": -3.49106, "price": 375000, "price_currency": "\u00a3", "price_formatted": "\u00a3375,000", "price_high": 375000, "price_low": 375000, "price_type": "fixed", "property_type": "house", "size": 0, "size_type": "net", "summary": "A well maintained three bedroom detached house situated in a pleasa...", "thumb_height": 60, "thumb_url": "https://imgs.nestimg.com/medium/3_bedroom_detached_house_for_sale_111581693754496261.jpg", "thumb_width": 80, "title": "Greenway, Minehead, Somerset, TA24", "updated_in_days": 24, "updated_in_days_formatted": "first seen 3 weeks ago"}, {"bathroom_number": "", "bedroom_number": 2, "car_spaces": 0, "commission": 0, "construction_year": 0, "datasource_name": "OnTheMarket.com", "img_height": 300, "img_url": "https://imgs.nestimg.com/2_bedroom_house_for_sale_110580095639206542.jpg", "img_width": 400, "keywords": "Freehold, Grade II, Cottage, Listed", "latitude": 51.2053, "lister_url": "https://www.nestoria.co.uk/detail/0000000110580095639206542/title/5/45-6?serpUid=&pt=1&ot=1&l=somerset&did=105_high1&t_sec=9&t_or=45&t_pvid=null&utm_source=api&utm_medium=external", "listing_type": "buy", "location_accuracy": 9, "longitude": -3.47688, "price": 130000, "price_currency": "\u00a3", "price_formatted": "\u00a3130,000", "price_high": 130000, "price_low": 130000, "price_type": "fixed", "property_type": "house", "size": 0, "size_type": "net", "summary": "An attached two bedroom grade ii listed period cottage of considera...", "thumb_height": 60, "thumb_url": "https://imgs.nestimg.com/medium/2_bedroom_house_for_sale_110580095639206542.jpg", "thumb_width": 80, "title": "Old Priory, Summerland Road, Minehead, Somerset, TA24", "updated_in_days": 186, "updated_in_days_formatted": "first seen over a month ago"}, {"bathroom_number": "", "bedroom_number": 5, "car_spaces": 0, "commission": 0, "construction_year": 0, "datasource_name": "OnTheMarket.com", "img_height": 300, "img_url": "https://imgs.nestimg.com/5_bedroom_detached_house_for_sale_111656078088265902.jpg", "img_width": 400, "keywords": "Detached, En suite, Conversion", "latitude": 51.034092, "lister_name": "Knight Frank", "lister_url": "https://www.nestoria.co.uk/detail/0000000111656078088265902/title/5/45-7?serpUid=&pt=1&ot=1&l=somerset&did=105_high1&t_sec=9&t_or=45&t_pvid=null&utm_source=api&utm_medium=external", "listing_type": "buy", "location_accuracy": 9, "longitude": -2.492716, "price": 1550000, "price_currency": "\u00a3", "price_formatted": "\u00a31,550,000", "price_high": 1550000, "price_low": 1550000, "price_type": "fixed", "property_type": "house", "size": 0, "size_type": "net", "summary": "5 bedroom barn, currently being converted to an high standard this ...", "thumb_height": 60, "thumb_url": "https://imgs.nestimg.com/medium/5_bedroom_detached_house_for_sale_111656078088265902.jpg", "thumb_width": 80, "title": "Blackford, Somerset, BA22 - Detached", "updated_in_days": 12, "updated_in_days_formatted": "first seen last week"}, {"bathroom_number": "", "bedroom_number": 3, "car_spaces": 0, "commission": 0, "construction_year": 0, "datasource_name": "OnTheMarket.com", "img_height": 300, "img_url": "https://imgs.nestimg.com/3_bedroom_cottage_for_sale_111557531494519741.jpg", "img_width": 400, "keywords": "Garden, Fireplace, Terraced, Kitchen, Cottage, Gas Central Heating", "latitude": 51.0883, "lister_url": "https://www.nestoria.co.uk/detail/0000000111557531494519741/title/5/45-8?serpUid=&pt=1&ot=1&l=somerset&did=105_high1&t_sec=9&t_or=45&t_pvid=null&utm_source=api&utm_medium=external", "listing_type": "buy", "location_accuracy": 9, "longitude": -2.51517, "price": 210000, "price_currency": "\u00a3", "price_formatted": "\u00a3210,000", "price_high": 210000, "price_low": 210000, "price_type": "fixed", "property_type": "house", "size": 0, "size_type": "net", "summary": "A most three bedroom end terrace cottage situated in the heart of c...", "thumb_height": 60, "thumb_url": "https://imgs.nestimg.com/medium/3_bedroom_cottage_for_sale_111557531494519741.jpg", "thumb_width": 80, "title": "Castle Cary, Somerset, BA7 - Cottage", "updated_in_days": 28, "updated_in_days_formatted": "first seen last month"}, {"bathroom_number": "", "bedroom_number": 3, "car_spaces": 0, "commission": 0, "construction_year": 0, "datasource_name": "OnTheMarket.com", "img_height": 300, "img_url": "https://imgs.nestimg.com/3_bedroom_detached_house_for_sale_111581695134665382.jpg", "img_width": 400, "keywords": "Detached, Garden, Double Garage", "latitude": 51.1042, "lister_name": "Stags", "lister_url": "https://www.nestoria.co.uk/detail/0000000111581695134665382/title/5/45-9?serpUid=&pt=1&ot=1&l=somerset&did=105_high1&t_sec=9&t_or=45&t_pvid=null&utm_source=api&utm_medium=external", "listing_type": "buy", "location_accuracy": 9, "longitude": -3.56912, "price": 595000, "price_currency": "\u00a3", "price_formatted": "\u00a3595,000", "price_high": 595000, "price_low": 595000, "price_type": "fixed", "property_type": "house", "size": 0, "size_type": "net", "summary": "A 3 bedroom property surrounded by private grounds with far reachin...", "thumb_height": 60, "thumb_url": "https://imgs.nestimg.com/medium/3_bedroom_detached_house_for_sale_111581695134665382.jpg", "thumb_width": 80, "title": "Ash Lane, Winsford, Minehead, Somerset, TA24", "updated_in_days": 24, "updated_in_days_formatted": "first seen 3 weeks ago"}, {"bathroom_number": "", "bedroom_number": 3, "car_spaces": 0, "commission": 0, "construction_year": 0, "datasource_name": "OnTheMarket.com", "img_height": 300, "img_url": "https://imgs.nestimg.com/3_bedroom_semi_detached_house_for_sale_111650097070218204.jpg", "img_width": 400, "keywords": "Garden, Semi-Detached, Fireplace, Garage, Kitchen", "latitude": 51.1141, "lister_url": "https://www.nestoria.co.uk/detail/0000000111650097070218204/title/5/45-10?serpUid=&pt=1&ot=1&l=somerset&did=105_high1&t_sec=9&t_or=45&t_pvid=null&utm_source=api&utm_medium=external", "listing_type": "buy", "location_accuracy": 9, "longitude": -2.44735, "price": 340000, "price_currency": "\u00a3", "price_formatted": "\u00a3340,000", "price_high": 340000, "price_low": 340000, "price_type": "fixed", "property_type": "house", "size": 0, "size_type": "net", "summary": "A rare opportunity to purchase a three bedroom semi-detached house ...", "thumb_height": 60, "thumb_url": "https://imgs.nestimg.com/medium/3_bedroom_semi_detached_house_for_sale_111650097070218204.jpg", "thumb_width": 80, "title": "Bruton, Somerset, BA10 - Fireplace", "updated_in_days": 13, "updated_in_days_formatted": "first seen last week"}, {"bathroom_number": "", "bedroom_number": 2, "car_spaces": 0, "commission": 0, "construction_year": 0, "datasource_name": "OnTheMarket.com", "img_height": 300, "img_url": "https://imgs.nestimg.com/2_bedroom_terraced_house_for_sale_110184702972276234.jpg", "img_width": 400, "keywords": "Freehold, Terraced, Cottage", "latitude": 51.2105, "lister_url": "https://www.nestoria.co.uk/detail/0000000110184702972276234/title/5/45-11?serpUid=&pt=1&ot=1&l=somerset&did=105_high1&t_sec=9&t_or=45&t_pvid=null&utm_source=api&utm_medium=external", "listing_type": "buy", "location_accuracy": 9, "longitude": -3.47396, "price": 229500, "price_currency": "\u00a3", "price_formatted": "\u00a3229,500", "price_high": 229500, "price_low": 229500, "price_type": "fixed", "property_type": "house", "size": 0, "size_type": "net", "summary": "A well presented and modernised two bedroom double fronted terraced...", "thumb_height": 60, "thumb_url": "https://imgs.nestimg.com/medium/2_bedroom_terraced_house_for_sale_110184702972276234.jpg", "thumb_width": 80, "title": "Quay Street, Minehead, Somerset, TA24", "updated_in_days": 32, "updated_in_days_formatted": "first seen over a month ago"}, {"bathroom_number": "", "bedroom_number": 4, "car_spaces": 0, "commission": 0, "construction_year": 0, "datasource_name": "OnTheMarket.com", "img_height": 300, "img_url": "https://imgs.nestimg.com/4_bedroom_detached_house_for_sale_111204811786393953.jpg", "img_width": 400, "keywords": "Detached, Double Garage", "latitude": 50.9374, "lister_name": "Greenslade Taylor Hunt", "lister_url": "https://www.nestoria.co.uk/detail/0000000111204811786393953/title/5/45-12?serpUid=&pt=1&ot=1&l=somerset&did=105_high1&t_sec=9&t_or=45&t_pvid=null&utm_source=api&utm_medium=external", "listing_type": "buy", "location_accuracy": 9, "longitude": -2.63346, "price": 375000, "price_currency": "\u00a3", "price_formatted": "\u00a3375,000", "price_high": 375000, "price_low": 375000, "price_type": "fixed", "property_type": "house", "size": 0, "size_type": "net", "summary": "An incredibly unique, 4/5 bedroom detached house located close to t...", "thumb_height": 60, "thumb_url": "https://imgs.nestimg.com/medium/4_bedroom_detached_house_for_sale_111204811786393953.jpg", "thumb_width": 80, "title": "Penn Hill Park, Yeovil, Somerset, BA20", "updated_in_days": 85, "updated_in_days_formatted": "first seen over a month ago"}, {"bathroom_number": "", "bedroom_number": 1, "car_spaces": 0, "commission": 0, "construction_year": 0, "datasource_name": "OnTheMarket.com", "img_height": 300, "img_url": "https://imgs.nestimg.com/1_bedroom_flat_for_sale_110864495092389720.jpg", "img_width": 400, "keywords": "No Chain, Kitchen", "latitude": 51.3535, "lister_url": "https://www.nestoria.co.uk/detail/0000000110864495092389720/title/5/45-13?serpUid=&pt=1&ot=1&l=somerset&did=105_high1&t_sec=9&t_or=45&t_pvid=null&utm_source=api&utm_medium=external", "listing_type": "buy", "location_accuracy": 9, "longitude": -2.98614, "price": 112000, "price_currency": "\u00a3", "price_formatted": "\u00a3112,000", "price_high": 112000, "price_low": 112000, "price_type": "fixed", "property_type": "flat", "size": 0, "size_type": "net", "summary": "One bed top floor flat. Close to sea front. Well presented flat, id...", "thumb_height": 60, "thumb_url": "https://imgs.nestimg.com/medium/1_bedroom_flat_for_sale_110864495092389720.jpg", "thumb_width": 80, "title": "Upper Church Road, Weston-super-Mare, North Somerset. BS23", "updated_in_days": 76, "updated_in_days_formatted": "first seen over a month ago"}, {"bathroom_number": "", "bedroom_number": "", "car_spaces": 0, "commission": 0, "construction_year": 0, "datasource_name": "OnTheMarket.com", "img_height": 300, "img_url": "https://imgs.nestimg.com/land_for_sale_111359019883010938.jpg", "img_width": 400, "keywords": "", "latitude": 50.96671, "lister_name": "Savills", "lister_url": "https://www.nestoria.co.uk/detail/0000000111359019883010938/title/5/45-14?serpUid=&pt=1&ot=1&l=somerset&did=105_high1&t_sec=9&t_or=45&t_pvid=null&utm_source=api&utm_medium=external", "listing_type": "buy", "location_accuracy": 9, "longitude": -2.81671, "price": 380000, "price_currency": "\u00a3", "price_formatted": "\u00a3380,000", "price_high": 380000, "price_low": 380000, "price_type": "fixed", "property_type": "land", "size": 0, "size_type": "net", "summary": "And productive cider orchard together with a range of steel-framed ...", "thumb_height": 60, "thumb_url": "https://imgs.nestimg.com/medium/land_for_sale_111359019883010938.jpg", "thumb_width": 80, "title": "Four Winds Cider Farm, Lambrook, South Petherton, Somerset, TA13", "updated_in_days": 60, "updated_in_days_formatted": "first seen over a month ago"}, {"bathroom_number": "", "bedroom_number": 2, "car_spaces": 0, "commission": 0, "construction_year": 0, "datasource_name": "OnTheMarket.com", "img_height": 300, "img_url": "https://imgs.nestimg.com/2_bedroom_flat_for_sale_111482788126584727.jpg", "img_width": 400, "keywords": "Kitchen", "latitude": 51.3543, "lister_url": "https://www.nestoria.co.uk/detail/0000000111482788126584727/title/5/45-15?serpUid=&pt=1&ot=1&l=somerset&did=105_high1&t_sec=9&t_or=45&t_pvid=null&utm_source=api&utm_medium=external", "listing_type": "buy", "location_accuracy": 9, "longitude": -2.98294, "price": 135000, "price_currency": "\u00a3", "price_formatted": "\u00a3135,000", "price_high": 135000, "price_low": 135000, "price_type": "fixed", "property_type": "flat", "size": 0, "size_type": "net", "summary": "Two bedsare you looking for somewhere with features and character? ...", "thumb_height": 60, "thumb_url": "https://imgs.nestimg.com/medium/2_bedroom_flat_for_sale_111482788126584727.jpg", "thumb_width": 80, "title": "Westwood Mansions, 18 Shrubbery Road, Weston-super-Mare, North Somerset. BS23", "updated_in_days": 40, "updated_in_days_formatted": "first seen over a month ago"}], "locations": [{"center_lat": 51.080967, "center_long": -3.045432, "long_title": "Somerset, county", "place_name": "somerset", "title": "Somerset"}], "page": 45, "sort": "nestoria_rank", "status_code": "200", "status_text": "OK", "thanks": "For using the Nestoria API.", "total_pages": 410, "total_results": 6149, "_cu5t0mP434m_": "remove"}}