{"request": {"country": "uk", "language": "en", "location": "somerset", "num_res": "15", "offset": 675, "output": "json_xs", "page": 46, "product_type": "realestate", "property_type": "property", "size_type": "net", "size_unit": "m2", "sort": "nestoria_rank", "listing_type": "buy"}, "response": {"application_response_code": "100", "application_response_text": "listings returned for one unambiguous location", "attribution": {"img_height": 22, "img_url": "https://resources.nestimg.com/nestoria/img/pbr_v1.png", "img_width": 183, "link_to_img": "http://www.nestoria.com"}, "created_http": "Tue, 18 Jun 2019 17:29:44 GMT", "created_unix": 1560878984, "link_to_url": "https://www.nestoria.co.uk/somerset/property/buy/46", "listings": [{"bathroom_number": "", "bedroom_number": 7, "car_spaces": 0, "commission": 0, "construction_year": 0, "datasource_name": "OnTheMarket.com", "img_height": 300, "img_url": "https://imgs.nestimg.com/7_bedroom_detached_house_for_sale_111464164661852368.jpg", "img_width": 400, "keywords": "Detached", "latitude": 50.8387, "lister_url": "https://www.nestoria.co.uk/detail/0000000111464164661852368/title/5/46-1?serpUid=&pt=1&ot=1&l=somerset&did=105_high1&t_sec=9&t_or=45&t_pvid=null&utm_source=api&utm_medium=external", "listing_type": "buy", "location_accuracy": 9, "longitude": -2.8398, "price": 1850000, "price_currency": "\u00a3", "price_formatted": "\u00a31,850,000", "price_high": 1850000, "price_low": 1850000, "price_type": "fixed", "property_type": "house", "size": 0, "size_type": "net", "summary": "An regency house in an elevated position on the somerset dorset bor...", "thumb_height": 60, "thumb_url": "https://imgs.nestimg.com/medium/7_bedroom_detached_house_for_sale_111464164661852368.jpg", "thumb_width": 80, "title": "Greenham, Crewkerne, Somerset, TA18", "updated_in_days": 43, "updated_in_days_formatted": "first seen over a month ago"}, {"bathroom_number": "", "bedroom_number": 1, "car_spaces": 0, "commission": 0, "construction_year": 0, "datasource_name": "OnTheMarket.com", "img_height": 300, "img_url": "https://imgs.nestimg.com/1_bedroom_apartment_for_sale_111080757569642022.jpg", "img_width": 400, "keywords": "No Chain, Double Bedroom", "latitude": 51.3588, "lister_url": "https://www.nestoria.co.uk/detail/0000000111080757569642022/title/5/46-2?serpUid=&pt=1&ot=1&l=somerset&did=105_high1&t_sec=9&t_or=45&t_pvid=null&utm_source=api&utm_medium=external", "listing_type": "buy", "location_accuracy": 9, "longitude": -2.92375, "price": 145000, "price_currency": "\u00a3", "price_formatted": "\u00a3145,000", "price_high": 145000, "price_low": 145000, "price_type": "fixed", "property_type": "flat", "size": 0, "size_type": "net", "summary": "Well presented first floor retirement flat. Double bedroom. Great l...", "thumb_height": 60, "thumb_url": "https://imgs.nestimg.com/medium/1_bedroom_apartment_for_sale_111080757569642022.jpg", "thumb_width": 80, "title": "Fussells Court, Station Road, Worle, Weston-super-Mare, North Somerset. BS22", "updated_in_days": 75, "updated_in_days_formatted": "first seen over a month ago"}, {"bathroom_number": "", "bedroom_number": 3, "car_spaces": 0, "commission": 0, "construction_year": 0, "datasource_name": "OnTheMarket.com", "img_height": 300, "img_url": "https://imgs.nestimg.com/3_bedroom_detached_house_for_sale_111581680370359251.jpg", "img_width": 400, "keywords": "Detached, Garden, No Chain, Cottage", "latitude": 51.0172, "lister_name": "Greenslade Taylor Hunt", "lister_url": "https://www.nestoria.co.uk/detail/0000000111581680370359251/title/5/46-3?serpUid=&pt=1&ot=1&l=somerset&did=105_high1&t_sec=9&t_or=45&t_pvid=null&utm_source=api&utm_medium=external", "listing_type": "buy", "location_accuracy": 9, "longitude": -2.5397, "price": 300000, "price_currency": "\u00a3", "price_formatted": "\u00a3300,000", "price_high": 300000, "price_low": 300000, "price_type": "fixed", "property_type": "house", "size": 0, "size_type": "net", "summary": "A three bedroom detached cottage with gardens situated in the heart...", "thumb_height": 60, "thumb_url": "https://imgs.nestimg.com/medium/3_bedroom_detached_house_for_sale_111581680370359251.jpg", "thumb_width": 80, "title": "Sutton Montis, Yeovil, Somerset, BA22", "updated_in_days": 24, "updated_in_days_formatted": "first seen 3 weeks ago"}, {"bathroom_number": "", "bedroom_number": 3, "car_spaces": 0, "commission": 0, "construction_year": 0, "datasource_name": "OnTheMarket.com", "img_height": 300, "img_url": "https://imgs.nestimg.com/3_bedroom_farm_house_for_sale_111241502418949042.jpg", "img_width": 400, "keywords": "Grade II, Listed", "latitude": 51.1878, "lister_url": "https://www.nestoria.co.uk/detail/0000000111241502418949042/title/5/46-4?serpUid=&pt=1&ot=1&l=somerset&did=105_high1&t_sec=9&t_or=45&t_pvid=null&utm_source=api&utm_medium=external", "listing_type": "buy", "location_accuracy": 9, "longitude": -3.45416, "price": 795000, "price_currency": "\u00a3", "price_formatted": "\u00a3795,000", "price_high": 795000, "price_low": 795000, "price_type": "fixed", "property_type": "house", "size": 0, "size_type": "net", "summary": "A superb c. 16.7 acre country property with equestrian facilities, ...", "thumb_height": 60, "thumb_url": "https://imgs.nestimg.com/medium/3_bedroom_farm_house_for_sale_111241502418949042.jpg", "thumb_width": 80, "title": "Ellicombe SOMERSET - Listed, Grade II", "updated_in_days": 79, "updated_in_days_formatted": "first seen over a month ago"}, {"bathroom_number": "", "bedroom_number": 5, "car_spaces": 0, "commission": 0, "construction_year": 0, "datasource_name": "OnTheMarket.com", "img_height": 300, "img_url": "https://imgs.nestimg.com/5_bedroom_detached_house_7380115482335676075.jpg", "img_width": 400, "keywords": "Detached, Garden, Grade II, Parking, Listed", "latitude": 51.3303, "lister_name": "Knight Frank", "lister_url": "https://www.nestoria.co.uk/detail/0000007380115482335676075/title/5/46-5?serpUid=&pt=1&ot=1&l=somerset&did=105_high1&t_sec=9&t_or=45&t_pvid=null&utm_source=api&utm_medium=external", "listing_type": "buy", "location_accuracy": 9, "longitude": -2.719709, "price": 997500, "price_currency": "\u00a3", "price_formatted": "\u00a3997,500", "price_high": 997500, "price_low": 997500, "price_type": "fixed", "property_type": "house", "size": 0, "size_type": "net", "summary": "Village home for sale in blagdon with views, bs40. Grade ii listed ...", "thumb_height": 60, "thumb_url": "https://imgs.nestimg.com/medium/5_bedroom_detached_house_7380115482335676075.jpg", "thumb_width": 80, "title": "High Street, Blagdon, Bristol, North Somerset, BS40", "updated_in_days": 39, "updated_in_days_formatted": "first seen over a month ago"}, {"bathroom_number": "", "bedroom_number": 2, "car_spaces": 0, "commission": 0, "construction_year": 0, "datasource_name": "OnTheMarket.com", "img_height": 300, "img_url": "https://imgs.nestimg.com/2_bedroom_flat_for_sale_111359022564798526.jpg", "img_width": 400, "keywords": "", "latitude": 51.3369, "lister_url": "https://www.nestoria.co.uk/detail/0000000111359022564798526/title/5/46-6?serpUid=&pt=1&ot=1&l=somerset&did=105_high1&t_sec=9&t_or=45&t_pvid=null&utm_source=api&utm_medium=external", "listing_type": "buy", "location_accuracy": 9, "longitude": -2.95826, "price": 124950, "price_currency": "\u00a3", "price_formatted": "\u00a3124,950", "price_high": 124950, "price_low": 124950, "price_type": "fixed", "property_type": "flat", "size": 0, "size_type": "net", "summary": "Well presented 2 bedroom property situated on the park estate westo...", "thumb_height": 60, "thumb_url": "https://imgs.nestimg.com/medium/2_bedroom_flat_for_sale_111359022564798526.jpg", "thumb_width": 80, "title": "Ankatel Close, BS23, North Somerset", "updated_in_days": 51, "updated_in_days_formatted": "first seen over a month ago"}, {"bathroom_number": "", "bedroom_number": 5, "car_spaces": 0, "commission": 0, "construction_year": 0, "datasource_name": "OnTheMarket.com", "img_height": 300, "img_url": "https://imgs.nestimg.com/5_bedroom_farm_house_for_sale_111519981658127089.jpg", "img_width": 400, "keywords": "Garden, Parking", "latitude": 51.3356, "lister_name": "Robin King", "lister_url": "https://www.nestoria.co.uk/detail/0000000111519981658127089/title/5/46-7?serpUid=&pt=1&ot=1&l=somerset&did=105_high1&t_sec=9&t_or=45&t_pvid=null&utm_source=api&utm_medium=external", "listing_type": "buy", "location_accuracy": 9, "longitude": -2.81097, "price": 900000, "price_currency": "\u00a3", "price_formatted": "\u00a3900,000", "price_high": 900000, "price_low": 900000, "price_type": "fixed", "property_type": "house", "size": 0, "size_type": "net", "summary": ", somerset longhouse with many character features remaining, with a...", "thumb_height": 60, "thumb_url": "https://imgs.nestimg.com/medium/5_bedroom_farm_house_for_sale_111519981658127089.jpg", "thumb_width": 80, "title": "Somerset Longhouse, full of character", "updated_in_days": 34, "updated_in_days_formatted": "first seen over a month ago"}, {"bathroom_number": "", "bedroom_number": 1, "car_spaces": 0, "commission": 0, "construction_year": 0, "datasource_name": "OnTheMarket.com", "img_height": 300, "img_url": "https://imgs.nestimg.com/1_bedroom_apartment_for_sale_111575825120869595.jpg", "img_width": 400, "keywords": "Parking", "latitude": 51.205, "lister_url": "https://www.nestoria.co.uk/detail/0000000111575825120869595/title/5/46-8?serpUid=&pt=1&ot=1&l=somerset&did=105_high1&t_sec=9&t_or=45&t_pvid=null&utm_source=api&utm_medium=external", "listing_type": "buy", "location_accuracy": 9, "longitude": -3.48223, "price": 195000, "price_currency": "\u00a3", "price_formatted": "\u00a3195,000", "price_high": 195000, "price_low": 195000, "price_type": "fixed", "property_type": "flat", "size": 0, "size_type": "net", "summary": "Of interest to developers, investors and home and income purchasers...", "thumb_height": 60, "thumb_url": "https://imgs.nestimg.com/medium/1_bedroom_apartment_for_sale_111575825120869595.jpg", "thumb_width": 80, "title": "Parkhouse Road, Minehead, Somerset, TA24", "updated_in_days": 25, "updated_in_days_formatted": "first seen 3 weeks ago"}, {"bathroom_number": "", "bedroom_number": 4, "car_spaces": 0, "commission": 0, "construction_year": 0, "datasource_name": "OnTheMarket.com", "img_height": 300, "img_url": "https://imgs.nestimg.com/4_bedroom_detached_bungalow_for_sale_110932456043549153.jpg", "img_width": 400, "keywords": "Detached, Bungalow", "latitude": 51.3605, "lister_url": "https://www.nestoria.co.uk/detail/0000000110932456043549153/title/5/46-9?serpUid=&pt=1&ot=1&l=somerset&did=105_high1&t_sec=9&t_or=45&t_pvid=null&utm_source=api&utm_medium=external", "listing_type": "buy", "location_accuracy": 9, "longitude": -2.95107, "price": 399950, "price_currency": "\u00a3", "price_formatted": "\u00a3399,950", "price_high": 399950, "price_low": 399950, "price_type": "fixed", "property_type": "house", "size": 0, "size_type": "net", "summary": "4 bedroom bungalow situation on worlebury hillside. The property ha...", "thumb_height": 60, "thumb_url": "https://imgs.nestimg.com/medium/4_bedroom_detached_bungalow_for_sale_110932456043549153.jpg", "thumb_width": 80, "title": "Milton Hill, North Somerset", "updated_in_days": 129, "updated_in_days_formatted": "first seen over a month ago"}, {"bathroom_number": "", "bedroom_number": 3, "car_spaces": 0, "commission": 0, "construction_year": 0, "datasource_name": "OnTheMarket.com", "img_height": 300, "img_url": "https://imgs.nestimg.com/3_bedroom_detached_bungalow_for_sale_110790728365869053.jpg", "img_width": 400, "keywords": "Detached, Garden, Garage, Kitchen, Bungalow", "latitude": 51.0472, "lister_url": "https://www.nestoria.co.uk/detail/0000000110790728365869053/title/5/46-10?serpUid=&pt=1&ot=1&l=somerset&did=105_high1&t_sec=9&t_or=45&t_pvid=null&utm_source=api&utm_medium=external", "listing_type": "buy", "location_accuracy": 9, "longitude": -2.50537, "price": 450000, "price_currency": "\u00a3", "price_formatted": "\u00a3450,000", "price_high": 450000, "price_low": 450000, "price_type": "fixed", "property_type": "house", "size": 0, "size_type": "net", "summary": "A rare opportunity to purchase a three bedroom detached bungalow si...", "thumb_height": 60, "thumb_url": "https://imgs.nestimg.com/medium/3_bedroom_detached_bungalow_for_sale_110790728365869053.jpg", "thumb_width": 80, "title": "Woolston, Somerset BA22 - Bungalow", "updated_in_days": 114, "updated_in_days_formatted": "first seen over a month ago"}, {"bathroom_number": "", "bedroom_number": "", "car_spaces": 0, "commission": 0, "construction_year": 0, "datasource_name": "OnTheMarket.com", "img_height": 300, "img_url": "https://imgs.nestimg.com/land_for_sale_111514309428005507.jpg", "img_width": 400, "keywords": "Freehold", "latitude": 50.9775, "lister_name": "Greenslade Taylor Hunt", "lister_url": "https://www.nestoria.co.uk/detail/0000000111514309428005507/title/5/46-11?serpUid=&pt=1&ot=1&l=somerset&did=105_high1&t_sec=9&t_or=45&t_pvid=null&utm_source=api&utm_medium=external", "listing_type": "buy", "location_accuracy": 9, "longitude": -2.75313, "price": 75000, "price_currency": "\u00a3", "price_formatted": "\u00a375,000", "price_high": 75000, "price_low": 75000, "price_type": "fixed", "property_type": "land", "size": 0, "size_type": "net", "summary": "Please submit best & final offers by 12 noon on monday 17th june 20...", "thumb_height": 60, "thumb_url": "https://imgs.nestimg.com/medium/land_for_sale_111514309428005507.jpg", "thumb_width": 80, "title": "Land & Buildings At Midway Farm, Ash Lane, Martock, Somerset, TA12", "updated_in_days": 35, "updated_in_days_formatted": "first seen over a month ago"}, {"bathroom_number": "", "bedroom_number": "", "car_spaces": 0, "commission": 0, "construction_year": 0, "datasource_name": "OnTheMarket.com", "img_height": 300, "img_url": "https://imgs.nestimg.com/land_for_sale_111514307776983774.jpg", "img_width": 400, "keywords": "Conversion", "latitude": 50.9775, "lister_name": "Greenslade Taylor Hunt", "lister_url": "https://www.nestoria.co.uk/detail/0000000111514307776983774/title/5/46-12?serpUid=&pt=1&ot=1&l=somerset&did=105_high1&t_sec=9&t_or=45&t_pvid=null&utm_source=api&utm_medium=external", "listing_type": "buy", "location_accuracy": 9, "longitude": -2.75313, "price": 130000, "price_currency": "\u00a3", "price_formatted": "\u00a3130,000", "price_high": 130000, "price_low": 130000, "price_type": "fixed", "property_type": "land", "size": 0, "size_type": "net", "summary": "Please submit best & final offers by 12 noon on monday 17th june 20...", "thumb_height": 60, "thumb_url": "https://imgs.nestimg.com/medium/land_for_sale_111514307776983774.jpg", "thumb_width": 80, "title": "Land & Buildings At Midway Farm, Ash Lane, Martock, Somerset, TA12", "updated_in_days": 35, "updated_in_days_formatted": "first seen over a month ago"}, {"bathroom_number": "", "bedroom_number": 2, "car_spaces": 0, "commission": 0, "construction_year": 0, "datasource_name": "OnTheMarket.com", "img_height": 300, "img_url": "https://imgs.nestimg.com/2_bedroom_terraced_house_for_sale_111402759346493240.jpg", "img_width": 400, "keywords": "Garden, Grade II, Terraced, Garage, Cottage, Listed", "latitude": 51.0317, "lister_name": "Greenslade Taylor Hunt", "lister_url": "https://www.nestoria.co.uk/detail/0000000111402759346493240/title/5/46-13?serpUid=&pt=1&ot=1&l=somerset&did=105_high1&t_sec=9&t_or=45&t_pvid=null&utm_source=api&utm_medium=external", "listing_type": "buy", "location_accuracy": 9, "longitude": -2.50797, "price": 345000, "price_currency": "\u00a3", "price_formatted": "\u00a3345,000", "price_high": 345000, "price_low": 345000, "price_type": "fixed", "property_type": "house", "size": 0, "size_type": "net", "summary": "A two bedroom grade ii listed cottage with gardens, garage and park...", "thumb_height": 60, "thumb_url": "https://imgs.nestimg.com/medium/2_bedroom_terraced_house_for_sale_111402759346493240.jpg", "thumb_width": 80, "title": "The Crescent, Compton Pauncefoot, Yeovil, Somerset, BA22", "updated_in_days": 53, "updated_in_days_formatted": "first seen over a month ago"}, {"bathroom_number": "", "bedroom_number": 1, "car_spaces": 0, "commission": 0, "construction_year": 0, "datasource_name": "OnTheMarket.com", "img_height": 300, "img_url": "https://imgs.nestimg.com/residential_development_for_sale_111532304828713996.jpg", "img_width": 400, "keywords": "", "latitude": 51.2079, "lister_name": "Cooper & Tanner", "lister_url": "https://www.nestoria.co.uk/detail/0000000111532304828713996/title/5/46-14?serpUid=&pt=1&ot=1&l=somerset&did=105_high1&t_sec=9&t_or=45&t_pvid=null&utm_source=api&utm_medium=external", "listing_type": "buy", "location_accuracy": 9, "longitude": -2.65124, "price": 460000, "price_currency": "\u00a3", "price_formatted": "\u00a3460,000", "price_high": 460000, "price_low": 460000, "price_type": "fixed", "property_type": "house", "size": 0, "size_type": "net", "summary": "Investment opportunity let retail unit and vacant offices with cons...", "thumb_height": 60, "thumb_url": "https://imgs.nestimg.com/medium/residential_development_for_sale_111532304828713996.jpg", "thumb_width": 80, "title": "St. Cuthbert Street, Wells, Somerset", "updated_in_days": 32, "updated_in_days_formatted": "first seen over a month ago"}, {"bathroom_number": "", "bedroom_number": 1, "car_spaces": 0, "commission": 0, "construction_year": 0, "datasource_name": "OnTheMarket.com", "img_height": 300, "img_url": "https://imgs.nestimg.com/1_bedroom_park_home_for_sale_111445543092400198.jpg", "img_width": 400, "keywords": "Needs Modernisation, No Chain", "latitude": 51.3593, "lister_url": "https://www.nestoria.co.uk/detail/0000000111445543092400198/title/5/46-15?serpUid=&pt=1&ot=1&l=somerset&did=105_high1&t_sec=9&t_or=45&t_pvid=null&utm_source=api&utm_medium=external", "listing_type": "buy", "location_accuracy": 9, "longitude": -2.90935, "price": 60000, "price_currency": "\u00a3", "price_formatted": "\u00a360,000", "price_high": 60000, "price_low": 60000, "price_type": "fixed", "property_type": "property", "size": 0, "size_type": "net", "summary": "In need of modernisation. Park home. Double glazed. Great location ...", "thumb_height": 60, "thumb_url": "https://imgs.nestimg.com/medium/1_bedroom_park_home_for_sale_111445543092400198.jpg", "thumb_width": 80, "title": "Paddock Park, New Bristol Road, Weston-super-Mare, North Somerset. BS22", "updated_in_days": 46, "updated_in_days_formatted": "first seen over a month ago"}], "locations": [{"center_lat": 51.080967, "center_long": -3.045432, "long_title": "Somerset, county", "place_name": "somerset", "title": "Somerset"}], "page": 46, "sort": "nestoria_rank", "status_code": "200", "status_text": "OK", "thanks": "For using the Nestoria API.", "total_pages": 410, "total_results": 6149, "_cu5t0mP434m_": "remove"}}