{"request": {"country": "uk", "language": "en", "location": "somerset", "num_res": "15", "offset": 690, "output": "json_xs", "page": 47, "product_type": "realestate", "property_type": "property", "size_type": "net", "size_unit": "m2", "sort": "nestoria_rank", "listing_type": "buy"}, "response": {"application_response_code": "100", "application_response_text": "listings returned for one unambiguous location", "attribution": {"img_height": 22, "img_url": "https://resources.nestimg.com/nestoria/img/pbr_v1.png", "img_width": 183, "link_to_img": "http://www.nestoria.com"}, "created_http": "Tue, 18 Jun 2019 17:29:45 GMT", "created_unix": 1560878985, "link_to_url": "https://www.nestoria.co.uk/somerset/property/buy/47", "listings": [{"bathroom_number": "", "bedroom_number": 2, "car_spaces": 0, "commission": 0, "construction_year": 0, "datasource_name": "OnTheMarket.com", "img_height": 300, "img_url": "https://imgs.nestimg.com/2_bedroom_detached_bungalow_for_sale_111674250375043550.jpg", "img_width": 400, "keywords": "Detached, Freehold, Bungalow", "latitude": 51.211, "lister_url": "https://www.nestoria.co.uk/detail/0000000111674250375043550/title/5/47-1?serpUid=&pt=1&ot=1&l=somerset&did=105_high1&t_sec=9&t_or=45&t_pvid=null&utm_source=api&utm_medium=external", "listing_type": "buy", "location_accuracy": 9, "longitude": -3.59351, "price": 295000, "price_currency": "\u00a3", "price_formatted": "\u00a3295,000", "price_high": 295000, "price_low": 295000, "price_type": "fixed", "property_type": "house", "size": 0, "size_type": "net", "summary": "A well maintained two bedroom detached bungalow situated in the mea...", "thumb_height": 60, "thumb_url": "https://imgs.nestimg.com/medium/2_bedroom_detached_bungalow_for_sale_111674250375043550.jpg", "thumb_width": 80, "title": "The Meadows, Porlock, Minehead, Somerset, TA24", "updated_in_days": 9, "updated_in_days_formatted": "first seen last week"}, {"bathroom_number": "", "bedroom_number": 6, "car_spaces": 0, "commission": 0, "construction_year": 0, "datasource_name": "OnTheMarket.com", "img_height": 300, "img_url": "https://imgs.nestimg.com/6_bedroom_apartment_for_sale_111173869579144990.jpg", "img_width": 400, "keywords": "", "latitude": 51.0215, "lister_name": "Greenslade Taylor Hunt", "lister_url": "https://www.nestoria.co.uk/detail/0000000111173869579144990/title/5/47-2?serpUid=&pt=1&ot=1&l=somerset&did=105_high1&t_sec=9&t_or=45&t_pvid=null&utm_source=api&utm_medium=external", "listing_type": "buy", "location_accuracy": 9, "longitude": -2.6186, "price": 635000, "price_currency": "\u00a3", "price_formatted": "\u00a3635,000", "price_high": 635000, "price_low": 635000, "price_type": "fixed", "property_type": "flat", "size": 0, "size_type": "net", "summary": "This owner/occupier business/investment opportunity is well located...", "thumb_height": 60, "thumb_url": "https://imgs.nestimg.com/medium/6_bedroom_apartment_for_sale_111173869579144990.jpg", "thumb_width": 80, "title": "Camel Cross, West Camel, Yeovil, Somerset, BA22", "updated_in_days": 90, "updated_in_days_formatted": "first seen over a month ago"}, {"bathroom_number": "", "bedroom_number": 3, "car_spaces": 0, "commission": 0, "construction_year": 0, "datasource_name": "OnTheMarket.com", "img_height": 300, "img_url": "https://imgs.nestimg.com/3_bedroom_house_for_sale_111340376397925339.jpg", "img_width": 400, "keywords": "Detached, Garden, Parking, Cottage", "latitude": 51.1966, "lister_name": "Greenslade Taylor Hunt", "lister_url": "https://www.nestoria.co.uk/detail/0000000111340376397925339/title/5/47-3?serpUid=&pt=1&ot=1&l=somerset&did=105_high1&t_sec=9&t_or=45&t_pvid=null&utm_source=api&utm_medium=external", "listing_type": "buy", "location_accuracy": 9, "longitude": -2.58421, "price": 389950, "price_currency": "\u00a3", "price_formatted": "\u00a3389,950", "price_high": 389950, "price_low": 389950, "price_type": "fixed", "property_type": "house", "size": 0, "size_type": "net", "summary": "A 3 bedroom detached character cottage. With pretty garden, off roa...", "thumb_height": 60, "thumb_url": "https://imgs.nestimg.com/medium/3_bedroom_house_for_sale_111340376397925339.jpg", "thumb_width": 80, "title": "Long Street, Croscombe, Wells, Somerset, BA5", "updated_in_days": 63, "updated_in_days_formatted": "first seen over a month ago"}, {"bathroom_number": "", "bedroom_number": 3, "car_spaces": 0, "commission": 0, "construction_year": 0, "datasource_name": "OnTheMarket.com", "img_height": 300, "img_url": "https://imgs.nestimg.com/3_bedroom_cottage_for_sale_110332576213018307.jpg", "img_width": 400, "keywords": "Detached", "latitude": 51.0692, "lister_url": "https://www.nestoria.co.uk/detail/0000000110332576213018307/title/5/47-4?serpUid=&pt=1&ot=1&l=somerset&did=105_high1&t_sec=9&t_or=45&t_pvid=null&utm_source=api&utm_medium=external", "listing_type": "buy", "location_accuracy": 9, "longitude": -3.48906, "price": 500000, "price_currency": "\u00a3", "price_formatted": "\u00a3500,000", "price_high": 500000, "price_low": 500000, "price_type": "fixed", "property_type": "house", "size": 0, "size_type": "net", "summary": "An historic mill and traditional barn with long established tea roo...", "thumb_height": 60, "thumb_url": "https://imgs.nestimg.com/medium/3_bedroom_cottage_for_sale_110332576213018307.jpg", "thumb_width": 80, "title": "Brompton Regis SOMERSET - Detached", "updated_in_days": 209, "updated_in_days_formatted": "first seen over a month ago"}, {"bathroom_number": "", "bedroom_number": 3, "car_spaces": 0, "commission": 0, "construction_year": 0, "datasource_name": "OnTheMarket.com", "img_height": 300, "img_url": "https://imgs.nestimg.com/4_bedroom_detached_house_for_sale_110029094066573586.jpg", "img_width": 400, "keywords": "Detached, Garden, No Chain, Garage", "latitude": 51.034, "lister_name": "Stags", "lister_url": "https://www.nestoria.co.uk/detail/0000000110029094066573586/title/5/47-5?serpUid=&pt=1&ot=1&l=somerset&did=105_high1&t_sec=9&t_or=45&t_pvid=null&utm_source=api&utm_medium=external", "listing_type": "buy", "location_accuracy": 9, "longitude": -3.54776, "price": 480000, "price_currency": "\u00a3", "price_formatted": "\u00a3480,000", "price_high": 480000, "price_low": 480000, "price_type": "fixed", "property_type": "house", "size": 0, "size_type": "net", "summary": "A detached property occupying a plot with off-road parking, garage ...", "thumb_height": 60, "thumb_url": "https://imgs.nestimg.com/medium/4_bedroom_detached_house_for_sale_110029094066573586.jpg", "thumb_width": 80, "title": "Battleton, Dulverton, Somerset, TA22", "updated_in_days": 79, "updated_in_days_formatted": "first seen over a month ago"}, {"bathroom_number": "", "bedroom_number": 4, "car_spaces": 0, "commission": 0, "construction_year": 0, "datasource_name": "OnTheMarket.com", "img_height": 300, "img_url": "https://imgs.nestimg.com/4_bedroom_semi_detached_house_for_sale_111613022278272987.jpg", "img_width": 400, "keywords": "Garden, Semi-Detached, En suite, Conservatory, Fireplace, Kitchen, Cottage", "latitude": 51.0168, "lister_url": "https://www.nestoria.co.uk/detail/0000000111613022278272987/title/5/47-6?serpUid=&pt=1&ot=1&l=somerset&did=105_high1&t_sec=9&t_or=45&t_pvid=null&utm_source=api&utm_medium=external", "listing_type": "buy", "location_accuracy": 9, "longitude": -2.44693, "price": 550000, "price_currency": "\u00a3", "price_formatted": "\u00a3550,000", "price_high": 550000, "price_low": 550000, "price_type": "fixed", "property_type": "house", "size": 0, "size_type": "net", "summary": "A most attached period cottage situated in a quiet country lane in ...", "thumb_height": 60, "thumb_url": "https://imgs.nestimg.com/medium/4_bedroom_semi_detached_house_for_sale_111613022278272987.jpg", "thumb_width": 80, "title": "Horsington, Somerset, BA8 - Fireplace", "updated_in_days": 19, "updated_in_days_formatted": "first seen 2 weeks ago"}, {"bathroom_number": "", "bedroom_number": 1, "car_spaces": 0, "commission": 0, "construction_year": 0, "datasource_name": "OnTheMarket.com", "img_height": 300, "img_url": "https://imgs.nestimg.com/1_bedroom_park_home_for_sale_110394696292650670.jpg", "img_width": 400, "keywords": "Garden, No Chain, Double Bedroom, Kitchen", "latitude": 51.3593, "lister_url": "https://www.nestoria.co.uk/detail/0000000110394696292650670/title/5/47-7?serpUid=&pt=1&ot=1&l=somerset&did=105_high1&t_sec=9&t_or=45&t_pvid=null&utm_source=api&utm_medium=external", "listing_type": "buy", "location_accuracy": 9, "longitude": -2.90935, "price": 100000, "price_currency": "\u00a3", "price_formatted": "\u00a3100,000", "price_high": 100000, "price_low": 100000, "price_type": "fixed", "property_type": "property", "size": 0, "size_type": "net", "summary": "Park home. Double bedroom. Lounge. Kitchene you looking for a home ...", "thumb_height": 60, "thumb_url": "https://imgs.nestimg.com/medium/1_bedroom_park_home_for_sale_110394696292650670.jpg", "thumb_width": 80, "title": "Paddock Park, New Bristol Road, Weston-super-Mare, North Somerset. BS22", "updated_in_days": 153, "updated_in_days_formatted": "first seen over a month ago"}, {"bathroom_number": "", "bedroom_number": "", "car_spaces": 0, "commission": 0, "construction_year": 0, "datasource_name": "OnTheMarket.com", "img_height": 300, "img_url": "https://imgs.nestimg.com/land_for_sale_111161509364328885.jpg", "img_width": 400, "keywords": "Modern", "latitude": 51.2676, "lister_name": "Greenslade Taylor Hunt", "lister_url": "https://www.nestoria.co.uk/detail/0000000111161509364328885/title/5/47-8?serpUid=&pt=1&ot=1&l=somerset&did=105_high1&t_sec=9&t_or=45&t_pvid=null&utm_source=api&utm_medium=external", "listing_type": "buy", "location_accuracy": 9, "longitude": -2.91553, "price": 625000, "price_currency": "\u00a3", "price_formatted": "\u00a3625,000", "price_high": 625000, "price_low": 625000, "price_type": "fixed", "property_type": "land", "size": 0, "size_type": "net", "summary": "Lot 1b comprises of a range of modern farm buildings with roof moun...", "thumb_height": 60, "thumb_url": "https://imgs.nestimg.com/medium/land_for_sale_111161509364328885.jpg", "thumb_width": 80, "title": "Rooksbridge House, Mendip Road, Rooksbridge, SOMERSET, BS26", "updated_in_days": 92, "updated_in_days_formatted": "first seen over a month ago"}, {"bathroom_number": "", "bedroom_number": 1, "car_spaces": 0, "commission": 0, "construction_year": 0, "datasource_name": "OnTheMarket.com", "img_height": 300, "img_url": "https://imgs.nestimg.com/1_bedroom_apartment_for_sale_111427147733863351.jpg", "img_width": 400, "keywords": "Leasehold", "latitude": 51.2028, "lister_url": "https://www.nestoria.co.uk/detail/0000000111427147733863351/title/5/47-9?serpUid=&pt=1&ot=1&l=somerset&did=105_high1&t_sec=9&t_or=45&t_pvid=null&utm_source=api&utm_medium=external", "listing_type": "buy", "location_accuracy": 9, "longitude": -3.47236, "price": 110000, "price_currency": "\u00a3", "price_formatted": "\u00a3110,000", "price_high": 110000, "price_low": 110000, "price_type": "fixed", "property_type": "flat", "size": 0, "size_type": "net", "summary": "A well maintained one bedroom flat situated in a pleasant residenti...", "thumb_height": 60, "thumb_url": "https://imgs.nestimg.com/medium/1_bedroom_apartment_for_sale_111427147733863351.jpg", "thumb_width": 80, "title": "Farrington Court, 19 King Edward Road, Minehead, Somerset, TA24", "updated_in_days": 49, "updated_in_days_formatted": "first seen over a month ago"}, {"bathroom_number": "", "bedroom_number": 5, "car_spaces": 0, "commission": 0, "construction_year": 0, "datasource_name": "OnTheMarket.com", "img_height": 300, "img_url": "https://imgs.nestimg.com/5_bedroom_townhouse_for_sale_110957372426942548.jpg", "img_width": 400, "keywords": "Garden, En suite, Fireplace, Kitchen, Parking, Cellar, Edwardian", "latitude": 51.1113, "lister_url": "https://www.nestoria.co.uk/detail/0000000110957372426942548/title/5/47-10?serpUid=&pt=1&ot=1&l=somerset&did=105_high1&t_sec=9&t_or=45&t_pvid=null&utm_source=api&utm_medium=external", "listing_type": "buy", "location_accuracy": 9, "longitude": -2.45596, "price": 735000, "price_currency": "\u00a3", "price_formatted": "\u00a3735,000", "price_high": 735000, "price_low": 735000, "price_type": "fixed", "property_type": "house", "size": 0, "size_type": "net", "summary": "A and most appealing five bedroom edwardian town house situated in ...", "thumb_height": 60, "thumb_url": "https://imgs.nestimg.com/medium/5_bedroom_townhouse_for_sale_110957372426942548.jpg", "thumb_width": 80, "title": "Bruton, Somerset, BA10 - Garden", "updated_in_days": 44, "updated_in_days_formatted": "first seen over a month ago"}, {"bathroom_number": "", "bedroom_number": 4, "car_spaces": 0, "commission": 0, "construction_year": 0, "datasource_name": "OnTheMarket.com", "img_height": 300, "img_url": "https://imgs.nestimg.com/4_bedroom_detached_house_for_sale_109726190862919890.jpg", "img_width": 400, "keywords": "Detached, Garden, No Chain, Double Bedroom, Garage", "latitude": 51.1931, "lister_name": "Greenslade Taylor Hunt", "lister_url": "https://www.nestoria.co.uk/detail/0000000109726190862919890/title/5/47-11?serpUid=&pt=1&ot=1&l=somerset&did=105_high1&t_sec=9&t_or=45&t_pvid=null&utm_source=api&utm_medium=external", "listing_type": "buy", "location_accuracy": 9, "longitude": -2.5581, "price": 425000, "price_currency": "\u00a3", "price_formatted": "\u00a3425,000", "price_high": 425000, "price_low": 425000, "price_type": "fixed", "property_type": "house", "size": 0, "size_type": "net", "summary": "A marvellous 4 double bedroom detached property in an elevated posi...", "thumb_height": 60, "thumb_url": "https://imgs.nestimg.com/medium/4_bedroom_detached_house_for_sale_109726190862919890.jpg", "thumb_width": 80, "title": "Bowlish Lane, Bowlish, Shepton Mallet, Somerset, BA4", "updated_in_days": 277, "updated_in_days_formatted": "first seen over a month ago"}, {"bathroom_number": "", "bedroom_number": 5, "car_spaces": 0, "commission": 0, "construction_year": 0, "datasource_name": "OnTheMarket.com", "img_height": 300, "img_url": "https://imgs.nestimg.com/5_bedroom_end_of_terrace_house_for_sale_111365742728989406.jpg", "img_width": 400, "keywords": "Garden, New Build, Conversion, Terraced, Parking, Cottage", "latitude": 51.3847, "lister_url": "https://www.nestoria.co.uk/detail/0000000111365742728989406/title/5/47-12?serpUid=&pt=1&ot=1&l=somerset&did=105_high1&t_sec=9&t_or=45&t_pvid=null&utm_source=api&utm_medium=external", "listing_type": "buy", "location_accuracy": 9, "longitude": -2.81524, "price": 555000, "price_currency": "\u00a3", "price_formatted": "\u00a3555,000", "price_high": 555000, "price_low": 555000, "price_type": "fixed", "property_type": "house", "size": 0, "size_type": "net", "summary": "Princes court is conveniently located and offers three converted pr...", "thumb_height": 60, "thumb_url": "https://imgs.nestimg.com/medium/5_bedroom_end_of_terrace_house_for_sale_111365742728989406.jpg", "thumb_width": 80, "title": "High Street, Yatton, North Somerset, BS49", "updated_in_days": 59, "updated_in_days_formatted": "first seen over a month ago"}, {"bathroom_number": "", "bedroom_number": 2, "car_spaces": 0, "commission": 0, "construction_year": 0, "datasource_name": "OnTheMarket.com", "img_height": 300, "img_url": "https://imgs.nestimg.com/2_bedroom_apartment_for_sale_110796493032480845.jpg", "img_width": 400, "keywords": "Leasehold, Purpose Built", "latitude": 51.2071, "lister_url": "https://www.nestoria.co.uk/detail/0000000110796493032480845/title/5/47-13?serpUid=&pt=1&ot=1&l=somerset&did=105_high1&t_sec=9&t_or=45&t_pvid=null&utm_source=api&utm_medium=external", "listing_type": "buy", "location_accuracy": 9, "longitude": -3.47227, "price": 85000, "price_currency": "\u00a3", "price_formatted": "\u00a385,000", "price_high": 85000, "price_low": 85000, "price_type": "fixed", "property_type": "flat", "size": 0, "size_type": "net", "summary": "A purpose built two bedroom second floor flat situated in a pleasan...", "thumb_height": 60, "thumb_url": "https://imgs.nestimg.com/medium/2_bedroom_apartment_for_sale_110796493032480845.jpg", "thumb_width": 80, "title": "Walton Court, Minehead, Somerset, TA24", "updated_in_days": 151, "updated_in_days_formatted": "first seen over a month ago"}, {"bathroom_number": "", "bedroom_number": 5, "car_spaces": 0, "commission": 0, "construction_year": 0, "datasource_name": "OnTheMarket.com", "img_height": 300, "img_url": "https://imgs.nestimg.com/5_bedroom_detached_house_for_sale_111303414871094471.jpg", "img_width": 400, "keywords": "Detached, Cottage", "latitude": 51.3386, "lister_name": "David James", "lister_url": "https://www.nestoria.co.uk/detail/0000000111303414871094471/title/5/47-14?serpUid=&pt=1&ot=1&l=somerset&did=105_high1&t_sec=9&t_or=45&t_pvid=null&utm_source=api&utm_medium=external", "listing_type": "buy", "location_accuracy": 9, "longitude": -2.81771, "price": 1350000, "price_currency": "\u00a3", "price_formatted": "\u00a31,350,000", "price_high": 1350000, "price_low": 1350000, "price_type": "fixed", "property_type": "house", "size": 0, "size_type": "net", "summary": "And detached five bedroom house with detached cottage, grounds and ...", "thumb_height": 60, "thumb_url": "https://imgs.nestimg.com/medium/5_bedroom_detached_house_for_sale_111303414871094471.jpg", "thumb_width": 80, "title": "Churchill, North Somerset - Detached", "updated_in_days": 69, "updated_in_days_formatted": "first seen over a month ago"}, {"bathroom_number": "", "bedroom_number": 10, "car_spaces": 0, "commission": 0, "construction_year": 0, "datasource_name": "OnTheMarket.com", "img_height": 300, "img_url": "https://imgs.nestimg.com/10_bedroom_terraced_house_for_sale_108977818230725599.jpg", "img_width": 400, "keywords": "Terraced", "latitude": 51.35315, "lister_url": "https://www.nestoria.co.uk/detail/0000000108977818230725599/title/5/47-15?serpUid=&pt=1&ot=1&l=somerset&did=105_high1&t_sec=9&t_or=45&t_pvid=null&utm_source=api&utm_medium=external", "listing_type": "buy", "location_accuracy": 9, "longitude": -2.983524, "price": 620000, "price_currency": "\u00a3", "price_formatted": "\u00a3620,000", "price_high": 620000, "price_low": 620000, "price_type": "fixed", "property_type": "house", "size": 0, "size_type": "net", "summary": "Location in weston-super-mare. This older style property offering 2...", "thumb_height": 60, "thumb_url": "https://imgs.nestimg.com/medium/10_bedroom_terraced_house_for_sale_108977818230725599.jpg", "thumb_width": 80, "title": "Upper Church Road, Weston-Super-Mare, North Somerset", "updated_in_days": 252, "updated_in_days_formatted": "first seen over a month ago"}], "locations": [{"center_lat": 51.080967, "center_long": -3.045432, "long_title": "Somerset, county", "place_name": "somerset", "title": "Somerset"}], "page": 47, "sort": "nestoria_rank", "status_code": "200", "status_text": "OK", "thanks": "For using the Nestoria API.", "total_pages": 410, "total_results": 6149, "_cu5t0mP434m_": "remove"}}