{"request": {"country": "uk", "language": "en", "location": "somerset", "num_res": "15", "offset": 705, "output": "json_xs", "page": 48, "product_type": "realestate", "property_type": "property", "size_type": "net", "size_unit": "m2", "sort": "nestoria_rank", "listing_type": "buy"}, "response": {"application_response_code": "100", "application_response_text": "listings returned for one unambiguous location", "attribution": {"img_height": 22, "img_url": "https://resources.nestimg.com/nestoria/img/pbr_v1.png", "img_width": 183, "link_to_img": "http://www.nestoria.com"}, "created_http": "Tue, 18 Jun 2019 17:29:47 GMT", "created_unix": 1560878987, "link_to_url": "https://www.nestoria.co.uk/somerset/property/buy/48", "listings": [{"bathroom_number": "", "bedroom_number": 3, "car_spaces": 0, "commission": 0, "construction_year": 0, "datasource_name": "OnTheMarket.com", "img_height": 300, "img_url": "https://imgs.nestimg.com/3_bedroom_semi_detached_house_for_sale_110450326670799092.jpg", "img_width": 400, "keywords": "Semi-Detached", "latitude": 51.3336, "lister_name": "David James", "lister_url": "https://www.nestoria.co.uk/detail/0000000110450326670799092/title/5/48-1?serpUid=&pt=1&ot=1&l=somerset&did=105_high1&t_sec=9&t_or=45&t_pvid=null&utm_source=api&utm_medium=external", "listing_type": "buy", "location_accuracy": 9, "longitude": -2.82315, "price": 330000, "price_currency": "\u00a3", "price_formatted": "\u00a3330,000", "price_high": 330000, "price_low": 330000, "price_type": "fixed", "property_type": "house", "size": 0, "size_type": "net", "summary": "Russet copse is in an enviable location, ly designed homes displayi...", "thumb_height": 60, "thumb_url": "https://imgs.nestimg.com/medium/3_bedroom_semi_detached_house_for_sale_110450326670799092.jpg", "thumb_width": 80, "title": "Sandford, North Somerset", "updated_in_days": 207, "updated_in_days_formatted": "first seen over a month ago"}, {"bathroom_number": "", "bedroom_number": 5, "car_spaces": 0, "commission": 0, "construction_year": 0, "datasource_name": "OnTheMarket.com", "img_height": 300, "img_url": "https://imgs.nestimg.com/5_bedroom_detached_house_for_sale_110172439088824051.jpg", "img_width": 400, "keywords": "Detached, Garden, En suite, Double Garage, Fireplace, Kitchen, Gas Central Heating", "latitude": 51.1089, "lister_url": "https://www.nestoria.co.uk/detail/0000000110172439088824051/title/5/48-2?serpUid=&pt=1&ot=1&l=somerset&did=105_high1&t_sec=9&t_or=45&t_pvid=null&utm_source=api&utm_medium=external", "listing_type": "buy", "location_accuracy": 9, "longitude": -2.45716, "price": 545000, "price_currency": "\u00a3", "price_formatted": "\u00a3545,000", "price_high": 545000, "price_low": 545000, "price_type": "fixed", "property_type": "house", "size": 0, "size_type": "net", "summary": "A five bedroom detached house positioned within a small close in an...", "thumb_height": 60, "thumb_url": "https://imgs.nestimg.com/medium/5_bedroom_detached_house_for_sale_110172439088824051.jpg", "thumb_width": 80, "title": "Bruton, Somerset, BA10 - Fireplace", "updated_in_days": 252, "updated_in_days_formatted": "first seen over a month ago"}, {"bathroom_number": "", "bedroom_number": 3, "car_spaces": 0, "commission": 0, "construction_year": 0, "datasource_name": "OnTheMarket.com", "img_height": 300, "img_url": "https://imgs.nestimg.com/3_bedroom_semi_detached_house_for_sale_111013111462591922.jpg", "img_width": 400, "keywords": "Semi-Detached", "latitude": 51.1991, "lister_url": "https://www.nestoria.co.uk/detail/0000000111013111462591922/title/5/48-3?serpUid=&pt=1&ot=1&l=somerset&did=105_high1&t_sec=9&t_or=45&t_pvid=null&utm_source=api&utm_medium=external", "listing_type": "buy", "location_accuracy": 9, "longitude": -3.4663, "price": 259500, "price_currency": "\u00a3", "price_formatted": "\u00a3259,500", "price_high": 259500, "price_low": 259500, "price_type": "fixed", "property_type": "house", "size": 0, "size_type": "net", "summary": "A well maintained three bedroom semi detached house occupying a ple...", "thumb_height": 60, "thumb_url": "https://imgs.nestimg.com/medium/3_bedroom_semi_detached_house_for_sale_111013111462591922.jpg", "thumb_width": 80, "title": "Fownes Road, Minehead, Somerset, TA24", "updated_in_days": 53, "updated_in_days_formatted": "first seen over a month ago"}, {"bathroom_number": "", "bedroom_number": 4, "car_spaces": 0, "commission": 0, "construction_year": 0, "datasource_name": "OnTheMarket.com", "img_height": 300, "img_url": "https://imgs.nestimg.com/4_bedroom_detached_house_for_sale_111656082330234731.jpg", "img_width": 400, "keywords": "Detached, Garden, En suite, Kitchen, Modern", "latitude": 51.0542, "lister_url": "https://www.nestoria.co.uk/detail/0000000111656082330234731/title/5/48-4?serpUid=&pt=1&ot=1&l=somerset&did=105_high1&t_sec=9&t_or=45&t_pvid=null&utm_source=api&utm_medium=external", "listing_type": "buy", "location_accuracy": 9, "longitude": -2.42445, "price": 335000, "price_currency": "\u00a3", "price_formatted": "\u00a3335,000", "price_high": 335000, "price_low": 335000, "price_type": "fixed", "property_type": "house", "size": 0, "size_type": "net", "summary": "An four bedroom detached house situated on a modern residential dev...", "thumb_height": 60, "thumb_url": "https://imgs.nestimg.com/medium/4_bedroom_detached_house_for_sale_111656082330234731.jpg", "thumb_width": 80, "title": "Wincanton, Somerset, BA9 - En Suite", "updated_in_days": 12, "updated_in_days_formatted": "first seen last week"}, {"bathroom_number": "", "bedroom_number": 3, "car_spaces": 0, "commission": 0, "construction_year": 0, "datasource_name": "OnTheMarket.com", "img_height": 300, "img_url": "https://imgs.nestimg.com/3_bedroom_detached_house_for_sale_111575829580688234.jpg", "img_width": 400, "keywords": "Detached", "latitude": 51.0329, "lister_name": "Stags", "lister_url": "https://www.nestoria.co.uk/detail/0000000111575829580688234/title/5/48-5?serpUid=&pt=1&ot=1&l=somerset&did=105_high1&t_sec=9&t_or=45&t_pvid=null&utm_source=api&utm_medium=external", "listing_type": "buy", "location_accuracy": 9, "longitude": -2.56081, "price": 315000, "price_currency": "\u00a3", "price_formatted": "\u00a3315,000", "price_high": 315000, "price_low": 315000, "price_type": "fixed", "property_type": "house", "size": 0, "size_type": "net", "summary": "A detached home in need of updating set in this village. Epc band g", "thumb_height": 60, "thumb_url": "https://imgs.nestimg.com/medium/3_bedroom_detached_house_for_sale_111575829580688234.jpg", "thumb_width": 80, "title": "Church Road, Sparkford, Yeovil, Somerset, BA22", "updated_in_days": 25, "updated_in_days_formatted": "first seen 3 weeks ago"}, {"bathroom_number": "", "bedroom_number": 5, "car_spaces": 0, "commission": 0, "construction_year": 0, "datasource_name": "OnTheMarket.com", "img_height": 300, "img_url": "https://imgs.nestimg.com/5_bedroom_detached_house_for_sale_109843985499109003.jpg", "img_width": 400, "keywords": "Detached", "latitude": 51.196636, "lister_name": "Knight Frank", "lister_url": "https://www.nestoria.co.uk/detail/0000000109843985499109003/title/5/48-6?serpUid=&pt=1&ot=1&l=somerset&did=105_high1&t_sec=9&t_or=45&t_pvid=null&utm_source=api&utm_medium=external", "listing_type": "buy", "location_accuracy": 9, "longitude": -2.584171, "price": 695000, "price_currency": "\u00a3", "price_formatted": "\u00a3695,000", "price_high": 695000, "price_low": 695000, "price_type": "fixed", "property_type": "house", "size": 0, "size_type": "net", "summary": "Grade i 5 bedroom village house for sale ba5, 3 miles of wells. The...", "thumb_height": 60, "thumb_url": "https://imgs.nestimg.com/medium/5_bedroom_detached_house_for_sale_109843985499109003.jpg", "thumb_width": 80, "title": "Long Street, Croscombe, Wells, Somerset, BA5", "updated_in_days": 32, "updated_in_days_formatted": "first seen over a month ago"}, {"bathroom_number": "", "bedroom_number": 2, "car_spaces": 0, "commission": 0, "construction_year": 0, "datasource_name": "OnTheMarket.com", "img_height": 300, "img_url": "https://imgs.nestimg.com/2_bedroom_apartment_for_sale_110827629920686019.jpg", "img_width": 400, "keywords": "Conversion", "latitude": 50.9427, "lister_name": "Greenslade Taylor Hunt", "lister_url": "https://www.nestoria.co.uk/detail/0000000110827629920686019/title/5/48-7?serpUid=&pt=1&ot=1&l=somerset&did=105_high1&t_sec=9&t_or=45&t_pvid=null&utm_source=api&utm_medium=external", "listing_type": "buy", "location_accuracy": 9, "longitude": -2.61241, "price": 325000, "price_currency": "\u00a3", "price_formatted": "\u00a3325,000", "price_high": 325000, "price_low": 325000, "price_type": "fixed", "property_type": "flat", "size": 0, "size_type": "net", "summary": "A duplex apartment in a mill conversion benefitting from views in a...", "thumb_height": 60, "thumb_url": "https://imgs.nestimg.com/medium/2_bedroom_apartment_for_sale_110827629920686019.jpg", "thumb_width": 80, "title": "Chudleigh Mill, Sherborne Road, Yeovil, Somerset, BA21", "updated_in_days": 111, "updated_in_days_formatted": "first seen over a month ago"}, {"bathroom_number": "", "bedroom_number": 3, "car_spaces": 0, "commission": 0, "construction_year": 0, "datasource_name": "OnTheMarket.com", "img_height": 300, "img_url": "https://imgs.nestimg.com/3_bedroom_cottage_for_sale_111557530854678227.jpg", "img_width": 400, "keywords": "Detached, Garden, Conversion, Garage, Kitchen, Modern, Cottage", "latitude": 50.9885, "lister_url": "https://www.nestoria.co.uk/detail/0000000111557530854678227/title/5/48-8?serpUid=&pt=1&ot=1&l=somerset&did=105_high1&t_sec=9&t_or=45&t_pvid=null&utm_source=api&utm_medium=external", "listing_type": "buy", "location_accuracy": 9, "longitude": -2.4088, "price": 387000, "price_currency": "\u00a3", "price_formatted": "\u00a3387,000", "price_high": 387000, "price_low": 387000, "price_type": "fixed", "property_type": "house", "size": 0, "size_type": "net", "summary": "An outstanding detached period cottage situated in the hamlet of ye...", "thumb_height": 60, "thumb_url": "https://imgs.nestimg.com/medium/3_bedroom_cottage_for_sale_111557530854678227.jpg", "thumb_width": 80, "title": "Yenston, Somerset BA8 - Modern", "updated_in_days": 28, "updated_in_days_formatted": "first seen last month"}, {"bathroom_number": "", "bedroom_number": 2, "car_spaces": 0, "commission": 0, "construction_year": 0, "datasource_name": "OnTheMarket.com", "img_height": 300, "img_url": "https://imgs.nestimg.com/2_bedroom_detached_house_for_sale_111631123702240623.jpg", "img_width": 400, "keywords": "Detached, Kitchen, Cottage", "latitude": 51.1463, "lister_url": "https://www.nestoria.co.uk/detail/0000000111631123702240623/title/5/48-9?serpUid=&pt=1&ot=1&l=somerset&did=105_high1&t_sec=9&t_or=45&t_pvid=null&utm_source=api&utm_medium=external", "listing_type": "buy", "location_accuracy": 9, "longitude": -2.50476, "price": 225000, "price_currency": "\u00a3", "price_formatted": "\u00a3225,000", "price_high": 225000, "price_low": 225000, "price_type": "fixed", "property_type": "house", "size": 0, "size_type": "net", "summary": "Brilliant opportunity for renovation. A 2/3 bedroom cottage in the ...", "thumb_height": 60, "thumb_url": "https://imgs.nestimg.com/medium/2_bedroom_detached_house_for_sale_111631123702240623.jpg", "thumb_width": 80, "title": "Weymouth Road, EVERCREECH, Somerset", "updated_in_days": 16, "updated_in_days_formatted": "first seen 2 weeks ago"}, {"bathroom_number": "", "bedroom_number": 3, "car_spaces": 0, "commission": 0, "construction_year": 0, "datasource_name": "OnTheMarket.com", "img_height": 300, "img_url": "https://imgs.nestimg.com/3_bedroom_detached_house_for_sale_111501252498867316.jpg", "img_width": 400, "keywords": "Detached, Garage", "latitude": 51.1553, "lister_name": "Greenslade Taylor Hunt", "lister_url": "https://www.nestoria.co.uk/detail/0000000111501252498867316/title/5/48-10?serpUid=&pt=1&ot=1&l=somerset&did=105_high1&t_sec=9&t_or=45&t_pvid=null&utm_source=api&utm_medium=external", "listing_type": "buy", "location_accuracy": 9, "longitude": -2.54694, "price": 450000, "price_currency": "\u00a3", "price_formatted": "\u00a3450,000", "price_high": 450000, "price_low": 450000, "price_type": "fixed", "property_type": "house", "size": 0, "size_type": "net", "summary": "A superb and unique opportunity to acquire this three bedroom detac...", "thumb_height": 60, "thumb_url": "https://imgs.nestimg.com/medium/3_bedroom_detached_house_for_sale_111501252498867316.jpg", "thumb_width": 80, "title": "Hedge Lane, Pylle, Shepton Mallet, Somerset, BA4", "updated_in_days": 37, "updated_in_days_formatted": "first seen over a month ago"}, {"bathroom_number": "", "bedroom_number": 1, "car_spaces": 0, "commission": 0, "construction_year": 0, "datasource_name": "OnTheMarket.com", "img_height": 300, "img_url": "https://imgs.nestimg.com/1_bedroom_semi_detached_house_for_sale_110265036037170180.jpg", "img_width": 400, "keywords": "Semi-Detached, Kitchen", "latitude": 51.1843, "lister_url": "https://www.nestoria.co.uk/detail/0000000110265036037170180/title/5/48-11?serpUid=&pt=1&ot=1&l=somerset&did=105_high1&t_sec=9&t_or=45&t_pvid=null&utm_source=api&utm_medium=external", "listing_type": "buy", "location_accuracy": 9, "longitude": -2.52786, "price": 149500, "price_currency": "\u00a3", "price_formatted": "\u00a3149,500", "price_high": 149500, "price_low": 149500, "price_type": "fixed", "property_type": "house", "size": 0, "size_type": "net", "summary": "Recently renovated 2 storey, one bedroom house in the pleasant amul...", "thumb_height": 60, "thumb_url": "https://imgs.nestimg.com/medium/1_bedroom_semi_detached_house_for_sale_110265036037170180.jpg", "thumb_width": 80, "title": "SHEPTON MALLET, Somerset", "updated_in_days": 18, "updated_in_days_formatted": "first seen 2 weeks ago"}, {"bathroom_number": "", "bedroom_number": "", "car_spaces": 0, "commission": 0, "construction_year": 0, "datasource_name": "OnTheMarket.com", "img_height": 300, "img_url": "https://imgs.nestimg.com/land_for_sale_111118073433359923.jpg", "img_width": 400, "keywords": "", "latitude": 50.9745, "lister_name": "Stags", "lister_url": "https://www.nestoria.co.uk/detail/0000000111118073433359923/title/5/48-12?serpUid=&pt=1&ot=1&l=somerset&did=105_high1&t_sec=9&t_or=45&t_pvid=null&utm_source=api&utm_medium=external", "listing_type": "buy", "location_accuracy": 9, "longitude": -3.31573, "price": 125000, "price_currency": "\u00a3", "price_formatted": "\u00a3125,000", "price_high": 125000, "price_low": 125000, "price_type": "fixed", "property_type": "land", "size": 0, "size_type": "net", "summary": "5.71 acres of productive level grade 1 arable land, strategically l...", "thumb_height": 60, "thumb_url": "https://imgs.nestimg.com/medium/land_for_sale_111118073433359923.jpg", "thumb_width": 80, "title": "Greenham, Wellington, Somerset, TA21", "updated_in_days": 99, "updated_in_days_formatted": "first seen over a month ago"}, {"bathroom_number": "", "bedroom_number": 3, "car_spaces": 0, "commission": 0, "construction_year": 0, "datasource_name": "OnTheMarket.com", "img_height": 300, "img_url": "https://imgs.nestimg.com/3_bedroom_semi_detached_house_for_sale_110964053660374993.jpg", "img_width": 400, "keywords": "Semi-Detached, Kitchen, Gas Central Heating", "latitude": 51.0572, "lister_url": "https://www.nestoria.co.uk/detail/0000000110964053660374993/title/5/48-13?serpUid=&pt=1&ot=1&l=somerset&did=105_high1&t_sec=9&t_or=45&t_pvid=null&utm_source=api&utm_medium=external", "listing_type": "buy", "location_accuracy": 9, "longitude": -2.41753, "price": 210000, "price_currency": "\u00a3", "price_formatted": "\u00a3210,000", "price_high": 210000, "price_low": 210000, "price_type": "fixed", "property_type": "house", "size": 0, "size_type": "net", "summary": "A three bedroom semi-detached house situated in a small close on a ...", "thumb_height": 60, "thumb_url": "https://imgs.nestimg.com/medium/3_bedroom_semi_detached_house_for_sale_110964053660374993.jpg", "thumb_width": 80, "title": "Wincanton, Somerset, BA9", "updated_in_days": 10, "updated_in_days_formatted": "first seen last week"}, {"bathroom_number": "", "bedroom_number": 3, "car_spaces": 0, "commission": 0, "construction_year": 0, "datasource_name": "OnTheMarket.com", "img_height": 300, "img_url": "https://imgs.nestimg.com/3_bedroom_semi_detached_house_for_sale_111223319830788996.jpg", "img_width": 400, "keywords": "Semi-Detached, No Chain, Reception", "latitude": 51.3732, "lister_url": "https://www.nestoria.co.uk/detail/0000000111223319830788996/title/5/48-14?serpUid=&pt=1&ot=1&l=somerset&did=105_high1&t_sec=9&t_or=45&t_pvid=null&utm_source=api&utm_medium=external", "listing_type": "buy", "location_accuracy": 9, "longitude": -2.80504, "price": 240000, "price_currency": "\u00a3", "price_formatted": "\u00a3240,000", "price_high": 240000, "price_low": 240000, "price_type": "fixed", "property_type": "house", "size": 0, "size_type": "net", "summary": "Located towards the end of a no through road in the favoured villag...", "thumb_height": 60, "thumb_url": "https://imgs.nestimg.com/medium/3_bedroom_semi_detached_house_for_sale_111223319830788996.jpg", "thumb_width": 80, "title": "Southlands Way, BS49, Somerset", "updated_in_days": 82, "updated_in_days_formatted": "first seen over a month ago"}, {"bathroom_number": "", "bedroom_number": 6, "car_spaces": 0, "commission": 0, "construction_year": 0, "datasource_name": "OnTheMarket.com", "img_height": 300, "img_url": "https://imgs.nestimg.com/6_bedroom_detached_house_for_sale_110908088030697365.jpg", "img_width": 400, "keywords": "Detached, Freehold", "latitude": 51.2048, "lister_url": "https://www.nestoria.co.uk/detail/0000000110908088030697365/title/5/48-15?serpUid=&pt=1&ot=1&l=somerset&did=105_high1&t_sec=9&t_or=45&t_pvid=null&utm_source=api&utm_medium=external", "listing_type": "buy", "location_accuracy": 9, "longitude": -3.47166, "price": 439500, "price_currency": "\u00a3", "price_formatted": "\u00a3439,500", "price_high": 439500, "price_low": 439500, "price_type": "fixed", "property_type": "house", "size": 0, "size_type": "net", "summary": "A and well maintained six bedroom detached house arranged over thre...", "thumb_height": 60, "thumb_url": "https://imgs.nestimg.com/medium/6_bedroom_detached_house_for_sale_110908088030697365.jpg", "thumb_width": 80, "title": "Tregonwell Road, Minehead, Somerset, TA24", "updated_in_days": 133, "updated_in_days_formatted": "first seen over a month ago"}], "locations": [{"center_lat": 51.080967, "center_long": -3.045432, "long_title": "Somerset, county", "place_name": "somerset", "title": "Somerset"}], "page": 48, "sort": "nestoria_rank", "status_code": "200", "status_text": "OK", "thanks": "For using the Nestoria API.", "total_pages": 410, "total_results": 6149, "_cu5t0mP434m_": "remove"}}