{"request": {"country": "uk", "language": "en", "location": "somerset", "num_res": "15", "offset": 720, "output": "json_xs", "page": 49, "product_type": "realestate", "property_type": "property", "size_type": "net", "size_unit": "m2", "sort": "nestoria_rank", "listing_type": "buy"}, "response": {"application_response_code": "100", "application_response_text": "listings returned for one unambiguous location", "attribution": {"img_height": 22, "img_url": "https://resources.nestimg.com/nestoria/img/pbr_v1.png", "img_width": 183, "link_to_img": "http://www.nestoria.com"}, "created_http": "Tue, 18 Jun 2019 17:29:48 GMT", "created_unix": 1560878988, "link_to_url": "https://www.nestoria.co.uk/somerset/property/buy/49", "listings": [{"bathroom_number": "", "bedroom_number": 2, "car_spaces": 0, "commission": 0, "construction_year": 0, "datasource_name": "OnTheMarket.com", "img_height": 300, "img_url": "https://imgs.nestimg.com/2_bedroom_house_for_sale_109651667989899026.jpg", "img_width": 400, "keywords": "Purpose Built, Modern", "latitude": 51.2055, "lister_url": "https://www.nestoria.co.uk/detail/0000000109651667989899026/title/5/49-1?serpUid=&pt=1&ot=1&l=somerset&did=105_high1&t_sec=9&t_or=45&t_pvid=null&utm_source=api&utm_medium=external", "listing_type": "buy", "location_accuracy": 9, "longitude": -3.48398, "price": 285000, "price_currency": "\u00a3", "price_formatted": "\u00a3285,000", "price_high": 285000, "price_low": 285000, "price_type": "fixed", "property_type": "property", "size": 0, "size_type": "net", "summary": "A ly presented modern purpose built two bedroom first floor retirem...", "thumb_height": 60, "thumb_url": "https://imgs.nestimg.com/medium/2_bedroom_house_for_sale_109651667989899026.jpg", "thumb_width": 80, "title": "Beechfield Court, The Parks, Minehead, Somerset, TA24", "updated_in_days": 336, "updated_in_days_formatted": "first seen over a month ago"}, {"bathroom_number": "", "bedroom_number": 1, "car_spaces": 0, "commission": 0, "construction_year": 0, "datasource_name": "OnTheMarket.com", "img_height": 300, "img_url": "https://imgs.nestimg.com/1_bedroom_apartment_for_sale_111359015662251856.jpg", "img_width": 400, "keywords": "Leasehold", "latitude": 51.2112, "lister_url": "https://www.nestoria.co.uk/detail/0000000111359015662251856/title/5/49-2?serpUid=&pt=1&ot=1&l=somerset&did=105_high1&t_sec=9&t_or=45&t_pvid=null&utm_source=api&utm_medium=external", "listing_type": "buy", "location_accuracy": 9, "longitude": -3.48274, "price": 145000, "price_currency": "\u00a3", "price_formatted": "\u00a3145,000", "price_high": 145000, "price_low": 145000, "price_type": "fixed", "property_type": "flat", "size": 0, "size_type": "net", "summary": "A well maintained one bedroom first floor flat enjoying sweeping so...", "thumb_height": 60, "thumb_url": "https://imgs.nestimg.com/medium/1_bedroom_apartment_for_sale_111359015662251856.jpg", "thumb_width": 80, "title": "Clevelands, St. Michaels Road, Minehead, Somerset, TA24", "updated_in_days": 60, "updated_in_days_formatted": "first seen over a month ago"}, {"bathroom_number": "", "bedroom_number": 3, "car_spaces": 0, "commission": 0, "construction_year": 0, "datasource_name": "OnTheMarket.com", "img_height": 300, "img_url": "https://imgs.nestimg.com/3_bedroom_semi_detached_house_for_sale_111674253202903715.jpg", "img_width": 400, "keywords": "Semi-Detached", "latitude": 51.214, "lister_url": "https://www.nestoria.co.uk/detail/0000000111674253202903715/title/5/49-3?serpUid=&pt=1&ot=1&l=somerset&did=105_high1&t_sec=9&t_or=45&t_pvid=null&utm_source=api&utm_medium=external", "listing_type": "buy", "location_accuracy": 9, "longitude": -3.58588, "price": 450000, "price_currency": "\u00a3", "price_formatted": "\u00a3450,000", "price_high": 450000, "price_low": 450000, "price_type": "fixed", "property_type": "house", "size": 0, "size_type": "net", "summary": "A ly presented extended and modernised three bedroom semi detached ...", "thumb_height": 60, "thumb_url": "https://imgs.nestimg.com/medium/3_bedroom_semi_detached_house_for_sale_111674253202903715.jpg", "thumb_width": 80, "title": "Bossington Lane, Porlock, Minehead, Somerset, TA24", "updated_in_days": 9, "updated_in_days_formatted": "first seen last week"}, {"bathroom_number": "", "bedroom_number": 4, "car_spaces": 0, "commission": 0, "construction_year": 0, "datasource_name": "OnTheMarket.com", "img_height": 300, "img_url": "https://imgs.nestimg.com/4_bedroom_end_of_terrace_house_for_sale_110975762486818470.jpg", "img_width": 400, "keywords": "Terraced, Cul-de-Sac", "latitude": 51.3688, "lister_url": "https://www.nestoria.co.uk/detail/0000000110975762486818470/title/5/49-4?serpUid=&pt=1&ot=1&l=somerset&did=105_high1&t_sec=9&t_or=45&t_pvid=null&utm_source=api&utm_medium=external", "listing_type": "buy", "location_accuracy": 9, "longitude": -2.90865, "price": 279950, "price_currency": "\u00a3", "price_formatted": "\u00a3279,950", "price_high": 279950, "price_low": 279950, "price_type": "fixed", "property_type": "house", "size": 0, "size_type": "net", "summary": "Extended 4 bedroom end of terrace family home situated in a north w...", "thumb_height": 60, "thumb_url": "https://imgs.nestimg.com/medium/4_bedroom_end_of_terrace_house_for_sale_110975762486818470.jpg", "thumb_width": 80, "title": "Sophia Gardens, BS22, North Somerset", "updated_in_days": 84, "updated_in_days_formatted": "first seen over a month ago"}, {"bathroom_number": "", "bedroom_number": 4, "car_spaces": 0, "commission": 0, "construction_year": 0, "datasource_name": "OnTheMarket.com", "img_height": 300, "img_url": "https://imgs.nestimg.com/4_bedroom_detached_house_for_sale_111334256892649657.jpg", "img_width": 400, "keywords": "Detached", "latitude": 50.961, "lister_name": "Greenslade Taylor Hunt", "lister_url": "https://www.nestoria.co.uk/detail/0000000111334256892649657/title/5/49-5?serpUid=&pt=1&ot=1&l=somerset&did=105_high1&t_sec=9&t_or=45&t_pvid=null&utm_source=api&utm_medium=external", "listing_type": "buy", "location_accuracy": 9, "longitude": -2.61655, "price": 500000, "price_currency": "\u00a3", "price_formatted": "\u00a3500,000", "price_high": 500000, "price_low": 500000, "price_type": "fixed", "property_type": "house", "size": 0, "size_type": "net", "summary": "A , four bedroom, luxury family residence, built to a superb standa...", "thumb_height": 60, "thumb_url": "https://imgs.nestimg.com/medium/4_bedroom_detached_house_for_sale_111334256892649657.jpg", "thumb_width": 80, "title": "Tor View Close, Yeovil, Somerset, BA21", "updated_in_days": 64, "updated_in_days_formatted": "first seen over a month ago"}, {"bathroom_number": "", "bedroom_number": 7, "car_spaces": 0, "commission": 0, "construction_year": 0, "datasource_name": "OnTheMarket.com", "img_height": 300, "img_url": "https://imgs.nestimg.com/7_bedroom_house_for_sale_111359017413794539.jpg", "img_width": 400, "keywords": "Freehold", "latitude": 51.2055, "lister_url": "https://www.nestoria.co.uk/detail/0000000111359017413794539/title/5/49-6?serpUid=&pt=1&ot=1&l=somerset&did=105_high1&t_sec=9&t_or=45&t_pvid=null&utm_source=api&utm_medium=external", "listing_type": "buy", "location_accuracy": 9, "longitude": -3.47142, "price": 495000, "price_currency": "\u00a3", "price_formatted": "\u00a3495,000", "price_high": 495000, "price_low": 495000, "price_type": "fixed", "property_type": "house", "size": 0, "size_type": "net", "summary": "Kenella house comprises a well-established and prominently situated...", "thumb_height": 60, "thumb_url": "https://imgs.nestimg.com/medium/7_bedroom_house_for_sale_111359017413794539.jpg", "thumb_width": 80, "title": "Tregonwell Road, Minehead, Somerset, TA24", "updated_in_days": 60, "updated_in_days_formatted": "first seen over a month ago"}, {"bathroom_number": "", "bedroom_number": 3, "car_spaces": 0, "commission": 0, "construction_year": 0, "datasource_name": "OnTheMarket.com", "img_height": 300, "img_url": "https://imgs.nestimg.com/3_bedroom_detached_bungalow_for_sale_111606563519773952.jpg", "img_width": 400, "keywords": "Detached, Bungalow", "latitude": 51.3753, "lister_url": "https://www.nestoria.co.uk/detail/0000000111606563519773952/title/5/49-7?serpUid=&pt=1&ot=1&l=somerset&did=105_high1&t_sec=9&t_or=45&t_pvid=null&utm_source=api&utm_medium=external", "listing_type": "buy", "location_accuracy": 9, "longitude": -2.79813, "price": 450000, "price_currency": "\u00a3", "price_formatted": "\u00a3450,000", "price_high": 450000, "price_low": 450000, "price_type": "fixed", "property_type": "house", "size": 0, "size_type": "net", "summary": "Situated in a pleasant spot on the edge of congresbury village to e...", "thumb_height": 60, "thumb_url": "https://imgs.nestimg.com/medium/3_bedroom_detached_bungalow_for_sale_111606563519773952.jpg", "thumb_width": 80, "title": "Wrington Road, Congresbury, North Somerset, BS49", "updated_in_days": 20, "updated_in_days_formatted": "first seen 2 weeks ago"}, {"bathroom_number": "", "bedroom_number": 6, "car_spaces": 0, "commission": 0, "construction_year": 0, "datasource_name": "OnTheMarket.com", "img_height": 300, "img_url": "https://imgs.nestimg.com/6_bedroom_detached_house_for_sale_111136752016891439.jpg", "img_width": 400, "keywords": "Detached, Garden, Fireplace, Kitchen, Modern, Cottage", "latitude": 51.0408, "lister_url": "https://www.nestoria.co.uk/detail/0000000111136752016891439/title/5/49-8?serpUid=&pt=1&ot=1&l=somerset&did=105_high1&t_sec=9&t_or=45&t_pvid=null&utm_source=api&utm_medium=external", "listing_type": "buy", "location_accuracy": 9, "longitude": -2.45121, "price": 735000, "price_currency": "\u00a3", "price_formatted": "\u00a3735,000", "price_high": 735000, "price_low": 735000, "price_type": "fixed", "property_type": "house", "size": 0, "size_type": "net", "summary": "A and most appealing six bedroom period house set in just under thr...", "thumb_height": 60, "thumb_url": "https://imgs.nestimg.com/medium/6_bedroom_detached_house_for_sale_111136752016891439.jpg", "thumb_width": 80, "title": "Holton, Somerset BA9 - Detached", "updated_in_days": 44, "updated_in_days_formatted": "first seen over a month ago"}, {"bathroom_number": "", "bedroom_number": 2, "car_spaces": 0, "commission": 0, "construction_year": 0, "datasource_name": "OnTheMarket.com", "img_height": 300, "img_url": "https://imgs.nestimg.com/2_bedroom_terraced_house_for_sale_111272699279204344.jpg", "img_width": 400, "keywords": "Grade II, Fireplace, Terraced, Cottage, Listed", "latitude": 51.1468, "lister_url": "https://www.nestoria.co.uk/detail/0000000111272699279204344/title/5/49-9?serpUid=&pt=1&ot=1&l=somerset&did=105_high1&t_sec=9&t_or=45&t_pvid=null&utm_source=api&utm_medium=external", "listing_type": "buy", "location_accuracy": 9, "longitude": -2.50386, "price": 175000, "price_currency": "\u00a3", "price_formatted": "\u00a3175,000", "price_high": 175000, "price_low": 175000, "price_type": "fixed", "property_type": "house", "size": 0, "size_type": "net", "summary": "A grade ii listed 17th century cottage located in the heart of the ...", "thumb_height": 60, "thumb_url": "https://imgs.nestimg.com/medium/2_bedroom_terraced_house_for_sale_111272699279204344.jpg", "thumb_width": 80, "title": "High Street, Evercreech, SHEPTON MALLET, Somerset", "updated_in_days": 74, "updated_in_days_formatted": "first seen over a month ago"}, {"bathroom_number": "", "bedroom_number": 5, "car_spaces": 0, "commission": 0, "construction_year": 0, "datasource_name": "OnTheMarket.com", "img_height": 300, "img_url": "https://imgs.nestimg.com/5_bedroom_house_for_sale_111186365864318366.jpg", "img_width": 400, "keywords": "", "latitude": 50.916737, "lister_url": "https://www.nestoria.co.uk/detail/0000000111186365864318366/title/5/49-10?serpUid=&pt=1&ot=1&l=somerset&did=105_high1&t_sec=9&t_or=45&t_pvid=null&utm_source=api&utm_medium=external", "listing_type": "buy", "location_accuracy": 9, "longitude": -2.638569, "price": 1375000, "price_currency": "\u00a3", "price_formatted": "\u00a31,375,000", "price_high": 1375000, "price_low": 1375000, "price_type": "fixed", "property_type": "house", "size": 0, "size_type": "net", "summary": "Currently rented out at \u00a378,000 per annum creating a 5.7% rental re...", "thumb_height": 60, "thumb_url": "https://imgs.nestimg.com/medium/5_bedroom_house_for_sale_111186365864318366.jpg", "thumb_width": 80, "title": "East Coker, YEOVIL, Somerset, BA22", "updated_in_days": 88, "updated_in_days_formatted": "first seen over a month ago"}, {"bathroom_number": "", "bedroom_number": 2, "car_spaces": 0, "commission": 0, "construction_year": 0, "datasource_name": "OnTheMarket.com", "img_height": 300, "img_url": "https://imgs.nestimg.com/2_bedroom_mobile_home_for_sale_111025260782654877.jpg", "img_width": 400, "keywords": "Garden, Furnished", "latitude": 51.2597, "lister_name": "Cooper & Tanner", "lister_url": "https://www.nestoria.co.uk/detail/0000000111025260782654877/title/5/49-11?serpUid=&pt=1&ot=1&l=somerset&did=105_high1&t_sec=9&t_or=45&t_pvid=null&utm_source=api&utm_medium=external", "listing_type": "buy", "location_accuracy": 9, "longitude": -2.53381, "price": 195000, "price_currency": "\u00a3", "price_formatted": "\u00a3195,000", "price_high": 195000, "price_low": 195000, "price_type": "fixed", "property_type": "property", "size": 0, "size_type": "net", "summary": "A unique opportunity to purchase a luxury two bedroom residential p...", "thumb_height": 60, "thumb_url": "https://imgs.nestimg.com/medium/2_bedroom_mobile_home_for_sale_111025260782654877.jpg", "thumb_width": 80, "title": "Emborough, Somerset - Furnished", "updated_in_days": 11, "updated_in_days_formatted": "first seen last week"}, {"bathroom_number": "", "bedroom_number": "", "car_spaces": 0, "commission": 0, "construction_year": 0, "datasource_name": "OnTheMarket.com", "img_height": 300, "img_url": "https://imgs.nestimg.com/land_for_sale_109274961561624473.jpg", "img_width": 400, "keywords": "", "latitude": 51.2676, "lister_name": "Greenslade Taylor Hunt", "lister_url": "https://www.nestoria.co.uk/detail/0000000109274961561624473/title/5/49-12?serpUid=&pt=1&ot=1&l=somerset&did=105_high1&t_sec=9&t_or=45&t_pvid=null&utm_source=api&utm_medium=external", "listing_type": "buy", "location_accuracy": 9, "longitude": -2.91553, "price": 35000, "price_currency": "\u00a3", "price_formatted": "\u00a335,000", "price_high": 35000, "price_low": 35000, "price_type": "fixed", "property_type": "land", "size": 0, "size_type": "net", "summary": "Lot 6 comprisins of a single parcel of agricultural pasture land ex...", "thumb_height": 60, "thumb_url": "https://imgs.nestimg.com/medium/land_for_sale_109274961561624473.jpg", "thumb_width": 80, "title": "Mendip Road, Rooksbridge, Nr Axbridge, Somerset, BS26", "updated_in_days": 397, "updated_in_days_formatted": "first seen over a month ago"}, {"bathroom_number": "", "bedroom_number": 3, "car_spaces": 0, "commission": 0, "construction_year": 0, "datasource_name": "OnTheMarket.com", "img_height": 300, "img_url": "https://imgs.nestimg.com/3_bedroom_detached_house_for_sale_110975762770114003.jpg", "img_width": 400, "keywords": "Detached, Double Bedroom, Cottage", "latitude": 51.1752, "lister_url": "https://www.nestoria.co.uk/detail/0000000110975762770114003/title/5/49-13?serpUid=&pt=1&ot=1&l=somerset&did=105_high1&t_sec=9&t_or=45&t_pvid=null&utm_source=api&utm_medium=external", "listing_type": "buy", "location_accuracy": 9, "longitude": -2.53574, "price": 350000, "price_currency": "\u00a3", "price_formatted": "\u00a3350,000", "price_high": 350000, "price_low": 350000, "price_type": "fixed", "property_type": "house", "size": 0, "size_type": "net", "summary": "Three double bedroom detached character cottage on the outskirts of...", "thumb_height": 60, "thumb_url": "https://imgs.nestimg.com/medium/3_bedroom_detached_house_for_sale_110975762770114003.jpg", "thumb_width": 80, "title": "SHEPTON MALLET, Somerset - Cottage", "updated_in_days": 60, "updated_in_days_formatted": "first seen over a month ago"}, {"bathroom_number": "", "bedroom_number": 5, "car_spaces": 0, "commission": 0, "construction_year": 0, "datasource_name": "OnTheMarket.com", "img_height": 300, "img_url": "https://imgs.nestimg.com/5_bedroom_detached_house_for_sale_111291596510238827.jpg", "img_width": 400, "keywords": "Detached, Garden", "latitude": 51.328358, "lister_name": "Knight Frank", "lister_url": "https://www.nestoria.co.uk/detail/0000000111291596510238827/title/5/49-14?serpUid=&pt=1&ot=1&l=somerset&did=105_high1&t_sec=9&t_or=45&t_pvid=null&utm_source=api&utm_medium=external", "listing_type": "buy", "location_accuracy": 9, "longitude": -2.712168, "price": 875000, "price_currency": "\u00a3", "price_formatted": "\u00a3875,000", "price_high": 875000, "price_low": 875000, "price_type": "fixed", "property_type": "house", "size": 0, "size_type": "net", "summary": "5/6 bedroom village house for sale in blagdon, chew valley. Thought...", "thumb_height": 60, "thumb_url": "https://imgs.nestimg.com/medium/5_bedroom_detached_house_for_sale_111291596510238827.jpg", "thumb_width": 80, "title": "Park Lane, Blagdon, Bristol, North Somerset, BS40", "updated_in_days": 34, "updated_in_days_formatted": "first seen over a month ago"}, {"bathroom_number": "", "bedroom_number": 4, "car_spaces": 0, "commission": 0, "construction_year": 0, "datasource_name": "OnTheMarket.com", "img_height": 300, "img_url": "https://imgs.nestimg.com/4_bedroom_manor_house_for_sale_111445544702937734.jpg", "img_width": 400, "keywords": "Detached, Garden, Bungalow, Georgian, Listed", "latitude": 51.106, "lister_name": "Cooper & Tanner", "lister_url": "https://www.nestoria.co.uk/detail/0000000111445544702937734/title/5/49-15?serpUid=&pt=1&ot=1&l=somerset&did=105_high1&t_sec=9&t_or=45&t_pvid=null&utm_source=api&utm_medium=external", "listing_type": "buy", "location_accuracy": 9, "longitude": -2.48934, "price": 1850000, "price_currency": "\u00a3", "price_formatted": "\u00a31,850,000", "price_high": 1850000, "price_low": 1850000, "price_type": "fixed", "property_type": "house", "size": 0, "size_type": "net", "summary": "Grade listed ii georgian farmhouse in an enviable location close to...", "thumb_height": 60, "thumb_url": "https://imgs.nestimg.com/medium/4_bedroom_manor_house_for_sale_111445544702937734.jpg", "thumb_width": 80, "title": "Bruton, Somerset - Georgian, Bungalow", "updated_in_days": 46, "updated_in_days_formatted": "first seen over a month ago"}], "locations": [{"center_lat": 51.080967, "center_long": -3.045432, "long_title": "Somerset, county", "place_name": "somerset", "title": "Somerset"}], "page": 49, "sort": "nestoria_rank", "status_code": "200", "status_text": "OK", "thanks": "For using the Nestoria API.", "total_pages": 410, "total_results": 6149, "_cu5t0mP434m_": "remove"}}