{"request": {"country": "uk", "language": "en", "location": "somerset", "num_res": "15", "offset": 45, "output": "json_xs", "page": 4, "product_type": "realestate", "property_type": "property", "size_type": "net", "size_unit": "m2", "sort": "nestoria_rank", "listing_type": "buy"}, "response": {"application_response_code": "100", "application_response_text": "listings returned for one unambiguous location", "attribution": {"img_height": 22, "img_url": "https://resources.nestimg.com/nestoria/img/pbr_v1.png", "img_width": 183, "link_to_img": "http://www.nestoria.com"}, "created_http": "Tue, 18 Jun 2019 17:28:39 GMT", "created_unix": 1560878919, "link_to_url": "https://www.nestoria.co.uk/somerset/property/buy/4", "listings": [{"bathroom_number": "", "bedroom_number": 3, "car_spaces": 0, "commission": 0, "construction_year": 0, "datasource_name": "OnTheMarket.com", "img_height": 300, "img_url": "https://imgs.nestimg.com/3_bedroom_apartment_for_sale_111711531956298543.jpg", "img_width": 400, "keywords": "Leasehold, Maisonette, Conversion", "latitude": 51.2058, "lister_url": "https://www.nestoria.co.uk/detail/0000000111711531956298543/title/5/4-1?serpUid=&pt=1&ot=1&l=somerset&did=105_high1&t_sec=9&t_or=45&t_pvid=null&utm_source=api&utm_medium=external", "listing_type": "buy", "location_accuracy": 9, "longitude": -3.47319, "price": 155000, "price_currency": "\u00a3", "price_formatted": "\u00a3155,000", "price_high": 155000, "price_low": 155000, "price_type": "fixed", "property_type": "flat", "size": 0, "size_type": "net", "summary": "A self contained converted first and second floor maisonette situat...", "thumb_height": 60, "thumb_url": "https://imgs.nestimg.com/medium/3_bedroom_apartment_for_sale_111711531956298543.jpg", "thumb_width": 80, "title": "Summerland Avenue, Minehead, Somerset, TA24", "updated_in_days": 3, "updated_in_days_formatted": "first seen 3 days ago"}, {"bathroom_number": "", "bedroom_number": 1, "car_spaces": 0, "commission": 0, "construction_year": 0, "datasource_name": "OnTheMarket.com", "img_height": 300, "img_url": "https://imgs.nestimg.com/1_bedroom_apartment_for_sale_111711522531036751.jpg", "img_width": 400, "keywords": "Leasehold, Conversion", "latitude": 51.2058, "lister_url": "https://www.nestoria.co.uk/detail/0000000111711522531036751/title/5/4-2?serpUid=&pt=1&ot=1&l=somerset&did=105_high1&t_sec=9&t_or=45&t_pvid=null&utm_source=api&utm_medium=external", "listing_type": "buy", "location_accuracy": 9, "longitude": -3.47319, "price": 129950, "price_currency": "\u00a3", "price_formatted": "\u00a3129,950", "price_high": 129950, "price_low": 129950, "price_type": "fixed", "property_type": "flat", "size": 0, "size_type": "net", "summary": "A well maintained and modernised converted self-contained one bedro...", "thumb_height": 60, "thumb_url": "https://imgs.nestimg.com/medium/1_bedroom_apartment_for_sale_111711522531036751.jpg", "thumb_width": 80, "title": "Summerland Avenue, Minehead, Somerset, TA24", "updated_in_days": 3, "updated_in_days_formatted": "first seen 3 days ago"}, {"bathroom_number": "", "bedroom_number": 5, "car_spaces": 0, "commission": 0, "construction_year": 0, "datasource_name": "OnTheMarket.com", "img_height": 300, "img_url": "https://imgs.nestimg.com/5_bedroom_end_of_terrace_house_for_sale_111711524159410596.jpg", "img_width": 400, "keywords": "Freehold, Garden, Grade II, Terraced, Georgian, Listed", "latitude": 51.0894, "lister_name": "Greenslade Taylor Hunt", "lister_url": "https://www.nestoria.co.uk/detail/0000000111711524159410596/title/5/4-3?serpUid=&pt=1&ot=1&l=somerset&did=105_high1&t_sec=9&t_or=45&t_pvid=null&utm_source=api&utm_medium=external", "listing_type": "buy", "location_accuracy": 9, "longitude": -2.51377, "price": 700000, "price_currency": "\u00a3", "price_formatted": "\u00a3700,000", "price_high": 700000, "price_low": 700000, "price_type": "fixed", "property_type": "house", "size": 0, "size_type": "net", "summary": "A , georgian, grade ii listed, five bedroom family home with garagi...", "thumb_height": 60, "thumb_url": "https://imgs.nestimg.com/medium/5_bedroom_end_of_terrace_house_for_sale_111711524159410596.jpg", "thumb_width": 80, "title": "Market Place, Castle Cary, Somerset, BA7", "updated_in_days": 3, "updated_in_days_formatted": "first seen 3 days ago"}, {"bathroom_number": "", "bedroom_number": 4, "car_spaces": 0, "commission": 0, "construction_year": 0, "datasource_name": "OnTheMarket.com", "img_height": 300, "img_url": "https://imgs.nestimg.com/4_bedroom_farm_house_for_sale_111711524951531462.jpg", "img_width": 400, "keywords": "", "latitude": 51.1727, "lister_url": "https://www.nestoria.co.uk/detail/0000000111711524951531462/title/5/4-4?serpUid=&pt=1&ot=1&l=somerset&did=105_high1&t_sec=9&t_or=45&t_pvid=null&utm_source=api&utm_medium=external", "listing_type": "buy", "location_accuracy": 9, "longitude": -3.48477, "price": 765000, "price_currency": "\u00a3", "price_formatted": "\u00a3765,000", "price_high": 765000, "price_low": 765000, "price_type": "fixed", "property_type": "house", "size": 0, "size_type": "net", "summary": "A highly , period four bedroom house, available with approx. 15 or ...", "thumb_height": 60, "thumb_url": "https://imgs.nestimg.com/medium/4_bedroom_farm_house_for_sale_111711524951531462.jpg", "thumb_width": 80, "title": "Timberscombe SOMERSET", "updated_in_days": 3, "updated_in_days_formatted": "first seen 3 days ago"}, {"bathroom_number": "", "bedroom_number": 5, "car_spaces": 0, "commission": 0, "construction_year": 0, "datasource_name": "OnTheMarket.com", "img_height": 300, "img_url": "https://imgs.nestimg.com/5_bedroom_semi_detached_house_for_sale_111711530197479962.jpg", "img_width": 400, "keywords": "Garden, Semi-Detached, Garage", "latitude": 51.1055, "lister_name": "Stags", "lister_url": "https://www.nestoria.co.uk/detail/0000000111711530197479962/title/5/4-5?serpUid=&pt=1&ot=1&l=somerset&did=105_high1&t_sec=9&t_or=45&t_pvid=null&utm_source=api&utm_medium=external", "listing_type": "buy", "location_accuracy": 9, "longitude": -3.56543, "price": 475000, "price_currency": "\u00a3", "price_formatted": "\u00a3475,000", "price_high": 475000, "price_low": 475000, "price_type": "fixed", "property_type": "house", "size": 0, "size_type": "net", "summary": "A versatile 5 bedroom home with gardens and woodland in the heart o...", "thumb_height": 60, "thumb_url": "https://imgs.nestimg.com/medium/5_bedroom_semi_detached_house_for_sale_111711530197479962.jpg", "thumb_width": 80, "title": "Winsford, Minehead, Somerset, TA24", "updated_in_days": 3, "updated_in_days_formatted": "first seen 3 days ago"}, {"bathroom_number": "", "bedroom_number": 0, "car_spaces": 0, "commission": 0, "construction_year": 0, "datasource_name": "OnTheMarket.com", "img_height": 300, "img_url": "https://imgs.nestimg.com/equestrian_facility_for_sale_111711533955231889.jpg", "img_width": 400, "keywords": "", "latitude": 51.3421, "lister_name": "David James", "lister_url": "https://www.nestoria.co.uk/detail/0000000111711533955231889/title/5/4-6?serpUid=&pt=1&ot=1&l=somerset&did=105_high1&t_sec=9&t_or=45&t_pvid=null&utm_source=api&utm_medium=external", "listing_type": "buy", "location_accuracy": 9, "longitude": -2.86944, "price": 85000, "price_currency": "\u00a3", "price_formatted": "\u00a385,000", "price_high": 85000, "price_low": 85000, "price_type": "fixed", "property_type": "property", "size": 0, "size_type": "net", "summary": "An opportunity to purchase a self-contained 1.58 acre paddock with ...", "thumb_height": 60, "thumb_url": "https://imgs.nestimg.com/medium/equestrian_facility_for_sale_111711533955231889.jpg", "thumb_width": 80, "title": "Banwell, North Somerset", "updated_in_days": 3, "updated_in_days_formatted": "first seen 3 days ago"}, {"bathroom_number": "", "bedroom_number": 3, "car_spaces": 0, "commission": 0, "construction_year": 0, "datasource_name": "OnTheMarket.com", "img_height": 300, "img_url": "https://imgs.nestimg.com/3_bedroom_detached_bungalow_for_sale_110876995456353848.jpg", "img_width": 400, "keywords": "Detached, Freehold, Bungalow, Cul-de-Sac", "latitude": 51.0599, "lister_name": "Greenslade Taylor Hunt", "lister_url": "https://www.nestoria.co.uk/detail/0000000110876995456353848/title/5/4-7?serpUid=&pt=1&ot=1&l=somerset&did=105_high1&t_sec=9&t_or=45&t_pvid=null&utm_source=api&utm_medium=external", "listing_type": "buy", "location_accuracy": 9, "longitude": -3.11366, "price": 425000, "price_currency": "\u00a3", "price_formatted": "\u00a3425,000", "price_high": 425000, "price_low": 425000, "price_type": "fixed", "property_type": "house", "size": 0, "size_type": "net", "summary": "A modernised 3 bedroomed detached bungalow set in a small cul de sa...", "thumb_height": 60, "thumb_url": "https://imgs.nestimg.com/medium/3_bedroom_detached_bungalow_for_sale_110876995456353848.jpg", "thumb_width": 80, "title": "Meadow Close, Kingston St. Mary, Taunton, Somerset, TA2", "updated_in_days": 6, "updated_in_days_formatted": "first seen 6 days ago"}, {"bathroom_number": "", "bedroom_number": 3, "car_spaces": 0, "commission": 0, "construction_year": 0, "datasource_name": "OnTheMarket.com", "img_height": 300, "img_url": "https://imgs.nestimg.com/3_bedroom_semi_detached_bungalow_for_sale_111699718627721983.jpg", "img_width": 400, "keywords": "Freehold, Garden, Semi-Detached, Garage, Bungalow, Cul-de-Sac", "latitude": 51.2324, "lister_name": "Greenslade Taylor Hunt", "lister_url": "https://www.nestoria.co.uk/detail/0000000111699718627721983/title/5/4-8?serpUid=&pt=1&ot=1&l=somerset&did=105_high1&t_sec=9&t_or=45&t_pvid=null&utm_source=api&utm_medium=external", "listing_type": "buy", "location_accuracy": 9, "longitude": -2.98746, "price": 249950, "price_currency": "\u00a3", "price_formatted": "\u00a3249,950", "price_high": 249950, "price_low": 249950, "price_type": "fixed", "property_type": "house", "size": 0, "size_type": "net", "summary": "This flexible and versatile 3 bedroom semi detached dormer style bu...", "thumb_height": 60, "thumb_url": "https://imgs.nestimg.com/medium/3_bedroom_semi_detached_bungalow_for_sale_111699718627721983.jpg", "thumb_width": 80, "title": "Ashcott Drive, Burnham-on-Sea, Somerset, TA8", "updated_in_days": 5, "updated_in_days_formatted": "first seen 5 days ago"}, {"bathroom_number": "", "bedroom_number": 9, "car_spaces": 0, "commission": 0, "construction_year": 0, "datasource_name": "OnTheMarket.com", "img_height": 300, "img_url": "https://imgs.nestimg.com/9_bedroom_detached_house_for_sale_111693442011747438.jpg", "img_width": 400, "keywords": "Detached, Garden, En suite, Garage, Kitchen, Swimming Pool, Reception, Georgian", "latitude": 51.1402, "lister_name": "Stags", "lister_url": "https://www.nestoria.co.uk/detail/0000000111693442011747438/title/5/4-9?serpUid=&pt=1&ot=1&l=somerset&did=105_high1&t_sec=9&t_or=45&t_pvid=null&utm_source=api&utm_medium=external", "listing_type": "buy", "location_accuracy": 9, "longitude": -3.16509, "price": 2000000, "price_currency": "\u00a3", "price_formatted": "\u00a32,000,000", "price_high": 2000000, "price_low": 2000000, "price_type": "fixed", "property_type": "house", "size": 0, "size_type": "net", "summary": "An georgian vicarage with landscaped gardens and grounds extending ...", "thumb_height": 60, "thumb_url": "https://imgs.nestimg.com/medium/9_bedroom_detached_house_for_sale_111693442011747438.jpg", "thumb_width": 80, "title": "Over Stowey, Bridgwater, Somerset, TA5", "updated_in_days": 6, "updated_in_days_formatted": "first seen 6 days ago"}, {"bathroom_number": "", "bedroom_number": 3, "car_spaces": 0, "commission": 0, "construction_year": 0, "datasource_name": "OnTheMarket.com", "img_height": 300, "img_url": "https://imgs.nestimg.com/3_bedroom_detached_bungalow_for_sale_111284652581956696.jpg", "img_width": 400, "keywords": "Detached, Double Bedroom, Kitchen, Bungalow", "latitude": 51.0122, "lister_name": "Newton King", "lister_url": "https://www.nestoria.co.uk/detail/0000000111284652581956696/title/5/4-10?serpUid=&pt=1&ot=1&l=somerset&did=105_high1&t_sec=9&t_or=45&t_pvid=null&utm_source=api&utm_medium=external", "listing_type": "buy", "location_accuracy": 9, "longitude": -3.04289, "price": 345000, "price_currency": "\u00a3", "price_formatted": "\u00a3345,000", "price_high": 345000, "price_low": 345000, "price_type": "fixed", "property_type": "house", "size": 0, "size_type": "net", "summary": "2/3 bedroom detached bungalow situated in a semi-rural location, of...", "thumb_height": 60, "thumb_url": "https://imgs.nestimg.com/medium/3_bedroom_detached_bungalow_for_sale_111284652581956696.jpg", "thumb_width": 80, "title": "Chico, Lipe Lane, Henlade, Taunton, Somerset", "updated_in_days": 6, "updated_in_days_formatted": "first seen 6 days ago"}, {"bathroom_number": 2, "bedroom_number": 3, "car_spaces": 0, "commission": 0, "construction_year": 0, "datasource_name": "OnTheMarket.com", "img_height": 300, "img_url": "https://imgs.nestimg.com/3_bedroom_bungalow_for_sale_111687584016096525.jpg", "img_width": 400, "keywords": "Detached, Garden, Kitchen, Bungalow, Reception", "latitude": 51.06, "lister_name": "Stags", "lister_url": "https://www.nestoria.co.uk/detail/0000000111687584016096525/title/5/4-11?serpUid=&pt=1&ot=1&l=somerset&did=105_high1&t_sec=9&t_or=45&t_pvid=null&utm_source=api&utm_medium=external", "listing_type": "buy", "location_accuracy": 9, "longitude": -3.10952, "price": 450000, "price_currency": "\u00a3", "price_formatted": "\u00a3450,000", "price_high": 450000, "price_low": 450000, "price_type": "fixed", "property_type": "house", "size": 0, "size_type": "net", "summary": "An individual detached bungalow with well presented accommodation i...", "thumb_height": 60, "thumb_url": "https://imgs.nestimg.com/medium/3_bedroom_bungalow_for_sale_111687584016096525.jpg", "thumb_width": 80, "title": "Winpenny Lane, Kingston St Mary, Taunton, Somerset, TA2", "updated_in_days": 7, "updated_in_days_formatted": "first seen last week"}, {"bathroom_number": "", "bedroom_number": 3, "car_spaces": 0, "commission": 0, "construction_year": 0, "datasource_name": "OnTheMarket.com", "img_height": 300, "img_url": "https://imgs.nestimg.com/3_bedroom_detached_house_for_sale_111699721253998546.jpg", "img_width": 400, "keywords": "Detached, Modern, Parking, Gas Central Heating", "latitude": 51.2553, "lister_url": "https://www.nestoria.co.uk/detail/0000000111699721253998546/title/5/4-12?serpUid=&pt=1&ot=1&l=somerset&did=105_high1&t_sec=9&t_or=45&t_pvid=null&utm_source=api&utm_medium=external", "listing_type": "buy", "location_accuracy": 9, "longitude": -3.00164, "price": 249950, "price_currency": "\u00a3", "price_formatted": "\u00a3249,950", "price_high": 249950, "price_low": 249950, "price_type": "fixed", "property_type": "house", "size": 0, "size_type": "net", "summary": "A modern 3 bedroom detached house with the benefit of gas central h...", "thumb_height": 60, "thumb_url": "https://imgs.nestimg.com/medium/3_bedroom_detached_house_for_sale_111699721253998546.jpg", "thumb_width": 80, "title": "Naish Road, Burnham-on-Sea, Somerset", "updated_in_days": 5, "updated_in_days_formatted": "first seen 5 days ago"}, {"bathroom_number": "", "bedroom_number": 3, "car_spaces": 0, "commission": 0, "construction_year": 0, "datasource_name": "OnTheMarket.com", "img_height": 300, "img_url": "https://imgs.nestimg.com/3_bedroom_terraced_house_for_sale_110394703918403632.jpg", "img_width": 400, "keywords": "Freehold, Garden, Terraced, Parking", "latitude": 50.9285, "lister_name": "Greenslade Taylor Hunt", "lister_url": "https://www.nestoria.co.uk/detail/0000000110394703918403632/title/5/4-13?serpUid=&pt=1&ot=1&l=somerset&did=105_high1&t_sec=9&t_or=45&t_pvid=null&utm_source=api&utm_medium=external", "listing_type": "buy", "location_accuracy": 9, "longitude": -2.90568, "price": 190000, "price_currency": "\u00a3", "price_formatted": "\u00a3190,000", "price_high": 190000, "price_low": 190000, "price_type": "fixed", "property_type": "house", "size": 0, "size_type": "net", "summary": "Set on the northern fringe of blackdown view adjoining dillington f...", "thumb_height": 60, "thumb_url": "https://imgs.nestimg.com/medium/3_bedroom_terraced_house_for_sale_110394703918403632.jpg", "thumb_width": 80, "title": "Blackdown View, Ilminster, Somerset, TA19", "updated_in_days": 5, "updated_in_days_formatted": "first seen 5 days ago"}, {"bathroom_number": "", "bedroom_number": 3, "car_spaces": 0, "commission": 0, "construction_year": 0, "datasource_name": "OnTheMarket.com", "img_height": 300, "img_url": "https://imgs.nestimg.com/3_bedroom_terraced_house_for_sale_111699718713395249.jpg", "img_width": 400, "keywords": "Terraced, Parking", "latitude": 51.2309, "lister_url": "https://www.nestoria.co.uk/detail/0000000111699718713395249/title/5/4-14?serpUid=&pt=1&ot=1&l=somerset&did=105_high1&t_sec=9&t_or=45&t_pvid=null&utm_source=api&utm_medium=external", "listing_type": "buy", "location_accuracy": 9, "longitude": -2.99012, "price": 285000, "price_currency": "\u00a3", "price_formatted": "\u00a3285,000", "price_high": 285000, "price_low": 285000, "price_type": "fixed", "property_type": "house", "size": 0, "size_type": "net", "summary": "A conveniently situated 3-4 bedroom terraced house, which has been ...", "thumb_height": 60, "thumb_url": "https://imgs.nestimg.com/medium/3_bedroom_terraced_house_for_sale_111699718713395249.jpg", "thumb_width": 80, "title": "Highbridge Road, Burnham-on-Sea, Somerset", "updated_in_days": 5, "updated_in_days_formatted": "first seen 5 days ago"}, {"bathroom_number": 4, "bedroom_number": 5, "car_spaces": 0, "commission": 0, "construction_year": 0, "datasource_name": "OnTheMarket.com", "img_height": 300, "img_url": "https://imgs.nestimg.com/5_bedroom_detached_house_for_sale_111563229828088608.jpg", "img_width": 400, "keywords": "Detached, Garden, Grade II, Garage, Reception, Georgian, Listed", "latitude": 51.1012, "lister_name": "Stags", "lister_url": "https://www.nestoria.co.uk/detail/0000000111563229828088608/title/5/4-15?serpUid=&pt=1&ot=1&l=somerset&did=105_high1&t_sec=9&t_or=45&t_pvid=null&utm_source=api&utm_medium=external", "listing_type": "buy", "location_accuracy": 9, "longitude": -3.02511, "price": 1500000, "price_currency": "\u00a3", "price_formatted": "\u00a31,500,000", "price_high": 1500000, "price_low": 1500000, "price_type": "fixed", "property_type": "house", "size": 0, "size_type": "net", "summary": "A ly presented grade ii listed georgian house with period features ...", "thumb_height": 60, "thumb_url": "https://imgs.nestimg.com/medium/5_bedroom_detached_house_for_sale_111563229828088608.jpg", "thumb_width": 80, "title": "Woolmersdon, North Petherton, Bridgwater, Somerset, TA5", "updated_in_days": 27, "updated_in_days_formatted": "first seen 3 weeks ago"}], "locations": [{"center_lat": 51.080967, "center_long": -3.045432, "long_title": "Somerset, county", "place_name": "somerset", "title": "Somerset"}], "page": 4, "sort": "nestoria_rank", "status_code": "200", "status_text": "OK", "thanks": "For using the Nestoria API.", "total_pages": 410, "total_results": 6149, "_cu5t0mP434m_": "remove"}}