{"request": {"country": "uk", "language": "en", "location": "somerset", "num_res": "15", "offset": 735, "output": "json_xs", "page": 50, "product_type": "realestate", "property_type": "property", "size_type": "net", "size_unit": "m2", "sort": "nestoria_rank", "listing_type": "buy"}, "response": {"application_response_code": "100", "application_response_text": "listings returned for one unambiguous location", "attribution": {"img_height": 22, "img_url": "https://resources.nestimg.com/nestoria/img/pbr_v1.png", "img_width": 183, "link_to_img": "http://www.nestoria.com"}, "created_http": "Tue, 18 Jun 2019 17:29:50 GMT", "created_unix": 1560878990, "link_to_url": "https://www.nestoria.co.uk/somerset/property/buy/50", "listings": [{"bathroom_number": "", "bedroom_number": 1, "car_spaces": 0, "commission": 0, "construction_year": 0, "datasource_name": "OnTheMarket.com", "img_height": 300, "img_url": "https://imgs.nestimg.com/1_bedroom_detached_house_for_sale_111346682210103417.jpg", "img_width": 400, "keywords": "Garden, Maisonette, Double Bedroom, Kitchen, Parking", "latitude": 51.1447, "lister_url": "https://www.nestoria.co.uk/detail/0000000111346682210103417/title/5/50-1?serpUid=&pt=1&ot=1&l=somerset&did=105_high1&t_sec=9&t_or=45&t_pvid=null&utm_source=api&utm_medium=external", "listing_type": "buy", "location_accuracy": 9, "longitude": -2.5055, "price": 105000, "price_currency": "\u00a3", "price_formatted": "\u00a3105,000", "price_high": 105000, "price_low": 105000, "price_type": "fixed", "property_type": "flat", "size": 0, "size_type": "net", "summary": "One bed maisonette flat, two parking spaces and garden located with...", "thumb_height": 60, "thumb_url": "https://imgs.nestimg.com/medium/1_bedroom_detached_house_for_sale_111346682210103417.jpg", "thumb_width": 80, "title": "Evercreech, SHEPTON MALLET, Somerset", "updated_in_days": 62, "updated_in_days_formatted": "first seen over a month ago"}, {"bathroom_number": "", "bedroom_number": "", "car_spaces": 0, "commission": 0, "construction_year": 0, "datasource_name": "OnTheMarket.com", "img_height": 300, "img_url": "https://imgs.nestimg.com/land_for_sale_111656085057034331.jpg", "img_width": 400, "keywords": "", "latitude": 50.9158, "lister_name": "Stags", "lister_url": "https://www.nestoria.co.uk/detail/0000000111656085057034331/title/5/50-2?serpUid=&pt=1&ot=1&l=somerset&did=105_high1&t_sec=9&t_or=45&t_pvid=null&utm_source=api&utm_medium=external", "listing_type": "buy", "location_accuracy": 9, "longitude": -2.70414, "price": 330000, "price_currency": "\u00a3", "price_formatted": "\u00a3330,000", "price_high": 330000, "price_low": 330000, "price_type": "fixed", "property_type": "land", "size": 0, "size_type": "net", "summary": "Agricultural grazing land, totalling approximately 24 acres", "thumb_height": 60, "thumb_url": "https://imgs.nestimg.com/medium/land_for_sale_111656085057034331.jpg", "thumb_width": 80, "title": "West Coker Hill, West Coker, West Coker, Somerset, BA22", "updated_in_days": 12, "updated_in_days_formatted": "first seen last week"}, {"bathroom_number": "", "bedroom_number": 0, "car_spaces": 0, "commission": 0, "construction_year": 0, "datasource_name": "OnTheMarket.com", "img_height": 300, "img_url": "https://imgs.nestimg.com/studio_for_sale_111569518173201846.jpg", "img_width": 400, "keywords": "Kitchen", "latitude": 51.0559, "lister_url": "https://www.nestoria.co.uk/detail/0000000111569518173201846/title/5/50-3?serpUid=&pt=1&ot=1&l=somerset&did=105_high1&t_sec=9&t_or=45&t_pvid=null&utm_source=api&utm_medium=external", "listing_type": "buy", "location_accuracy": 9, "longitude": -2.41201, "price": 60000, "price_currency": "\u00a3", "price_formatted": "\u00a360,000", "price_high": 60000, "price_low": 60000, "price_type": "fixed", "property_type": "flat", "size": 0, "size_type": "net", "summary": "A characterful studio flat situated in a sought after road within a...", "thumb_height": 60, "thumb_url": "https://imgs.nestimg.com/medium/studio_for_sale_111569518173201846.jpg", "thumb_width": 80, "title": "WINCANTON, SOMERSET BA9", "updated_in_days": 10, "updated_in_days_formatted": "first seen last week"}, {"bathroom_number": "", "bedroom_number": 4, "car_spaces": 0, "commission": 0, "construction_year": 0, "datasource_name": "OnTheMarket.com", "img_height": 300, "img_url": "https://imgs.nestimg.com/4_bedroom_detached_bungalow_for_sale_111440826791449098.jpg", "img_width": 400, "keywords": "Detached, Garden, En suite, Garage, Kitchen, Bungalow", "latitude": 51.2565, "lister_url": "https://www.nestoria.co.uk/detail/0000000111440826791449098/title/5/50-4?serpUid=&pt=1&ot=1&l=somerset&did=105_high1&t_sec=9&t_or=45&t_pvid=null&utm_source=api&utm_medium=external", "listing_type": "buy", "location_accuracy": 9, "longitude": -2.51091, "price": 475000, "price_currency": "\u00a3", "price_formatted": "\u00a3475,000", "price_high": 475000, "price_low": 475000, "price_type": "fixed", "property_type": "house", "size": 0, "size_type": "net", "summary": "Bungalow kitchen/breakfast room, separate utility, lounge with fren...", "thumb_height": 60, "thumb_url": "https://imgs.nestimg.com/medium/4_bedroom_detached_bungalow_for_sale_111440826791449098.jpg", "thumb_width": 80, "title": "STOCKHILL ROAD, CHILCOMPTON, SOMERSET BA3", "updated_in_days": 35, "updated_in_days_formatted": "first seen over a month ago"}, {"bathroom_number": "", "bedroom_number": 4, "car_spaces": 0, "commission": 0, "construction_year": 0, "datasource_name": "OnTheMarket.com", "img_height": 300, "img_url": "https://imgs.nestimg.com/4_bedroom_house_for_sale_110611087715097497.jpg", "img_width": 400, "keywords": "Detached, Conversion", "latitude": 51.2018, "lister_url": "https://www.nestoria.co.uk/detail/0000000110611087715097497/title/5/50-5?serpUid=&pt=1&ot=1&l=somerset&did=105_high1&t_sec=9&t_or=45&t_pvid=null&utm_source=api&utm_medium=external", "listing_type": "buy", "location_accuracy": 9, "longitude": -3.49658, "price": 479500, "price_currency": "\u00a3", "price_formatted": "\u00a3479,500", "price_high": 479500, "price_low": 479500, "price_type": "fixed", "property_type": "house", "size": 0, "size_type": "net", "summary": "An exciting and individual detached barn conversion residence situa...", "thumb_height": 60, "thumb_url": "https://imgs.nestimg.com/medium/4_bedroom_house_for_sale_110611087715097497.jpg", "thumb_width": 80, "title": "Periton Lane, Minehead, Somerset, TA24", "updated_in_days": 181, "updated_in_days_formatted": "first seen over a month ago"}, {"bathroom_number": "", "bedroom_number": 4, "car_spaces": 0, "commission": 0, "construction_year": 0, "datasource_name": "OnTheMarket.com", "img_height": 300, "img_url": "https://imgs.nestimg.com/4_bedroom_semi_detached_house_for_sale_111526292117861993.jpg", "img_width": 400, "keywords": "Garden, Semi-Detached, No Chain, Terraced, Swimming Pool", "latitude": 51.2059, "lister_name": "Stags", "lister_url": "https://www.nestoria.co.uk/detail/0000000111526292117861993/title/5/50-6?serpUid=&pt=1&ot=1&l=somerset&did=105_high1&t_sec=9&t_or=45&t_pvid=null&utm_source=api&utm_medium=external", "listing_type": "buy", "location_accuracy": 9, "longitude": -3.58919, "price": 795000, "price_currency": "\u00a3", "price_formatted": "\u00a3795,000", "price_high": 795000, "price_low": 795000, "price_type": "fixed", "property_type": "house", "size": 0, "size_type": "net", "summary": "A 4 bedroom country residence with land, stables and access to moor...", "thumb_height": 60, "thumb_url": "https://imgs.nestimg.com/medium/4_bedroom_semi_detached_house_for_sale_111526292117861993.jpg", "thumb_width": 80, "title": "Hacketty Way, Porlock, Minehead, Somerset, TA24", "updated_in_days": 33, "updated_in_days_formatted": "first seen over a month ago"}, {"bathroom_number": "", "bedroom_number": "", "car_spaces": 0, "commission": 0, "construction_year": 0, "datasource_name": "OnTheMarket.com", "img_height": 300, "img_url": "https://imgs.nestimg.com/land_for_sale_111402759214322610.jpg", "img_width": 400, "keywords": "", "latitude": 51.1033, "lister_name": "Stags", "lister_url": "https://www.nestoria.co.uk/detail/0000000111402759214322610/title/5/50-7?serpUid=&pt=1&ot=1&l=somerset&did=105_high1&t_sec=9&t_or=45&t_pvid=null&utm_source=api&utm_medium=external", "listing_type": "buy", "location_accuracy": 9, "longitude": -3.40745, "price": 55000, "price_currency": "\u00a3", "price_formatted": "\u00a355,000", "price_high": 55000, "price_low": 55000, "price_type": "fixed", "property_type": "land", "size": 0, "size_type": "net", "summary": "3.55 acres of pasture land with direct road access and a field shel...", "thumb_height": 60, "thumb_url": "https://imgs.nestimg.com/medium/land_for_sale_111402759214322610.jpg", "thumb_width": 80, "title": "Brendon Hill, Watchet, Somerset, TA23", "updated_in_days": 53, "updated_in_days_formatted": "first seen over a month ago"}, {"bathroom_number": "", "bedroom_number": 2, "car_spaces": 0, "commission": 0, "construction_year": 0, "datasource_name": "OnTheMarket.com", "img_height": 300, "img_url": "https://imgs.nestimg.com/2_bedroom_apartment_for_sale_111211247207071048.jpg", "img_width": 400, "keywords": "Garden, Kitchen, Gas Central Heating", "latitude": 51.1119, "lister_url": "https://www.nestoria.co.uk/detail/0000000111211247207071048/title/5/50-8?serpUid=&pt=1&ot=1&l=somerset&did=105_high1&t_sec=9&t_or=45&t_pvid=null&utm_source=api&utm_medium=external", "listing_type": "buy", "location_accuracy": 9, "longitude": -2.4573, "price": 230000, "price_currency": "\u00a3", "price_formatted": "\u00a3230,000", "price_high": 230000, "price_low": 230000, "price_type": "fixed", "property_type": "flat", "size": 0, "size_type": "net", "summary": "A rare opportunity to purchase a two bedroom characterfulapartment ...", "thumb_height": 60, "thumb_url": "https://imgs.nestimg.com/medium/2_bedroom_apartment_for_sale_111211247207071048.jpg", "thumb_width": 80, "title": "BRUTON, Somerset BA10 - Garden", "updated_in_days": 26, "updated_in_days_formatted": "first seen 3 weeks ago"}, {"bathroom_number": "", "bedroom_number": 4, "car_spaces": 0, "commission": 0, "construction_year": 0, "datasource_name": "OnTheMarket.com", "img_height": 300, "img_url": "https://imgs.nestimg.com/4_bedroom_detached_house_for_sale_111223321055653988.jpg", "img_width": 400, "keywords": "Detached, Garden, Fireplace, High Ceilings, Garage, Kitchen", "latitude": 51.0569, "lister_url": "https://www.nestoria.co.uk/detail/0000000111223321055653988/title/5/50-9?serpUid=&pt=1&ot=1&l=somerset&did=105_high1&t_sec=9&t_or=45&t_pvid=null&utm_source=api&utm_medium=external", "listing_type": "buy", "location_accuracy": 9, "longitude": -2.41217, "price": 340000, "price_currency": "\u00a3", "price_formatted": "\u00a3340,000", "price_high": 340000, "price_low": 340000, "price_type": "fixed", "property_type": "house", "size": 0, "size_type": "net", "summary": "A and individual period property situated within easy reach of the ...", "thumb_height": 60, "thumb_url": "https://imgs.nestimg.com/medium/4_bedroom_detached_house_for_sale_111223321055653988.jpg", "thumb_width": 80, "title": "Wincanton, Somerset, BA9 - Fireplace", "updated_in_days": 30, "updated_in_days_formatted": "first seen over a month ago"}, {"bathroom_number": "", "bedroom_number": 6, "car_spaces": 0, "commission": 0, "construction_year": 0, "datasource_name": "OnTheMarket.com", "img_height": 300, "img_url": "https://imgs.nestimg.com/6_bedroom_detached_house_for_sale_111581692865912829.jpg", "img_width": 400, "keywords": "Detached, Garden", "latitude": 51.2337, "lister_name": "Crisp Cowley", "lister_url": "https://www.nestoria.co.uk/detail/0000000111581692865912829/title/5/50-10?serpUid=&pt=1&ot=1&l=somerset&did=105_high1&t_sec=9&t_or=45&t_pvid=null&utm_source=api&utm_medium=external", "listing_type": "buy", "location_accuracy": 9, "longitude": -2.5349, "price": 1950000, "price_currency": "\u00a3", "price_formatted": "\u00a31,950,000", "price_high": 1950000, "price_low": 1950000, "price_type": "fixed", "property_type": "house", "size": 0, "size_type": "net", "summary": "A 19th century former farmhouse, set within gardens and grounds and...", "thumb_height": 60, "thumb_url": "https://imgs.nestimg.com/medium/6_bedroom_detached_house_for_sale_111581692865912829.jpg", "thumb_width": 80, "title": "Ashwick, Oakhill, Somerset, BA3", "updated_in_days": 24, "updated_in_days_formatted": "first seen 3 weeks ago"}, {"bathroom_number": "", "bedroom_number": 1, "car_spaces": 0, "commission": 0, "construction_year": 0, "datasource_name": "OnTheMarket.com", "img_height": 300, "img_url": "https://imgs.nestimg.com/1_bedroom_apartment_for_sale_111569523591067949.jpg", "img_width": 400, "keywords": "Freehold", "latitude": 51.2087, "lister_url": "https://www.nestoria.co.uk/detail/0000000111569523591067949/title/5/50-11?serpUid=&pt=1&ot=1&l=somerset&did=105_high1&t_sec=9&t_or=45&t_pvid=null&utm_source=api&utm_medium=external", "listing_type": "buy", "location_accuracy": 9, "longitude": -3.59715, "price": 145000, "price_currency": "\u00a3", "price_formatted": "\u00a3145,000", "price_high": 145000, "price_low": 145000, "price_type": "fixed", "property_type": "flat", "size": 0, "size_type": "net", "summary": "Flat with shop premises an opportunity to acquire freehold investme...", "thumb_height": 60, "thumb_url": "https://imgs.nestimg.com/medium/1_bedroom_apartment_for_sale_111569523591067949.jpg", "thumb_width": 80, "title": "The Bagatelle, High Street, Porlock, Somerset, TA24", "updated_in_days": 13, "updated_in_days_formatted": "first seen last week"}, {"bathroom_number": "", "bedroom_number": 4, "car_spaces": 0, "commission": 0, "construction_year": 0, "datasource_name": "OnTheMarket.com", "img_height": 300, "img_url": "https://imgs.nestimg.com/4_bedroom_manor_house_for_sale_111445541109442144.jpg", "img_width": 400, "keywords": "Detached, Bungalow, Georgian, Listed", "latitude": 51.106, "lister_name": "Cooper & Tanner", "lister_url": "https://www.nestoria.co.uk/detail/0000000111445541109442144/title/5/50-12?serpUid=&pt=1&ot=1&l=somerset&did=105_high1&t_sec=9&t_or=45&t_pvid=null&utm_source=api&utm_medium=external", "listing_type": "buy", "location_accuracy": 9, "longitude": -2.48934, "price": 1450000, "price_currency": "\u00a3", "price_formatted": "\u00a31,450,000", "price_high": 1450000, "price_low": 1450000, "price_type": "fixed", "property_type": "house", "size": 0, "size_type": "net", "summary": "Grade listed ii georgian farmhouse in an enviable location close to...", "thumb_height": 60, "thumb_url": "https://imgs.nestimg.com/medium/4_bedroom_manor_house_for_sale_111445541109442144.jpg", "thumb_width": 80, "title": "Bruton, Somerset - Listed, Georgian", "updated_in_days": 46, "updated_in_days_formatted": "first seen over a month ago"}, {"bathroom_number": "", "bedroom_number": 3, "car_spaces": 0, "commission": 0, "construction_year": 0, "datasource_name": "OnTheMarket.com", "img_height": 300, "img_url": "https://imgs.nestimg.com/3_bedroom_detached_house_for_sale_111569522461494235.jpg", "img_width": 400, "keywords": "Detached, Garden, Off Street Parking", "latitude": 51.2315, "lister_name": "Carter Jonas", "lister_url": "https://www.nestoria.co.uk/detail/0000000111569522461494235/title/5/50-13?serpUid=&pt=1&ot=1&l=somerset&did=105_high1&t_sec=9&t_or=45&t_pvid=null&utm_source=api&utm_medium=external", "listing_type": "buy", "location_accuracy": 9, "longitude": -2.51714, "price": 450000, "price_currency": "\u00a3", "price_formatted": "\u00a3450,000", "price_high": 450000, "price_low": 450000, "price_type": "fixed", "property_type": "house", "size": 0, "size_type": "net", "summary": "A detached single storey property with a enclosed south facing gard...", "thumb_height": 60, "thumb_url": "https://imgs.nestimg.com/medium/3_bedroom_detached_house_for_sale_111569522461494235.jpg", "thumb_width": 80, "title": "Pound Lane, Oakhill, Radstock, Somerset, BA3", "updated_in_days": 26, "updated_in_days_formatted": "first seen 3 weeks ago"}, {"bathroom_number": "", "bedroom_number": 4, "car_spaces": 0, "commission": 0, "construction_year": 0, "datasource_name": "OnTheMarket.com", "img_height": 300, "img_url": "https://imgs.nestimg.com/4_bedroom_detached_house_for_sale_111594151150658956.jpg", "img_width": 400, "keywords": "Detached", "latitude": 51.1634, "lister_name": "Greenslade Taylor Hunt", "lister_url": "https://www.nestoria.co.uk/detail/0000000111594151150658956/title/5/50-14?serpUid=&pt=1&ot=1&l=somerset&did=105_high1&t_sec=9&t_or=45&t_pvid=null&utm_source=api&utm_medium=external", "listing_type": "buy", "location_accuracy": 9, "longitude": -2.5227, "price": 650000, "price_currency": "\u00a3", "price_formatted": "\u00a3650,000", "price_high": 650000, "price_low": 650000, "price_type": "fixed", "property_type": "house", "size": 0, "size_type": "net", "summary": "A three bedroom detached property with linked one bedroom annexe. I...", "thumb_height": 60, "thumb_url": "https://imgs.nestimg.com/medium/4_bedroom_detached_house_for_sale_111594151150658956.jpg", "thumb_width": 80, "title": "Prestleigh Lane, Prestleigh, Shepton Mallet, Somerset, BA4", "updated_in_days": 22, "updated_in_days_formatted": "first seen 3 weeks ago"}, {"bathroom_number": "", "bedroom_number": 3, "car_spaces": 0, "commission": 0, "construction_year": 0, "datasource_name": "OnTheMarket.com", "img_height": 300, "img_url": "https://imgs.nestimg.com/3_bedroom_detached_bungalow_for_sale_111587816910817145.jpg", "img_width": 400, "keywords": "Detached, Freehold, Bungalow, Modern", "latitude": 51.2098, "lister_url": "https://www.nestoria.co.uk/detail/0000000111587816910817145/title/5/50-15?serpUid=&pt=1&ot=1&l=somerset&did=105_high1&t_sec=9&t_or=45&t_pvid=null&utm_source=api&utm_medium=external", "listing_type": "buy", "location_accuracy": 9, "longitude": -3.5937, "price": 339500, "price_currency": "\u00a3", "price_formatted": "\u00a3339,500", "price_high": 339500, "price_low": 339500, "price_type": "fixed", "property_type": "house", "size": 0, "size_type": "net", "summary": "An individual modern three bedroom detached bungalow situated in a ...", "thumb_height": 60, "thumb_url": "https://imgs.nestimg.com/medium/3_bedroom_detached_bungalow_for_sale_111587816910817145.jpg", "thumb_width": 80, "title": "Englands Road, Porlock, Minehead, Somerset, TA24", "updated_in_days": 23, "updated_in_days_formatted": "first seen 3 weeks ago"}], "locations": [{"center_lat": 51.080967, "center_long": -3.045432, "long_title": "Somerset, county", "place_name": "somerset", "title": "Somerset"}], "page": 50, "sort": "nestoria_rank", "status_code": "200", "status_text": "OK", "thanks": "For using the Nestoria API.", "total_pages": 410, "total_results": 6149, "_cu5t0mP434m_": "remove"}}