{"request": {"country": "uk", "language": "en", "location": "somerset", "num_res": "15", "offset": 750, "output": "json_xs", "page": 51, "product_type": "realestate", "property_type": "property", "size_type": "net", "size_unit": "m2", "sort": "nestoria_rank", "listing_type": "buy"}, "response": {"application_response_code": "100", "application_response_text": "listings returned for one unambiguous location", "attribution": {"img_height": 22, "img_url": "https://resources.nestimg.com/nestoria/img/pbr_v1.png", "img_width": 183, "link_to_img": "http://www.nestoria.com"}, "created_http": "Tue, 18 Jun 2019 17:29:51 GMT", "created_unix": 1560878991, "link_to_url": "https://www.nestoria.co.uk/somerset/property/buy/51", "listings": [{"bathroom_number": "", "bedroom_number": 2, "car_spaces": 0, "commission": 0, "construction_year": 0, "datasource_name": "OnTheMarket.com", "img_height": 300, "img_url": "https://imgs.nestimg.com/2_bedroom_maisonette_for_sale_111575817235644518.jpg", "img_width": 400, "keywords": "Shared Garden, Grade II, Maisonette, Georgian, Listed", "latitude": 51.09619, "lister_name": "Knight Frank", "lister_url": "https://www.nestoria.co.uk/detail/0000000111575817235644518/title/5/51-1?serpUid=&pt=1&ot=1&l=somerset&did=105_high1&t_sec=9&t_or=45&t_pvid=null&utm_source=api&utm_medium=external", "listing_type": "buy", "location_accuracy": 9, "longitude": -2.429416, "price": 495000, "price_currency": "\u00a3", "price_formatted": "\u00a3495,000", "price_high": 495000, "price_low": 495000, "price_type": "fixed", "property_type": "flat", "size": 0, "size_type": "net", "summary": "An apartment within a grade ii listed country house in ba10 redlync...", "thumb_height": 60, "thumb_url": "https://imgs.nestimg.com/medium/2_bedroom_maisonette_for_sale_111575817235644518.jpg", "thumb_width": 80, "title": "Redlynch Park, Redlynch, Bruton, Somerset, BA10", "updated_in_days": 25, "updated_in_days_formatted": "first seen 3 weeks ago"}, {"bathroom_number": "", "bedroom_number": 6, "car_spaces": 0, "commission": 0, "construction_year": 0, "datasource_name": "OnTheMarket.com", "img_height": 300, "img_url": "https://imgs.nestimg.com/6_bedroom_detached_house_for_sale_111581693041578738.jpg", "img_width": 400, "keywords": "Detached, Grade II, Modern, Listed", "latitude": 51.30972, "lister_name": "Knight Frank", "lister_url": "https://www.nestoria.co.uk/detail/0000000111581693041578738/title/5/51-2?serpUid=&pt=1&ot=1&l=somerset&did=105_high1&t_sec=9&t_or=45&t_pvid=null&utm_source=api&utm_medium=external", "listing_type": "buy", "location_accuracy": 9, "longitude": -2.583673, "price": 1500000, "price_currency": "\u00a3", "price_formatted": "\u00a31,500,000", "price_high": 1500000, "price_low": 1500000, "price_type": "fixed", "property_type": "house", "size": 0, "size_type": "net", "summary": "Grade ii listed old rectory with views and modern garaging bs39. Wi...", "thumb_height": 60, "thumb_url": "https://imgs.nestimg.com/medium/6_bedroom_detached_house_for_sale_111581693041578738.jpg", "thumb_width": 80, "title": "Hinton Blewett, Bristol, Somerset, BS39", "updated_in_days": 24, "updated_in_days_formatted": "first seen 3 weeks ago"}, {"bathroom_number": "", "bedroom_number": 2, "car_spaces": 0, "commission": 0, "construction_year": 0, "datasource_name": "OnTheMarket.com", "img_height": 300, "img_url": "https://imgs.nestimg.com/2_bedroom_detached_bungalow_for_sale_111186364646618884.jpg", "img_width": 400, "keywords": "Detached, Garden, Garage, Kitchen, Bungalow, Modern", "latitude": 51.0408, "lister_url": "https://www.nestoria.co.uk/detail/0000000111186364646618884/title/5/51-3?serpUid=&pt=1&ot=1&l=somerset&did=105_high1&t_sec=9&t_or=45&t_pvid=null&utm_source=api&utm_medium=external", "listing_type": "buy", "location_accuracy": 9, "longitude": -2.45121, "price": 325000, "price_currency": "\u00a3", "price_formatted": "\u00a3325,000", "price_high": 325000, "price_low": 325000, "price_type": "fixed", "property_type": "house", "size": 0, "size_type": "net", "summary": "A two bedroom detached bungalow set on an elevated corner plot with...", "thumb_height": 60, "thumb_url": "https://imgs.nestimg.com/medium/2_bedroom_detached_bungalow_for_sale_111186364646618884.jpg", "thumb_width": 80, "title": "Holton, Somerset BA9 - Bungalow", "updated_in_days": 88, "updated_in_days_formatted": "first seen over a month ago"}, {"bathroom_number": "", "bedroom_number": 4, "car_spaces": 0, "commission": 0, "construction_year": 0, "datasource_name": "OnTheMarket.com", "img_height": 300, "img_url": "https://imgs.nestimg.com/4_bedroom_house_for_sale_110709912388217766.jpg", "img_width": 400, "keywords": "", "latitude": 51.1985, "lister_url": "https://www.nestoria.co.uk/detail/0000000110709912388217766/title/5/51-4?serpUid=&pt=1&ot=1&l=somerset&did=105_high1&t_sec=9&t_or=45&t_pvid=null&utm_source=api&utm_medium=external", "listing_type": "buy", "location_accuracy": 9, "longitude": -3.47927, "price": 540000, "price_currency": "\u00a3", "price_formatted": "\u00a3540,000", "price_high": 540000, "price_low": 540000, "price_type": "fixed", "property_type": "house", "size": 0, "size_type": "net", "summary": "An interesting and unique well maintained individual residence of c...", "thumb_height": 60, "thumb_url": "https://imgs.nestimg.com/medium/4_bedroom_house_for_sale_110709912388217766.jpg", "thumb_width": 80, "title": "Hopcott Road, Minehead, Somerset, TA24", "updated_in_days": 165, "updated_in_days_formatted": "first seen over a month ago"}, {"bathroom_number": "", "bedroom_number": 4, "car_spaces": 0, "commission": 0, "construction_year": 0, "datasource_name": "OnTheMarket.com", "img_height": 300, "img_url": "https://imgs.nestimg.com/4_bedroom_detached_house_for_sale_110926357293447798.jpg", "img_width": 400, "keywords": "Detached, Needs Modernisation, Grade II, Cottage, Listed", "latitude": 51.113, "lister_url": "https://www.nestoria.co.uk/detail/0000000110926357293447798/title/5/51-5?serpUid=&pt=1&ot=1&l=somerset&did=105_high1&t_sec=9&t_or=45&t_pvid=null&utm_source=api&utm_medium=external", "listing_type": "buy", "location_accuracy": 9, "longitude": -2.45234, "price": 1050000, "price_currency": "\u00a3", "price_formatted": "\u00a31,050,000", "price_high": 1050000, "price_low": 1050000, "price_type": "fixed", "property_type": "house", "size": 0, "size_type": "net", "summary": "A double fronted period property situated within a short walk of th...", "thumb_height": 60, "thumb_url": "https://imgs.nestimg.com/medium/4_bedroom_detached_house_for_sale_110926357293447798.jpg", "thumb_width": 80, "title": "Bruton, Somerset, BA10 - Grade II", "updated_in_days": 130, "updated_in_days_formatted": "first seen over a month ago"}, {"bathroom_number": "", "bedroom_number": 3, "car_spaces": 0, "commission": 0, "construction_year": 0, "datasource_name": "OnTheMarket.com", "img_height": 300, "img_url": "https://imgs.nestimg.com/3_bedroom_detached_house_for_sale_111359018632601278.jpg", "img_width": 400, "keywords": "Detached, Cottage", "latitude": 51.30436, "lister_name": "Knight Frank", "lister_url": "https://www.nestoria.co.uk/detail/0000000111359018632601278/title/5/51-6?serpUid=&pt=1&ot=1&l=somerset&did=105_high1&t_sec=9&t_or=45&t_pvid=null&utm_source=api&utm_medium=external", "listing_type": "buy", "location_accuracy": 9, "longitude": -2.655611, "price": 550000, "price_currency": "\u00a3", "price_formatted": "\u00a3550,000", "price_high": 550000, "price_low": 550000, "price_type": "fixed", "property_type": "house", "size": 0, "size_type": "net", "summary": "3 bedroom detached house for sale near compton martin. Cottage, wit...", "thumb_height": 60, "thumb_url": "https://imgs.nestimg.com/medium/3_bedroom_detached_house_for_sale_111359018632601278.jpg", "thumb_width": 80, "title": "The Wrangle, Compton Martin, Bristol, North Somerset, BS40", "updated_in_days": 60, "updated_in_days_formatted": "first seen over a month ago"}, {"bathroom_number": "", "bedroom_number": 4, "car_spaces": 0, "commission": 0, "construction_year": 0, "datasource_name": "OnTheMarket.com", "img_height": 300, "img_url": "https://imgs.nestimg.com/4_bedroom_equestrian_facility_for_sale_110629428773638123.jpg", "img_width": 400, "keywords": "", "latitude": 51.1727, "lister_name": "Stags", "lister_url": "https://www.nestoria.co.uk/detail/0000000110629428773638123/title/5/51-7?serpUid=&pt=1&ot=1&l=somerset&did=105_high1&t_sec=9&t_or=45&t_pvid=null&utm_source=api&utm_medium=external", "listing_type": "buy", "location_accuracy": 9, "longitude": -3.48477, "price": 765000, "price_currency": "\u00a3", "price_formatted": "\u00a3765,000", "price_high": 765000, "price_low": 765000, "price_type": "fixed", "property_type": "property", "size": 0, "size_type": "net", "summary": "A character property enjoying views with pasture and woodland. In a...", "thumb_height": 60, "thumb_url": "https://imgs.nestimg.com/medium/4_bedroom_equestrian_facility_for_sale_110629428773638123.jpg", "thumb_width": 80, "title": "Timberscombe, Exmoor, Somerset, TA24", "updated_in_days": 178, "updated_in_days_formatted": "first seen over a month ago"}, {"bathroom_number": "", "bedroom_number": 2, "car_spaces": 0, "commission": 0, "construction_year": 0, "datasource_name": "OnTheMarket.com", "img_height": 300, "img_url": "https://imgs.nestimg.com/2_bedroom_semi_detached_house_for_sale_111130814208027371.jpg", "img_width": 400, "keywords": "Garden, Semi-Detached, Fireplace, Kitchen, Modern, Cottage", "latitude": 51.0538, "lister_url": "https://www.nestoria.co.uk/detail/0000000111130814208027371/title/5/51-8?serpUid=&pt=1&ot=1&l=somerset&did=105_high1&t_sec=9&t_or=45&t_pvid=null&utm_source=api&utm_medium=external", "listing_type": "buy", "location_accuracy": 9, "longitude": -2.41003, "price": 187000, "price_currency": "\u00a3", "price_formatted": "\u00a3187,000", "price_high": 187000, "price_low": 187000, "price_type": "fixed", "property_type": "house", "size": 0, "size_type": "net", "summary": "A most semi-detached period cottage tucked away in an enviable posi...", "thumb_height": 60, "thumb_url": "https://imgs.nestimg.com/medium/2_bedroom_semi_detached_house_for_sale_111130814208027371.jpg", "thumb_width": 80, "title": "Wincanton, Somerset, BA9 - Cottage", "updated_in_days": 97, "updated_in_days_formatted": "first seen over a month ago"}, {"bathroom_number": "", "bedroom_number": 4, "car_spaces": 0, "commission": 0, "construction_year": 0, "datasource_name": "OnTheMarket.com", "img_height": 300, "img_url": "https://imgs.nestimg.com/4_bedroom_chalet_for_sale_110530573138210673.jpg", "img_width": 400, "keywords": "Detached, Garden, Kitchen, Bungalow, Parking, Gas Central Heating", "latitude": 51.0569, "lister_url": "https://www.nestoria.co.uk/detail/0000000110530573138210673/title/5/51-9?serpUid=&pt=1&ot=1&l=somerset&did=105_high1&t_sec=9&t_or=45&t_pvid=null&utm_source=api&utm_medium=external", "listing_type": "buy", "location_accuracy": 9, "longitude": -2.42426, "price": 390000, "price_currency": "\u00a3", "price_formatted": "\u00a3390,000", "price_high": 390000, "price_low": 390000, "price_type": "fixed", "property_type": "house", "size": 0, "size_type": "net", "summary": "A four bedroom detached chalet bungalow situated in a residential r...", "thumb_height": 60, "thumb_url": "https://imgs.nestimg.com/medium/4_bedroom_chalet_for_sale_110530573138210673.jpg", "thumb_width": 80, "title": "Wincanton, Somerset, BA9 - Garden", "updated_in_days": 130, "updated_in_days_formatted": "first seen over a month ago"}, {"bathroom_number": "", "bedroom_number": 2, "car_spaces": 0, "commission": 0, "construction_year": 0, "datasource_name": "OnTheMarket.com", "img_height": 300, "img_url": "https://imgs.nestimg.com/2_bedroom_terraced_house_for_sale_111440827583661488.jpg", "img_width": 400, "keywords": "Garden, Terraced, Kitchen, Parking, Gas Central Heating", "latitude": 51.0574, "lister_url": "https://www.nestoria.co.uk/detail/0000000111440827583661488/title/5/51-10?serpUid=&pt=1&ot=1&l=somerset&did=105_high1&t_sec=9&t_or=45&t_pvid=null&utm_source=api&utm_medium=external", "listing_type": "buy", "location_accuracy": 9, "longitude": -2.42155, "price": 180000, "price_currency": "\u00a3", "price_formatted": "\u00a3180,000", "price_high": 180000, "price_low": 180000, "price_type": "fixed", "property_type": "house", "size": 0, "size_type": "net", "summary": "An two bedroom terrace house situated on a small sought after resid...", "thumb_height": 60, "thumb_url": "https://imgs.nestimg.com/medium/2_bedroom_terraced_house_for_sale_111440827583661488.jpg", "thumb_width": 80, "title": "Wincanton, Somerset, BA9 - Garden", "updated_in_days": 47, "updated_in_days_formatted": "first seen over a month ago"}, {"bathroom_number": "", "bedroom_number": 5, "car_spaces": 0, "commission": 0, "construction_year": 0, "datasource_name": "OnTheMarket.com", "img_height": 300, "img_url": "https://imgs.nestimg.com/5_bedroom_detached_house_for_sale_111340375086922670.jpg", "img_width": 400, "keywords": "Detached", "latitude": 51.1883, "lister_url": "https://www.nestoria.co.uk/detail/0000000111340375086922670/title/5/51-11?serpUid=&pt=1&ot=1&l=somerset&did=105_high1&t_sec=9&t_or=45&t_pvid=null&utm_source=api&utm_medium=external", "listing_type": "buy", "location_accuracy": 9, "longitude": -2.54031, "price": 700000, "price_currency": "\u00a3", "price_formatted": "\u00a3700,000", "price_high": 700000, "price_low": 700000, "price_type": "fixed", "property_type": "house", "size": 0, "size_type": "net", "summary": "A ly presented four bedroom detached property in the heart of the s...", "thumb_height": 60, "thumb_url": "https://imgs.nestimg.com/medium/5_bedroom_detached_house_for_sale_111340375086922670.jpg", "thumb_width": 80, "title": "SHEPTON MALLET, Somerset - Detached", "updated_in_days": 63, "updated_in_days_formatted": "first seen over a month ago"}, {"bathroom_number": "", "bedroom_number": 2, "car_spaces": 0, "commission": 0, "construction_year": 0, "datasource_name": "OnTheMarket.com", "img_height": 300, "img_url": "https://imgs.nestimg.com/2_bedroom_detached_bungalow_for_sale_110908092447774388.jpg", "img_width": 400, "keywords": "Detached, Garden, Detached Garage, Double Bedroom, Kitchen, Bungalow, Cul-de-Sac, Gas Central Heating", "latitude": 51.0502, "lister_url": "https://www.nestoria.co.uk/detail/0000000110908092447774388/title/5/51-12?serpUid=&pt=1&ot=1&l=somerset&did=105_high1&t_sec=9&t_or=45&t_pvid=null&utm_source=api&utm_medium=external", "listing_type": "buy", "location_accuracy": 9, "longitude": -2.40773, "price": 220000, "price_currency": "\u00a3", "price_formatted": "\u00a3220,000", "price_high": 220000, "price_low": 220000, "price_type": "fixed", "property_type": "house", "size": 0, "size_type": "net", "summary": "A two bedroom detached bungalow situated at the end of a cul-de-sac...", "thumb_height": 60, "thumb_url": "https://imgs.nestimg.com/medium/2_bedroom_detached_bungalow_for_sale_110908092447774388.jpg", "thumb_width": 80, "title": "Wincanton, Somerset, BA9 - Detached", "updated_in_days": 133, "updated_in_days_formatted": "first seen over a month ago"}, {"bathroom_number": "", "bedroom_number": 7, "car_spaces": 0, "commission": 0, "construction_year": 0, "datasource_name": "OnTheMarket.com", "img_height": 300, "img_url": "https://imgs.nestimg.com/7_bedroom_detached_house_for_sale_111532302532612859.jpg", "img_width": 400, "keywords": "Detached, Cottage", "latitude": 51.06302, "lister_name": "Knight Frank", "lister_url": "https://www.nestoria.co.uk/detail/0000000111532302532612859/title/5/51-13?serpUid=&pt=1&ot=1&l=somerset&did=105_high1&t_sec=9&t_or=45&t_pvid=null&utm_source=api&utm_medium=external", "listing_type": "buy", "location_accuracy": 9, "longitude": -2.468933, "price": 1800000, "price_currency": "\u00a3", "price_formatted": "\u00a31,800,000", "price_high": 1800000, "price_low": 1800000, "price_type": "fixed", "property_type": "house", "size": 0, "size_type": "net", "summary": "An , partially built country house and guest cottage with views det...", "thumb_height": 60, "thumb_url": "https://imgs.nestimg.com/medium/7_bedroom_detached_house_for_sale_111532302532612859.jpg", "thumb_width": 80, "title": "Bratton Seymour, Wincanton, Somerset, BA9", "updated_in_days": 32, "updated_in_days_formatted": "first seen over a month ago"}, {"bathroom_number": "", "bedroom_number": 4, "car_spaces": 0, "commission": 0, "construction_year": 0, "datasource_name": "OnTheMarket.com", "img_height": 300, "img_url": "https://imgs.nestimg.com/4_bedroom_house_for_sale_111643774025895085.jpg", "img_width": 400, "keywords": "Detached, Garden, Kitchen", "latitude": 51.2321, "lister_url": "https://www.nestoria.co.uk/detail/0000000111643774025895085/title/5/51-14?serpUid=&pt=1&ot=1&l=somerset&did=105_high1&t_sec=9&t_or=45&t_pvid=null&utm_source=api&utm_medium=external", "listing_type": "buy", "location_accuracy": 9, "longitude": -2.46405, "price": 849950, "price_currency": "\u00a3", "price_formatted": "\u00a3849,950", "price_high": 849950, "price_low": 849950, "price_type": "fixed", "property_type": "house", "size": 0, "size_type": "net", "summary": "Light, four bedroom detached family home set in an acre with open p...", "thumb_height": 60, "thumb_url": "https://imgs.nestimg.com/medium/4_bedroom_house_for_sale_111643774025895085.jpg", "thumb_width": 80, "title": "Whitehole Hill, Leigh upon Mendip, Somerset, BA3", "updated_in_days": 13, "updated_in_days_formatted": "first seen last week"}, {"bathroom_number": "", "bedroom_number": 3, "car_spaces": 0, "commission": 0, "construction_year": 0, "datasource_name": "OnTheMarket.com", "img_height": 300, "img_url": "https://imgs.nestimg.com/2_bedroom_townhouse_for_sale_110778424827361259.jpg", "img_width": 400, "keywords": "Garden, En suite, Kitchen, Modern, Parking, Gas Central Heating", "latitude": 51.0542, "lister_url": "https://www.nestoria.co.uk/detail/0000000110778424827361259/title/5/51-15?serpUid=&pt=1&ot=1&l=somerset&did=105_high1&t_sec=9&t_or=45&t_pvid=null&utm_source=api&utm_medium=external", "listing_type": "buy", "location_accuracy": 9, "longitude": -2.41355, "price": 189950, "price_currency": "\u00a3", "price_formatted": "\u00a3189,950", "price_high": 189950, "price_low": 189950, "price_type": "fixed", "property_type": "house", "size": 0, "size_type": "net", "summary": "An three bedroom town house situated on a small development within ...", "thumb_height": 60, "thumb_url": "https://imgs.nestimg.com/medium/2_bedroom_townhouse_for_sale_110778424827361259.jpg", "thumb_width": 80, "title": "Wincanton, Somerset, BA9 - En Suite", "updated_in_days": 44, "updated_in_days_formatted": "first seen over a month ago"}], "locations": [{"center_lat": 51.080967, "center_long": -3.045432, "long_title": "Somerset, county", "place_name": "somerset", "title": "Somerset"}], "page": 51, "sort": "nestoria_rank", "status_code": "200", "status_text": "OK", "thanks": "For using the Nestoria API.", "total_pages": 410, "total_results": 6149, "_cu5t0mP434m_": "remove"}}