{"request": {"country": "uk", "language": "en", "location": "somerset", "num_res": "15", "offset": 765, "output": "json_xs", "page": 52, "product_type": "realestate", "property_type": "property", "size_type": "net", "size_unit": "m2", "sort": "nestoria_rank", "listing_type": "buy"}, "response": {"application_response_code": "100", "application_response_text": "listings returned for one unambiguous location", "attribution": {"img_height": 22, "img_url": "https://resources.nestimg.com/nestoria/img/pbr_v1.png", "img_width": 183, "link_to_img": "http://www.nestoria.com"}, "created_http": "Tue, 18 Jun 2019 17:29:52 GMT", "created_unix": 1560878992, "link_to_url": "https://www.nestoria.co.uk/somerset/property/buy/52", "listings": [{"bathroom_number": "", "bedroom_number": 2, "car_spaces": 0, "commission": 0, "construction_year": 0, "datasource_name": "OnTheMarket.com", "img_height": 300, "img_url": "https://imgs.nestimg.com/2_bedroom_flat_for_sale_110951116014113052.jpg", "img_width": 400, "keywords": "En suite", "latitude": 51.1808, "lister_url": "https://www.nestoria.co.uk/detail/0000000110951116014113052/title/5/52-1?serpUid=&pt=1&ot=1&l=somerset&did=105_high1&t_sec=9&t_or=45&t_pvid=null&utm_source=api&utm_medium=external", "listing_type": "buy", "location_accuracy": 9, "longitude": -2.53759, "price": 139999, "price_currency": "\u00a3", "price_formatted": "\u00a3139,999", "price_high": 139999, "price_low": 139999, "price_type": "fixed", "property_type": "flat", "size": 0, "size_type": "net", "summary": "Two bedroom apartment on the tadley acres development. Recently red...", "thumb_height": 60, "thumb_url": "https://imgs.nestimg.com/medium/2_bedroom_flat_for_sale_110951116014113052.jpg", "thumb_width": 80, "title": "Sherring Road, SHEPTON MALLET, Somerset, UK", "updated_in_days": 105, "updated_in_days_formatted": "first seen over a month ago"}, {"bathroom_number": "", "bedroom_number": 4, "car_spaces": 0, "commission": 0, "construction_year": 0, "datasource_name": "OnTheMarket.com", "img_height": 300, "img_url": "https://imgs.nestimg.com/4_bedroom_detached_house_for_sale_111440827665958121.jpg", "img_width": 400, "keywords": "Detached, Freehold, Garden, Garage, Cottage", "latitude": 51.1387, "lister_url": "https://www.nestoria.co.uk/detail/0000000111440827665958121/title/5/52-2?serpUid=&pt=1&ot=1&l=somerset&did=105_high1&t_sec=9&t_or=45&t_pvid=null&utm_source=api&utm_medium=external", "listing_type": "buy", "location_accuracy": 9, "longitude": -3.65403, "price": 550000, "price_currency": "\u00a3", "price_formatted": "\u00a3550,000", "price_high": 550000, "price_low": 550000, "price_type": "fixed", "property_type": "house", "size": 0, "size_type": "net", "summary": "A detached four bedroom cottage of character along with garage, goo...", "thumb_height": 60, "thumb_url": "https://imgs.nestimg.com/medium/4_bedroom_detached_house_for_sale_111440827665958121.jpg", "thumb_width": 80, "title": "Exford, Minehead, Somerset, TA24", "updated_in_days": 47, "updated_in_days_formatted": "first seen over a month ago"}, {"bathroom_number": "", "bedroom_number": 4, "car_spaces": 0, "commission": 0, "construction_year": 0, "datasource_name": "OnTheMarket.com", "img_height": 300, "img_url": "https://imgs.nestimg.com/4_bedroom_semi_detached_house_for_sale_110759313123731809.jpg", "img_width": 400, "keywords": "Semi-Detached, En suite, Double Bedroom, Garage, Kitchen, Gas Central Heating", "latitude": 51.0568, "lister_url": "https://www.nestoria.co.uk/detail/0000000110759313123731809/title/5/52-3?serpUid=&pt=1&ot=1&l=somerset&did=105_high1&t_sec=9&t_or=45&t_pvid=null&utm_source=api&utm_medium=external", "listing_type": "buy", "location_accuracy": 9, "longitude": -2.41174, "price": 325000, "price_currency": "\u00a3", "price_formatted": "\u00a3325,000", "price_high": 325000, "price_low": 325000, "price_type": "fixed", "property_type": "house", "size": 0, "size_type": "net", "summary": "A three storey semi-detached town house built in 2007 and convenien...", "thumb_height": 60, "thumb_url": "https://imgs.nestimg.com/medium/4_bedroom_semi_detached_house_for_sale_110759313123731809.jpg", "thumb_width": 80, "title": "Wincanton, Somerset, BA9 - En Suite", "updated_in_days": 105, "updated_in_days_formatted": "first seen over a month ago"}, {"bathroom_number": "", "bedroom_number": 4, "car_spaces": 0, "commission": 0, "construction_year": 0, "datasource_name": "OnTheMarket.com", "img_height": 300, "img_url": "https://imgs.nestimg.com/4_bedroom_detached_house_for_sale_111538329833814643.jpg", "img_width": 400, "keywords": "Detached, Conversion", "latitude": 51.223877, "lister_name": "Knight Frank", "lister_url": "https://www.nestoria.co.uk/detail/0000000111538329833814643/title/5/52-4?serpUid=&pt=1&ot=1&l=somerset&did=105_high1&t_sec=9&t_or=45&t_pvid=null&utm_source=api&utm_medium=external", "listing_type": "buy", "location_accuracy": 9, "longitude": -2.504388, "price": 1250000, "price_currency": "\u00a3", "price_formatted": "\u00a31,250,000", "price_high": 1250000, "price_low": 1250000, "price_type": "fixed", "property_type": "house", "size": 0, "size_type": "net", "summary": "A detached 4/5 bedroom barn conversion, in an idyllic location. For...", "thumb_height": 60, "thumb_url": "https://imgs.nestimg.com/medium/4_bedroom_detached_house_for_sale_111538329833814643.jpg", "thumb_width": 80, "title": "Oakhill, Radstock, Somerset, BA3", "updated_in_days": 31, "updated_in_days_formatted": "first seen over a month ago"}, {"bathroom_number": "", "bedroom_number": 4, "car_spaces": 0, "commission": 0, "construction_year": 0, "datasource_name": "OnTheMarket.com", "img_height": 300, "img_url": "https://imgs.nestimg.com/4_bedroom_flat_for_sale_111681015522852977.jpg", "img_width": 400, "keywords": "Detached, Garden", "latitude": 51.37654, "lister_name": "Knight Frank", "lister_url": "https://www.nestoria.co.uk/detail/0000000111681015522852977/title/5/52-5?serpUid=&pt=1&ot=1&l=somerset&did=105_high1&t_sec=9&t_or=45&t_pvid=null&utm_source=api&utm_medium=external", "listing_type": "buy", "location_accuracy": 9, "longitude": -2.558255, "price": 1200000, "price_currency": "\u00a3", "price_formatted": "\u00a31,200,000", "price_high": 1200000, "price_low": 1200000, "price_type": "fixed", "property_type": "house", "size": 0, "size_type": "net", "summary": "A home in an elevated position with superb rural views. A detached ...", "thumb_height": 60, "thumb_url": "https://imgs.nestimg.com/medium/4_bedroom_flat_for_sale_111681015522852977.jpg", "thumb_width": 80, "title": "Belluton, Pensford, Bristol, Somerset, BS39", "updated_in_days": 8, "updated_in_days_formatted": "first seen last week"}, {"bathroom_number": "", "bedroom_number": 7, "car_spaces": 0, "commission": 0, "construction_year": 0, "datasource_name": "OnTheMarket.com", "img_height": 300, "img_url": "https://imgs.nestimg.com/7_bedroom_detached_house_for_sale_111346679709193597.jpg", "img_width": 400, "keywords": "Detached, Modern", "latitude": 51.22682, "lister_name": "Knight Frank", "lister_url": "https://www.nestoria.co.uk/detail/0000000111346679709193597/title/5/52-6?serpUid=&pt=1&ot=1&l=somerset&did=105_high1&t_sec=9&t_or=45&t_pvid=null&utm_source=api&utm_medium=external", "listing_type": "buy", "location_accuracy": 9, "longitude": -2.527426, "price": 1495000, "price_currency": "\u00a3", "price_formatted": "\u00a31,495,000", "price_high": 1495000, "price_low": 1495000, "price_type": "fixed", "property_type": "house", "size": 0, "size_type": "net", "summary": "A detached period family home with annexe. For sale, the old vicara...", "thumb_height": 60, "thumb_url": "https://imgs.nestimg.com/medium/7_bedroom_detached_house_for_sale_111346679709193597.jpg", "thumb_width": 80, "title": "Zion Hill, Oakhill, Radstock, Somerset, BA3", "updated_in_days": 62, "updated_in_days_formatted": "first seen over a month ago"}, {"bathroom_number": "", "bedroom_number": 2, "car_spaces": 0, "commission": 0, "construction_year": 0, "datasource_name": "OnTheMarket.com", "img_height": 300, "img_url": "https://imgs.nestimg.com/2_bedroom_detached_bungalow_for_sale_111340377427447274.jpg", "img_width": 400, "keywords": "Detached, Bungalow", "latitude": 51.144, "lister_url": "https://www.nestoria.co.uk/detail/0000000111340377427447274/title/5/52-7?serpUid=&pt=1&ot=1&l=somerset&did=105_high1&t_sec=9&t_or=45&t_pvid=null&utm_source=api&utm_medium=external", "listing_type": "buy", "location_accuracy": 9, "longitude": -2.50854, "price": 250000, "price_currency": "\u00a3", "price_formatted": "\u00a3250,000", "price_high": 250000, "price_low": 250000, "price_type": "fixed", "property_type": "house", "size": 0, "size_type": "net", "summary": "A two bedroom detached woolaway bungalow situated in an individual ...", "thumb_height": 60, "thumb_url": "https://imgs.nestimg.com/medium/2_bedroom_detached_bungalow_for_sale_111340377427447274.jpg", "thumb_width": 80, "title": "Weston Town, Evercreech, SHEPTON MALLET, Somerset", "updated_in_days": 63, "updated_in_days_formatted": "first seen over a month ago"}, {"bathroom_number": "", "bedroom_number": 3, "car_spaces": 0, "commission": 0, "construction_year": 0, "datasource_name": "OnTheMarket.com", "img_height": 300, "img_url": "https://imgs.nestimg.com/3_bedroom_semi_detached_house_for_sale_111687584757938541.jpg", "img_width": 400, "keywords": "Garden, Semi-Detached, Garage", "latitude": 51.31593, "lister_url": "https://www.nestoria.co.uk/detail/0000000111687584757938541/title/5/52-8?serpUid=&pt=1&ot=1&l=somerset&did=105_high1&t_sec=9&t_or=45&t_pvid=null&utm_source=api&utm_medium=external", "listing_type": "buy", "location_accuracy": 9, "longitude": -2.4138007, "price": 240000, "price_currency": "\u00a3", "price_formatted": "\u00a3240,000", "price_high": 240000, "price_low": 240000, "price_type": "fixed", "property_type": "house", "size": 0, "size_type": "net", "summary": "A three bedroom semi detached property with an open plan, ground fl...", "thumb_height": 60, "thumb_url": "https://imgs.nestimg.com/medium/3_bedroom_semi_detached_house_for_sale_111687584757938541.jpg", "thumb_width": 80, "title": "Westbury View, Peasedown St. John, BATH, Somerset, BA2", "updated_in_days": 7, "updated_in_days_formatted": "first seen last week"}, {"bathroom_number": "", "bedroom_number": 4, "car_spaces": 0, "commission": 0, "construction_year": 0, "datasource_name": "OnTheMarket.com", "img_height": 300, "img_url": "https://imgs.nestimg.com/4_bedroom_detached_bungalow_for_sale_111427145948454131.jpg", "img_width": 400, "keywords": "Detached, Garage, Kitchen, Bungalow, Reception", "latitude": 50.99696, "lister_url": "https://www.nestoria.co.uk/detail/0000000111427145948454131/title/5/52-9?serpUid=&pt=1&ot=1&l=somerset&did=105_high1&t_sec=9&t_or=45&t_pvid=null&utm_source=api&utm_medium=external", "listing_type": "buy", "location_accuracy": 9, "longitude": -2.420562, "price": 415000, "price_currency": "\u00a3", "price_formatted": "\u00a3415,000", "price_high": 415000, "price_low": 415000, "price_type": "fixed", "property_type": "house", "size": 0, "size_type": "net", "summary": "Huge detached chalet bungalow with 2183 square feet of , flexible, ...", "thumb_height": 60, "thumb_url": "https://imgs.nestimg.com/medium/4_bedroom_detached_bungalow_for_sale_111427145948454131.jpg", "thumb_width": 80, "title": "Bowden Road, TEMPLECOMBE, Somerset, BA8", "updated_in_days": 49, "updated_in_days_formatted": "first seen over a month ago"}, {"bathroom_number": "", "bedroom_number": 2, "car_spaces": 0, "commission": 0, "construction_year": 0, "datasource_name": "OnTheMarket.com", "img_height": 300, "img_url": "https://imgs.nestimg.com/2_bedroom_detached_house_for_sale_111575826948963403.jpg", "img_width": 400, "keywords": "Detached, Freehold, Cottage", "latitude": 51.1387, "lister_url": "https://www.nestoria.co.uk/detail/0000000111575826948963403/title/5/52-10?serpUid=&pt=1&ot=1&l=somerset&did=105_high1&t_sec=9&t_or=45&t_pvid=null&utm_source=api&utm_medium=external", "listing_type": "buy", "location_accuracy": 9, "longitude": -3.65403, "price": 250000, "price_currency": "\u00a3", "price_formatted": "\u00a3250,000", "price_high": 250000, "price_low": 250000, "price_type": "fixed", "property_type": "house", "size": 0, "size_type": "net", "summary": "A detached two bedroom cottage situated in a pleasant position on t...", "thumb_height": 60, "thumb_url": "https://imgs.nestimg.com/medium/2_bedroom_detached_house_for_sale_111575826948963403.jpg", "thumb_width": 80, "title": "Exford, Minehead, Somerset, TA24", "updated_in_days": 25, "updated_in_days_formatted": "first seen 3 weeks ago"}, {"bathroom_number": "", "bedroom_number": 3, "car_spaces": 0, "commission": 0, "construction_year": 0, "datasource_name": "OnTheMarket.com", "img_height": 300, "img_url": "https://imgs.nestimg.com/3_bedroom_house_for_sale_111402760229369624.jpg", "img_width": 400, "keywords": "Detached, Garden, Fireplace, Kitchen, Parking, Reception", "latitude": 50.99696, "lister_url": "https://www.nestoria.co.uk/detail/0000000111402760229369624/title/5/52-11?serpUid=&pt=1&ot=1&l=somerset&did=105_high1&t_sec=9&t_or=45&t_pvid=null&utm_source=api&utm_medium=external", "listing_type": "buy", "location_accuracy": 9, "longitude": -2.420562, "price": 249500, "price_currency": "\u00a3", "price_formatted": "\u00a3249,500", "price_high": 249500, "price_low": 249500, "price_type": "fixed", "property_type": "house", "size": 0, "size_type": "net", "summary": "A three bedroom semi-detached home finished to the highest standard...", "thumb_height": 60, "thumb_url": "https://imgs.nestimg.com/medium/3_bedroom_house_for_sale_111402760229369624.jpg", "thumb_width": 80, "title": "West Street, TEMPLECOMBE, Somerset, BA8", "updated_in_days": 53, "updated_in_days_formatted": "first seen over a month ago"}, {"bathroom_number": "", "bedroom_number": 6, "car_spaces": 0, "commission": 0, "construction_year": 0, "datasource_name": "OnTheMarket.com", "img_height": 300, "img_url": "https://imgs.nestimg.com/6_bedroom_detached_house_for_sale_111284654831647348.jpg", "img_width": 400, "keywords": "Detached, Garden, Fireplace, Cottage", "latitude": 51.015415, "lister_name": "Knight Frank", "lister_url": "https://www.nestoria.co.uk/detail/0000000111284654831647348/title/5/52-12?serpUid=&pt=1&ot=1&l=somerset&did=105_high1&t_sec=9&t_or=45&t_pvid=null&utm_source=api&utm_medium=external", "listing_type": "buy", "location_accuracy": 9, "longitude": -2.433646, "price": 795000, "price_currency": "\u00a3", "price_formatted": "\u00a3795,000", "price_high": 795000, "price_low": 795000, "price_type": "fixed", "property_type": "house", "size": 0, "size_type": "net", "summary": "6 bedroom 19th century house with a large garden and separate home ...", "thumb_height": 60, "thumb_url": "https://imgs.nestimg.com/medium/6_bedroom_detached_house_for_sale_111284654831647348.jpg", "thumb_width": 80, "title": "High Road, Horsington, Templecombe, Somerset, BA8", "updated_in_days": 35, "updated_in_days_formatted": "first seen over a month ago"}, {"bathroom_number": "", "bedroom_number": 3, "car_spaces": 0, "commission": 0, "construction_year": 0, "datasource_name": "OnTheMarket.com", "img_height": 300, "img_url": "https://imgs.nestimg.com/3_bedroom_semi_detached_house_for_sale_111371193137462623.jpg", "img_width": 400, "keywords": "Garden, Semi-Detached, En suite, Kitchen, Off Street Parking, Patio, Reception", "latitude": 51.333958, "lister_url": "https://www.nestoria.co.uk/detail/0000000111371193137462623/title/5/52-13?serpUid=&pt=1&ot=1&l=somerset&did=105_high1&t_sec=9&t_or=45&t_pvid=null&utm_source=api&utm_medium=external", "listing_type": "buy", "location_accuracy": 9, "longitude": -2.4385948, "price": 270000, "price_currency": "\u00a3", "price_formatted": "\u00a3270,000", "price_high": 270000, "price_low": 270000, "price_type": "fixed", "property_type": "house", "size": 0, "size_type": "net", "summary": "A ly presented, three bedroom semi-detached home, built in 2006. Tw...", "thumb_height": 60, "thumb_url": "https://imgs.nestimg.com/medium/3_bedroom_semi_detached_house_for_sale_111371193137462623.jpg", "thumb_width": 80, "title": "Tunley, BATH, Somerset, BA2 - Patio", "updated_in_days": 16, "updated_in_days_formatted": "first seen 2 weeks ago"}, {"bathroom_number": "", "bedroom_number": 4, "car_spaces": 0, "commission": 0, "construction_year": 0, "datasource_name": "OnTheMarket.com", "img_height": 300, "img_url": "https://imgs.nestimg.com/4_bedroom_detached_house_for_sale_111359017557976547.jpg", "img_width": 400, "keywords": "Detached, En suite, Double Garage, Fireplace, Modern, Cottage", "latitude": 51.0048, "lister_url": "https://www.nestoria.co.uk/detail/0000000111359017557976547/title/5/52-14?serpUid=&pt=1&ot=1&l=somerset&did=105_high1&t_sec=9&t_or=45&t_pvid=null&utm_source=api&utm_medium=external", "listing_type": "buy", "location_accuracy": 9, "longitude": -2.41785, "price": 325000, "price_currency": "\u00a3", "price_formatted": "\u00a3325,000", "price_high": 325000, "price_low": 325000, "price_type": "fixed", "property_type": "house", "size": 0, "size_type": "net", "summary": "A particularly modern thatched cottage situated on a small developm...", "thumb_height": 60, "thumb_url": "https://imgs.nestimg.com/medium/4_bedroom_detached_house_for_sale_111359017557976547.jpg", "thumb_width": 80, "title": "Templecombe, Somerset BA8 - Fireplace", "updated_in_days": 60, "updated_in_days_formatted": "first seen over a month ago"}, {"bathroom_number": "", "bedroom_number": 2, "car_spaces": 0, "commission": 0, "construction_year": 0, "datasource_name": "OnTheMarket.com", "img_height": 300, "img_url": "https://imgs.nestimg.com/2_bedroom_flat_for_sale_111550953442981515.jpg", "img_width": 400, "keywords": "Double Bedroom", "latitude": 51.041367, "lister_url": "https://www.nestoria.co.uk/detail/0000000111550953442981515/title/5/52-15?serpUid=&pt=1&ot=1&l=somerset&did=105_high1&t_sec=9&t_or=45&t_pvid=null&utm_source=api&utm_medium=external", "listing_type": "buy", "location_accuracy": 9, "longitude": -2.436284, "price": 299950, "price_currency": "\u00a3", "price_formatted": "\u00a3299,950", "price_high": 299950, "price_low": 299950, "price_type": "fixed", "property_type": "flat", "size": 0, "size_type": "net", "summary": "This property is a , first floor, two bedroom luxury apartment form...", "thumb_height": 60, "thumb_url": "https://imgs.nestimg.com/medium/2_bedroom_flat_for_sale_111550953442981515.jpg", "thumb_width": 80, "title": "Holbrook, Lattiford, Somerset, BA9", "updated_in_days": 29, "updated_in_days_formatted": "first seen last month"}], "locations": [{"center_lat": 51.080967, "center_long": -3.045432, "long_title": "Somerset, county", "place_name": "somerset", "title": "Somerset"}], "page": 52, "sort": "nestoria_rank", "status_code": "200", "status_text": "OK", "thanks": "For using the Nestoria API.", "total_pages": 410, "total_results": 6149, "_cu5t0mP434m_": "remove"}}