{"request": {"country": "uk", "language": "en", "location": "somerset", "num_res": "15", "offset": 780, "output": "json_xs", "page": 53, "product_type": "realestate", "property_type": "property", "size_type": "net", "size_unit": "m2", "sort": "nestoria_rank", "listing_type": "buy"}, "response": {"application_response_code": "100", "application_response_text": "listings returned for one unambiguous location", "attribution": {"img_height": 22, "img_url": "https://resources.nestimg.com/nestoria/img/pbr_v1.png", "img_width": 183, "link_to_img": "http://www.nestoria.com"}, "created_http": "Tue, 18 Jun 2019 17:29:54 GMT", "created_unix": 1560878994, "link_to_url": "https://www.nestoria.co.uk/somerset/property/buy/53", "listings": [{"bathroom_number": "", "bedroom_number": 3, "car_spaces": 0, "commission": 0, "construction_year": 0, "datasource_name": "OnTheMarket.com", "img_height": 300, "img_url": "https://imgs.nestimg.com/3_bedroom_detached_bungalow_for_sale_111427152491131056.jpg", "img_width": 400, "keywords": "Detached, Garden, En suite, Double Bedroom, Kitchen, Bungalow, Parking", "latitude": 50.9965, "lister_url": "https://www.nestoria.co.uk/detail/0000000111427152491131056/title/5/53-1?serpUid=&pt=1&ot=1&l=somerset&did=105_high1&t_sec=9&t_or=45&t_pvid=null&utm_source=api&utm_medium=external", "listing_type": "buy", "location_accuracy": 9, "longitude": -2.41442, "price": 340000, "price_currency": "\u00a3", "price_formatted": "\u00a3340,000", "price_high": 340000, "price_low": 340000, "price_type": "fixed", "property_type": "house", "size": 0, "size_type": "net", "summary": "An individual detached bungalow set back from the road on the edge ...", "thumb_height": 60, "thumb_url": "https://imgs.nestimg.com/medium/3_bedroom_detached_bungalow_for_sale_111427152491131056.jpg", "thumb_width": 80, "title": "Templecombe, Somerset, BA8 - Bungalow", "updated_in_days": 49, "updated_in_days_formatted": "first seen over a month ago"}, {"bathroom_number": "", "bedroom_number": 5, "car_spaces": 0, "commission": 0, "construction_year": 0, "datasource_name": "OnTheMarket.com", "img_height": 300, "img_url": "https://imgs.nestimg.com/5_bedroom_house_for_sale_111272695852395648.jpg", "img_width": 400, "keywords": "Conversion, Modern", "latitude": 51.348263, "lister_name": "Knight Frank", "lister_url": "https://www.nestoria.co.uk/detail/0000000111272695852395648/title/5/53-2?serpUid=&pt=1&ot=1&l=somerset&did=105_high1&t_sec=9&t_or=45&t_pvid=null&utm_source=api&utm_medium=external", "listing_type": "buy", "location_accuracy": 9, "longitude": -2.657105, "price": 1250000, "price_currency": "\u00a3", "price_formatted": "\u00a31,250,000", "price_high": 1250000, "price_low": 1250000, "price_type": "fixed", "property_type": "house", "size": 0, "size_type": "net", "summary": "Country house within the heart of the chew valley. This barn conver...", "thumb_height": 60, "thumb_url": "https://imgs.nestimg.com/medium/5_bedroom_house_for_sale_111272695852395648.jpg", "thumb_width": 80, "title": "Lower Strode, Nr Chew Stoke, Bristol, North Somerset, BS40", "updated_in_days": 74, "updated_in_days_formatted": "first seen over a month ago"}, {"bathroom_number": "", "bedroom_number": 4, "car_spaces": 0, "commission": 0, "construction_year": 0, "datasource_name": "OnTheMarket.com", "img_height": 300, "img_url": "https://imgs.nestimg.com/4_bedroom_detached_house_for_sale_111303415204470051.jpg", "img_width": 400, "keywords": "Detached, Fireplace", "latitude": 51.1518, "lister_url": "https://www.nestoria.co.uk/detail/0000000111303415204470051/title/5/53-3?serpUid=&pt=1&ot=1&l=somerset&did=105_high1&t_sec=9&t_or=45&t_pvid=null&utm_source=api&utm_medium=external", "listing_type": "buy", "location_accuracy": 9, "longitude": -2.49563, "price": 650000, "price_currency": "\u00a3", "price_formatted": "\u00a3650,000", "price_high": 650000, "price_low": 650000, "price_type": "fixed", "property_type": "house", "size": 0, "size_type": "net", "summary": "A and much loved family home, that has not been on the market for a...", "thumb_height": 60, "thumb_url": "https://imgs.nestimg.com/medium/4_bedroom_detached_house_for_sale_111303415204470051.jpg", "thumb_width": 80, "title": "Shapway Lane, Stoney Stratton, SHEPTON MALLET, Somerset", "updated_in_days": 69, "updated_in_days_formatted": "first seen over a month ago"}, {"bathroom_number": "", "bedroom_number": 6, "car_spaces": 0, "commission": 0, "construction_year": 0, "datasource_name": "OnTheMarket.com", "img_height": 300, "img_url": "https://imgs.nestimg.com/6_bedroom_equestrian_facility_for_sale_111618952102680516.jpg", "img_width": 400, "keywords": "Garden", "latitude": 51.1444, "lister_url": "https://www.nestoria.co.uk/detail/0000000111618952102680516/title/5/53-4?serpUid=&pt=1&ot=1&l=somerset&did=105_high1&t_sec=9&t_or=45&t_pvid=null&utm_source=api&utm_medium=external", "listing_type": "buy", "location_accuracy": 9, "longitude": -3.66637, "price": 1200000, "price_currency": "\u00a3", "price_formatted": "\u00a31,200,000", "price_high": 1200000, "price_low": 1200000, "price_type": "fixed", "property_type": "property", "size": 0, "size_type": "net", "summary": "A ly situated six bedroomed country house set in gardens and a valu...", "thumb_height": 60, "thumb_url": "https://imgs.nestimg.com/medium/6_bedroom_equestrian_facility_for_sale_111618952102680516.jpg", "thumb_width": 80, "title": "Exford, Minehead, Somerset, TA24", "updated_in_days": 18, "updated_in_days_formatted": "first seen 2 weeks ago"}, {"bathroom_number": "", "bedroom_number": 2, "car_spaces": 0, "commission": 0, "construction_year": 0, "datasource_name": "OnTheMarket.com", "img_height": 300, "img_url": "https://imgs.nestimg.com/2_bedroom_terraced_house_for_sale_111687586385891648.jpg", "img_width": 400, "keywords": "Garden, Terraced, Cottage", "latitude": 51.343, "lister_name": "Carter Jonas", "lister_url": "https://www.nestoria.co.uk/detail/0000000111687586385891648/title/5/53-5?serpUid=&pt=1&ot=1&l=somerset&did=105_high1&t_sec=9&t_or=45&t_pvid=null&utm_source=api&utm_medium=external", "listing_type": "buy", "location_accuracy": 9, "longitude": -2.43753, "price": 325000, "price_currency": "\u00a3", "price_formatted": "\u00a3325,000", "price_high": 325000, "price_low": 325000, "price_type": "fixed", "property_type": "house", "size": 0, "size_type": "net", "summary": "A perfectly formed extended cottage with gardens in the pretty vill...", "thumb_height": 60, "thumb_url": "https://imgs.nestimg.com/medium/2_bedroom_terraced_house_for_sale_111687586385891648.jpg", "thumb_width": 80, "title": "Priston, Bath, Somerset, BA2 - Garden", "updated_in_days": 7, "updated_in_days_formatted": "first seen last week"}, {"bathroom_number": "", "bedroom_number": 2, "car_spaces": 0, "commission": 0, "construction_year": 0, "datasource_name": "OnTheMarket.com", "img_height": 300, "img_url": "https://imgs.nestimg.com/2_bedroom_flat_for_sale_111514309596449763.jpg", "img_width": 400, "keywords": "Purpose Built, Kitchen, Parking", "latitude": 51.0544, "lister_url": "https://www.nestoria.co.uk/detail/0000000111514309596449763/title/5/53-6?serpUid=&pt=1&ot=1&l=somerset&did=105_high1&t_sec=9&t_or=45&t_pvid=null&utm_source=api&utm_medium=external", "listing_type": "buy", "location_accuracy": 9, "longitude": -2.41496, "price": 110000, "price_currency": "\u00a3", "price_formatted": "\u00a3110,000", "price_high": 110000, "price_low": 110000, "price_type": "fixed", "property_type": "flat", "size": 0, "size_type": "net", "summary": "An purpose built two bedroom first floor flat enjoying an outlook o...", "thumb_height": 60, "thumb_url": "https://imgs.nestimg.com/medium/2_bedroom_flat_for_sale_111514309596449763.jpg", "thumb_width": 80, "title": "Wincanton, Somerset, BA9", "updated_in_days": 35, "updated_in_days_formatted": "first seen over a month ago"}, {"bathroom_number": "", "bedroom_number": 5, "car_spaces": 0, "commission": 0, "construction_year": 0, "datasource_name": "OnTheMarket.com", "img_height": 300, "img_url": "https://imgs.nestimg.com/5_bedroom_house_for_sale_111099713357834706.jpg", "img_width": 400, "keywords": "Detached, Garden, Parking, Reception", "latitude": 51.02024, "lister_url": "https://www.nestoria.co.uk/detail/0000000111099713357834706/title/5/53-7?serpUid=&pt=1&ot=1&l=somerset&did=105_high1&t_sec=9&t_or=45&t_pvid=null&utm_source=api&utm_medium=external", "listing_type": "buy", "location_accuracy": 9, "longitude": -2.438095, "price": 367000, "price_currency": "\u00a3", "price_formatted": "\u00a3367,000", "price_high": 367000, "price_low": 367000, "price_type": "fixed", "property_type": "house", "size": 0, "size_type": "net", "summary": "Extensive coutryside views from many of the windows! Large 0.15 acr...", "thumb_height": 60, "thumb_url": "https://imgs.nestimg.com/medium/5_bedroom_house_for_sale_111099713357834706.jpg", "thumb_width": 80, "title": "South Cheriton, TEMPLECOMBE, Somerset, BA8", "updated_in_days": 39, "updated_in_days_formatted": "first seen over a month ago"}, {"bathroom_number": "", "bedroom_number": 6, "car_spaces": 0, "commission": 0, "construction_year": 0, "datasource_name": "OnTheMarket.com", "img_height": 300, "img_url": "https://imgs.nestimg.com/6_bedroom_detached_house_for_sale_111043906509392593.jpg", "img_width": 400, "keywords": "Detached", "latitude": 51.3628, "lister_url": "https://www.nestoria.co.uk/detail/0000000111043906509392593/title/5/53-8?serpUid=&pt=1&ot=1&l=somerset&did=105_high1&t_sec=9&t_or=45&t_pvid=null&utm_source=api&utm_medium=external", "listing_type": "buy", "location_accuracy": 9, "longitude": -2.73714, "price": 1600000, "price_currency": "\u00a3", "price_formatted": "\u00a31,600,000", "price_high": 1600000, "price_low": 1600000, "price_type": "fixed", "property_type": "house", "size": 0, "size_type": "net", "summary": "A well presented rural retreat on the doorstep of bristol, boasting...", "thumb_height": 60, "thumb_url": "https://imgs.nestimg.com/medium/6_bedroom_detached_house_for_sale_111043906509392593.jpg", "thumb_width": 80, "title": "Long Lane, Wrington, North Somerset, BS40", "updated_in_days": 111, "updated_in_days_formatted": "first seen over a month ago"}, {"bathroom_number": "", "bedroom_number": 6, "car_spaces": 0, "commission": 0, "construction_year": 0, "datasource_name": "OnTheMarket.com", "img_height": 300, "img_url": "https://imgs.nestimg.com/6_bedroom_detached_house_for_sale_111402760959260288.jpg", "img_width": 400, "keywords": "Detached, Grade II, Listed", "latitude": 51.222183, "lister_name": "Knight Frank", "lister_url": "https://www.nestoria.co.uk/detail/0000000111402760959260288/title/5/53-9?serpUid=&pt=1&ot=1&l=somerset&did=105_high1&t_sec=9&t_or=45&t_pvid=null&utm_source=api&utm_medium=external", "listing_type": "buy", "location_accuracy": 9, "longitude": -2.49063, "price": 1000000, "price_currency": "\u00a3", "price_formatted": "\u00a31,000,000", "price_high": 1000000, "price_low": 1000000, "price_type": "fixed", "property_type": "house", "size": 0, "size_type": "net", "summary": "A and grade ii listed family home, with views. For sale, the home h...", "thumb_height": 60, "thumb_url": "https://imgs.nestimg.com/medium/6_bedroom_detached_house_for_sale_111402760959260288.jpg", "thumb_width": 80, "title": "Stoke St. Michael, Near Oakhill, Bath, Somerset, BA3", "updated_in_days": 53, "updated_in_days_formatted": "first seen over a month ago"}, {"bathroom_number": "", "bedroom_number": 4, "car_spaces": 0, "commission": 0, "construction_year": 0, "datasource_name": "OnTheMarket.com", "img_height": 300, "img_url": "https://imgs.nestimg.com/4_bedroom_end_of_terrace_house_for_sale_111136755744117699.jpg", "img_width": 400, "keywords": "Garden, Terraced, Kitchen", "latitude": 51.1183, "lister_url": "https://www.nestoria.co.uk/detail/0000000111136755744117699/title/5/53-10?serpUid=&pt=1&ot=1&l=somerset&did=105_high1&t_sec=9&t_or=45&t_pvid=null&utm_source=api&utm_medium=external", "listing_type": "buy", "location_accuracy": 9, "longitude": -2.44718, "price": 260000, "price_currency": "\u00a3", "price_formatted": "\u00a3260,000", "price_high": 260000, "price_low": 260000, "price_type": "fixed", "property_type": "house", "size": 0, "size_type": "net", "summary": "A four bedroom end terrace house situated at the end of a small clo...", "thumb_height": 60, "thumb_url": "https://imgs.nestimg.com/medium/4_bedroom_end_of_terrace_house_for_sale_111136755744117699.jpg", "thumb_width": 80, "title": "Bruton, Somerset, BA10 - Garden", "updated_in_days": 96, "updated_in_days_formatted": "first seen over a month ago"}, {"bathroom_number": "", "bedroom_number": 3, "car_spaces": 0, "commission": 0, "construction_year": 0, "datasource_name": "OnTheMarket.com", "img_height": 300, "img_url": "https://imgs.nestimg.com/3_bedroom_detached_bungalow_for_sale_111346680977957015.jpg", "img_width": 400, "keywords": "Detached, Garden, Kitchen, Bungalow, Parking, Cul-de-Sac", "latitude": 51.0512, "lister_url": "https://www.nestoria.co.uk/detail/0000000111346680977957015/title/5/53-11?serpUid=&pt=1&ot=1&l=somerset&did=105_high1&t_sec=9&t_or=45&t_pvid=null&utm_source=api&utm_medium=external", "listing_type": "buy", "location_accuracy": 9, "longitude": -2.40614, "price": 325000, "price_currency": "\u00a3", "price_formatted": "\u00a3325,000", "price_high": 325000, "price_low": 325000, "price_type": "fixed", "property_type": "house", "size": 0, "size_type": "net", "summary": "A three bedroom detached bungalow tucked away in a cul-de-sac on a ...", "thumb_height": 60, "thumb_url": "https://imgs.nestimg.com/medium/3_bedroom_detached_bungalow_for_sale_111346680977957015.jpg", "thumb_width": 80, "title": "Wincanton, Somerset, BA9 - Bungalow", "updated_in_days": 62, "updated_in_days_formatted": "first seen over a month ago"}, {"bathroom_number": "", "bedroom_number": 3, "car_spaces": 0, "commission": 0, "construction_year": 0, "datasource_name": "OnTheMarket.com", "img_height": 300, "img_url": "https://imgs.nestimg.com/3_bedroom_detached_house_for_sale_111440832350255312.jpg", "img_width": 400, "keywords": "Detached, En suite, Kitchen, Cul-de-Sac", "latitude": 51.306, "lister_name": "Allen", "lister_url": "https://www.nestoria.co.uk/detail/0000000111440832350255312/title/5/53-12?serpUid=&pt=1&ot=1&l=somerset&did=105_high1&t_sec=9&t_or=45&t_pvid=null&utm_source=api&utm_medium=external", "listing_type": "buy", "location_accuracy": 9, "longitude": -2.49946, "price": 275000, "price_currency": "\u00a3", "price_formatted": "\u00a3275,000", "price_high": 275000, "price_low": 275000, "price_type": "fixed", "property_type": "house", "size": 0, "size_type": "net", "summary": "A detached three bedroom family home which has undergone much impro...", "thumb_height": 60, "thumb_url": "https://imgs.nestimg.com/medium/3_bedroom_detached_house_for_sale_111440832350255312.jpg", "thumb_width": 80, "title": "Somerset Way, Paulton, Bristol", "updated_in_days": 47, "updated_in_days_formatted": "first seen over a month ago"}, {"bathroom_number": "", "bedroom_number": 4, "car_spaces": 0, "commission": 0, "construction_year": 0, "datasource_name": "OnTheMarket.com", "img_height": 300, "img_url": "https://imgs.nestimg.com/4_bedroom_detached_house_for_sale_110604776860195674.jpg", "img_width": 400, "keywords": "Detached, Garden, Garage, Cottage", "latitude": 51.34168, "lister_name": "Knight Frank", "lister_url": "https://www.nestoria.co.uk/detail/0000000110604776860195674/title/5/53-13?serpUid=&pt=1&ot=1&l=somerset&did=105_high1&t_sec=9&t_or=45&t_pvid=null&utm_source=api&utm_medium=external", "listing_type": "buy", "location_accuracy": 9, "longitude": -2.442926, "price": 895000, "price_currency": "\u00a3", "price_formatted": "\u00a3895,000", "price_high": 895000, "price_low": 895000, "price_type": "fixed", "property_type": "house", "size": 0, "size_type": "net", "summary": "An detached 4 bedroom family home in a rural village close to bath....", "thumb_height": 60, "thumb_url": "https://imgs.nestimg.com/medium/4_bedroom_detached_house_for_sale_110604776860195674.jpg", "thumb_width": 80, "title": "Priston, Bath, Somerset, BA2 - Garden", "updated_in_days": 10, "updated_in_days_formatted": "first seen last week"}, {"bathroom_number": "", "bedroom_number": "", "car_spaces": 0, "commission": 0, "construction_year": 0, "datasource_name": "OnTheMarket.com", "img_height": 300, "img_url": "https://imgs.nestimg.com/land_for_sale_111013110690672098.jpg", "img_width": 400, "keywords": "", "latitude": 50.9657, "lister_name": "Stags", "lister_url": "https://www.nestoria.co.uk/detail/0000000111013110690672098/title/5/53-14?serpUid=&pt=1&ot=1&l=somerset&did=105_high1&t_sec=9&t_or=45&t_pvid=null&utm_source=api&utm_medium=external", "listing_type": "buy", "location_accuracy": 9, "longitude": -2.672, "price": 1500000, "price_currency": "\u00a3", "price_formatted": "\u00a31,500,000", "price_high": 1500000, "price_low": 1500000, "price_type": "fixed", "property_type": "land", "size": 0, "size_type": "net", "summary": "Residential development opportunity with outline planning permissio...", "thumb_height": 60, "thumb_url": "https://imgs.nestimg.com/medium/land_for_sale_111013110690672098.jpg", "thumb_width": 80, "title": "Vagg Lane, Chilthorne Domer, Yeovil, Somerset, BA21", "updated_in_days": 116, "updated_in_days_formatted": "first seen over a month ago"}, {"bathroom_number": "", "bedroom_number": 4, "car_spaces": 0, "commission": 0, "construction_year": 0, "datasource_name": "OnTheMarket.com", "img_height": 300, "img_url": "https://imgs.nestimg.com/4_bedroom_house_for_sale_108513787127305398.jpg", "img_width": 400, "keywords": "Garden, Grade II, Parking, Patio, Georgian, Listed", "latitude": 51.056507, "lister_url": "https://www.nestoria.co.uk/detail/0000000108513787127305398/title/5/53-15?serpUid=&pt=1&ot=1&l=somerset&did=105_high1&t_sec=9&t_or=45&t_pvid=null&utm_source=api&utm_medium=external", "listing_type": "buy", "location_accuracy": 9, "longitude": -2.4111857, "price": 449000, "price_currency": "\u00a3", "price_formatted": "\u00a3449,000", "price_high": 449000, "price_low": 449000, "price_type": "fixed", "property_type": "house", "size": 0, "size_type": "net", "summary": "Possibly the most building in the town centre! A rare opportunity t...", "thumb_height": 60, "thumb_url": "https://imgs.nestimg.com/medium/4_bedroom_house_for_sale_108513787127305398.jpg", "thumb_width": 80, "title": "Market Place, Wincanton, Somerset, BA9", "updated_in_days": 105, "updated_in_days_formatted": "first seen over a month ago"}], "locations": [{"center_lat": 51.080967, "center_long": -3.045432, "long_title": "Somerset, county", "place_name": "somerset", "title": "Somerset"}], "page": 53, "sort": "nestoria_rank", "status_code": "200", "status_text": "OK", "thanks": "For using the Nestoria API.", "total_pages": 410, "total_results": 6149, "_cu5t0mP434m_": "remove"}}