{"request": {"country": "uk", "language": "en", "location": "somerset", "num_res": "15", "offset": 795, "output": "json_xs", "page": 54, "product_type": "realestate", "property_type": "property", "size_type": "net", "size_unit": "m2", "sort": "nestoria_rank", "listing_type": "buy"}, "response": {"application_response_code": "100", "application_response_text": "listings returned for one unambiguous location", "attribution": {"img_height": 22, "img_url": "https://resources.nestimg.com/nestoria/img/pbr_v1.png", "img_width": 183, "link_to_img": "http://www.nestoria.com"}, "created_http": "Tue, 18 Jun 2019 17:29:55 GMT", "created_unix": 1560878995, "link_to_url": "https://www.nestoria.co.uk/somerset/property/buy/54", "listings": [{"bathroom_number": "", "bedroom_number": 2, "car_spaces": 0, "commission": 0, "construction_year": 0, "datasource_name": "OnTheMarket.com", "img_height": 300, "img_url": "https://imgs.nestimg.com/2_bedroom_flat_for_sale_111526288856724255.jpg", "img_width": 400, "keywords": "Kitchen, Parking", "latitude": 51.0544, "lister_url": "https://www.nestoria.co.uk/detail/0000000111526288856724255/title/5/54-1?serpUid=&pt=1&ot=1&l=somerset&did=105_high1&t_sec=9&t_or=45&t_pvid=null&utm_source=api&utm_medium=external", "listing_type": "buy", "location_accuracy": 9, "longitude": -2.41496, "price": 105000, "price_currency": "\u00a3", "price_formatted": "\u00a3105,000", "price_high": 105000, "price_low": 105000, "price_type": "fixed", "property_type": "flat", "size": 0, "size_type": "net", "summary": "A two bedroom first floor flat situated within easy reach of the to...", "thumb_height": 60, "thumb_url": "https://imgs.nestimg.com/medium/2_bedroom_flat_for_sale_111526288856724255.jpg", "thumb_width": 80, "title": "Wincanton, Somerset, BA9", "updated_in_days": 33, "updated_in_days_formatted": "first seen over a month ago"}, {"bathroom_number": "", "bedroom_number": 3, "car_spaces": 0, "commission": 0, "construction_year": 0, "datasource_name": "OnTheMarket.com", "img_height": 300, "img_url": "https://imgs.nestimg.com/3_bedroom_semi_detached_house_for_sale_110580095083693229.jpg", "img_width": 400, "keywords": "Freehold, Semi-Detached", "latitude": 51.2075, "lister_url": "https://www.nestoria.co.uk/detail/0000000110580095083693229/title/5/54-2?serpUid=&pt=1&ot=1&l=somerset&did=105_high1&t_sec=9&t_or=45&t_pvid=null&utm_source=api&utm_medium=external", "listing_type": "buy", "location_accuracy": 9, "longitude": -3.5929, "price": 270000, "price_currency": "\u00a3", "price_formatted": "\u00a3270,000", "price_high": 270000, "price_low": 270000, "price_type": "fixed", "property_type": "house", "size": 0, "size_type": "net", "summary": "A three bedroom semi-detached house situated in a pleasant position...", "thumb_height": 60, "thumb_url": "https://imgs.nestimg.com/medium/3_bedroom_semi_detached_house_for_sale_110580095083693229.jpg", "thumb_width": 80, "title": "Doverhay, Porlock, Minehead, Somerset, TA24", "updated_in_days": 53, "updated_in_days_formatted": "first seen over a month ago"}, {"bathroom_number": "", "bedroom_number": 4, "car_spaces": 0, "commission": 0, "construction_year": 0, "datasource_name": "OnTheMarket.com", "img_height": 300, "img_url": "https://imgs.nestimg.com/4_bedroom_detached_bungalow_for_sale_109318415224833875.jpg", "img_width": 400, "keywords": "Detached, Freehold, No Chain, Garage, Bungalow", "latitude": 51.2654, "lister_name": "Greenslade Taylor Hunt", "lister_url": "https://www.nestoria.co.uk/detail/0000000109318415224833875/title/5/54-3?serpUid=&pt=1&ot=1&l=somerset&did=105_high1&t_sec=9&t_or=45&t_pvid=null&utm_source=api&utm_medium=external", "listing_type": "buy", "location_accuracy": 9, "longitude": -3.00749, "price": 368000, "price_currency": "\u00a3", "price_formatted": "\u00a3368,000", "price_high": 368000, "price_low": 368000, "price_type": "fixed", "property_type": "house", "size": 0, "size_type": "net", "summary": "This , 3/4 bedroom, extended, detached 1950's built bungalow is wel...", "thumb_height": 60, "thumb_url": "https://imgs.nestimg.com/medium/4_bedroom_detached_bungalow_for_sale_109318415224833875.jpg", "thumb_width": 80, "title": "Parsonage Road, Berrow, Burnham-on-Sea, Somerset, TA8", "updated_in_days": 3, "updated_in_days_formatted": "first seen 3 days ago"}, {"bathroom_number": "", "bedroom_number": 4, "car_spaces": 0, "commission": 0, "construction_year": 0, "datasource_name": "OnTheMarket.com", "img_height": 300, "img_url": "https://imgs.nestimg.com/4_bedroom_semi_detached_house_for_sale_111253928170046372.jpg", "img_width": 400, "keywords": "Semi-Detached, Modern, Cottage", "latitude": 51.218006, "lister_url": "https://www.nestoria.co.uk/detail/0000000111253928170046372/title/5/54-4?serpUid=&pt=1&ot=1&l=somerset&did=105_high1&t_sec=9&t_or=45&t_pvid=null&utm_source=api&utm_medium=external", "listing_type": "buy", "location_accuracy": 9, "longitude": -2.4827936, "price": 299950, "price_currency": "\u00a3", "price_formatted": "\u00a3299,950", "price_high": 299950, "price_low": 299950, "price_type": "fixed", "property_type": "house", "size": 0, "size_type": "net", "summary": "Located on the outskirts of the mendip village of stoke st michael ...", "thumb_height": 60, "thumb_url": "https://imgs.nestimg.com/medium/4_bedroom_semi_detached_house_for_sale_111253928170046372.jpg", "thumb_width": 80, "title": "Waters Edge, Mendip Road, Stoke St Michael, Radstock, Somerset, BA3", "updated_in_days": 53, "updated_in_days_formatted": "first seen over a month ago"}, {"bathroom_number": "", "bedroom_number": "", "car_spaces": 0, "commission": 0, "construction_year": 0, "datasource_name": "OnTheMarket.com", "img_height": 300, "img_url": "https://imgs.nestimg.com/land_for_sale_111260129829379548.jpg", "img_width": 400, "keywords": "", "latitude": 50.9158, "lister_name": "Stags", "lister_url": "https://www.nestoria.co.uk/detail/0000000111260129829379548/title/5/54-5?serpUid=&pt=1&ot=1&l=somerset&did=105_high1&t_sec=9&t_or=45&t_pvid=null&utm_source=api&utm_medium=external", "listing_type": "buy", "location_accuracy": 9, "longitude": -2.70414, "price": 590000, "price_currency": "\u00a3", "price_formatted": "\u00a3590,000", "price_high": 590000, "price_low": 590000, "price_type": "fixed", "property_type": "land", "size": 0, "size_type": "net", "summary": "An agricultural property comprising a yard of barns surrounded by g...", "thumb_height": 60, "thumb_url": "https://imgs.nestimg.com/medium/land_for_sale_111260129829379548.jpg", "thumb_width": 80, "title": "West Coker Hill, West Coker, West Coker, Somerset, BA22", "updated_in_days": 76, "updated_in_days_formatted": "first seen over a month ago"}, {"bathroom_number": "", "bedroom_number": 3, "car_spaces": 0, "commission": 0, "construction_year": 0, "datasource_name": "OnTheMarket.com", "img_height": 300, "img_url": "https://imgs.nestimg.com/3_bedroom_semi_detached_house_for_sale_111328526851402434.jpg", "img_width": 400, "keywords": "Garden, Semi-Detached, Kitchen, Edwardian", "latitude": 51.3376, "lister_url": "https://www.nestoria.co.uk/detail/0000000111328526851402434/title/5/54-6?serpUid=&pt=1&ot=1&l=somerset&did=105_high1&t_sec=9&t_or=45&t_pvid=null&utm_source=api&utm_medium=external", "listing_type": "buy", "location_accuracy": 9, "longitude": -2.48087, "price": 479950, "price_currency": "\u00a3", "price_formatted": "\u00a3479,950", "price_high": 479950, "price_low": 479950, "price_type": "fixed", "property_type": "house", "size": 0, "size_type": "net", "summary": "Situated to the west of bath in the ever village of farmborough is ...", "thumb_height": 60, "thumb_url": "https://imgs.nestimg.com/medium/3_bedroom_semi_detached_house_for_sale_111328526851402434.jpg", "thumb_width": 80, "title": "Barrow View, Farmborough, Bath, Somerset, BA2", "updated_in_days": 13, "updated_in_days_formatted": "first seen last week"}, {"bathroom_number": "", "bedroom_number": 3, "car_spaces": 0, "commission": 0, "construction_year": 0, "datasource_name": "OnTheMarket.com", "img_height": 300, "img_url": "https://imgs.nestimg.com/3_bedroom_terraced_house_for_sale_110140885767127298.jpg", "img_width": 400, "keywords": "Garden, Terraced, Double Bedroom, Kitchen, Parking", "latitude": 51.0536, "lister_url": "https://www.nestoria.co.uk/detail/0000000110140885767127298/title/5/54-7?serpUid=&pt=1&ot=1&l=somerset&did=105_high1&t_sec=9&t_or=45&t_pvid=null&utm_source=api&utm_medium=external", "listing_type": "buy", "location_accuracy": 9, "longitude": -2.41371, "price": 171500, "price_currency": "\u00a3", "price_formatted": "\u00a3171,500", "price_high": 171500, "price_low": 171500, "price_type": "fixed", "property_type": "house", "size": 0, "size_type": "net", "summary": "An three bedroom link-terraced house situated in acul-de-sac on a r...", "thumb_height": 60, "thumb_url": "https://imgs.nestimg.com/medium/3_bedroom_terraced_house_for_sale_110140885767127298.jpg", "thumb_width": 80, "title": "Wincanton, Somerset, BA9 - Terraced", "updated_in_days": 77, "updated_in_days_formatted": "first seen over a month ago"}, {"bathroom_number": "", "bedroom_number": 4, "car_spaces": 0, "commission": 0, "construction_year": 0, "datasource_name": "OnTheMarket.com", "img_height": 300, "img_url": "https://imgs.nestimg.com/4_bedroom_semi_detached_house_for_sale_110580091094025055.jpg", "img_width": 400, "keywords": "Freehold, Semi-Detached, Cottage", "latitude": 51.2004, "lister_url": "https://www.nestoria.co.uk/detail/0000000110580091094025055/title/5/54-8?serpUid=&pt=1&ot=1&l=somerset&did=105_high1&t_sec=9&t_or=45&t_pvid=null&utm_source=api&utm_medium=external", "listing_type": "buy", "location_accuracy": 9, "longitude": -3.60383, "price": 349500, "price_currency": "\u00a3", "price_formatted": "\u00a3349,500", "price_high": 349500, "price_low": 349500, "price_type": "fixed", "property_type": "house", "size": 0, "size_type": "net", "summary": "A four bedroom double fronted semi detached cottage of considerable...", "thumb_height": 60, "thumb_url": "https://imgs.nestimg.com/medium/4_bedroom_semi_detached_house_for_sale_110580091094025055.jpg", "thumb_width": 80, "title": "Hawkcombe, Porlock, Minehead, Somerset, TA24", "updated_in_days": 186, "updated_in_days_formatted": "first seen over a month ago"}, {"bathroom_number": "", "bedroom_number": "", "car_spaces": 0, "commission": 0, "construction_year": 0, "datasource_name": "OnTheMarket.com", "img_height": 300, "img_url": "https://imgs.nestimg.com/3_bedroom_property_with_land_for_sale_111526289886512207.jpg", "img_width": 400, "keywords": "Freehold", "latitude": 51.2062, "lister_url": "https://www.nestoria.co.uk/detail/0000000111526289886512207/title/5/54-9?serpUid=&pt=1&ot=1&l=somerset&did=105_high1&t_sec=9&t_or=45&t_pvid=null&utm_source=api&utm_medium=external", "listing_type": "buy", "location_accuracy": 9, "longitude": -3.47425, "price": 575000, "price_currency": "\u00a3", "price_formatted": "\u00a3575,000", "price_high": 575000, "price_low": 575000, "price_type": "fixed", "property_type": "land", "size": 0, "size_type": "net", "summary": "Home and income opportunity well established freehold leather bags ...", "thumb_height": 60, "thumb_url": "https://imgs.nestimg.com/medium/3_bedroom_property_with_land_for_sale_111526289886512207.jpg", "thumb_width": 80, "title": "The Avenue, Minehead, Somerset, TA24", "updated_in_days": 33, "updated_in_days_formatted": "first seen over a month ago"}, {"bathroom_number": "", "bedroom_number": 4, "car_spaces": 0, "commission": 0, "construction_year": 0, "datasource_name": "OnTheMarket.com", "img_height": 300, "img_url": "https://imgs.nestimg.com/4_bedroom_detached_house_for_sale_111346679861874822.jpg", "img_width": 400, "keywords": "Detached, Garden, En suite, Garage, Kitchen", "latitude": 51.051, "lister_url": "https://www.nestoria.co.uk/detail/0000000111346679861874822/title/5/54-10?serpUid=&pt=1&ot=1&l=somerset&did=105_high1&t_sec=9&t_or=45&t_pvid=null&utm_source=api&utm_medium=external", "listing_type": "buy", "location_accuracy": 9, "longitude": -2.4073, "price": 325000, "price_currency": "\u00a3", "price_formatted": "\u00a3325,000", "price_high": 325000, "price_low": 325000, "price_type": "fixed", "property_type": "house", "size": 0, "size_type": "net", "summary": "An four bedroom detached house tucked away in a small close on a re...", "thumb_height": 60, "thumb_url": "https://imgs.nestimg.com/medium/4_bedroom_detached_house_for_sale_111346679861874822.jpg", "thumb_width": 80, "title": "Wincanton, Somerset, BA9 - En Suite", "updated_in_days": 62, "updated_in_days_formatted": "first seen over a month ago"}, {"bathroom_number": "", "bedroom_number": 3, "car_spaces": 0, "commission": 0, "construction_year": 0, "datasource_name": "OnTheMarket.com", "img_height": 300, "img_url": "https://imgs.nestimg.com/3_bedroom_house_for_sale_111569520179926585.jpg", "img_width": 400, "keywords": "Shared Garden", "latitude": 51.36648, "lister_name": "Knight Frank", "lister_url": "https://www.nestoria.co.uk/detail/0000000111569520179926585/title/5/54-11?serpUid=&pt=1&ot=1&l=somerset&did=105_high1&t_sec=9&t_or=45&t_pvid=null&utm_source=api&utm_medium=external", "listing_type": "buy", "location_accuracy": 9, "longitude": -2.617326, "price": 775000, "price_currency": "\u00a3", "price_formatted": "\u00a3775,000", "price_high": 775000, "price_low": 775000, "price_type": "fixed", "property_type": "house", "size": 0, "size_type": "net", "summary": "3 bedroom house for sale in chew magna, near bristol. Pretty edge o...", "thumb_height": 60, "thumb_url": "https://imgs.nestimg.com/medium/3_bedroom_house_for_sale_111569520179926585.jpg", "thumb_width": 80, "title": "The Walled Garden, Dark Lane, Chew Magna, North Somerset, Bristol, BS40", "updated_in_days": 26, "updated_in_days_formatted": "first seen 3 weeks ago"}, {"bathroom_number": "", "bedroom_number": "", "car_spaces": 0, "commission": 0, "construction_year": 0, "datasource_name": "OnTheMarket.com", "img_height": 300, "img_url": "https://imgs.nestimg.com/land_for_sale_110592297801061677.jpg", "img_width": 400, "keywords": "", "latitude": 50.9158, "lister_name": "Stags", "lister_url": "https://www.nestoria.co.uk/detail/0000000110592297801061677/title/5/54-12?serpUid=&pt=1&ot=1&l=somerset&did=105_high1&t_sec=9&t_or=45&t_pvid=null&utm_source=api&utm_medium=external", "listing_type": "buy", "location_accuracy": 9, "longitude": -2.70414, "price": 270000, "price_currency": "\u00a3", "price_formatted": "\u00a3270,000", "price_high": 270000, "price_low": 270000, "price_type": "fixed", "property_type": "land", "size": 0, "size_type": "net", "summary": "22 acres of grazing land available near west coker. Stock proof fen...", "thumb_height": 60, "thumb_url": "https://imgs.nestimg.com/medium/land_for_sale_110592297801061677.jpg", "thumb_width": 80, "title": "West Coker Hill, West Coker Hill, Yeovil, Somerset, BA22", "updated_in_days": 156, "updated_in_days_formatted": "first seen over a month ago"}, {"bathroom_number": "", "bedroom_number": 2, "car_spaces": 0, "commission": 0, "construction_year": 0, "datasource_name": "OnTheMarket.com", "img_height": 300, "img_url": "https://imgs.nestimg.com/2_bedroom_end_of_terrace_house_for_sale_110542840184522713.jpg", "img_width": 400, "keywords": "Terraced, Modern", "latitude": 51.2069, "lister_url": "https://www.nestoria.co.uk/detail/0000000110542840184522713/title/5/54-13?serpUid=&pt=1&ot=1&l=somerset&did=105_high1&t_sec=9&t_or=45&t_pvid=null&utm_source=api&utm_medium=external", "listing_type": "buy", "location_accuracy": 9, "longitude": -3.59352, "price": 235000, "price_currency": "\u00a3", "price_formatted": "\u00a3235,000", "price_high": 235000, "price_low": 235000, "price_type": "fixed", "property_type": "house", "size": 0, "size_type": "net", "summary": "A modern terraced house , situated within walking distance of the c...", "thumb_height": 60, "thumb_url": "https://imgs.nestimg.com/medium/2_bedroom_end_of_terrace_house_for_sale_110542840184522713.jpg", "thumb_width": 80, "title": "Crawter Drive, Porlock, Minehead, Somerset, TA24", "updated_in_days": 192, "updated_in_days_formatted": "first seen over a month ago"}, {"bathroom_number": "", "bedroom_number": 3, "car_spaces": 0, "commission": 0, "construction_year": 0, "datasource_name": "OnTheMarket.com", "img_height": 300, "img_url": "https://imgs.nestimg.com/3_bedroom_end_of_terrace_house_for_sale_111457722651194924.jpg", "img_width": 400, "keywords": "Garden, Terraced, Off Street Parking", "latitude": 51.289497, "lister_url": "https://www.nestoria.co.uk/detail/0000000111457722651194924/title/5/54-14?serpUid=&pt=1&ot=1&l=somerset&did=105_high1&t_sec=9&t_or=45&t_pvid=null&utm_source=api&utm_medium=external", "listing_type": "buy", "location_accuracy": 9, "longitude": -2.4767032, "price": 250000, "price_currency": "\u00a3", "price_formatted": "\u00a3250,000", "price_high": 250000, "price_low": 250000, "price_type": "fixed", "property_type": "house", "size": 0, "size_type": "net", "summary": "Within 500 yards of midsomer norton high street on radstock road co...", "thumb_height": 60, "thumb_url": "https://imgs.nestimg.com/medium/3_bedroom_end_of_terrace_house_for_sale_111457722651194924.jpg", "thumb_width": 80, "title": "Radstock Road, Midsomer Norton, RADSTOCK, Somerset, BA3", "updated_in_days": 44, "updated_in_days_formatted": "first seen over a month ago"}, {"bathroom_number": "", "bedroom_number": "", "car_spaces": 0, "commission": 0, "construction_year": 0, "datasource_name": "OnTheMarket.com", "img_height": 300, "img_url": "https://imgs.nestimg.com/land_for_sale_109090005304982224.jpg", "img_width": 400, "keywords": "", "latitude": 50.9158, "lister_name": "Stags", "lister_url": "https://www.nestoria.co.uk/detail/0000000109090005304982224/title/5/54-15?serpUid=&pt=1&ot=1&l=somerset&did=105_high1&t_sec=9&t_or=45&t_pvid=null&utm_source=api&utm_medium=external", "listing_type": "buy", "location_accuracy": 9, "longitude": -2.70414, "price": 207000, "price_currency": "\u00a3", "price_formatted": "\u00a3207,000", "price_high": 207000, "price_low": 207000, "price_type": "fixed", "property_type": "land", "size": 0, "size_type": "net", "summary": "12.3 acres of grazing land with stockproof fencing, located near we...", "thumb_height": 60, "thumb_url": "https://imgs.nestimg.com/medium/land_for_sale_109090005304982224.jpg", "thumb_width": 80, "title": "West Coker Hill, West Coker, Yeovil, Somerset, BA22", "updated_in_days": 427, "updated_in_days_formatted": "first seen over a month ago"}], "locations": [{"center_lat": 51.080967, "center_long": -3.045432, "long_title": "Somerset, county", "place_name": "somerset", "title": "Somerset"}], "page": 54, "sort": "nestoria_rank", "status_code": "200", "status_text": "OK", "thanks": "For using the Nestoria API.", "total_pages": 410, "total_results": 6149, "_cu5t0mP434m_": "remove"}}