{"request": {"country": "uk", "language": "en", "location": "somerset", "num_res": "15", "offset": 810, "output": "json_xs", "page": 55, "product_type": "realestate", "property_type": "property", "size_type": "net", "size_unit": "m2", "sort": "nestoria_rank", "listing_type": "buy"}, "response": {"application_response_code": "100", "application_response_text": "listings returned for one unambiguous location", "attribution": {"img_height": 22, "img_url": "https://resources.nestimg.com/nestoria/img/pbr_v1.png", "img_width": 183, "link_to_img": "http://www.nestoria.com"}, "created_http": "Tue, 18 Jun 2019 17:29:57 GMT", "created_unix": 1560878997, "link_to_url": "https://www.nestoria.co.uk/somerset/property/buy/55", "listings": [{"bathroom_number": "", "bedroom_number": 3, "car_spaces": 0, "commission": 0, "construction_year": 0, "datasource_name": "OnTheMarket.com", "img_height": 300, "img_url": "https://imgs.nestimg.com/3_bedroom_detached_house_for_sale_111253925231868109.jpg", "img_width": 400, "keywords": "Detached", "latitude": 51.286144, "lister_url": "https://www.nestoria.co.uk/detail/0000000111253925231868109/title/5/55-1?serpUid=&pt=1&ot=1&l=somerset&did=105_high1&t_sec=9&t_or=45&t_pvid=null&utm_source=api&utm_medium=external", "listing_type": "buy", "location_accuracy": 9, "longitude": -2.4921548, "price": 335000, "price_currency": "\u00a3", "price_formatted": "\u00a3335,000", "price_high": 335000, "price_low": 335000, "price_type": "fixed", "property_type": "house", "size": 0, "size_type": "net", "summary": "This detached family residence is situated on a private road that s...", "thumb_height": 60, "thumb_url": "https://imgs.nestimg.com/medium/3_bedroom_detached_house_for_sale_111253925231868109.jpg", "thumb_width": 80, "title": "Paulton Road, Midsomer Norton, RADSTOCK, Somerset, BA3", "updated_in_days": 16, "updated_in_days_formatted": "first seen 2 weeks ago"}, {"bathroom_number": "", "bedroom_number": 3, "car_spaces": 0, "commission": 0, "construction_year": 0, "datasource_name": "OnTheMarket.com", "img_height": 300, "img_url": "https://imgs.nestimg.com/3_bedroom_end_of_terrace_house_for_sale_111538334291942720.jpg", "img_width": 400, "keywords": "Terraced", "latitude": 51.25992, "lister_url": "https://www.nestoria.co.uk/detail/0000000111538334291942720/title/5/55-2?serpUid=&pt=1&ot=1&l=somerset&did=105_high1&t_sec=9&t_or=45&t_pvid=null&utm_source=api&utm_medium=external", "listing_type": "buy", "location_accuracy": 9, "longitude": -2.511282, "price": 280000, "price_currency": "\u00a3", "price_formatted": "\u00a3280,000", "price_high": 280000, "price_low": 280000, "price_type": "fixed", "property_type": "house", "size": 0, "size_type": "net", "summary": "Built by taylors wimpey in 2015, is this well presented family home...", "thumb_height": 60, "thumb_url": "https://imgs.nestimg.com/medium/3_bedroom_end_of_terrace_house_for_sale_111538334291942720.jpg", "thumb_width": 80, "title": "Brimscombe Meadow, Chilcompton, Somerset BA3", "updated_in_days": 31, "updated_in_days_formatted": "first seen over a month ago"}, {"bathroom_number": "", "bedroom_number": 4, "car_spaces": 0, "commission": 0, "construction_year": 0, "datasource_name": "OnTheMarket.com", "img_height": 300, "img_url": "https://imgs.nestimg.com/4_bedroom_detached_house_for_sale_109955521033251636.jpg", "img_width": 400, "keywords": "Detached, Garden, Conversion", "latitude": 51.14929, "lister_name": "Knight Frank", "lister_url": "https://www.nestoria.co.uk/detail/0000000109955521033251636/title/5/55-3?serpUid=&pt=1&ot=1&l=somerset&did=105_high1&t_sec=9&t_or=45&t_pvid=null&utm_source=api&utm_medium=external", "listing_type": "buy", "location_accuracy": 9, "longitude": -2.445918, "price": 1350000, "price_currency": "\u00a3", "price_formatted": "\u00a31,350,000", "price_high": 1350000, "price_low": 1350000, "price_type": "fixed", "property_type": "house", "size": 0, "size_type": "net", "summary": "4 bed unlisted barn conversion with potential annexe in batcombe ba...", "thumb_height": 60, "thumb_url": "https://imgs.nestimg.com/medium/4_bedroom_detached_house_for_sale_109955521033251636.jpg", "thumb_width": 80, "title": "Batcombe, Shepton Mallet, Somerset, BA4", "updated_in_days": 252, "updated_in_days_formatted": "first seen over a month ago"}, {"bathroom_number": "", "bedroom_number": 5, "car_spaces": 0, "commission": 0, "construction_year": 0, "datasource_name": "OnTheMarket.com", "img_height": 300, "img_url": "https://imgs.nestimg.com/5_bedroom_detached_house_for_sale_111253926565443056.jpg", "img_width": 400, "keywords": "Detached, Garden", "latitude": 51.263397, "lister_url": "https://www.nestoria.co.uk/detail/0000000111253926565443056/title/5/55-4?serpUid=&pt=1&ot=1&l=somerset&did=105_high1&t_sec=9&t_or=45&t_pvid=null&utm_source=api&utm_medium=external", "listing_type": "buy", "location_accuracy": 9, "longitude": -2.517068, "price": 895000, "price_currency": "\u00a3", "price_formatted": "\u00a3895,000", "price_high": 895000, "price_low": 895000, "price_type": "fixed", "property_type": "house", "size": 0, "size_type": "net", "summary": "Mount pleasant is an , unique residence situated within 2.8 acres o...", "thumb_height": 60, "thumb_url": "https://imgs.nestimg.com/medium/5_bedroom_detached_house_for_sale_111253926565443056.jpg", "thumb_width": 80, "title": "Mount Pleasant, Chilcompton, Somerset, BA3", "updated_in_days": 77, "updated_in_days_formatted": "first seen over a month ago"}, {"bathroom_number": "", "bedroom_number": 5, "car_spaces": 0, "commission": 0, "construction_year": 0, "datasource_name": "OnTheMarket.com", "img_height": 300, "img_url": "https://imgs.nestimg.com/5_bedroom_detached_house_for_sale_111309457914942405.jpg", "img_width": 400, "keywords": "Detached, Swimming Pool", "latitude": 51.0881, "lister_name": "Woolley & Wallis", "lister_url": "https://www.nestoria.co.uk/detail/0000000111309457914942405/title/5/55-5?serpUid=&pt=1&ot=1&l=somerset&did=105_high1&t_sec=9&t_or=45&t_pvid=null&utm_source=api&utm_medium=external", "listing_type": "buy", "location_accuracy": 9, "longitude": -2.41603, "price": 875000, "price_currency": "\u00a3", "price_formatted": "\u00a3875,000", "price_high": 875000, "price_low": 875000, "price_type": "fixed", "property_type": "house", "size": 0, "size_type": "net", "summary": "A , four bedroom period property situated in a area, benefiting fro...", "thumb_height": 60, "thumb_url": "https://imgs.nestimg.com/medium/5_bedroom_detached_house_for_sale_111309457914942405.jpg", "thumb_width": 80, "title": "Stoney Stoke, Wincanton, Somerset, BA9", "updated_in_days": 68, "updated_in_days_formatted": "first seen over a month ago"}, {"bathroom_number": "", "bedroom_number": 3, "car_spaces": 0, "commission": 0, "construction_year": 0, "datasource_name": "OnTheMarket.com", "img_height": 300, "img_url": "https://imgs.nestimg.com/3_bedroom_property_for_sale_109707784973206381.jpg", "img_width": 400, "keywords": "Conversion", "latitude": 51.1956, "lister_url": "https://www.nestoria.co.uk/detail/0000000109707784973206381/title/5/55-6?serpUid=&pt=1&ot=1&l=somerset&did=105_high1&t_sec=9&t_or=45&t_pvid=null&utm_source=api&utm_medium=external", "listing_type": "buy", "location_accuracy": 9, "longitude": -2.47084, "price": 375000, "price_currency": "\u00a3", "price_formatted": "\u00a3375,000", "price_high": 375000, "price_low": 375000, "price_type": "fixed", "property_type": "property", "size": 0, "size_type": "net", "summary": "Outstanding three bedroom barn conversion enjoying a semi-rural loc...", "thumb_height": 60, "thumb_url": "https://imgs.nestimg.com/medium/3_bedroom_property_for_sale_109707784973206381.jpg", "thumb_width": 80, "title": "Property for sale, DEAN, Somerset", "updated_in_days": 140, "updated_in_days_formatted": "first seen over a month ago"}, {"bathroom_number": "", "bedroom_number": 4, "car_spaces": 0, "commission": 0, "construction_year": 0, "datasource_name": "OnTheMarket.com", "img_height": 300, "img_url": "https://imgs.nestimg.com/4_bedroom_semi_detached_house_for_sale_111253927530192161.jpg", "img_width": 400, "keywords": "Semi-Detached, No Chain, Refurbished", "latitude": 51.333645, "lister_url": "https://www.nestoria.co.uk/detail/0000000111253927530192161/title/5/55-7?serpUid=&pt=1&ot=1&l=somerset&did=105_high1&t_sec=9&t_or=45&t_pvid=null&utm_source=api&utm_medium=external", "listing_type": "buy", "location_accuracy": 9, "longitude": -2.4386349, "price": 500000, "price_currency": "\u00a3", "price_formatted": "\u00a3500,000", "price_high": 500000, "price_low": 500000, "price_type": "fixed", "property_type": "house", "size": 0, "size_type": "net", "summary": "A refurbished and extended semi detached family home offering flexi...", "thumb_height": 60, "thumb_url": "https://imgs.nestimg.com/medium/4_bedroom_semi_detached_house_for_sale_111253927530192161.jpg", "thumb_width": 80, "title": "Tunley, BATH, Somerset, BA2", "updated_in_days": 13, "updated_in_days_formatted": "first seen last week"}, {"bathroom_number": "", "bedroom_number": 2, "car_spaces": 0, "commission": 0, "construction_year": 0, "datasource_name": "OnTheMarket.com", "img_height": 300, "img_url": "https://imgs.nestimg.com/2_bedroom_flat_for_sale_111013111515468284.jpg", "img_width": 400, "keywords": "Purpose Built, Parking", "latitude": 51.0011, "lister_url": "https://www.nestoria.co.uk/detail/0000000111013111515468284/title/5/55-8?serpUid=&pt=1&ot=1&l=somerset&did=105_high1&t_sec=9&t_or=45&t_pvid=null&utm_source=api&utm_medium=external", "listing_type": "buy", "location_accuracy": 9, "longitude": -2.41526, "price": 100000, "price_currency": "\u00a3", "price_formatted": "\u00a3100,000", "price_high": 100000, "price_low": 100000, "price_type": "fixed", "property_type": "flat", "size": 0, "size_type": "net", "summary": "A purpose built two bedroom second floor flat situated in a conveni...", "thumb_height": 60, "thumb_url": "https://imgs.nestimg.com/medium/2_bedroom_flat_for_sale_111013111515468284.jpg", "thumb_width": 80, "title": "Templecombe, Somerset, BA8", "updated_in_days": 116, "updated_in_days_formatted": "first seen over a month ago"}, {"bathroom_number": "", "bedroom_number": 5, "car_spaces": 0, "commission": 0, "construction_year": 0, "datasource_name": "OnTheMarket.com", "img_height": 300, "img_url": "https://imgs.nestimg.com/5_bedroom_house_for_sale_111526292687806904.jpg", "img_width": 400, "keywords": "Detached", "latitude": 51.001915, "lister_url": "https://www.nestoria.co.uk/detail/0000000111526292687806904/title/5/55-9?serpUid=&pt=1&ot=1&l=somerset&did=105_high1&t_sec=9&t_or=45&t_pvid=null&utm_source=api&utm_medium=external", "listing_type": "buy", "location_accuracy": 9, "longitude": -2.419909, "price": 750000, "price_currency": "\u00a3", "price_formatted": "\u00a3750,000", "price_high": 750000, "price_low": 750000, "price_type": "fixed", "property_type": "house", "size": 0, "size_type": "net", "summary": "Woodhay' is a , , concept, detached, contemporary, architect design...", "thumb_height": 60, "thumb_url": "https://imgs.nestimg.com/medium/5_bedroom_house_for_sale_111526292687806904.jpg", "thumb_width": 80, "title": "Lily Lane, Somerset, BA8 - Detached", "updated_in_days": 33, "updated_in_days_formatted": "first seen over a month ago"}, {"bathroom_number": "", "bedroom_number": 4, "car_spaces": 0, "commission": 0, "construction_year": 0, "datasource_name": "OnTheMarket.com", "img_height": 300, "img_url": "https://imgs.nestimg.com/4_bedroom_equestrian_facility_for_sale_111656081281346469.jpg", "img_width": 400, "keywords": "Detached", "latitude": 51.362, "lister_name": "Woolley & Wallis", "lister_url": "https://www.nestoria.co.uk/detail/0000000111656081281346469/title/5/55-10?serpUid=&pt=1&ot=1&l=somerset&did=105_high1&t_sec=9&t_or=45&t_pvid=null&utm_source=api&utm_medium=external", "listing_type": "buy", "location_accuracy": 9, "longitude": -2.53883, "price": 750000, "price_currency": "\u00a3", "price_formatted": "\u00a3750,000", "price_high": 750000, "price_low": 750000, "price_type": "fixed", "property_type": "house", "size": 0, "size_type": "net", "summary": "Lot 1 consisting of principle 4 bedroom detached farmhouse, one bed...", "thumb_height": 60, "thumb_url": "https://imgs.nestimg.com/medium/4_bedroom_equestrian_facility_for_sale_111656081281346469.jpg", "thumb_width": 80, "title": "Birchwood Lane, Pensford, Bristol, Somerset, BS39", "updated_in_days": 12, "updated_in_days_formatted": "first seen last week"}, {"bathroom_number": "", "bedroom_number": 4, "car_spaces": 0, "commission": 0, "construction_year": 0, "datasource_name": "OnTheMarket.com", "img_height": 300, "img_url": "https://imgs.nestimg.com/4_bedroom_detached_house_for_sale_111167665611286820.jpg", "img_width": 400, "keywords": "Detached, Garden, Double Garage, Victorian", "latitude": 51.294544, "lister_name": "Knight Frank", "lister_url": "https://www.nestoria.co.uk/detail/0000000111167665611286820/title/5/55-11?serpUid=&pt=1&ot=1&l=somerset&did=105_high1&t_sec=9&t_or=45&t_pvid=null&utm_source=api&utm_medium=external", "listing_type": "buy", "location_accuracy": 9, "longitude": -2.446308, "price": 750000, "price_currency": "\u00a3", "price_formatted": "\u00a3750,000", "price_high": 750000, "price_low": 750000, "price_type": "fixed", "property_type": "house", "size": 0, "size_type": "net", "summary": "A detached victorian 4 bedroom home situated in an elevated positio...", "thumb_height": 60, "thumb_url": "https://imgs.nestimg.com/medium/4_bedroom_detached_house_for_sale_111167665611286820.jpg", "thumb_width": 80, "title": "Bristol Road, Radstock, Somerset, BA3", "updated_in_days": 91, "updated_in_days_formatted": "first seen over a month ago"}, {"bathroom_number": "", "bedroom_number": 2, "car_spaces": 0, "commission": 0, "construction_year": 0, "datasource_name": "OnTheMarket.com", "img_height": 300, "img_url": "https://imgs.nestimg.com/2_bedroom_flat_for_sale_111575824403779711.jpg", "img_width": 400, "keywords": "No Chain", "latitude": 51.28829, "lister_url": "https://www.nestoria.co.uk/detail/0000000111575824403779711/title/5/55-12?serpUid=&pt=1&ot=1&l=somerset&did=105_high1&t_sec=9&t_or=45&t_pvid=null&utm_source=api&utm_medium=external", "listing_type": "buy", "location_accuracy": 9, "longitude": -2.477766, "price": 129950, "price_currency": "\u00a3", "price_formatted": "\u00a3129,950", "price_high": 129950, "price_low": 129950, "price_type": "fixed", "property_type": "flat", "size": 0, "size_type": "net", "summary": "For sale with no onward chain is this first floor apartment forming...", "thumb_height": 60, "thumb_url": "https://imgs.nestimg.com/medium/2_bedroom_flat_for_sale_111575824403779711.jpg", "thumb_width": 80, "title": "Rackvernal Court, Midsomer Norton, RADSTOCK, Somerset, BA3", "updated_in_days": 25, "updated_in_days_formatted": "first seen 3 weeks ago"}, {"bathroom_number": "", "bedroom_number": "", "car_spaces": 0, "commission": 0, "construction_year": 0, "datasource_name": "OnTheMarket.com", "img_height": 300, "img_url": "https://imgs.nestimg.com/land_for_sale_110938660521698298.jpg", "img_width": 400, "keywords": "", "latitude": 51.1362, "lister_name": "Stags", "lister_url": "https://www.nestoria.co.uk/detail/0000000110938660521698298/title/5/55-13?serpUid=&pt=1&ot=1&l=somerset&did=105_high1&t_sec=9&t_or=45&t_pvid=null&utm_source=api&utm_medium=external", "listing_type": "buy", "location_accuracy": 9, "longitude": -3.52315, "price": 120000, "price_currency": "\u00a3", "price_formatted": "\u00a3120,000", "price_high": 120000, "price_low": 120000, "price_type": "fixed", "property_type": "land", "size": 0, "size_type": "net", "summary": "16.32 acres of upland pasture with the benefit of two stone barns w...", "thumb_height": 60, "thumb_url": "https://imgs.nestimg.com/medium/land_for_sale_110938660521698298.jpg", "thumb_width": 80, "title": "Cutcombe, Exmoor, Somerset, TA24", "updated_in_days": 105, "updated_in_days_formatted": "first seen over a month ago"}, {"bathroom_number": "", "bedroom_number": 4, "car_spaces": 0, "commission": 0, "construction_year": 0, "datasource_name": "OnTheMarket.com", "img_height": 300, "img_url": "https://imgs.nestimg.com/3_bedroom_detached_house_for_sale_110932456685099435.jpg", "img_width": 400, "keywords": "Detached", "latitude": 51.0043, "lister_name": "Stags", "lister_url": "https://www.nestoria.co.uk/detail/0000000110932456685099435/title/5/55-14?serpUid=&pt=1&ot=1&l=somerset&did=105_high1&t_sec=9&t_or=45&t_pvid=null&utm_source=api&utm_medium=external", "listing_type": "buy", "location_accuracy": 9, "longitude": -2.41188, "price": 150000, "price_currency": "\u00a3", "price_formatted": "\u00a3150,000", "price_high": 150000, "price_low": 150000, "price_type": "fixed", "property_type": "house", "size": 0, "size_type": "net", "summary": "A stone barn with planning permission for a two storey 4 bedroom ho...", "thumb_height": 60, "thumb_url": "https://imgs.nestimg.com/medium/3_bedroom_detached_house_for_sale_110932456685099435.jpg", "thumb_width": 80, "title": "Throop Road, Templecombe, Somerset, BA8", "updated_in_days": 26, "updated_in_days_formatted": "first seen 3 weeks ago"}, {"bathroom_number": "", "bedroom_number": 5, "car_spaces": 0, "commission": 0, "construction_year": 0, "datasource_name": "OnTheMarket.com", "img_height": 300, "img_url": "https://imgs.nestimg.com/5_bedroom_semi_detached_house_for_sale_111624982322637738.jpg", "img_width": 400, "keywords": "Garden, Semi-Detached", "latitude": 51.294785, "lister_name": "Knight Frank", "lister_url": "https://www.nestoria.co.uk/detail/0000000111624982322637738/title/5/55-15?serpUid=&pt=1&ot=1&l=somerset&did=105_high1&t_sec=9&t_or=45&t_pvid=null&utm_source=api&utm_medium=external", "listing_type": "buy", "location_accuracy": 9, "longitude": -2.446587, "price": 695000, "price_currency": "\u00a3", "price_formatted": "\u00a3695,000", "price_high": 695000, "price_low": 695000, "price_type": "fixed", "property_type": "house", "size": 0, "size_type": "net", "summary": "A 5 bedroom semi-detached home, with lots of potential and great vi...", "thumb_height": 60, "thumb_url": "https://imgs.nestimg.com/medium/5_bedroom_semi_detached_house_for_sale_111624982322637738.jpg", "thumb_width": 80, "title": "Bristol Road, Radstock, Somerset, BA3", "updated_in_days": 17, "updated_in_days_formatted": "first seen 2 weeks ago"}], "locations": [{"center_lat": 51.080967, "center_long": -3.045432, "long_title": "Somerset, county", "place_name": "somerset", "title": "Somerset"}], "page": 55, "sort": "nestoria_rank", "status_code": "200", "status_text": "OK", "thanks": "For using the Nestoria API.", "total_pages": 410, "total_results": 6149, "_cu5t0mP434m_": "remove"}}