{"request": {"country": "uk", "language": "en", "location": "somerset", "num_res": "15", "offset": 825, "output": "json_xs", "page": 56, "product_type": "realestate", "property_type": "property", "size_type": "net", "size_unit": "m2", "sort": "nestoria_rank", "listing_type": "buy"}, "response": {"application_response_code": "100", "application_response_text": "listings returned for one unambiguous location", "attribution": {"img_height": 22, "img_url": "https://resources.nestimg.com/nestoria/img/pbr_v1.png", "img_width": 183, "link_to_img": "http://www.nestoria.com"}, "created_http": "Tue, 18 Jun 2019 17:29:58 GMT", "created_unix": 1560878998, "link_to_url": "https://www.nestoria.co.uk/somerset/property/buy/56", "listings": [{"bathroom_number": "", "bedroom_number": "", "car_spaces": 0, "commission": 0, "construction_year": 0, "datasource_name": "OnTheMarket.com", "img_height": 300, "img_url": "https://imgs.nestimg.com/land_for_sale_111557528926932796.jpg", "img_width": 400, "keywords": "", "latitude": 51.1792, "lister_name": "Greenslade Taylor Hunt", "lister_url": "https://www.nestoria.co.uk/detail/0000000111557528926932796/title/5/56-1?serpUid=&pt=1&ot=1&l=somerset&did=105_high1&t_sec=9&t_or=45&t_pvid=null&utm_source=api&utm_medium=external", "listing_type": "buy", "location_accuracy": 9, "longitude": -3.5302, "price": 30000, "price_currency": "\u00a3", "price_formatted": "\u00a330,000", "price_high": 30000, "price_low": 30000, "price_type": "fixed", "property_type": "land", "size": 0, "size_type": "net", "summary": "A block of mixed woodland occupying a private, rural position on th...", "thumb_height": 60, "thumb_url": "https://imgs.nestimg.com/medium/land_for_sale_111557528926932796.jpg", "thumb_width": 80, "title": "Brockwell Lane, Wootton Courtenay, Minehead, Somerset, TA24", "updated_in_days": 28, "updated_in_days_formatted": "first seen last month"}, {"bathroom_number": "", "bedroom_number": 3, "car_spaces": 0, "commission": 0, "construction_year": 0, "datasource_name": "OnTheMarket.com", "img_height": 300, "img_url": "https://imgs.nestimg.com/3_bedroom_detached_bungalow_for_sale_111253930251299794.jpg", "img_width": 400, "keywords": "Detached, Garden, Conservatory, Kitchen, Off Street Parking, Bungalow, Reception", "latitude": 51.31934, "lister_url": "https://www.nestoria.co.uk/detail/0000000111253930251299794/title/5/56-2?serpUid=&pt=1&ot=1&l=somerset&did=105_high1&t_sec=9&t_or=45&t_pvid=null&utm_source=api&utm_medium=external", "listing_type": "buy", "location_accuracy": 9, "longitude": -2.4162276, "price": 350000, "price_currency": "\u00a3", "price_formatted": "\u00a3350,000", "price_high": 350000, "price_low": 350000, "price_type": "fixed", "property_type": "house", "size": 0, "size_type": "net", "summary": "A detached chalet bungalow on a residential road in peasedown st jo...", "thumb_height": 60, "thumb_url": "https://imgs.nestimg.com/medium/3_bedroom_detached_bungalow_for_sale_111253930251299794.jpg", "thumb_width": 80, "title": "Eckweek Lane, Peasedown St. John, BATH, Somerset, BA2", "updated_in_days": 77, "updated_in_days_formatted": "first seen over a month ago"}, {"bathroom_number": "", "bedroom_number": 3, "car_spaces": 0, "commission": 0, "construction_year": 0, "datasource_name": "OnTheMarket.com", "img_height": 300, "img_url": "https://imgs.nestimg.com/3_bedroom_terraced_house_for_sale_111322442010546842.jpg", "img_width": 400, "keywords": "Terraced, Cottage", "latitude": 51.28903, "lister_url": "https://www.nestoria.co.uk/detail/0000000111322442010546842/title/5/56-3?serpUid=&pt=1&ot=1&l=somerset&did=105_high1&t_sec=9&t_or=45&t_pvid=null&utm_source=api&utm_medium=external", "listing_type": "buy", "location_accuracy": 9, "longitude": -2.475755, "price": 220000, "price_currency": "\u00a3", "price_formatted": "\u00a3220,000", "price_high": 220000, "price_low": 220000, "price_type": "fixed", "property_type": "house", "size": 0, "size_type": "net", "summary": "This superb character stone cottage is set not far from the town ce...", "thumb_height": 60, "thumb_url": "https://imgs.nestimg.com/medium/3_bedroom_terraced_house_for_sale_111322442010546842.jpg", "thumb_width": 80, "title": "Railway View Place, Midsomer Norton, RADSTOCK, Somerset, BA3", "updated_in_days": 34, "updated_in_days_formatted": "first seen over a month ago"}, {"bathroom_number": "", "bedroom_number": "", "car_spaces": 0, "commission": 0, "construction_year": 0, "datasource_name": "OnTheMarket.com", "img_height": 300, "img_url": "https://imgs.nestimg.com/plot_for_sale_110450327375227286.jpg", "img_width": 400, "keywords": "", "latitude": 51.2028, "lister_url": "https://www.nestoria.co.uk/detail/0000000110450327375227286/title/5/56-4?serpUid=&pt=1&ot=1&l=somerset&did=105_high1&t_sec=9&t_or=45&t_pvid=null&utm_source=api&utm_medium=external", "listing_type": "buy", "location_accuracy": 9, "longitude": -3.48036, "price": 65000, "price_currency": "\u00a3", "price_formatted": "\u00a365,000", "price_high": 65000, "price_low": 65000, "price_type": "fixed", "property_type": "land", "size": 0, "size_type": "net", "summary": "An opportunity to acquire a redevelopment site", "thumb_height": 60, "thumb_url": "https://imgs.nestimg.com/medium/plot_for_sale_110450327375227286.jpg", "thumb_width": 80, "title": "Rear Of 56 Bampton Street, Minehead, Somerset, TA24", "updated_in_days": 207, "updated_in_days_formatted": "first seen over a month ago"}, {"bathroom_number": "", "bedroom_number": 4, "car_spaces": 0, "commission": 0, "construction_year": 0, "datasource_name": "OnTheMarket.com", "img_height": 300, "img_url": "https://imgs.nestimg.com/4_bedroom_detached_house_for_sale_111198417023795971.jpg", "img_width": 400, "keywords": "Detached, Cul-de-Sac", "latitude": 51.3112, "lister_url": "https://www.nestoria.co.uk/detail/0000000111198417023795971/title/5/56-5?serpUid=&pt=1&ot=1&l=somerset&did=105_high1&t_sec=9&t_or=45&t_pvid=null&utm_source=api&utm_medium=external", "listing_type": "buy", "location_accuracy": 9, "longitude": -2.52047, "price": 500000, "price_currency": "\u00a3", "price_formatted": "\u00a3500,000", "price_high": 500000, "price_low": 500000, "price_type": "fixed", "property_type": "house", "size": 0, "size_type": "net", "summary": "Double fronted nine year old detached family home. Built by ashford...", "thumb_height": 60, "thumb_url": "https://imgs.nestimg.com/medium/4_bedroom_detached_house_for_sale_111198417023795971.jpg", "thumb_width": 80, "title": "Claremont Gardens , Hallatrow, Somerset , BS39", "updated_in_days": 86, "updated_in_days_formatted": "first seen over a month ago"}, {"bathroom_number": "", "bedroom_number": "", "car_spaces": 0, "commission": 0, "construction_year": 0, "datasource_name": "OnTheMarket.com", "img_height": 300, "img_url": "https://imgs.nestimg.com/land_for_sale_111359016446496146.jpg", "img_width": 400, "keywords": "", "latitude": 50.90945, "lister_name": "John Clegg", "lister_url": "https://www.nestoria.co.uk/detail/0000000111359016446496146/title/5/56-6?serpUid=&pt=1&ot=1&l=somerset&did=105_high1&t_sec=9&t_or=45&t_pvid=null&utm_source=api&utm_medium=external", "listing_type": "buy", "location_accuracy": 9, "longitude": -2.6086679, "price": 840000, "price_currency": "\u00a3", "price_formatted": "\u00a3840,000", "price_high": 840000, "price_low": 840000, "price_type": "fixed", "property_type": "land", "size": 0, "size_type": "net", "summary": "Clifton wood is a large and significant wood situated in blackmore ...", "thumb_height": 60, "thumb_url": "https://imgs.nestimg.com/medium/land_for_sale_111359016446496146.jpg", "thumb_width": 80, "title": "Stoford, Yeovil, Somerset", "updated_in_days": 60, "updated_in_days_formatted": "first seen over a month ago"}, {"bathroom_number": "", "bedroom_number": 4, "car_spaces": 0, "commission": 0, "construction_year": 0, "datasource_name": "OnTheMarket.com", "img_height": 300, "img_url": "https://imgs.nestimg.com/4_bedroom_end_of_terrace_house_for_sale_111253928366679041.jpg", "img_width": 400, "keywords": "No Chain, Terraced, Cottage", "latitude": 51.297024, "lister_url": "https://www.nestoria.co.uk/detail/0000000111253928366679041/title/5/56-7?serpUid=&pt=1&ot=1&l=somerset&did=105_high1&t_sec=9&t_or=45&t_pvid=null&utm_source=api&utm_medium=external", "listing_type": "buy", "location_accuracy": 9, "longitude": -2.443753, "price": 200000, "price_currency": "\u00a3", "price_formatted": "\u00a3200,000", "price_high": 200000, "price_low": 200000, "price_type": "fixed", "property_type": "house", "size": 0, "size_type": "net", "summary": "Set of the edge of radstock and for sale with no onward chain, is t...", "thumb_height": 60, "thumb_url": "https://imgs.nestimg.com/medium/4_bedroom_end_of_terrace_house_for_sale_111253928366679041.jpg", "thumb_width": 80, "title": "Springfield Buildings, RADSTOCK, Somerset, BA3", "updated_in_days": 27, "updated_in_days_formatted": "first seen 3 weeks ago"}, {"bathroom_number": "", "bedroom_number": 5, "car_spaces": 0, "commission": 0, "construction_year": 0, "datasource_name": "OnTheMarket.com", "img_height": 300, "img_url": "https://imgs.nestimg.com/5_bedroom_detached_house_for_sale_110808761345109009.jpg", "img_width": 400, "keywords": "Detached", "latitude": 51.013, "lister_url": "https://www.nestoria.co.uk/detail/0000000110808761345109009/title/5/56-8?serpUid=&pt=1&ot=1&l=somerset&did=105_high1&t_sec=9&t_or=45&t_pvid=null&utm_source=api&utm_medium=external", "listing_type": "buy", "location_accuracy": 9, "longitude": -2.42414, "price": 1325000, "price_currency": "\u00a3", "price_formatted": "\u00a31,325,000", "price_high": 1325000, "price_low": 1325000, "price_type": "fixed", "property_type": "house", "size": 0, "size_type": "net", "summary": "Rookes house is situated on the edge of the village in this pretty ...", "thumb_height": 60, "thumb_url": "https://imgs.nestimg.com/medium/5_bedroom_detached_house_for_sale_110808761345109009.jpg", "thumb_width": 80, "title": "Rookes House, Horsington, Templecombe, Somerset, BA8", "updated_in_days": 77, "updated_in_days_formatted": "first seen over a month ago"}, {"bathroom_number": "", "bedroom_number": 2, "car_spaces": 0, "commission": 0, "construction_year": 0, "datasource_name": "OnTheMarket.com", "img_height": 300, "img_url": "https://imgs.nestimg.com/2_bedroom_semi_detached_house_for_sale_111538331531258624.jpg", "img_width": 400, "keywords": "Semi-Detached, Conservatory, Double Bedroom, Kitchen, Cottage", "latitude": 51.319115, "lister_url": "https://www.nestoria.co.uk/detail/0000000111538331531258624/title/5/56-9?serpUid=&pt=1&ot=1&l=somerset&did=105_high1&t_sec=9&t_or=45&t_pvid=null&utm_source=api&utm_medium=external", "listing_type": "buy", "location_accuracy": 9, "longitude": -2.4206884, "price": 250000, "price_currency": "\u00a3", "price_formatted": "\u00a3250,000", "price_high": 250000, "price_low": 250000, "price_type": "fixed", "property_type": "house", "size": 0, "size_type": "net", "summary": "A ly presented, two double bedroom cottage arranged over three floo...", "thumb_height": 60, "thumb_url": "https://imgs.nestimg.com/medium/2_bedroom_semi_detached_house_for_sale_111538331531258624.jpg", "thumb_width": 80, "title": "Ashgrove, Peasedown St. John, BATH, Somerset, BA2", "updated_in_days": 31, "updated_in_days_formatted": "first seen over a month ago"}, {"bathroom_number": "", "bedroom_number": "", "car_spaces": 0, "commission": 0, "construction_year": 0, "datasource_name": "OnTheMarket.com", "img_height": 300, "img_url": "https://imgs.nestimg.com/land_for_sale_111124356052436533.jpg", "img_width": 400, "keywords": "", "latitude": 51.1156, "lister_name": "Greenslade Taylor Hunt", "lister_url": "https://www.nestoria.co.uk/detail/0000000111124356052436533/title/5/56-10?serpUid=&pt=1&ot=1&l=somerset&did=105_high1&t_sec=9&t_or=45&t_pvid=null&utm_source=api&utm_medium=external", "listing_type": "buy", "location_accuracy": 9, "longitude": -3.56664, "price": 550000, "price_currency": "\u00a3", "price_formatted": "\u00a3550,000", "price_high": 550000, "price_low": 550000, "price_type": "fixed", "property_type": "land", "size": 0, "size_type": "net", "summary": "An block of productive agricultural land enjoying good road frontag...", "thumb_height": 60, "thumb_url": "https://imgs.nestimg.com/medium/land_for_sale_111124356052436533.jpg", "thumb_width": 80, "title": "Winsford, Minehead, Somerset, TA24", "updated_in_days": 98, "updated_in_days_formatted": "first seen over a month ago"}, {"bathroom_number": "", "bedroom_number": "", "car_spaces": 0, "commission": 0, "construction_year": 0, "datasource_name": "OnTheMarket.com", "img_height": 300, "img_url": "https://imgs.nestimg.com/land_for_sale_111124354629969353.jpg", "img_width": 400, "keywords": "", "latitude": 51.1156, "lister_name": "Greenslade Taylor Hunt", "lister_url": "https://www.nestoria.co.uk/detail/0000000111124354629969353/title/5/56-11?serpUid=&pt=1&ot=1&l=somerset&did=105_high1&t_sec=9&t_or=45&t_pvid=null&utm_source=api&utm_medium=external", "listing_type": "buy", "location_accuracy": 9, "longitude": -3.56664, "price": 425000, "price_currency": "\u00a3", "price_formatted": "\u00a3425,000", "price_high": 425000, "price_low": 425000, "price_type": "fixed", "property_type": "land", "size": 0, "size_type": "net", "summary": "An block of productive pasture land enjoying extensive road frontag...", "thumb_height": 60, "thumb_url": "https://imgs.nestimg.com/medium/land_for_sale_111124354629969353.jpg", "thumb_width": 80, "title": "Winsford, Minehead, Somerset, TA24", "updated_in_days": 98, "updated_in_days_formatted": "first seen over a month ago"}, {"bathroom_number": "", "bedroom_number": "", "car_spaces": 0, "commission": 0, "construction_year": 0, "datasource_name": "OnTheMarket.com", "img_height": 300, "img_url": "https://imgs.nestimg.com/land_for_sale_111124353279249359.jpg", "img_width": 400, "keywords": "", "latitude": 51.1156, "lister_name": "Greenslade Taylor Hunt", "lister_url": "https://www.nestoria.co.uk/detail/0000000111124353279249359/title/5/56-12?serpUid=&pt=1&ot=1&l=somerset&did=105_high1&t_sec=9&t_or=45&t_pvid=null&utm_source=api&utm_medium=external", "listing_type": "buy", "location_accuracy": 9, "longitude": -3.56664, "price": 300000, "price_currency": "\u00a3", "price_formatted": "\u00a3300,000", "price_high": 300000, "price_low": 300000, "price_type": "fixed", "property_type": "land", "size": 0, "size_type": "net", "summary": "An block of versatile land bisected by the river exe , comprising a...", "thumb_height": 60, "thumb_url": "https://imgs.nestimg.com/medium/land_for_sale_111124353279249359.jpg", "thumb_width": 80, "title": "Winsford, Minehead, Somerset, TA24", "updated_in_days": 98, "updated_in_days_formatted": "first seen over a month ago"}, {"bathroom_number": "", "bedroom_number": "", "car_spaces": 0, "commission": 0, "construction_year": 0, "datasource_name": "OnTheMarket.com", "img_height": 300, "img_url": "https://imgs.nestimg.com/plot_for_sale_110265038839235459.jpg", "img_width": 400, "keywords": "Modern", "latitude": 51.193306, "lister_name": "Knight Frank", "lister_url": "https://www.nestoria.co.uk/detail/0000000110265038839235459/title/5/56-13?serpUid=&pt=1&ot=1&l=somerset&did=105_high1&t_sec=9&t_or=45&t_pvid=null&utm_source=api&utm_medium=external", "listing_type": "buy", "location_accuracy": 9, "longitude": -2.518304, "price": 545000, "price_currency": "\u00a3", "price_formatted": "\u00a3545,000", "price_high": 545000, "price_low": 545000, "price_type": "fixed", "property_type": "land", "size": 0, "size_type": "net", "summary": "A opportunity to build your own 5 bedroom detached modern home. For...", "thumb_height": 60, "thumb_url": "https://imgs.nestimg.com/medium/plot_for_sale_110265038839235459.jpg", "thumb_width": 80, "title": "Bodden, Shepton Mallet, Somerset, BA4", "updated_in_days": 114, "updated_in_days_formatted": "first seen over a month ago"}, {"bathroom_number": "", "bedroom_number": 4, "car_spaces": 0, "commission": 0, "construction_year": 0, "datasource_name": "OnTheMarket.com", "img_height": 300, "img_url": "https://imgs.nestimg.com/4_bedroom_detached_house_for_sale_111489639330140738.jpg", "img_width": 400, "keywords": "Detached, Garden, Conversion", "latitude": 51.3777, "lister_name": "Carter Jonas", "lister_url": "https://www.nestoria.co.uk/detail/0000000111489639330140738/title/5/56-14?serpUid=&pt=1&ot=1&l=somerset&did=105_high1&t_sec=9&t_or=45&t_pvid=null&utm_source=api&utm_medium=external", "listing_type": "buy", "location_accuracy": 9, "longitude": -2.50516, "price": 1250000, "price_currency": "\u00a3", "price_formatted": "\u00a31,250,000", "price_high": 1250000, "price_low": 1250000, "price_type": "fixed", "property_type": "house", "size": 0, "size_type": "net", "summary": "A barn conversion with large gardens and breathtaking rural views i...", "thumb_height": 60, "thumb_url": "https://imgs.nestimg.com/medium/4_bedroom_detached_house_for_sale_111489639330140738.jpg", "thumb_width": 80, "title": "The Green, Compton Dando, Bristol, Somerset, BS39", "updated_in_days": 39, "updated_in_days_formatted": "first seen over a month ago"}, {"bathroom_number": "", "bedroom_number": 4, "car_spaces": 0, "commission": 0, "construction_year": 0, "datasource_name": "OnTheMarket.com", "img_height": 300, "img_url": "https://imgs.nestimg.com/4_bedroom_detached_house_for_sale_111587833274758261.jpg", "img_width": 400, "keywords": "Detached", "latitude": 51.291817, "lister_url": "https://www.nestoria.co.uk/detail/0000000111587833274758261/title/5/56-15?serpUid=&pt=1&ot=1&l=somerset&did=105_high1&t_sec=9&t_or=45&t_pvid=null&utm_source=api&utm_medium=external", "listing_type": "buy", "location_accuracy": 9, "longitude": -2.4283118, "price": 325000, "price_currency": "\u00a3", "price_formatted": "\u00a3325,000", "price_high": 325000, "price_low": 325000, "price_type": "fixed", "property_type": "house", "size": 0, "size_type": "net", "summary": "This superb detached family home is set on a small development in t...", "thumb_height": 60, "thumb_url": "https://imgs.nestimg.com/medium/4_bedroom_detached_house_for_sale_111587833274758261.jpg", "thumb_width": 80, "title": "St. Marys Rise, Writhlington, RADSTOCK, Somerset, BA3", "updated_in_days": 23, "updated_in_days_formatted": "first seen 3 weeks ago"}], "locations": [{"center_lat": 51.080967, "center_long": -3.045432, "long_title": "Somerset, county", "place_name": "somerset", "title": "Somerset"}], "page": 56, "sort": "nestoria_rank", "status_code": "200", "status_text": "OK", "thanks": "For using the Nestoria API.", "total_pages": 410, "total_results": 6149, "_cu5t0mP434m_": "remove"}}