{"request": {"country": "uk", "language": "en", "location": "somerset", "num_res": "15", "offset": 840, "output": "json_xs", "page": 57, "product_type": "realestate", "property_type": "property", "size_type": "net", "size_unit": "m2", "sort": "nestoria_rank", "listing_type": "buy"}, "response": {"application_response_code": "100", "application_response_text": "listings returned for one unambiguous location", "attribution": {"img_height": 22, "img_url": "https://resources.nestimg.com/nestoria/img/pbr_v1.png", "img_width": 183, "link_to_img": "http://www.nestoria.com"}, "created_http": "Tue, 18 Jun 2019 17:30:00 GMT", "created_unix": 1560879000, "link_to_url": "https://www.nestoria.co.uk/somerset/property/buy/57", "listings": [{"bathroom_number": "", "bedroom_number": 3, "car_spaces": 0, "commission": 0, "construction_year": 0, "datasource_name": "OnTheMarket.com", "img_height": 300, "img_url": "https://imgs.nestimg.com/3_bedroom_link_detached_house_for_sale_111253927137453357.jpg", "img_width": 400, "keywords": "Detached, Garden, Garage, Cul-de-Sac", "latitude": 51.31455, "lister_url": "https://www.nestoria.co.uk/detail/0000000111253927137453357/title/5/57-1?serpUid=&pt=1&ot=1&l=somerset&did=105_high1&t_sec=9&t_or=45&t_pvid=null&utm_source=api&utm_medium=external", "listing_type": "buy", "location_accuracy": 9, "longitude": -2.4154096, "price": 279950, "price_currency": "\u00a3", "price_formatted": "\u00a3279,950", "price_high": 279950, "price_low": 279950, "price_type": "fixed", "property_type": "house", "size": 0, "size_type": "net", "summary": "Extended link detached home situated towards the end of the cul-de-...", "thumb_height": 60, "thumb_url": "https://imgs.nestimg.com/medium/3_bedroom_link_detached_house_for_sale_111253927137453357.jpg", "thumb_width": 80, "title": "Faulkland View, Peasedown St. John, BATH, Somerset, BA2", "updated_in_days": 77, "updated_in_days_formatted": "first seen over a month ago"}, {"bathroom_number": "", "bedroom_number": 2, "car_spaces": 0, "commission": 0, "construction_year": 0, "datasource_name": "OnTheMarket.com", "img_height": 300, "img_url": "https://imgs.nestimg.com/2_bedroom_terraced_house_for_sale_111253926526596211.jpg", "img_width": 400, "keywords": "Garden, Terraced, Parking", "latitude": 51.318626, "lister_url": "https://www.nestoria.co.uk/detail/0000000111253926526596211/title/5/57-2?serpUid=&pt=1&ot=1&l=somerset&did=105_high1&t_sec=9&t_or=45&t_pvid=null&utm_source=api&utm_medium=external", "listing_type": "buy", "location_accuracy": 9, "longitude": -2.42882, "price": 230000, "price_currency": "\u00a3", "price_formatted": "\u00a3230,000", "price_high": 230000, "price_low": 230000, "price_type": "fixed", "property_type": "house", "size": 0, "size_type": "net", "summary": "A super period home with gardens to the front and rear and off road...", "thumb_height": 60, "thumb_url": "https://imgs.nestimg.com/medium/2_bedroom_terraced_house_for_sale_111253926526596211.jpg", "thumb_width": 80, "title": "Hillside View, Peasedown St. John, BATH, Somerset, BA2", "updated_in_days": 77, "updated_in_days_formatted": "first seen over a month ago"}, {"bathroom_number": "", "bedroom_number": 2, "car_spaces": 0, "commission": 0, "construction_year": 0, "datasource_name": "OnTheMarket.com", "img_height": 300, "img_url": "https://imgs.nestimg.com/2_bedroom_cottage_for_sale_111272699621894483.jpg", "img_width": 400, "keywords": "Cottage", "latitude": 51.32782, "lister_url": "https://www.nestoria.co.uk/detail/0000000111272699621894483/title/5/57-3?serpUid=&pt=1&ot=1&l=somerset&did=105_high1&t_sec=9&t_or=45&t_pvid=null&utm_source=api&utm_medium=external", "listing_type": "buy", "location_accuracy": 9, "longitude": -2.473702, "price": 220000, "price_currency": "\u00a3", "price_formatted": "\u00a3220,000", "price_high": 220000, "price_low": 220000, "price_type": "fixed", "property_type": "house", "size": 0, "size_type": "net", "summary": "This two bedroom character cottage is set in the centre of timsbury...", "thumb_height": 60, "thumb_url": "https://imgs.nestimg.com/medium/2_bedroom_cottage_for_sale_111272699621894483.jpg", "thumb_width": 80, "title": "North Road, Timsbury, BATH, Somerset, BA2", "updated_in_days": 34, "updated_in_days_formatted": "first seen over a month ago"}, {"bathroom_number": "", "bedroom_number": 3, "car_spaces": 0, "commission": 0, "construction_year": 0, "datasource_name": "OnTheMarket.com", "img_height": 300, "img_url": "https://imgs.nestimg.com/3_bedroom_terraced_house_for_sale_111581692374709728.jpg", "img_width": 400, "keywords": "Refurbished, Terraced", "latitude": 51.33301, "lister_url": "https://www.nestoria.co.uk/detail/0000000111581692374709728/title/5/57-4?serpUid=&pt=1&ot=1&l=somerset&did=105_high1&t_sec=9&t_or=45&t_pvid=null&utm_source=api&utm_medium=external", "listing_type": "buy", "location_accuracy": 9, "longitude": -2.418751, "price": 265000, "price_currency": "\u00a3", "price_formatted": "\u00a3265,000", "price_high": 265000, "price_low": 265000, "price_type": "fixed", "property_type": "house", "size": 0, "size_type": "net", "summary": "A refurbished three bedroom home situated in the idyllic village of...", "thumb_height": 60, "thumb_url": "https://imgs.nestimg.com/medium/3_bedroom_terraced_house_for_sale_111581692374709728.jpg", "thumb_width": 80, "title": "Dunkerton, BATH, Somerset, BA2", "updated_in_days": 24, "updated_in_days_formatted": "first seen 3 weeks ago"}, {"bathroom_number": "", "bedroom_number": 4, "car_spaces": 0, "commission": 0, "construction_year": 0, "datasource_name": "OnTheMarket.com", "img_height": 300, "img_url": "https://imgs.nestimg.com/4_bedroom_semi_detached_house_for_sale_111266575693703811.jpg", "img_width": 400, "keywords": "Semi-Detached", "latitude": 51.343147, "lister_url": "https://www.nestoria.co.uk/detail/0000000111266575693703811/title/5/57-5?serpUid=&pt=1&ot=1&l=somerset&did=105_high1&t_sec=9&t_or=45&t_pvid=null&utm_source=api&utm_medium=external", "listing_type": "buy", "location_accuracy": 9, "longitude": -2.4825575, "price": 285000, "price_currency": "\u00a3", "price_formatted": "\u00a3285,000", "price_high": 285000, "price_low": 285000, "price_type": "fixed", "property_type": "house", "size": 0, "size_type": "net", "summary": "A chance to purchase a well presented family home within the villag...", "thumb_height": 60, "thumb_url": "https://imgs.nestimg.com/medium/4_bedroom_semi_detached_house_for_sale_111266575693703811.jpg", "thumb_width": 80, "title": "Timsbury Road, Farmborough, BATH, Somerset, BA2", "updated_in_days": 41, "updated_in_days_formatted": "first seen over a month ago"}, {"bathroom_number": "", "bedroom_number": "", "car_spaces": 0, "commission": 0, "construction_year": 0, "datasource_name": "OnTheMarket.com", "img_height": 300, "img_url": "https://imgs.nestimg.com/plot_for_sale_111656080125404222.jpg", "img_width": 400, "keywords": "Conversion", "latitude": 51.362, "lister_name": "Woolley & Wallis", "lister_url": "https://www.nestoria.co.uk/detail/0000000111656080125404222/title/5/57-6?serpUid=&pt=1&ot=1&l=somerset&did=105_high1&t_sec=9&t_or=45&t_pvid=null&utm_source=api&utm_medium=external", "listing_type": "buy", "location_accuracy": 9, "longitude": -2.53883, "price": 175000, "price_currency": "\u00a3", "price_formatted": "\u00a3175,000", "price_high": 175000, "price_low": 175000, "price_type": "fixed", "property_type": "land", "size": 0, "size_type": "net", "summary": "Planning permission has been granted for conversion of a steel fram...", "thumb_height": 60, "thumb_url": "https://imgs.nestimg.com/medium/plot_for_sale_111656080125404222.jpg", "thumb_width": 80, "title": "Birchwood Lane, Pensford, Bristol, Somerset, BS39", "updated_in_days": 12, "updated_in_days_formatted": "first seen last week"}, {"bathroom_number": "", "bedroom_number": 1, "car_spaces": 0, "commission": 0, "construction_year": 0, "datasource_name": "OnTheMarket.com", "img_height": 300, "img_url": "https://imgs.nestimg.com/1_bedroom_terraced_house_for_sale_111253928794288353.jpg", "img_width": 400, "keywords": "Terraced, Cottage", "latitude": 51.30193, "lister_url": "https://www.nestoria.co.uk/detail/0000000111253928794288353/title/5/57-7?serpUid=&pt=1&ot=1&l=somerset&did=105_high1&t_sec=9&t_or=45&t_pvid=null&utm_source=api&utm_medium=external", "listing_type": "buy", "location_accuracy": 9, "longitude": -2.411265, "price": 200000, "price_currency": "\u00a3", "price_formatted": "\u00a3200,000", "price_high": 200000, "price_low": 200000, "price_type": "fixed", "property_type": "house", "size": 0, "size_type": "net", "summary": "A well presented characterful period cottage set in the countryside...", "thumb_height": 60, "thumb_url": "https://imgs.nestimg.com/medium/1_bedroom_terraced_house_for_sale_111253928794288353.jpg", "thumb_width": 80, "title": "Shoscombe Vale, Shoscombe, BATH, Somerset, BA2", "updated_in_days": 77, "updated_in_days_formatted": "first seen over a month ago"}, {"bathroom_number": "", "bedroom_number": 2, "car_spaces": 0, "commission": 0, "construction_year": 0, "datasource_name": "OnTheMarket.com", "img_height": 300, "img_url": "https://imgs.nestimg.com/2_bedroom_detached_bungalow_for_sale_111253925951562302.jpg", "img_width": 400, "keywords": "Detached, Bungalow", "latitude": 51.31467, "lister_url": "https://www.nestoria.co.uk/detail/0000000111253925951562302/title/5/57-8?serpUid=&pt=1&ot=1&l=somerset&did=105_high1&t_sec=9&t_or=45&t_pvid=null&utm_source=api&utm_medium=external", "listing_type": "buy", "location_accuracy": 9, "longitude": -2.437997, "price": 249950, "price_currency": "\u00a3", "price_formatted": "\u00a3249,950", "price_high": 249950, "price_low": 249950, "price_type": "fixed", "property_type": "house", "size": 0, "size_type": "net", "summary": "A detached bungalow positioned in a scenic rural setting within 0.5...", "thumb_height": 60, "thumb_url": "https://imgs.nestimg.com/medium/2_bedroom_detached_bungalow_for_sale_111253925951562302.jpg", "thumb_width": 80, "title": "Whitebrook Lane, Peasedown St. John, BATH, Somerset, BA2", "updated_in_days": 77, "updated_in_days_formatted": "first seen over a month ago"}, {"bathroom_number": "", "bedroom_number": "", "car_spaces": 0, "commission": 0, "construction_year": 0, "datasource_name": "OnTheMarket.com", "img_height": 300, "img_url": "https://imgs.nestimg.com/land_for_sale_110920515226994865.jpg", "img_width": 400, "keywords": "", "latitude": 50.9969, "lister_name": "Stags", "lister_url": "https://www.nestoria.co.uk/detail/0000000110920515226994865/title/5/57-9?serpUid=&pt=1&ot=1&l=somerset&did=105_high1&t_sec=9&t_or=45&t_pvid=null&utm_source=api&utm_medium=external", "listing_type": "buy", "location_accuracy": 9, "longitude": -2.42058, "price": 490000, "price_currency": "\u00a3", "price_formatted": "\u00a3490,000", "price_high": 490000, "price_low": 490000, "price_type": "fixed", "property_type": "land", "size": 0, "size_type": "net", "summary": "Site with full planning permission for four detached properties. Tw...", "thumb_height": 60, "thumb_url": "https://imgs.nestimg.com/medium/land_for_sale_110920515226994865.jpg", "thumb_width": 80, "title": "West Street, Templecombe, Somerset, BA8", "updated_in_days": 14, "updated_in_days_formatted": "first seen 2 weeks ago"}, {"bathroom_number": "", "bedroom_number": "", "car_spaces": 0, "commission": 0, "construction_year": 0, "datasource_name": "OnTheMarket.com", "img_height": 300, "img_url": "https://imgs.nestimg.com/land_for_sale_111656083427805068.jpg", "img_width": 400, "keywords": "Modern", "latitude": 51.362, "lister_name": "Woolley & Wallis", "lister_url": "https://www.nestoria.co.uk/detail/0000000111656083427805068/title/5/57-10?serpUid=&pt=1&ot=1&l=somerset&did=105_high1&t_sec=9&t_or=45&t_pvid=null&utm_source=api&utm_medium=external", "listing_type": "buy", "location_accuracy": 9, "longitude": -2.53883, "price": 400000, "price_currency": "\u00a3", "price_formatted": "\u00a3400,000", "price_high": 400000, "price_low": 400000, "price_type": "fixed", "property_type": "land", "size": 0, "size_type": "net", "summary": "A good quality single field of easy working quality arable land wit...", "thumb_height": 60, "thumb_url": "https://imgs.nestimg.com/medium/land_for_sale_111656083427805068.jpg", "thumb_width": 80, "title": "Birchwood Lane, Pensford, Bristol, Somerset, BS39", "updated_in_days": 12, "updated_in_days_formatted": "first seen last week"}, {"bathroom_number": "", "bedroom_number": "", "car_spaces": 0, "commission": 0, "construction_year": 0, "datasource_name": "OnTheMarket.com", "img_height": 300, "img_url": "https://imgs.nestimg.com/2_bedroom_property_with_land_for_sale_111656082106160538.jpg", "img_width": 400, "keywords": "Conversion", "latitude": 51.362, "lister_name": "Woolley & Wallis", "lister_url": "https://www.nestoria.co.uk/detail/0000000111656082106160538/title/5/57-11?serpUid=&pt=1&ot=1&l=somerset&did=105_high1&t_sec=9&t_or=45&t_pvid=null&utm_source=api&utm_medium=external", "listing_type": "buy", "location_accuracy": 9, "longitude": -2.53883, "price": 225000, "price_currency": "\u00a3", "price_formatted": "\u00a3225,000", "price_high": 225000, "price_low": 225000, "price_type": "fixed", "property_type": "land", "size": 0, "size_type": "net", "summary": "This former stone built farm building has planning permission to be...", "thumb_height": 60, "thumb_url": "https://imgs.nestimg.com/medium/2_bedroom_property_with_land_for_sale_111656082106160538.jpg", "thumb_width": 80, "title": "Birchwood Lane, Pensford, Bristol, Somerset, BS39", "updated_in_days": 12, "updated_in_days_formatted": "first seen last week"}, {"bathroom_number": "", "bedroom_number": "", "car_spaces": 0, "commission": 0, "construction_year": 0, "datasource_name": "OnTheMarket.com", "img_height": 300, "img_url": "https://imgs.nestimg.com/land_for_sale_111656083210293856.jpg", "img_width": 400, "keywords": "", "latitude": 51.362, "lister_name": "Woolley & Wallis", "lister_url": "https://www.nestoria.co.uk/detail/0000000111656083210293856/title/5/57-12?serpUid=&pt=1&ot=1&l=somerset&did=105_high1&t_sec=9&t_or=45&t_pvid=null&utm_source=api&utm_medium=external", "listing_type": "buy", "location_accuracy": 9, "longitude": -2.53883, "price": 550000, "price_currency": "\u00a3", "price_formatted": "\u00a3550,000", "price_high": 550000, "price_low": 550000, "price_type": "fixed", "property_type": "land", "size": 0, "size_type": "net", "summary": "An parcel of arable and pastureland extending to about 51.67 acres ...", "thumb_height": 60, "thumb_url": "https://imgs.nestimg.com/medium/land_for_sale_111656083210293856.jpg", "thumb_width": 80, "title": "Birchwood Lane, Pensford, Bristol, Somerset, BS39", "updated_in_days": 12, "updated_in_days_formatted": "first seen last week"}, {"bathroom_number": "", "bedroom_number": "", "car_spaces": 0, "commission": 0, "construction_year": 0, "datasource_name": "OnTheMarket.com", "img_height": 300, "img_url": "https://imgs.nestimg.com/plot_for_sale_111346681592463302.jpg", "img_width": 400, "keywords": "Garden, Garage", "latitude": 51.2909, "lister_name": "Cooper & Tanner", "lister_url": "https://www.nestoria.co.uk/detail/0000000111346681592463302/title/5/57-13?serpUid=&pt=1&ot=1&l=somerset&did=105_high1&t_sec=9&t_or=45&t_pvid=null&utm_source=api&utm_medium=external", "listing_type": "buy", "location_accuracy": 9, "longitude": -2.44382, "price": 500000, "price_currency": "\u00a3", "price_formatted": "\u00a3500,000", "price_high": 500000, "price_low": 500000, "price_type": "fixed", "property_type": "land", "size": 0, "size_type": "net", "summary": "An development opportunity, well-located, within a short distance f...", "thumb_height": 60, "thumb_url": "https://imgs.nestimg.com/medium/plot_for_sale_111346681592463302.jpg", "thumb_width": 80, "title": "Radstock, Somerset - Garden", "updated_in_days": 31, "updated_in_days_formatted": "first seen over a month ago"}, {"bathroom_number": "", "bedroom_number": "", "car_spaces": 0, "commission": 0, "construction_year": 0, "datasource_name": "OnTheMarket.com", "img_height": 300, "img_url": "https://imgs.nestimg.com/land_for_sale_110802581248567334.jpg", "img_width": 400, "keywords": "", "latitude": 51.0043, "lister_name": "Stags", "lister_url": "https://www.nestoria.co.uk/detail/0000000110802581248567334/title/5/57-14?serpUid=&pt=1&ot=1&l=somerset&did=105_high1&t_sec=9&t_or=45&t_pvid=null&utm_source=api&utm_medium=external", "listing_type": "buy", "location_accuracy": 9, "longitude": -2.41188, "price": 300000, "price_currency": "\u00a3", "price_formatted": "\u00a3300,000", "price_high": 300000, "price_low": 300000, "price_type": "fixed", "property_type": "land", "size": 0, "size_type": "net", "summary": "A pair of stone barns, in a convenient rural position with planning...", "thumb_height": 60, "thumb_url": "https://imgs.nestimg.com/medium/land_for_sale_110802581248567334.jpg", "thumb_width": 80, "title": "Throop Road, Templecombe, Somerset, BA8", "updated_in_days": 26, "updated_in_days_formatted": "first seen 3 weeks ago"}, {"bathroom_number": "", "bedroom_number": "", "car_spaces": 0, "commission": 0, "construction_year": 0, "datasource_name": "OnTheMarket.com", "img_height": 300, "img_url": "https://imgs.nestimg.com/3_bedroom_detached_house_for_sale_110932458257495867.jpg", "img_width": 400, "keywords": "", "latitude": 51.0043, "lister_name": "Stags", "lister_url": "https://www.nestoria.co.uk/detail/0000000110932458257495867/title/5/57-15?serpUid=&pt=1&ot=1&l=somerset&did=105_high1&t_sec=9&t_or=45&t_pvid=null&utm_source=api&utm_medium=external", "listing_type": "buy", "location_accuracy": 9, "longitude": -2.41188, "price": 150000, "price_currency": "\u00a3", "price_formatted": "\u00a3150,000", "price_high": 150000, "price_low": 150000, "price_type": "fixed", "property_type": "land", "size": 0, "size_type": "net", "summary": "A stone barn with planning permission for a single storey 3 bedroom...", "thumb_height": 60, "thumb_url": "https://imgs.nestimg.com/medium/3_bedroom_detached_house_for_sale_110932458257495867.jpg", "thumb_width": 80, "title": "Throop Road, Templecombe, Somerset, BA8", "updated_in_days": 26, "updated_in_days_formatted": "first seen 3 weeks ago"}], "locations": [{"center_lat": 51.080967, "center_long": -3.045432, "long_title": "Somerset, county", "place_name": "somerset", "title": "Somerset"}], "page": 57, "sort": "nestoria_rank", "status_code": "200", "status_text": "OK", "thanks": "For using the Nestoria API.", "total_pages": 410, "total_results": 6149, "_cu5t0mP434m_": "remove"}}