{"request": {"country": "uk", "language": "en", "location": "somerset", "num_res": "15", "offset": 855, "output": "json_xs", "page": 58, "product_type": "realestate", "property_type": "property", "size_type": "net", "size_unit": "m2", "sort": "nestoria_rank", "listing_type": "buy"}, "response": {"application_response_code": "100", "application_response_text": "listings returned for one unambiguous location", "attribution": {"img_height": 22, "img_url": "https://resources.nestimg.com/nestoria/img/pbr_v1.png", "img_width": 183, "link_to_img": "http://www.nestoria.com"}, "created_http": "Tue, 18 Jun 2019 17:30:02 GMT", "created_unix": 1560879002, "link_to_url": "https://www.nestoria.co.uk/somerset/property/buy/58", "listings": [{"bathroom_number": "", "bedroom_number": "", "car_spaces": 0, "commission": 0, "construction_year": 0, "datasource_name": "OnTheMarket.com", "img_height": 300, "img_url": "https://imgs.nestimg.com/land_for_sale_110407142181715439.jpg", "img_width": 400, "keywords": "Modern", "latitude": 51.1761, "lister_url": "https://www.nestoria.co.uk/detail/0000000110407142181715439/title/5/58-1?serpUid=&pt=1&ot=1&l=somerset&did=105_high1&t_sec=9&t_or=45&t_pvid=null&utm_source=api&utm_medium=external", "listing_type": "buy", "location_accuracy": 9, "longitude": -2.43871, "price": 1325000, "price_currency": "\u00a3", "price_formatted": "\u00a31,325,000", "price_high": 1325000, "price_low": 1325000, "price_type": "fixed", "property_type": "land", "size": 0, "size_type": "net", "summary": "147 acres of arable landwith the benefit of a modern four bay steel...", "thumb_height": 60, "thumb_url": "https://imgs.nestimg.com/medium/land_for_sale_110407142181715439.jpg", "thumb_width": 80, "title": "Lot 7: Land At Leighton, Wanstrow, Shepton Mallet, Somerset, BA4", "updated_in_days": 214, "updated_in_days_formatted": "first seen over a month ago"}, {"bathroom_number": "", "bedroom_number": 2, "car_spaces": 0, "commission": 0, "construction_year": 0, "datasource_name": "OnTheMarket.com", "img_height": 300, "img_url": "https://imgs.nestimg.com/2_bedroom_semi_detached_house_for_sale_111253927808290233.jpg", "img_width": 400, "keywords": "Semi-Detached", "latitude": 51.378147, "lister_url": "https://www.nestoria.co.uk/detail/0000000111253927808290233/title/5/58-2?serpUid=&pt=1&ot=1&l=somerset&did=105_high1&t_sec=9&t_or=45&t_pvid=null&utm_source=api&utm_medium=external", "listing_type": "buy", "location_accuracy": 9, "longitude": -2.405655, "price": 215000, "price_currency": "\u00a3", "price_formatted": "\u00a3215,000", "price_high": 215000, "price_low": 215000, "price_type": "fixed", "property_type": "house", "size": 0, "size_type": "net", "summary": "A two bedroom semi detached house set back from sheridan road. With...", "thumb_height": 60, "thumb_url": "https://imgs.nestimg.com/medium/2_bedroom_semi_detached_house_for_sale_111253927808290233.jpg", "thumb_width": 80, "title": "Sheridan Road, BATH, Somerset, BA2", "updated_in_days": 53, "updated_in_days_formatted": "first seen over a month ago"}, {"bathroom_number": "", "bedroom_number": "", "car_spaces": 0, "commission": 0, "construction_year": 0, "datasource_name": "OnTheMarket.com", "img_height": 300, "img_url": "https://imgs.nestimg.com/land_for_sale_110407141416881697.jpg", "img_width": 400, "keywords": "", "latitude": 51.1761, "lister_url": "https://www.nestoria.co.uk/detail/0000000110407141416881697/title/5/58-3?serpUid=&pt=1&ot=1&l=somerset&did=105_high1&t_sec=9&t_or=45&t_pvid=null&utm_source=api&utm_medium=external", "listing_type": "buy", "location_accuracy": 9, "longitude": -2.43871, "price": 335000, "price_currency": "\u00a3", "price_formatted": "\u00a3335,000", "price_high": 335000, "price_low": 335000, "price_type": "fixed", "property_type": "land", "size": 0, "size_type": "net", "summary": "39.45 acres of arable land together with several copses", "thumb_height": 60, "thumb_url": "https://imgs.nestimg.com/medium/land_for_sale_110407141416881697.jpg", "thumb_width": 80, "title": "Lot 8: Land At East Cranmore, Wanstrow, Shepton Mallet, Somerset, BA4", "updated_in_days": 214, "updated_in_days_formatted": "first seen over a month ago"}, {"bathroom_number": "", "bedroom_number": "", "car_spaces": 0, "commission": 0, "construction_year": 0, "datasource_name": "OnTheMarket.com", "img_height": 300, "img_url": "https://imgs.nestimg.com/land_for_sale_110407141601577786.jpg", "img_width": 400, "keywords": "", "latitude": 51.1761, "lister_url": "https://www.nestoria.co.uk/detail/0000000110407141601577786/title/5/58-4?serpUid=&pt=1&ot=1&l=somerset&did=105_high1&t_sec=9&t_or=45&t_pvid=null&utm_source=api&utm_medium=external", "listing_type": "buy", "location_accuracy": 9, "longitude": -2.43871, "price": 230000, "price_currency": "\u00a3", "price_formatted": "\u00a3230,000", "price_high": 230000, "price_low": 230000, "price_type": "fixed", "property_type": "land", "size": 0, "size_type": "net", "summary": "29.95 acres divided between two gently sloping arable enclosures to...", "thumb_height": 60, "thumb_url": "https://imgs.nestimg.com/medium/land_for_sale_110407141601577786.jpg", "thumb_width": 80, "title": "Lot 11: Land At Studley Bottom, Wanstrow, Shepton Mallet, Somerset, BA4", "updated_in_days": 214, "updated_in_days_formatted": "first seen over a month ago"}, {"bathroom_number": "", "bedroom_number": "", "car_spaces": 0, "commission": 0, "construction_year": 0, "datasource_name": "OnTheMarket.com", "img_height": 300, "img_url": "https://imgs.nestimg.com/land_for_sale_110407141536974289.jpg", "img_width": 400, "keywords": "", "latitude": 51.1761, "lister_url": "https://www.nestoria.co.uk/detail/0000000110407141536974289/title/5/58-5?serpUid=&pt=1&ot=1&l=somerset&did=105_high1&t_sec=9&t_or=45&t_pvid=null&utm_source=api&utm_medium=external", "listing_type": "buy", "location_accuracy": 9, "longitude": -2.43871, "price": 75000, "price_currency": "\u00a3", "price_formatted": "\u00a375,000", "price_high": 75000, "price_low": 75000, "price_type": "fixed", "property_type": "land", "size": 0, "size_type": "net", "summary": "7.63 acres of arable land", "thumb_height": 60, "thumb_url": "https://imgs.nestimg.com/medium/land_for_sale_110407141536974289.jpg", "thumb_width": 80, "title": "Wanstrow, Shepton Mallet, Somerset, BA4", "updated_in_days": 214, "updated_in_days_formatted": "first seen over a month ago"}, {"bathroom_number": "", "bedroom_number": "", "car_spaces": 0, "commission": 0, "construction_year": 0, "datasource_name": "OnTheMarket.com", "img_height": 300, "img_url": "https://imgs.nestimg.com/land_for_sale_110407140199637057.jpg", "img_width": 400, "keywords": "", "latitude": 51.1761, "lister_url": "https://www.nestoria.co.uk/detail/0000000110407140199637057/title/5/58-6?serpUid=&pt=1&ot=1&l=somerset&did=105_high1&t_sec=9&t_or=45&t_pvid=null&utm_source=api&utm_medium=external", "listing_type": "buy", "location_accuracy": 9, "longitude": -2.43871, "price": 375000, "price_currency": "\u00a3", "price_formatted": "\u00a3375,000", "price_high": 375000, "price_low": 375000, "price_type": "fixed", "property_type": "land", "size": 0, "size_type": "net", "summary": "44.61 acres of productive arable and pasture land", "thumb_height": 60, "thumb_url": "https://imgs.nestimg.com/medium/land_for_sale_110407140199637057.jpg", "thumb_width": 80, "title": "Wanstrow, Shepton Mallet, Somerset, BA4", "updated_in_days": 214, "updated_in_days_formatted": "first seen over a month ago"}, {"bathroom_number": "", "bedroom_number": "", "car_spaces": 0, "commission": 0, "construction_year": 0, "datasource_name": "OnTheMarket.com", "img_height": 300, "img_url": "https://imgs.nestimg.com/land_for_sale_110401300324340331.jpg", "img_width": 400, "keywords": "", "latitude": 51.1736, "lister_url": "https://www.nestoria.co.uk/detail/0000000110401300324340331/title/5/58-7?serpUid=&pt=1&ot=1&l=somerset&did=105_high1&t_sec=9&t_or=45&t_pvid=null&utm_source=api&utm_medium=external", "listing_type": "buy", "location_accuracy": 9, "longitude": -2.41554, "price": 1000000, "price_currency": "\u00a3", "price_formatted": "\u00a31,000,000", "price_high": 1000000, "price_low": 1000000, "price_type": "fixed", "property_type": "land", "size": 0, "size_type": "net", "summary": "112 acres of productive arable land", "thumb_height": 60, "thumb_url": "https://imgs.nestimg.com/medium/land_for_sale_110401300324340331.jpg", "thumb_width": 80, "title": "Wanstrow, Shepton Mallet, Somerset, BA4", "updated_in_days": 215, "updated_in_days_formatted": "first seen over a month ago"}, {"bathroom_number": "", "bedroom_number": 6, "car_spaces": 0, "commission": 0, "construction_year": 0, "datasource_name": "OnTheMarket.com", "img_height": 300, "img_url": "https://imgs.nestimg.com/6_bedroom_semi_detached_house_for_sale_110412978323717312.jpg", "img_width": 400, "keywords": "Semi-Detached", "latitude": 50.9886, "lister_url": "https://www.nestoria.co.uk/detail/0000000110412978323717312/title/5/58-8?serpUid=&pt=1&ot=1&l=somerset&did=105_high1&t_sec=9&t_or=45&t_pvid=null&utm_source=api&utm_medium=external", "listing_type": "buy", "location_accuracy": 9, "longitude": -3.04397, "price": 1175000, "price_currency": "\u00a3", "price_formatted": "\u00a31,175,000", "price_high": 1175000, "price_low": 1175000, "price_type": "fixed", "property_type": "house", "size": 0, "size_type": "net", "summary": "The major portion of a sixteenth century manor house, set on the ed...", "thumb_height": 60, "thumb_url": "https://imgs.nestimg.com/medium/6_bedroom_semi_detached_house_for_sale_110412978323717312.jpg", "thumb_width": 80, "title": "Stoke St Mary, Taunton, Somerset, TA3", "updated_in_days": 5, "updated_in_days_formatted": "first seen 5 days ago"}, {"bathroom_number": "", "bedroom_number": 4, "car_spaces": 0, "commission": 0, "construction_year": 0, "datasource_name": "OnTheMarket.com", "img_height": 300, "img_url": "https://imgs.nestimg.com/4_bedroom_semi_detached_house_for_sale_109200482935993955.jpg", "img_width": 400, "keywords": "Garden, Semi-Detached, Garage, Kitchen, Modern", "latitude": 51.1253, "lister_name": "Stags", "lister_url": "https://www.nestoria.co.uk/detail/0000000109200482935993955/title/5/58-9?serpUid=&pt=1&ot=1&l=somerset&did=105_high1&t_sec=9&t_or=45&t_pvid=null&utm_source=api&utm_medium=external", "listing_type": "buy", "location_accuracy": 9, "longitude": -3.28494, "price": 335000, "price_currency": "\u00a3", "price_formatted": "\u00a3335,000", "price_high": 335000, "price_low": 335000, "price_type": "fixed", "property_type": "house", "size": 0, "size_type": "net", "summary": "A ly presented modern three storey village house with views towards...", "thumb_height": 60, "thumb_url": "https://imgs.nestimg.com/medium/4_bedroom_semi_detached_house_for_sale_109200482935993955.jpg", "thumb_width": 80, "title": "Pickpurse Lane, Stogumber, Taunton, Somerset, TA4", "updated_in_days": 5, "updated_in_days_formatted": "first seen 5 days ago"}, {"bathroom_number": "", "bedroom_number": 3, "car_spaces": 0, "commission": 0, "construction_year": 0, "datasource_name": "OnTheMarket.com", "img_height": 300, "img_url": "https://imgs.nestimg.com/3_bedroom_semi_detached_bungalow_for_sale_110456136050998156.jpg", "img_width": 400, "keywords": "Semi-Detached, No Chain, Bungalow", "latitude": 50.8778, "lister_name": "Greenslade Taylor Hunt", "lister_url": "https://www.nestoria.co.uk/detail/0000000110456136050998156/title/5/58-10?serpUid=&pt=1&ot=1&l=somerset&did=105_high1&t_sec=9&t_or=45&t_pvid=null&utm_source=api&utm_medium=external", "listing_type": "buy", "location_accuracy": 9, "longitude": -2.96417, "price": 189950, "price_currency": "\u00a3", "price_formatted": "\u00a3189,950", "price_high": 189950, "price_low": 189950, "price_type": "fixed", "property_type": "house", "size": 0, "size_type": "net", "summary": "A well proportioned 3 bedroom semi detached bungalow set in an envi...", "thumb_height": 60, "thumb_url": "https://imgs.nestimg.com/medium/3_bedroom_semi_detached_bungalow_for_sale_110456136050998156.jpg", "thumb_width": 80, "title": "Oak End Way, Chard, Somerset, TA20", "updated_in_days": 5, "updated_in_days_formatted": "first seen 5 days ago"}, {"bathroom_number": "", "bedroom_number": 4, "car_spaces": 0, "commission": 0, "construction_year": 0, "datasource_name": "OnTheMarket.com", "img_height": 300, "img_url": "https://imgs.nestimg.com/2_bedroom_cottage_for_sale_109843987090634346.jpg", "img_width": 400, "keywords": "Needs Modernisation, Cottage", "latitude": 51.1848, "lister_url": "https://www.nestoria.co.uk/detail/0000000109843987090634346/title/5/58-11?serpUid=&pt=1&ot=1&l=somerset&did=105_high1&t_sec=9&t_or=45&t_pvid=null&utm_source=api&utm_medium=external", "listing_type": "buy", "location_accuracy": 9, "longitude": -2.67289, "price": 500000, "price_currency": "\u00a3", "price_formatted": "\u00a3500,000", "price_high": 500000, "price_low": 500000, "price_type": "fixed", "property_type": "house", "size": 0, "size_type": "net", "summary": "Reduced to 'offers over 500k' looking for a quick sale and ideally ...", "thumb_height": 60, "thumb_url": "https://imgs.nestimg.com/medium/2_bedroom_cottage_for_sale_109843987090634346.jpg", "thumb_width": 80, "title": "Pillmoor Lane, Coxley, Nr. WELLS, Somerset", "updated_in_days": 5, "updated_in_days_formatted": "first seen 5 days ago"}, {"bathroom_number": "", "bedroom_number": 4, "car_spaces": 0, "commission": 0, "construction_year": 0, "datasource_name": "OnTheMarket.com", "img_height": 300, "img_url": "https://imgs.nestimg.com/5_bedroom_detached_house_for_sale_110283141377248951.jpg", "img_width": 400, "keywords": "Detached, En suite, Kitchen, Modern, Reception", "latitude": 51.0767, "lister_name": "Stags", "lister_url": "https://www.nestoria.co.uk/detail/0000000110283141377248951/title/5/58-12?serpUid=&pt=1&ot=1&l=somerset&did=105_high1&t_sec=9&t_or=45&t_pvid=null&utm_source=api&utm_medium=external", "listing_type": "buy", "location_accuracy": 9, "longitude": -3.00304, "price": 650000, "price_currency": "\u00a3", "price_formatted": "\u00a3650,000", "price_high": 650000, "price_low": 650000, "price_type": "fixed", "property_type": "house", "size": 0, "size_type": "net", "summary": "An individual detached modern house with equestrian facilities set ...", "thumb_height": 60, "thumb_url": "https://imgs.nestimg.com/medium/5_bedroom_detached_house_for_sale_110283141377248951.jpg", "thumb_width": 80, "title": "Petherton Road, North Newton, Bridgwater, Somerset, TA7", "updated_in_days": 53, "updated_in_days_formatted": "first seen over a month ago"}, {"bathroom_number": "", "bedroom_number": 2, "car_spaces": 0, "commission": 0, "construction_year": 0, "datasource_name": "OnTheMarket.com", "img_height": 300, "img_url": "https://imgs.nestimg.com/2_bedroom_apartment_for_sale_110103708745647183.jpg", "img_width": 400, "keywords": "Leasehold, Maisonette, Conversion", "latitude": 51.1296, "lister_name": "Greenslade Taylor Hunt", "lister_url": "https://www.nestoria.co.uk/detail/0000000110103708745647183/title/5/58-13?serpUid=&pt=1&ot=1&l=somerset&did=105_high1&t_sec=9&t_or=45&t_pvid=null&utm_source=api&utm_medium=external", "listing_type": "buy", "location_accuracy": 9, "longitude": -3.00276, "price": 159950, "price_currency": "\u00a3", "price_formatted": "\u00a3159,950", "price_high": 159950, "price_low": 159950, "price_type": "fixed", "property_type": "flat", "size": 0, "size_type": "net", "summary": "An and well appointed 2 bed maisonette style apartment situated in ...", "thumb_height": 60, "thumb_url": "https://imgs.nestimg.com/medium/2_bedroom_apartment_for_sale_110103708745647183.jpg", "thumb_width": 80, "title": "Castle Street, Bridgwater, Somerset, TA6", "updated_in_days": 14, "updated_in_days_formatted": "first seen 2 weeks ago"}, {"bathroom_number": "", "bedroom_number": 5, "car_spaces": 0, "commission": 0, "construction_year": 0, "datasource_name": "OnTheMarket.com", "img_height": 300, "img_url": "https://imgs.nestimg.com/5_bedroom_equestrian_facility_for_sale_107462784936528557.jpg", "img_width": 400, "keywords": "Swimming Pool", "latitude": 51.0441, "lister_url": "https://www.nestoria.co.uk/detail/0000000107462784936528557/title/5/58-14?serpUid=&pt=1&ot=1&l=somerset&did=105_high1&t_sec=9&t_or=45&t_pvid=null&utm_source=api&utm_medium=external", "listing_type": "buy", "location_accuracy": 9, "longitude": -3.0655, "price": 1850000, "price_currency": "\u00a3", "price_formatted": "\u00a31,850,000", "price_high": 1850000, "price_low": 1850000, "price_type": "fixed", "property_type": "house", "size": 0, "size_type": "net", "summary": "A country house set in well-stocked grounds with a superb pool leis...", "thumb_height": 60, "thumb_url": "https://imgs.nestimg.com/medium/5_bedroom_equestrian_facility_for_sale_107462784936528557.jpg", "thumb_width": 80, "title": "Sidbrook, West Monkton, Taunton, Somerset, TA2", "updated_in_days": 17, "updated_in_days_formatted": "first seen 2 weeks ago"}, {"bathroom_number": "", "bedroom_number": 3, "car_spaces": 0, "commission": 0, "construction_year": 0, "datasource_name": "OnTheMarket.com", "img_height": 300, "img_url": "https://imgs.nestimg.com/3_bedroom_house_for_sale_109615573737900427.jpg", "img_width": 400, "keywords": "Detached, Freehold, Garden, No Chain, Conservatory, Modern", "latitude": 51.1382, "lister_name": "Greenslade Taylor Hunt", "lister_url": "https://www.nestoria.co.uk/detail/0000000109615573737900427/title/5/58-15?serpUid=&pt=1&ot=1&l=somerset&did=105_high1&t_sec=9&t_or=45&t_pvid=null&utm_source=api&utm_medium=external", "listing_type": "buy", "location_accuracy": 9, "longitude": -3.01312, "price": 200000, "price_currency": "\u00a3", "price_formatted": "\u00a3200,000", "price_high": 200000, "price_low": 200000, "price_type": "fixed", "property_type": "house", "size": 0, "size_type": "net", "summary": "A modern detached family home with conservatory and pretty garden. ...", "thumb_height": 60, "thumb_url": "https://imgs.nestimg.com/medium/3_bedroom_house_for_sale_109615573737900427.jpg", "thumb_width": 80, "title": "Saviano Way, Bridgwater, Somerset, TA6", "updated_in_days": 35, "updated_in_days_formatted": "first seen over a month ago"}], "locations": [{"center_lat": 51.080967, "center_long": -3.045432, "long_title": "Somerset, county", "place_name": "somerset", "title": "Somerset"}], "page": 58, "sort": "nestoria_rank", "status_code": "200", "status_text": "OK", "thanks": "For using the Nestoria API.", "total_pages": 410, "total_results": 6149, "_cu5t0mP434m_": "remove"}}