{"request": {"country": "uk", "language": "en", "location": "somerset", "num_res": "15", "offset": 870, "output": "json_xs", "page": 59, "product_type": "realestate", "property_type": "property", "size_type": "net", "size_unit": "m2", "sort": "nestoria_rank", "listing_type": "buy"}, "response": {"application_response_code": "100", "application_response_text": "listings returned for one unambiguous location", "attribution": {"img_height": 22, "img_url": "https://resources.nestimg.com/nestoria/img/pbr_v1.png", "img_width": 183, "link_to_img": "http://www.nestoria.com"}, "created_http": "Tue, 18 Jun 2019 17:30:04 GMT", "created_unix": 1560879004, "link_to_url": "https://www.nestoria.co.uk/somerset/property/buy/59", "listings": [{"bathroom_number": "", "bedroom_number": 4, "car_spaces": 0, "commission": 0, "construction_year": 0, "datasource_name": "OnTheMarket.com", "img_height": 300, "img_url": "https://imgs.nestimg.com/4_bedroom_detached_house_for_sale_110128607555706865.jpg", "img_width": 400, "keywords": "Detached, Freehold, Double Garage", "latitude": 51.1274, "lister_name": "Greenslade Taylor Hunt", "lister_url": "https://www.nestoria.co.uk/detail/0000000110128607555706865/title/5/59-1?serpUid=&pt=1&ot=1&l=somerset&did=105_high1&t_sec=9&t_or=45&t_pvid=null&utm_source=api&utm_medium=external", "listing_type": "buy", "location_accuracy": 9, "longitude": -3.01679, "price": 350000, "price_currency": "\u00a3", "price_formatted": "\u00a3350,000", "price_high": 350000, "price_low": 350000, "price_type": "fixed", "property_type": "house", "size": 0, "size_type": "net", "summary": "A 4 bed detached house located in this highly position on the weste...", "thumb_height": 60, "thumb_url": "https://imgs.nestimg.com/medium/4_bedroom_detached_house_for_sale_110128607555706865.jpg", "thumb_width": 80, "title": "Wembdon Road, Bridgwater, Somerset, TA6", "updated_in_days": 112, "updated_in_days_formatted": "first seen over a month ago"}, {"bathroom_number": "", "bedroom_number": 8, "car_spaces": 0, "commission": 0, "construction_year": 0, "datasource_name": "OnTheMarket.com", "img_height": 300, "img_url": "https://imgs.nestimg.com/8_bedroom_house_for_sale_109961773677744401.jpg", "img_width": 400, "keywords": "Cottage", "latitude": 50.916744, "lister_url": "https://www.nestoria.co.uk/detail/0000000109961773677744401/title/5/59-2?serpUid=&pt=1&ot=1&l=somerset&did=105_high1&t_sec=9&t_or=45&t_pvid=null&utm_source=api&utm_medium=external", "listing_type": "buy", "location_accuracy": 9, "longitude": -2.6385694, "price": 2400000, "price_currency": "\u00a3", "price_formatted": "\u00a32,400,000", "price_high": 2400000, "price_low": 2400000, "price_type": "fixed", "property_type": "house", "size": 0, "size_type": "net", "summary": "Huge potential eventual development site! Short term potential 15% ...", "thumb_height": 60, "thumb_url": "https://imgs.nestimg.com/medium/8_bedroom_house_for_sale_109961773677744401.jpg", "thumb_width": 80, "title": "Pavyotts Lane, East Coker, Somerset, BA22", "updated_in_days": 5, "updated_in_days_formatted": "first seen 5 days ago"}, {"bathroom_number": "", "bedroom_number": 4, "car_spaces": 0, "commission": 0, "construction_year": 0, "datasource_name": "Home.co.uk", "img_height": 300, "img_url": "https://imgs.nestimg.com/detached_house_111680891477181793.jpg", "img_width": 400, "keywords": "Detached, Freehold, Modern", "latitude": 51.058079, "lister_name": "Greenslade Taylor Hunt", "lister_url": "https://www.nestoria.co.uk/detail/0000000111680891477181793/title/5/59-3?serpUid=&pt=1&ot=1&l=somerset&did=85_high1&t_sec=9&t_or=45&t_pvid=null&utm_source=api&utm_medium=external", "listing_type": "buy", "location_accuracy": 10, "longitude": -2.854493, "price": 465000, "price_currency": "\u00a3", "price_formatted": "\u00a3465,000", "price_high": 465000, "price_low": 465000, "price_type": "fixed", "property_type": "house", "size": 0, "size_type": "net", "summary": "Tenure: freehold an outstanding modern detached house with far reac...", "thumb_height": 60, "thumb_url": "https://imgs.nestimg.com/medium/detached_house_111680891477181793.jpg", "thumb_width": 80, "title": "Keirle Mews, Aller, Langport, Somerset, TA10", "updated_in_days": 8, "updated_in_days_formatted": "first seen last week"}, {"bathroom_number": "", "bedroom_number": 8, "car_spaces": 0, "commission": 0, "construction_year": 0, "datasource_name": "OnTheMarket.com", "img_height": 300, "img_url": "https://imgs.nestimg.com/8_bedroom_house_for_sale_107641632488227002.jpg", "img_width": 400, "keywords": "Cottage", "latitude": 50.925106, "lister_url": "https://www.nestoria.co.uk/detail/0000000107641632488227002/title/5/59-4?serpUid=&pt=1&ot=1&l=somerset&did=105_high1&t_sec=9&t_or=45&t_pvid=null&utm_source=api&utm_medium=external", "listing_type": "buy", "location_accuracy": 9, "longitude": -2.6369765, "price": 1875000, "price_currency": "\u00a3", "price_formatted": "\u00a31,875,000", "price_high": 1875000, "price_low": 1875000, "price_type": "fixed", "property_type": "house", "size": 0, "size_type": "net", "summary": "Complete change from the city and live the countryside dream! Just ...", "thumb_height": 60, "thumb_url": "https://imgs.nestimg.com/medium/8_bedroom_house_for_sale_107641632488227002.jpg", "thumb_width": 80, "title": "Pavyotts Lane, East Coker, Yeovil, Somerset, BA22", "updated_in_days": 5, "updated_in_days_formatted": "first seen 5 days ago"}, {"bathroom_number": "", "bedroom_number": 7, "car_spaces": 0, "commission": 0, "construction_year": 0, "datasource_name": "OnTheMarket.com", "img_height": 300, "img_url": "https://imgs.nestimg.com/7_bedroom_detached_house_for_sale_108971627295319945.jpg", "img_width": 400, "keywords": "Detached, Grade II, Listed", "latitude": 51.00653, "lister_name": "Strutt & Parker", "lister_url": "https://www.nestoria.co.uk/detail/0000000108971627295319945/title/5/59-5?serpUid=&pt=1&ot=1&l=somerset&did=105_high1&t_sec=9&t_or=45&t_pvid=null&utm_source=api&utm_medium=external", "listing_type": "buy", "location_accuracy": 9, "longitude": -3.14456, "price": 1250000, "price_currency": "\u00a3", "price_formatted": "\u00a31,250,000", "price_high": 1250000, "price_low": 1250000, "price_type": "fixed", "property_type": "house", "size": 0, "size_type": "net", "summary": "An grade ii listed house with glorious far-reaching views over the ...", "thumb_height": 60, "thumb_url": "https://imgs.nestimg.com/medium/7_bedroom_detached_house_for_sale_108971627295319945.jpg", "thumb_width": 80, "title": "Rumwell Park, Taunton, Somerset", "updated_in_days": 20, "updated_in_days_formatted": "first seen 2 weeks ago"}, {"bathroom_number": "", "bedroom_number": 3, "car_spaces": 0, "commission": 0, "construction_year": 0, "datasource_name": "OnTheMarket.com", "img_height": 300, "img_url": "https://imgs.nestimg.com/3_bedroom_detached_house_for_sale_110450330476285619.jpg", "img_width": 400, "keywords": "Detached, Freehold, Refurbished, Bungalow, Cul-de-Sac", "latitude": 51.0083, "lister_name": "Greenslade Taylor Hunt", "lister_url": "https://www.nestoria.co.uk/detail/0000000110450330476285619/title/5/59-6?serpUid=&pt=1&ot=1&l=somerset&did=105_high1&t_sec=9&t_or=45&t_pvid=null&utm_source=api&utm_medium=external", "listing_type": "buy", "location_accuracy": 9, "longitude": -3.11292, "price": 375000, "price_currency": "\u00a3", "price_formatted": "\u00a3375,000", "price_high": 375000, "price_low": 375000, "price_type": "fixed", "property_type": "house", "size": 0, "size_type": "net", "summary": "A refurbished 3 bedroom chalet style detached house set in an eleva...", "thumb_height": 60, "thumb_url": "https://imgs.nestimg.com/medium/3_bedroom_detached_house_for_sale_110450330476285619.jpg", "thumb_width": 80, "title": "Angela Close, Taunton, Somerset, TA1", "updated_in_days": 53, "updated_in_days_formatted": "first seen over a month ago"}, {"bathroom_number": "", "bedroom_number": 6, "car_spaces": 0, "commission": 0, "construction_year": 0, "datasource_name": "OnTheMarket.com", "img_height": 300, "img_url": "https://imgs.nestimg.com/6_bedroom_detached_house_for_sale_110140887700469284.jpg", "img_width": 400, "keywords": "Detached, Conversion", "latitude": 51.1213, "lister_name": "Stags", "lister_url": "https://www.nestoria.co.uk/detail/0000000110140887700469284/title/5/59-7?serpUid=&pt=1&ot=1&l=somerset&did=105_high1&t_sec=9&t_or=45&t_pvid=null&utm_source=api&utm_medium=external", "listing_type": "buy", "location_accuracy": 9, "longitude": -3.09733, "price": 1500000, "price_currency": "\u00a3", "price_formatted": "\u00a31,500,000", "price_high": 1500000, "price_low": 1500000, "price_type": "fixed", "property_type": "house", "size": 0, "size_type": "net", "summary": "A superb barn conversion with equestrian facilities, together with ...", "thumb_height": 60, "thumb_url": "https://imgs.nestimg.com/medium/6_bedroom_detached_house_for_sale_110140887700469284.jpg", "thumb_width": 80, "title": "Spaxton, Bridgwater, Somerset, TA5", "updated_in_days": 257, "updated_in_days_formatted": "first seen over a month ago"}, {"bathroom_number": "", "bedroom_number": 3, "car_spaces": 0, "commission": 0, "construction_year": 0, "datasource_name": "OnTheMarket.com", "img_height": 300, "img_url": "https://imgs.nestimg.com/3_bedroom_detached_house_for_sale_107295260403473245.jpg", "img_width": 400, "keywords": "Detached, Garden, Conservatory, Double Bedroom, Kitchen", "latitude": 51.0127, "lister_name": "Stags", "lister_url": "https://www.nestoria.co.uk/detail/0000000107295260403473245/title/5/59-8?serpUid=&pt=1&ot=1&l=somerset&did=105_high1&t_sec=9&t_or=45&t_pvid=null&utm_source=api&utm_medium=external", "listing_type": "buy", "location_accuracy": 9, "longitude": -3.11103, "price": 500000, "price_currency": "\u00a3", "price_formatted": "\u00a3500,000", "price_high": 500000, "price_low": 500000, "price_type": "fixed", "property_type": "house", "size": 0, "size_type": "net", "summary": "A ly designed detached house specifically for the over 55s with lan...", "thumb_height": 60, "thumb_url": "https://imgs.nestimg.com/medium/3_bedroom_detached_house_for_sale_107295260403473245.jpg", "thumb_width": 80, "title": "Cedar Gardens, Taunton, Taunton, Somerset, TA1", "updated_in_days": 251, "updated_in_days_formatted": "first seen over a month ago"}, {"bathroom_number": "", "bedroom_number": 4, "car_spaces": 0, "commission": 0, "construction_year": 0, "datasource_name": "OnTheMarket.com", "img_height": 300, "img_url": "https://imgs.nestimg.com/4_bedroom_detached_house_for_sale_109466418965072220.jpg", "img_width": 400, "keywords": "Detached, Garden, No Chain, Cottage", "latitude": 51.0254, "lister_name": "Stags", "lister_url": "https://www.nestoria.co.uk/detail/0000000109466418965072220/title/5/59-9?serpUid=&pt=1&ot=1&l=somerset&did=105_high1&t_sec=9&t_or=45&t_pvid=null&utm_source=api&utm_medium=external", "listing_type": "buy", "location_accuracy": 9, "longitude": -2.97369, "price": 750000, "price_currency": "\u00a3", "price_formatted": "\u00a3750,000", "price_high": 750000, "price_low": 750000, "price_type": "fixed", "property_type": "house", "size": 0, "size_type": "net", "summary": "A detached house with a separate three bedroom cottage, established...", "thumb_height": 60, "thumb_url": "https://imgs.nestimg.com/medium/4_bedroom_detached_house_for_sale_109466418965072220.jpg", "thumb_width": 80, "title": "Moor Lane, North Curry, Taunton, Somerset, TA3", "updated_in_days": 192, "updated_in_days_formatted": "first seen over a month ago"}, {"bathroom_number": "", "bedroom_number": 3, "car_spaces": 0, "commission": 0, "construction_year": 0, "datasource_name": "OnTheMarket.com", "img_height": 300, "img_url": "https://imgs.nestimg.com/3_bedroom_house_for_sale_110412975276191701.jpg", "img_width": 400, "keywords": "Detached, Freehold, Cul-de-Sac", "latitude": 51.1469, "lister_name": "Greenslade Taylor Hunt", "lister_url": "https://www.nestoria.co.uk/detail/0000000110412975276191701/title/5/59-10?serpUid=&pt=1&ot=1&l=somerset&did=105_high1&t_sec=9&t_or=45&t_pvid=null&utm_source=api&utm_medium=external", "listing_type": "buy", "location_accuracy": 9, "longitude": -3.06143, "price": 264950, "price_currency": "\u00a3", "price_formatted": "\u00a3264,950", "price_high": 264950, "price_low": 264950, "price_type": "fixed", "property_type": "house", "size": 0, "size_type": "net", "summary": "A well-presented and well-appointed 3 bed link-detached house, occu...", "thumb_height": 60, "thumb_url": "https://imgs.nestimg.com/medium/3_bedroom_house_for_sale_110412975276191701.jpg", "thumb_width": 80, "title": "Oaktree Way, Cannington, Bridgwater, Somerset, TA5", "updated_in_days": 118, "updated_in_days_formatted": "first seen over a month ago"}, {"bathroom_number": "", "bedroom_number": 3, "car_spaces": 0, "commission": 0, "construction_year": 0, "datasource_name": "OnTheMarket.com", "img_height": 300, "img_url": "https://imgs.nestimg.com/3_bedroom_semi_detached_house_for_sale_110412978270334041.jpg", "img_width": 400, "keywords": "Semi-Detached, Double Bedroom, Kitchen", "latitude": 51.011, "lister_name": "Stags", "lister_url": "https://www.nestoria.co.uk/detail/0000000110412978270334041/title/5/59-11?serpUid=&pt=1&ot=1&l=somerset&did=105_high1&t_sec=9&t_or=45&t_pvid=null&utm_source=api&utm_medium=external", "listing_type": "buy", "location_accuracy": 9, "longitude": -3.10095, "price": 295000, "price_currency": "\u00a3", "price_formatted": "\u00a3295,000", "price_high": 295000, "price_low": 295000, "price_type": "fixed", "property_type": "house", "size": 0, "size_type": "net", "summary": "A and ly renovated period property set in a sought after town locat...", "thumb_height": 60, "thumb_url": "https://imgs.nestimg.com/medium/3_bedroom_semi_detached_house_for_sale_110412978270334041.jpg", "thumb_width": 80, "title": "Mount Street, Taunton, Somerset, TA1", "updated_in_days": 213, "updated_in_days_formatted": "first seen over a month ago"}, {"bathroom_number": "", "bedroom_number": 6, "car_spaces": 0, "commission": 0, "construction_year": 0, "datasource_name": "OnTheMarket.com", "img_height": 300, "img_url": "https://imgs.nestimg.com/6_bedroom_semi_detached_house_for_sale_110043366356212613.jpg", "img_width": 400, "keywords": "Garden, Semi-Detached, Garage, Reception", "latitude": 51.059, "lister_name": "Stags", "lister_url": "https://www.nestoria.co.uk/detail/0000000110043366356212613/title/5/59-12?serpUid=&pt=1&ot=1&l=somerset&did=105_high1&t_sec=9&t_or=45&t_pvid=null&utm_source=api&utm_medium=external", "listing_type": "buy", "location_accuracy": 9, "longitude": -2.85825, "price": 625000, "price_currency": "\u00a3", "price_formatted": "\u00a3625,000", "price_high": 625000, "price_low": 625000, "price_type": "fixed", "property_type": "house", "size": 0, "size_type": "net", "summary": "A period house with accommodation close to the centre of the villag...", "thumb_height": 60, "thumb_url": "https://imgs.nestimg.com/medium/6_bedroom_semi_detached_house_for_sale_110043366356212613.jpg", "thumb_width": 80, "title": "Aller, Langport, Somerset, TA10", "updated_in_days": 40, "updated_in_days_formatted": "first seen over a month ago"}, {"bathroom_number": "", "bedroom_number": 2, "car_spaces": 0, "commission": 0, "construction_year": 0, "datasource_name": "NetHousePrices", "img_height": 300, "img_url": "https://imgs.nestimg.com/2_bedroom_apartment_flat_111723937827043007.jpg", "img_width": 400, "keywords": "Garden, New Build, Conversion, Kitchen, Parking, Patio, Shared Equity", "latitude": 50.885002, "lister_name": "Greenslade Taylor Hunt", "lister_url": "https://www.nestoria.co.uk/detail/0000000111723937827043007/title/5/59-13?serpUid=&pt=1&ot=1&l=somerset&did=90_high1&t_sec=9&t_or=45&t_pvid=null&utm_source=api&utm_medium=external", "listing_type": "buy", "location_accuracy": 9, "longitude": -2.952506, "price": 134950, "price_currency": "\u00a3", "price_formatted": "\u00a3134,950", "price_high": 134950, "price_low": 134950, "price_type": "fixed", "property_type": "flat", "size": 0, "size_type": "net", "summary": "Prices starting from 134,950 for a 2 bedroom apartment with 2 parki...", "thumb_height": 60, "thumb_url": "https://imgs.nestimg.com/medium/2_bedroom_apartment_flat_111723937827043007.jpg", "thumb_width": 80, "title": "Leach Road, Chard, Somerset, TA20", "updated_in_days": 1, "updated_in_days_formatted": "New"}, {"bathroom_number": "", "bedroom_number": 1, "car_spaces": 0, "commission": 0, "construction_year": 0, "datasource_name": "OnTheMarket.com", "img_height": 300, "img_url": "https://imgs.nestimg.com/1_bedroom_apartment_for_sale_110147208168658389.jpg", "img_width": 400, "keywords": "Purpose Built", "latitude": 51.0143, "lister_name": "Greenslade Taylor Hunt", "lister_url": "https://www.nestoria.co.uk/detail/0000000110147208168658389/title/5/59-14?serpUid=&pt=1&ot=1&l=somerset&did=105_high1&t_sec=9&t_or=45&t_pvid=null&utm_source=api&utm_medium=external", "listing_type": "buy", "location_accuracy": 9, "longitude": -3.10555, "price": 75000, "price_currency": "\u00a3", "price_formatted": "\u00a375,000", "price_high": 75000, "price_low": 75000, "price_type": "fixed", "property_type": "flat", "size": 0, "size_type": "net", "summary": "The perfect investment opportunity. 2 purpose built studio apartmen...", "thumb_height": 60, "thumb_url": "https://imgs.nestimg.com/medium/1_bedroom_apartment_for_sale_110147208168658389.jpg", "thumb_width": 80, "title": "Castlemoat Place, Corporation Street, Taunton, Somerset, TA1", "updated_in_days": 256, "updated_in_days_formatted": "first seen over a month ago"}, {"bathroom_number": "", "bedroom_number": 3, "car_spaces": 0, "commission": 0, "construction_year": 0, "datasource_name": "NetHousePrices", "img_height": 300, "img_url": "https://imgs.nestimg.com/3_bedroom_terraced_house_111717666132504546.jpg", "img_width": 400, "keywords": "Garden, En suite, Terraced, Double Bedroom, Kitchen, Gas Central Heating", "latitude": 51.13096, "lister_name": "Express", "lister_url": "https://www.nestoria.co.uk/detail/0000000111717666132504546/title/5/59-15?serpUid=&pt=1&ot=1&l=somerset&did=90_high1&t_sec=9&t_or=45&t_pvid=null&utm_source=api&utm_medium=external", "listing_type": "buy", "location_accuracy": 9, "longitude": -2.9943736, "price": 165000, "price_currency": "\u00a3", "price_formatted": "\u00a3165,000", "price_high": 165000, "price_low": 165000, "price_type": "fixed", "property_type": "house", "size": 0, "size_type": "net", "summary": "Three bedroom mid terrace housel interest and offers are invited. G...", "thumb_height": 60, "thumb_url": "https://imgs.nestimg.com/medium/3_bedroom_terraced_house_111717666132504546.jpg", "thumb_width": 80, "title": "Polden Street, Bridgwater, Somerset, TA6", "updated_in_days": 2, "updated_in_days_formatted": "first seen 2 days ago"}], "locations": [{"center_lat": 51.080967, "center_long": -3.045432, "long_title": "Somerset, county", "place_name": "somerset", "title": "Somerset"}], "page": 59, "sort": "nestoria_rank", "status_code": "200", "status_text": "OK", "thanks": "For using the Nestoria API.", "total_pages": 410, "total_results": 6149, "_cu5t0mP434m_": "remove"}}