{"request": {"country": "uk", "language": "en", "location": "somerset", "num_res": "15", "offset": 60, "output": "json_xs", "page": 5, "product_type": "realestate", "property_type": "property", "size_type": "net", "size_unit": "m2", "sort": "nestoria_rank", "listing_type": "buy"}, "response": {"application_response_code": "100", "application_response_text": "listings returned for one unambiguous location", "attribution": {"img_height": 22, "img_url": "https://resources.nestimg.com/nestoria/img/pbr_v1.png", "img_width": 183, "link_to_img": "http://www.nestoria.com"}, "created_http": "Tue, 18 Jun 2019 17:28:40 GMT", "created_unix": 1560878920, "link_to_url": "https://www.nestoria.co.uk/somerset/property/buy/5", "listings": [{"bathroom_number": "", "bedroom_number": 1, "car_spaces": 0, "commission": 0, "construction_year": 0, "datasource_name": "OnTheMarket.com", "img_height": 300, "img_url": "https://imgs.nestimg.com/1_bedroom_apartment_for_sale_111705541227528335.jpg", "img_width": 400, "keywords": "Double Bedroom, Garage, Kitchen", "latitude": 51.3491, "lister_url": "https://www.nestoria.co.uk/detail/0000000111705541227528335/title/5/5-1?serpUid=&pt=1&ot=1&l=somerset&did=105_high1&t_sec=9&t_or=45&t_pvid=null&utm_source=api&utm_medium=external", "listing_type": "buy", "location_accuracy": 9, "longitude": -2.92375, "price": 139995, "price_currency": "\u00a3", "price_formatted": "\u00a3139,995", "price_high": 139995, "price_low": 139995, "price_type": "fixed", "property_type": "flat", "size": 0, "size_type": "net", "summary": "A opportunity for a first time buyer or investor. A well presented ...", "thumb_height": 60, "thumb_url": "https://imgs.nestimg.com/medium/1_bedroom_apartment_for_sale_111705541227528335.jpg", "thumb_width": 80, "title": "Montacute Circus, Weston-Super-Mare, North Somerset, BS24", "updated_in_days": 4, "updated_in_days_formatted": "first seen 4 days ago"}, {"bathroom_number": "", "bedroom_number": 5, "car_spaces": 0, "commission": 0, "construction_year": 0, "datasource_name": "OnTheMarket.com", "img_height": 300, "img_url": "https://imgs.nestimg.com/5_bedroom_detached_house_for_sale_111025251845011462.jpg", "img_width": 400, "keywords": "Detached, Freehold", "latitude": 51.043, "lister_name": "Greenslade Taylor Hunt", "lister_url": "https://www.nestoria.co.uk/detail/0000000111025251845011462/title/5/5-2?serpUid=&pt=1&ot=1&l=somerset&did=105_high1&t_sec=9&t_or=45&t_pvid=null&utm_source=api&utm_medium=external", "listing_type": "buy", "location_accuracy": 9, "longitude": -2.9222, "price": 399000, "price_currency": "\u00a3", "price_formatted": "\u00a3399,000", "price_high": 399000, "price_low": 399000, "price_type": "fixed", "property_type": "house", "size": 0, "size_type": "net", "summary": "A successful period public house with planning consent for resident...", "thumb_height": 60, "thumb_url": "https://imgs.nestimg.com/medium/5_bedroom_detached_house_for_sale_111025251845011462.jpg", "thumb_width": 80, "title": "Woodhill, Stoke St. Gregory, Taunton, Somerset, TA3", "updated_in_days": 6, "updated_in_days_formatted": "first seen 6 days ago"}, {"bathroom_number": "", "bedroom_number": 5, "car_spaces": 0, "commission": 0, "construction_year": 0, "datasource_name": "OnTheMarket.com", "img_height": 300, "img_url": "https://imgs.nestimg.com/5_bedroom_house_for_sale_111155171142734031.jpg", "img_width": 400, "keywords": "Garden, Georgian", "latitude": 51.28789, "lister_name": "Knight Frank", "lister_url": "https://www.nestoria.co.uk/detail/0000000111155171142734031/title/5/5-3?serpUid=&pt=1&ot=1&l=somerset&did=105_high1&t_sec=9&t_or=45&t_pvid=null&utm_source=api&utm_medium=external", "listing_type": "buy", "location_accuracy": 9, "longitude": -2.820584, "price": 600000, "price_currency": "\u00a3", "price_formatted": "\u00a3600,000", "price_high": 600000, "price_low": 600000, "price_type": "fixed", "property_type": "house", "size": 0, "size_type": "net", "summary": "5 bedroom town house with views in bs26. Pretty georgian town house...", "thumb_height": 60, "thumb_url": "https://imgs.nestimg.com/medium/5_bedroom_house_for_sale_111155171142734031.jpg", "thumb_width": 80, "title": "West Street, Axbridge, Somerset, BS26", "updated_in_days": 4, "updated_in_days_formatted": "first seen 4 days ago"}, {"bathroom_number": "", "bedroom_number": 10, "car_spaces": 0, "commission": 0, "construction_year": 0, "datasource_name": "OnTheMarket.com", "img_height": 300, "img_url": "https://imgs.nestimg.com/7_bedroom_detached_house_for_sale_111681015017778640.jpg", "img_width": 400, "keywords": "Detached, Freehold, Garden, En suite, Grade II, Listed", "latitude": 51.0365, "lister_name": "Greenslade Taylor Hunt", "lister_url": "https://www.nestoria.co.uk/detail/0000000111681015017778640/title/5/5-4?serpUid=&pt=1&ot=1&l=somerset&did=105_high1&t_sec=9&t_or=45&t_pvid=null&utm_source=api&utm_medium=external", "listing_type": "buy", "location_accuracy": 9, "longitude": -3.04582, "price": 1250000, "price_currency": "\u00a3", "price_formatted": "\u00a31,250,000", "price_high": 1250000, "price_low": 1250000, "price_type": "fixed", "property_type": "house", "size": 0, "size_type": "net", "summary": "An 15th century grade ii listed formal hall house providing extensi...", "thumb_height": 60, "thumb_url": "https://imgs.nestimg.com/medium/7_bedroom_detached_house_for_sale_111681015017778640.jpg", "thumb_width": 80, "title": "Langaller, Taunton, Somerset, TA2", "updated_in_days": 8, "updated_in_days_formatted": "first seen last week"}, {"bathroom_number": "", "bedroom_number": 4, "car_spaces": 0, "commission": 0, "construction_year": 0, "datasource_name": "OnTheMarket.com", "img_height": 300, "img_url": "https://imgs.nestimg.com/4_bedroom_semi_detached_house_for_sale_111674250253686190.jpg", "img_width": 400, "keywords": "Freehold, Garden, Semi-Detached, No Chain, Cottage", "latitude": 51.0877, "lister_name": "Greenslade Taylor Hunt", "lister_url": "https://www.nestoria.co.uk/detail/0000000111674250253686190/title/5/5-5?serpUid=&pt=1&ot=1&l=somerset&did=105_high1&t_sec=9&t_or=45&t_pvid=null&utm_source=api&utm_medium=external", "listing_type": "buy", "location_accuracy": 9, "longitude": -3.01018, "price": 395000, "price_currency": "\u00a3", "price_formatted": "\u00a3395,000", "price_high": 395000, "price_low": 395000, "price_type": "fixed", "property_type": "house", "size": 0, "size_type": "net", "summary": "An ly presented attached period cottage set in gardens on the edge ...", "thumb_height": 60, "thumb_url": "https://imgs.nestimg.com/medium/4_bedroom_semi_detached_house_for_sale_111674250253686190.jpg", "thumb_width": 80, "title": "Newton Road, North Petherton, Bridgwater, Somerset, TA6", "updated_in_days": 9, "updated_in_days_formatted": "first seen last week"}, {"bathroom_number": "", "bedroom_number": 4, "car_spaces": 0, "commission": 0, "construction_year": 0, "datasource_name": "OnTheMarket.com", "img_height": 300, "img_url": "https://imgs.nestimg.com/4_bedroom_detached_house_for_sale_111099712723151361.jpg", "img_width": 400, "keywords": "Detached, Garden, Grade II, Listed", "latitude": 51.0072, "lister_name": "Stags", "lister_url": "https://www.nestoria.co.uk/detail/0000000111099712723151361/title/5/5-6?serpUid=&pt=1&ot=1&l=somerset&did=105_high1&t_sec=9&t_or=45&t_pvid=null&utm_source=api&utm_medium=external", "listing_type": "buy", "location_accuracy": 9, "longitude": -2.76258, "price": 525000, "price_currency": "\u00a3", "price_formatted": "\u00a3525,000", "price_high": 525000, "price_low": 525000, "price_type": "fixed", "property_type": "house", "size": 0, "size_type": "net", "summary": "A characterful grade ii listed home bursting with features and a la...", "thumb_height": 60, "thumb_url": "https://imgs.nestimg.com/medium/4_bedroom_detached_house_for_sale_111099712723151361.jpg", "thumb_width": 80, "title": "Long Load, Langport, Somerset, TA10", "updated_in_days": 5, "updated_in_days_formatted": "first seen 5 days ago"}, {"bathroom_number": "", "bedroom_number": 2, "car_spaces": 0, "commission": 0, "construction_year": 0, "datasource_name": "OnTheMarket.com", "img_height": 300, "img_url": "https://imgs.nestimg.com/2_bedroom_terraced_house_for_sale_111217149182661492.jpg", "img_width": 400, "keywords": "Terraced", "latitude": 51.2278, "lister_url": "https://www.nestoria.co.uk/detail/0000000111217149182661492/title/5/5-7?serpUid=&pt=1&ot=1&l=somerset&did=105_high1&t_sec=9&t_or=45&t_pvid=null&utm_source=api&utm_medium=external", "listing_type": "buy", "location_accuracy": 9, "longitude": -2.89464, "price": 195000, "price_currency": "\u00a3", "price_formatted": "\u00a3195,000", "price_high": 195000, "price_low": 195000, "price_type": "fixed", "property_type": "house", "size": 0, "size_type": "net", "summary": "Rosedene is a and light mid terraced property in a sitting which wi...", "thumb_height": 60, "thumb_url": "https://imgs.nestimg.com/medium/2_bedroom_terraced_house_for_sale_111217149182661492.jpg", "thumb_width": 80, "title": "Rosedene, The Wall, MARK, Somerset", "updated_in_days": 5, "updated_in_days_formatted": "first seen 5 days ago"}, {"bathroom_number": "", "bedroom_number": 2, "car_spaces": 0, "commission": 0, "construction_year": 0, "datasource_name": "OnTheMarket.com", "img_height": 300, "img_url": "https://imgs.nestimg.com/2_bedroom_flat_for_sale_111705543851853628.jpg", "img_width": 400, "keywords": "Balcony, Purpose Built, Garage", "latitude": 51.3513, "lister_url": "https://www.nestoria.co.uk/detail/0000000111705543851853628/title/5/5-8?serpUid=&pt=1&ot=1&l=somerset&did=105_high1&t_sec=9&t_or=45&t_pvid=null&utm_source=api&utm_medium=external", "listing_type": "buy", "location_accuracy": 9, "longitude": -2.96849, "price": 145000, "price_currency": "\u00a3", "price_formatted": "\u00a3145,000", "price_high": 145000, "price_low": 145000, "price_type": "fixed", "property_type": "flat", "size": 0, "size_type": "net", "summary": "Purpose built first floor flat. Two beds. Great location close to t...", "thumb_height": 60, "thumb_url": "https://imgs.nestimg.com/medium/2_bedroom_flat_for_sale_111705543851853628.jpg", "thumb_width": 80, "title": "Chelwood, 46-48 Hill Road, Weston-super-Mare, North Somerset. BS23", "updated_in_days": 4, "updated_in_days_formatted": "first seen 4 days ago"}, {"bathroom_number": "", "bedroom_number": "", "car_spaces": 0, "commission": 0, "construction_year": 0, "datasource_name": "OnTheMarket.com", "img_height": 300, "img_url": "https://imgs.nestimg.com/plot_for_sale_111711526657132342.jpg", "img_width": 400, "keywords": "", "latitude": 51.3415, "lister_name": "David James", "lister_url": "https://www.nestoria.co.uk/detail/0000000111711526657132342/title/5/5-9?serpUid=&pt=1&ot=1&l=somerset&did=105_high1&t_sec=9&t_or=45&t_pvid=null&utm_source=api&utm_medium=external", "listing_type": "buy", "location_accuracy": 9, "longitude": -2.78486, "price": 250000, "price_currency": "\u00a3", "price_formatted": "\u00a3250,000", "price_high": 250000, "price_low": 250000, "price_type": "fixed", "property_type": "land", "size": 0, "size_type": "net", "summary": "An opportunity to purchase a prime building plot with outline plann...", "thumb_height": 60, "thumb_url": "https://imgs.nestimg.com/medium/plot_for_sale_111711526657132342.jpg", "thumb_width": 80, "title": "Langford, North Somerset", "updated_in_days": 3, "updated_in_days_formatted": "first seen 3 days ago"}, {"bathroom_number": "", "bedroom_number": "", "car_spaces": 0, "commission": 0, "construction_year": 0, "datasource_name": "OnTheMarket.com", "img_height": 300, "img_url": "https://imgs.nestimg.com/land_for_sale_111643772901575695.jpg", "img_width": 400, "keywords": "", "latitude": 51.2474, "lister_name": "Greenslade Taylor Hunt", "lister_url": "https://www.nestoria.co.uk/detail/0000000111643772901575695/title/5/5-10?serpUid=&pt=1&ot=1&l=somerset&did=105_high1&t_sec=9&t_or=45&t_pvid=null&utm_source=api&utm_medium=external", "listing_type": "buy", "location_accuracy": 9, "longitude": -2.64615, "price": 280000, "price_currency": "\u00a3", "price_formatted": "\u00a3280,000", "price_high": 280000, "price_low": 280000, "price_type": "fixed", "property_type": "land", "size": 0, "size_type": "net", "summary": "35.2 acres of agricultural land at hillgrove road, priddy, nr wells...", "thumb_height": 60, "thumb_url": "https://imgs.nestimg.com/medium/land_for_sale_111643772901575695.jpg", "thumb_width": 80, "title": "Hillgrove Road, Priddy, Nr Wells, Somerset, BA5", "updated_in_days": 3, "updated_in_days_formatted": "first seen 3 days ago"}, {"bathroom_number": "", "bedroom_number": 4, "car_spaces": 0, "commission": 0, "construction_year": 0, "datasource_name": "OnTheMarket.com", "img_height": 300, "img_url": "https://imgs.nestimg.com/4_bedroom_detached_house_for_sale_111699719376853446.jpg", "img_width": 400, "keywords": "Detached", "latitude": 51.2212, "lister_url": "https://www.nestoria.co.uk/detail/0000000111699719376853446/title/5/5-11?serpUid=&pt=1&ot=1&l=somerset&did=105_high1&t_sec=9&t_or=45&t_pvid=null&utm_source=api&utm_medium=external", "listing_type": "buy", "location_accuracy": 9, "longitude": -2.83977, "price": 550000, "price_currency": "\u00a3", "price_formatted": "\u00a3550,000", "price_high": 550000, "price_low": 550000, "price_type": "fixed", "property_type": "house", "size": 0, "size_type": "net", "summary": "Seymour house is a and versatile family home in a position and in a...", "thumb_height": 60, "thumb_url": "https://imgs.nestimg.com/medium/4_bedroom_detached_house_for_sale_111699719376853446.jpg", "thumb_width": 80, "title": "Seymour House, Wellsway, BLACKFORD, Wedmore, Somerset", "updated_in_days": 5, "updated_in_days_formatted": "first seen 5 days ago"}, {"bathroom_number": "", "bedroom_number": 3, "car_spaces": 0, "commission": 0, "construction_year": 0, "datasource_name": "OnTheMarket.com", "img_height": 300, "img_url": "https://imgs.nestimg.com/3_bedroom_detached_house_for_sale_111699720562663416.jpg", "img_width": 400, "keywords": "Detached, Freehold", "latitude": 50.984, "lister_name": "Greenslade Taylor Hunt", "lister_url": "https://www.nestoria.co.uk/detail/0000000111699720562663416/title/5/5-12?serpUid=&pt=1&ot=1&l=somerset&did=105_high1&t_sec=9&t_or=45&t_pvid=null&utm_source=api&utm_medium=external", "listing_type": "buy", "location_accuracy": 9, "longitude": -2.76109, "price": 365000, "price_currency": "\u00a3", "price_formatted": "\u00a3365,000", "price_high": 365000, "price_low": 365000, "price_type": "fixed", "property_type": "house", "size": 0, "size_type": "net", "summary": "A ly presented detached three bedroom property enjoying fine views ...", "thumb_height": 60, "thumb_url": "https://imgs.nestimg.com/medium/3_bedroom_detached_house_for_sale_111699720562663416.jpg", "thumb_width": 80, "title": "Highway, Ash, Martock, Somerset, TA12", "updated_in_days": 5, "updated_in_days_formatted": "first seen 5 days ago"}, {"bathroom_number": "", "bedroom_number": 5, "car_spaces": 0, "commission": 0, "construction_year": 0, "datasource_name": "OnTheMarket.com", "img_height": 300, "img_url": "https://imgs.nestimg.com/5_bedroom_semi_detached_house_for_sale_111532307186984600.jpg", "img_width": 400, "keywords": "Garden, Semi-Detached, En suite, Double Garage, Kitchen, Swimming Pool, Reception", "latitude": 51.103, "lister_name": "Stags", "lister_url": "https://www.nestoria.co.uk/detail/0000000111532307186984600/title/5/5-13?serpUid=&pt=1&ot=1&l=somerset&did=105_high1&t_sec=9&t_or=45&t_pvid=null&utm_source=api&utm_medium=external", "listing_type": "buy", "location_accuracy": 9, "longitude": -3.06526, "price": 595000, "price_currency": "\u00a3", "price_formatted": "\u00a3595,000", "price_high": 595000, "price_low": 595000, "price_type": "fixed", "property_type": "house", "size": 0, "size_type": "net", "summary": "An former rectory situated in this unspoilt village with landscaped...", "thumb_height": 60, "thumb_url": "https://imgs.nestimg.com/medium/5_bedroom_semi_detached_house_for_sale_111532307186984600.jpg", "thumb_width": 80, "title": "Goathurst, Bridgwater, Somerset, TA5", "updated_in_days": 32, "updated_in_days_formatted": "first seen over a month ago"}, {"bathroom_number": "", "bedroom_number": 5, "car_spaces": 0, "commission": 0, "construction_year": 0, "datasource_name": "OnTheMarket.com", "img_height": 300, "img_url": "https://imgs.nestimg.com/5_bedroom_detached_house_for_sale_111681013921817769.jpg", "img_width": 400, "keywords": "Detached, Freehold, Garden, Garage", "latitude": 51.0299, "lister_name": "Greenslade Taylor Hunt", "lister_url": "https://www.nestoria.co.uk/detail/0000000111681013921817769/title/5/5-14?serpUid=&pt=1&ot=1&l=somerset&did=105_high1&t_sec=9&t_or=45&t_pvid=null&utm_source=api&utm_medium=external", "listing_type": "buy", "location_accuracy": 9, "longitude": -3.13695, "price": 385000, "price_currency": "\u00a3", "price_formatted": "\u00a3385,000", "price_high": 385000, "price_low": 385000, "price_type": "fixed", "property_type": "house", "size": 0, "size_type": "net", "summary": "A ly presented five bedroom detached house built in recent years by...", "thumb_height": 60, "thumb_url": "https://imgs.nestimg.com/medium/5_bedroom_detached_house_for_sale_111681013921817769.jpg", "thumb_width": 80, "title": "Collett Road, Norton Fitzwarren, Taunton, Somerset, TA2", "updated_in_days": 8, "updated_in_days_formatted": "first seen last week"}, {"bathroom_number": "", "bedroom_number": 4, "car_spaces": 0, "commission": 0, "construction_year": 0, "datasource_name": "OnTheMarket.com", "img_height": 300, "img_url": "https://imgs.nestimg.com/4_bedroom_semi_detached_house_for_sale_111674252799896722.jpg", "img_width": 400, "keywords": "Garden, Semi-Detached, Refurbished, Garage", "latitude": 51.0303, "lister_name": "Stags", "lister_url": "https://www.nestoria.co.uk/detail/0000000111674252799896722/title/5/5-15?serpUid=&pt=1&ot=1&l=somerset&did=105_high1&t_sec=9&t_or=45&t_pvid=null&utm_source=api&utm_medium=external", "listing_type": "buy", "location_accuracy": 9, "longitude": -3.03959, "price": 275000, "price_currency": "\u00a3", "price_formatted": "\u00a3275,000", "price_high": 275000, "price_low": 275000, "price_type": "fixed", "property_type": "house", "size": 0, "size_type": "net", "summary": "Open house saturday 15th june 10am 12pm. A well refurbished and ext...", "thumb_height": 60, "thumb_url": "https://imgs.nestimg.com/medium/4_bedroom_semi_detached_house_for_sale_111674252799896722.jpg", "thumb_width": 80, "title": "West View, Creech St Michael, Taunton, Somerset, TA3", "updated_in_days": 9, "updated_in_days_formatted": "first seen last week"}], "locations": [{"center_lat": 51.080967, "center_long": -3.045432, "long_title": "Somerset, county", "place_name": "somerset", "title": "Somerset"}], "page": 5, "sort": "nestoria_rank", "status_code": "200", "status_text": "OK", "thanks": "For using the Nestoria API.", "total_pages": 410, "total_results": 6149, "_cu5t0mP434m_": "remove"}}