{"request": {"country": "uk", "language": "en", "location": "somerset", "num_res": "15", "offset": 885, "output": "json_xs", "page": 60, "product_type": "realestate", "property_type": "property", "size_type": "net", "size_unit": "m2", "sort": "nestoria_rank", "listing_type": "buy"}, "response": {"application_response_code": "100", "application_response_text": "listings returned for one unambiguous location", "attribution": {"img_height": 22, "img_url": "https://resources.nestimg.com/nestoria/img/pbr_v1.png", "img_width": 183, "link_to_img": "http://www.nestoria.com"}, "created_http": "Tue, 18 Jun 2019 17:30:05 GMT", "created_unix": 1560879005, "link_to_url": "https://www.nestoria.co.uk/somerset/property/buy/60", "listings": [{"bathroom_number": "", "bedroom_number": 4, "car_spaces": 0, "commission": 0, "construction_year": 0, "datasource_name": "OnTheMarket.com", "img_height": 300, "img_url": "https://imgs.nestimg.com/4_bedroom_semi_detached_house_for_sale_110258397083365616.jpg", "img_width": 400, "keywords": "Freehold, Garden, Semi-Detached, Parking, Cottage", "latitude": 51.1697, "lister_name": "Greenslade Taylor Hunt", "lister_url": "https://www.nestoria.co.uk/detail/0000000110258397083365616/title/5/60-1?serpUid=&pt=1&ot=1&l=somerset&did=105_high1&t_sec=9&t_or=45&t_pvid=null&utm_source=api&utm_medium=external", "listing_type": "buy", "location_accuracy": 9, "longitude": -2.97073, "price": 450000, "price_currency": "\u00a3", "price_formatted": "\u00a3450,000", "price_high": 450000, "price_low": 450000, "price_type": "fixed", "property_type": "house", "size": 0, "size_type": "net", "summary": "A ly renovated and , 17th century semi-detached farmhouse, plus a o...", "thumb_height": 60, "thumb_url": "https://imgs.nestimg.com/medium/4_bedroom_semi_detached_house_for_sale_110258397083365616.jpg", "thumb_width": 80, "title": "Middle Street, Puriton, Bridgwater, Somerset, TA7", "updated_in_days": 238, "updated_in_days_formatted": "first seen over a month ago"}, {"bathroom_number": 2, "bedroom_number": 5, "car_spaces": 0, "commission": 0, "construction_year": 0, "datasource_name": "OnTheMarket.com", "img_height": 300, "img_url": "https://imgs.nestimg.com/5_bedroom_property_with_land_for_sale_108495809990126915.jpg", "img_width": 400, "keywords": "Detached, Garden, Cottage", "latitude": 51.1975, "lister_name": "Greenslade Taylor Hunt", "lister_url": "https://www.nestoria.co.uk/detail/0000000108495809990126915/title/5/60-2?serpUid=&pt=1&ot=1&l=somerset&did=105_high1&t_sec=9&t_or=45&t_pvid=null&utm_source=api&utm_medium=external", "listing_type": "buy", "location_accuracy": 9, "longitude": -2.96364, "price": 549950, "price_currency": "\u00a3", "price_formatted": "\u00a3549,950", "price_high": 549950, "price_low": 549950, "price_type": "fixed", "property_type": "house", "size": 0, "size_type": "net", "summary": "This 5 bedroom, 2 bathroom, extended detached former farm workers c...", "thumb_height": 60, "thumb_url": "https://imgs.nestimg.com/medium/5_bedroom_property_with_land_for_sale_108495809990126915.jpg", "thumb_width": 80, "title": "Withy Road, East Huntspill, Highbridge, Somerset, TA9", "updated_in_days": 118, "updated_in_days_formatted": "first seen over a month ago"}, {"bathroom_number": "", "bedroom_number": 4, "car_spaces": 0, "commission": 0, "construction_year": 0, "datasource_name": "OnTheMarket.com", "img_height": 300, "img_url": "https://imgs.nestimg.com/4_bedroom_semi_detached_house_for_sale_110140880881545918.jpg", "img_width": 400, "keywords": "Freehold, Garden, Semi-Detached, Double Garage, Conversion", "latitude": 51.0286, "lister_name": "Greenslade Taylor Hunt", "lister_url": "https://www.nestoria.co.uk/detail/0000000110140880881545918/title/5/60-3?serpUid=&pt=1&ot=1&l=somerset&did=105_high1&t_sec=9&t_or=45&t_pvid=null&utm_source=api&utm_medium=external", "listing_type": "buy", "location_accuracy": 9, "longitude": -3.24734, "price": 499950, "price_currency": "\u00a3", "price_formatted": "\u00a3499,950", "price_high": 499950, "price_low": 499950, "price_type": "fixed", "property_type": "house", "size": 0, "size_type": "net", "summary": "A 4 bedroomed attached barn conversion, set in extensive gardens wi...", "thumb_height": 60, "thumb_url": "https://imgs.nestimg.com/medium/4_bedroom_semi_detached_house_for_sale_110140880881545918.jpg", "thumb_width": 80, "title": "Milverton, Taunton, Somerset, TA4", "updated_in_days": 126, "updated_in_days_formatted": "first seen over a month ago"}, {"bathroom_number": "", "bedroom_number": 2, "car_spaces": 0, "commission": 0, "construction_year": 0, "datasource_name": "OnTheMarket.com", "img_height": 300, "img_url": "https://imgs.nestimg.com/2_bedroom_detached_house_for_sale_109151356175476867.jpg", "img_width": 400, "keywords": "Detached, Grade II, Cottage, Listed", "latitude": 50.8772, "lister_name": "Greenslade Taylor Hunt", "lister_url": "https://www.nestoria.co.uk/detail/0000000109151356175476867/title/5/60-4?serpUid=&pt=1&ot=1&l=somerset&did=105_high1&t_sec=9&t_or=45&t_pvid=null&utm_source=api&utm_medium=external", "listing_type": "buy", "location_accuracy": 9, "longitude": -2.97094, "price": 210000, "price_currency": "\u00a3", "price_formatted": "\u00a3210,000", "price_high": 210000, "price_low": 210000, "price_type": "fixed", "property_type": "house", "size": 0, "size_type": "net", "summary": "An enchanting and quirky grade ii listed 'chocolate box' thatched c...", "thumb_height": 60, "thumb_url": "https://imgs.nestimg.com/medium/2_bedroom_detached_house_for_sale_109151356175476867.jpg", "thumb_width": 80, "title": "Crimchard, Chard, Somerset, TA20", "updated_in_days": 7, "updated_in_days_formatted": "first seen last week"}, {"bathroom_number": "", "bedroom_number": 4, "car_spaces": 0, "commission": 0, "construction_year": 0, "datasource_name": "OnTheMarket.com", "img_height": 300, "img_url": "https://imgs.nestimg.com/4_bedroom_detached_house_for_sale_107487321265445318.jpg", "img_width": 400, "keywords": "Detached, Grade II, Listed", "latitude": 51.1667, "lister_url": "https://www.nestoria.co.uk/detail/0000000107487321265445318/title/5/60-5?serpUid=&pt=1&ot=1&l=somerset&did=105_high1&t_sec=9&t_or=45&t_pvid=null&utm_source=api&utm_medium=external", "listing_type": "buy", "location_accuracy": 9, "longitude": -3.08782, "price": 1295000, "price_currency": "\u00a3", "price_formatted": "\u00a31,295,000", "price_high": 1295000, "price_low": 1295000, "price_type": "fixed", "property_type": "house", "size": 0, "size_type": "net", "summary": "An important manor house, listed grade ii, dating back to the sixte...", "thumb_height": 60, "thumb_url": "https://imgs.nestimg.com/medium/4_bedroom_detached_house_for_sale_107487321265445318.jpg", "thumb_width": 80, "title": "Cannington, Bridgwater, Somerset, TA5", "updated_in_days": 105, "updated_in_days_formatted": "first seen over a month ago"}, {"bathroom_number": "", "bedroom_number": 6, "car_spaces": 0, "commission": 0, "construction_year": 0, "datasource_name": "OnTheMarket.com", "img_height": 300, "img_url": "https://imgs.nestimg.com/6_bedroom_terraced_house_for_sale_109176246896040935.jpg", "img_width": 400, "keywords": "Grade II, Terraced, Listed", "latitude": 51.151, "lister_url": "https://www.nestoria.co.uk/detail/0000000109176246896040935/title/5/60-6?serpUid=&pt=1&ot=1&l=somerset&did=105_high1&t_sec=9&t_or=45&t_pvid=null&utm_source=api&utm_medium=external", "listing_type": "buy", "location_accuracy": 9, "longitude": -3.15786, "price": 865000, "price_currency": "\u00a3", "price_formatted": "\u00a3865,000", "price_high": 865000, "price_low": 865000, "price_type": "fixed", "property_type": "house", "size": 0, "size_type": "net", "summary": "A ly presented period house, listed grade ii, of great charm and hi...", "thumb_height": 60, "thumb_url": "https://imgs.nestimg.com/medium/6_bedroom_terraced_house_for_sale_109176246896040935.jpg", "thumb_width": 80, "title": "Castle Street, Nether Stowey, Bridgwater, Somerset, TA5", "updated_in_days": 284, "updated_in_days_formatted": "first seen over a month ago"}, {"bathroom_number": "", "bedroom_number": 2, "car_spaces": 0, "commission": 0, "construction_year": 0, "datasource_name": "NetHousePrices", "img_height": 300, "img_url": "https://imgs.nestimg.com/2_bedroom_terraced_house_111680954963230297.jpg", "img_width": 400, "keywords": "Leasehold, Shared Garden, Terraced, Kitchen, Modern", "latitude": 51.015606, "lister_url": "https://www.nestoria.co.uk/detail/0000000111680954963230297/title/5/60-7?serpUid=&pt=1&ot=1&l=somerset&did=90_high1&t_sec=9&t_or=45&t_pvid=null&utm_source=api&utm_medium=external", "listing_type": "buy", "location_accuracy": 9, "longitude": -3.097327, "price": 150000, "price_currency": "\u00a3", "price_formatted": "\u00a3150,000", "price_high": 150000, "price_low": 150000, "price_type": "fixed", "property_type": "house", "size": 0, "size_type": "net", "summary": "Ly presented two double bedroomed terrace home within this highly f...", "thumb_height": 60, "thumb_url": "https://imgs.nestimg.com/medium/2_bedroom_terraced_house_111680954963230297.jpg", "thumb_width": 80, "title": "Eastgate Gardens, Taunton, Somerset, TA1", "updated_in_days": 2, "updated_in_days_formatted": "first seen 2 days ago"}, {"bathroom_number": "", "bedroom_number": 6, "car_spaces": 0, "commission": 0, "construction_year": 0, "datasource_name": "OnTheMarket.com", "img_height": 300, "img_url": "https://imgs.nestimg.com/6_bedroom_equestrian_facility_for_sale_110097539052029832.jpg", "img_width": 400, "keywords": "Detached, Garden, Grade II, Conversion, Listed", "latitude": 50.9668, "lister_url": "https://www.nestoria.co.uk/detail/0000000110097539052029832/title/5/60-8?serpUid=&pt=1&ot=1&l=somerset&did=105_high1&t_sec=9&t_or=45&t_pvid=null&utm_source=api&utm_medium=external", "listing_type": "buy", "location_accuracy": 9, "longitude": -3.12335, "price": 1350000, "price_currency": "\u00a3", "price_formatted": "\u00a31,350,000", "price_high": 1350000, "price_low": 1350000, "price_type": "fixed", "property_type": "house", "size": 0, "size_type": "net", "summary": "A quintessential thatched period farmhouse, listed grade ii, set in...", "thumb_height": 60, "thumb_url": "https://imgs.nestimg.com/medium/6_bedroom_equestrian_facility_for_sale_110097539052029832.jpg", "thumb_width": 80, "title": "Sellicks Green, Taunton, Somerset, TA3", "updated_in_days": 145, "updated_in_days_formatted": "first seen over a month ago"}, {"bathroom_number": "", "bedroom_number": 2, "car_spaces": 0, "commission": 0, "construction_year": 0, "datasource_name": "NetHousePrices", "img_height": 300, "img_url": "https://imgs.nestimg.com/2_bedroom_apartment_flat_111717651575577353.jpg", "img_width": 400, "keywords": "Shared Garden, En suite, Conversion, Kitchen, Lift, Basement, Gas Central Heating, Listed", "latitude": 51.01175, "lister_name": "Greenslade Taylor Hunt", "lister_url": "https://www.nestoria.co.uk/detail/0000000111717651575577353/title/5/60-9?serpUid=&pt=1&ot=1&l=somerset&did=90_high1&t_sec=9&t_or=45&t_pvid=null&utm_source=api&utm_medium=external", "listing_type": "buy", "location_accuracy": 9, "longitude": -3.1039927, "price": 88000, "price_currency": "\u00a3", "price_formatted": "\u00a388,000", "price_high": 88000, "price_low": 88000, "price_type": "fixed", "property_type": "flat", "size": 0, "size_type": "net", "summary": "A top floor 2 bedroom flat situated within this centrally located d...", "thumb_height": 60, "thumb_url": "https://imgs.nestimg.com/medium/2_bedroom_apartment_flat_111717651575577353.jpg", "thumb_width": 80, "title": "Upper High Street, Taunton, Somerset, TA1", "updated_in_days": 2, "updated_in_days_formatted": "first seen 2 days ago"}, {"bathroom_number": "", "bedroom_number": 5, "car_spaces": 0, "commission": 0, "construction_year": 0, "datasource_name": "OnTheMarket.com", "img_height": 300, "img_url": "https://imgs.nestimg.com/5_bedroom_character_property_for_sale_109522646035899760.jpg", "img_width": 400, "keywords": "Grade II, Cottage, Listed", "latitude": 50.98655, "lister_name": "Savills", "lister_url": "https://www.nestoria.co.uk/detail/0000000109522646035899760/title/5/60-10?serpUid=&pt=1&ot=1&l=somerset&did=105_high1&t_sec=9&t_or=45&t_pvid=null&utm_source=api&utm_medium=external", "listing_type": "buy", "location_accuracy": 9, "longitude": -3.07631, "price": 4000000, "price_currency": "\u00a3", "price_formatted": "\u00a34,000,000", "price_high": 4000000, "price_low": 4000000, "price_type": "fixed", "property_type": "property", "size": 0, "size_type": "net", "summary": "5 bedroom grade ii listed farmhouse, 3 bedroom detached cottage, se...", "thumb_height": 60, "thumb_url": "https://imgs.nestimg.com/medium/5_bedroom_character_property_for_sale_109522646035899760.jpg", "thumb_width": 80, "title": "The Taunton Estate - Lot 8, Park Farm, Taunton, Somerset, TA3", "updated_in_days": 357, "updated_in_days_formatted": "first seen over a month ago"}, {"bathroom_number": "", "bedroom_number": 5, "car_spaces": 0, "commission": 0, "construction_year": 0, "datasource_name": "OnTheMarket.com", "img_height": 300, "img_url": "https://imgs.nestimg.com/5_bedroom_semi_detached_house_for_sale_110326414470932883.jpg", "img_width": 400, "keywords": "Garden, Semi-Detached", "latitude": 51.01171, "lister_name": "Strutt & Parker", "lister_url": "https://www.nestoria.co.uk/detail/0000000110326414470932883/title/5/60-11?serpUid=&pt=1&ot=1&l=somerset&did=105_high1&t_sec=9&t_or=45&t_pvid=null&utm_source=api&utm_medium=external", "listing_type": "buy", "location_accuracy": 9, "longitude": -3.16318, "price": 600000, "price_currency": "\u00a3", "price_formatted": "\u00a3600,000", "price_high": 600000, "price_low": 600000, "price_type": "fixed", "property_type": "house", "size": 0, "size_type": "net", "summary": "A 5 bedroom character property in a tranquil rural hamlet with larg...", "thumb_height": 60, "thumb_url": "https://imgs.nestimg.com/medium/5_bedroom_semi_detached_house_for_sale_110326414470932883.jpg", "thumb_width": 80, "title": "Hele, Taunton, Somerset - Garden", "updated_in_days": 125, "updated_in_days_formatted": "first seen over a month ago"}, {"bathroom_number": "", "bedroom_number": 3, "car_spaces": 0, "commission": 0, "construction_year": 0, "datasource_name": "OnTheMarket.com", "img_height": 300, "img_url": "https://imgs.nestimg.com/3_bedroom_bungalow_for_sale_110103708657493365.jpg", "img_width": 400, "keywords": "Garden, Double Garage, Kitchen, Bungalow", "latitude": 51.0357, "lister_name": "Stags", "lister_url": "https://www.nestoria.co.uk/detail/0000000110103708657493365/title/5/60-12?serpUid=&pt=1&ot=1&l=somerset&did=105_high1&t_sec=9&t_or=45&t_pvid=null&utm_source=api&utm_medium=external", "listing_type": "buy", "location_accuracy": 9, "longitude": -3.31009, "price": 575000, "price_currency": "\u00a3", "price_formatted": "\u00a3575,000", "price_high": 575000, "price_low": 575000, "price_type": "fixed", "property_type": "house", "size": 0, "size_type": "net", "summary": "Smallholding close to town with versatile outbuildings, gardens, or...", "thumb_height": 60, "thumb_url": "https://imgs.nestimg.com/medium/3_bedroom_bungalow_for_sale_110103708657493365.jpg", "thumb_width": 80, "title": "Hartswell, Wiveliscombe, Taunton, Somerset, TA4", "updated_in_days": 17, "updated_in_days_formatted": "first seen 2 weeks ago"}, {"bathroom_number": "", "bedroom_number": 3, "car_spaces": 0, "commission": 0, "construction_year": 0, "datasource_name": "OnTheMarket.com", "img_height": 300, "img_url": "https://imgs.nestimg.com/3_bedroom_detached_house_for_sale_109460224703708918.jpg", "img_width": 400, "keywords": "Detached, Freehold, Cottage", "latitude": 51.0609, "lister_name": "Greenslade Taylor Hunt", "lister_url": "https://www.nestoria.co.uk/detail/0000000109460224703708918/title/5/60-13?serpUid=&pt=1&ot=1&l=somerset&did=105_high1&t_sec=9&t_or=45&t_pvid=null&utm_source=api&utm_medium=external", "listing_type": "buy", "location_accuracy": 9, "longitude": -2.86629, "price": 325000, "price_currency": "\u00a3", "price_formatted": "\u00a3325,000", "price_high": 325000, "price_low": 325000, "price_type": "fixed", "property_type": "house", "size": 0, "size_type": "net", "summary": "A south facing 3 bedroom detached period cottage in a rural locatio...", "thumb_height": 60, "thumb_url": "https://imgs.nestimg.com/medium/3_bedroom_detached_house_for_sale_109460224703708918.jpg", "thumb_width": 80, "title": "Aller Drove, Aller, Langport, Somerset, TA10", "updated_in_days": 270, "updated_in_days_formatted": "first seen over a month ago"}, {"bathroom_number": "", "bedroom_number": 4, "car_spaces": 0, "commission": 0, "construction_year": 0, "datasource_name": "OnTheMarket.com", "img_height": 300, "img_url": "https://imgs.nestimg.com/4_bedroom_detached_house_for_sale_110283143968598814.jpg", "img_width": 400, "keywords": "Detached, Freehold, Garden, No Chain, Conversion, Garage, Edwardian", "latitude": 51.2523, "lister_name": "Greenslade Taylor Hunt", "lister_url": "https://www.nestoria.co.uk/detail/0000000110283143968598814/title/5/60-14?serpUid=&pt=1&ot=1&l=somerset&did=105_high1&t_sec=9&t_or=45&t_pvid=null&utm_source=api&utm_medium=external", "listing_type": "buy", "location_accuracy": 9, "longitude": -2.99687, "price": 339950, "price_currency": "\u00a3", "price_formatted": "\u00a3339,950", "price_high": 339950, "price_low": 339950, "price_type": "fixed", "property_type": "house", "size": 0, "size_type": "net", "summary": "This edwardian-built, 4 bedroom detached residence offers well pres...", "thumb_height": 60, "thumb_url": "https://imgs.nestimg.com/medium/4_bedroom_detached_house_for_sale_110283143968598814.jpg", "thumb_width": 80, "title": "The Drive, Berrow Road, Burnham-on-Sea, Somerset, TA8", "updated_in_days": 41, "updated_in_days_formatted": "first seen over a month ago"}, {"bathroom_number": "", "bedroom_number": 4, "car_spaces": 0, "commission": 0, "construction_year": 0, "datasource_name": "OnTheMarket.com", "img_height": 300, "img_url": "https://imgs.nestimg.com/4_bedroom_detached_house_for_sale_110147209670529800.jpg", "img_width": 400, "keywords": "Detached", "latitude": 51.0051, "lister_name": "Greenslade Taylor Hunt", "lister_url": "https://www.nestoria.co.uk/detail/0000000110147209670529800/title/5/60-15?serpUid=&pt=1&ot=1&l=somerset&did=105_high1&t_sec=9&t_or=45&t_pvid=null&utm_source=api&utm_medium=external", "listing_type": "buy", "location_accuracy": 9, "longitude": -3.10887, "price": 565000, "price_currency": "\u00a3", "price_formatted": "\u00a3565,000", "price_high": 565000, "price_low": 565000, "price_type": "fixed", "property_type": "house", "size": 0, "size_type": "net", "summary": "Includes \u00a315,000 worth of upgrades! An development of three brand n...", "thumb_height": 60, "thumb_url": "https://imgs.nestimg.com/medium/4_bedroom_detached_house_for_sale_110147209670529800.jpg", "thumb_width": 80, "title": "Middleway, Taunton, Somerset, TA1", "updated_in_days": 256, "updated_in_days_formatted": "first seen over a month ago"}], "locations": [{"center_lat": 51.080967, "center_long": -3.045432, "long_title": "Somerset, county", "place_name": "somerset", "title": "Somerset"}], "page": 60, "sort": "nestoria_rank", "status_code": "200", "status_text": "OK", "thanks": "For using the Nestoria API.", "total_pages": 410, "total_results": 6149, "_cu5t0mP434m_": "remove"}}