{"request": {"country": "uk", "language": "en", "location": "somerset", "num_res": "15", "offset": 900, "output": "json_xs", "page": 61, "product_type": "realestate", "property_type": "property", "size_type": "net", "size_unit": "m2", "sort": "nestoria_rank", "listing_type": "buy"}, "response": {"application_response_code": "100", "application_response_text": "listings returned for one unambiguous location", "attribution": {"img_height": 22, "img_url": "https://resources.nestimg.com/nestoria/img/pbr_v1.png", "img_width": 183, "link_to_img": "http://www.nestoria.com"}, "created_http": "Tue, 18 Jun 2019 17:30:07 GMT", "created_unix": 1560879007, "link_to_url": "https://www.nestoria.co.uk/somerset/property/buy/61", "listings": [{"bathroom_number": "", "bedroom_number": 4, "car_spaces": 0, "commission": 0, "construction_year": 0, "datasource_name": "OnTheMarket.com", "img_height": 300, "img_url": "https://imgs.nestimg.com/4_bedroom_detached_house_for_sale_109856050346299804.jpg", "img_width": 400, "keywords": "Detached, Modern", "latitude": 51.058, "lister_name": "Greenslade Taylor Hunt", "lister_url": "https://www.nestoria.co.uk/detail/0000000109856050346299804/title/5/61-1?serpUid=&pt=1&ot=1&l=somerset&did=105_high1&t_sec=9&t_or=45&t_pvid=null&utm_source=api&utm_medium=external", "listing_type": "buy", "location_accuracy": 9, "longitude": -2.85452, "price": 465000, "price_currency": "\u00a3", "price_formatted": "\u00a3465,000", "price_high": 465000, "price_low": 465000, "price_type": "fixed", "property_type": "house", "size": 0, "size_type": "net", "summary": "An outstanding modern detached house with far reaching views across...", "thumb_height": 60, "thumb_url": "https://imgs.nestimg.com/medium/4_bedroom_detached_house_for_sale_109856050346299804.jpg", "thumb_width": 80, "title": "Keirle Mews, Aller, Langport, Somerset, TA10", "updated_in_days": 35, "updated_in_days_formatted": "first seen over a month ago"}, {"bathroom_number": "", "bedroom_number": 3, "car_spaces": 0, "commission": 0, "construction_year": 0, "datasource_name": "OnTheMarket.com", "img_height": 300, "img_url": "https://imgs.nestimg.com/3_bedroom_detached_house_for_sale_110412977822948361.jpg", "img_width": 400, "keywords": "Detached, Garden, Garage, Kitchen, Cottage, Reception", "latitude": 50.958, "lister_name": "Stags", "lister_url": "https://www.nestoria.co.uk/detail/0000000110412977822948361/title/5/61-2?serpUid=&pt=1&ot=1&l=somerset&did=105_high1&t_sec=9&t_or=45&t_pvid=null&utm_source=api&utm_medium=external", "listing_type": "buy", "location_accuracy": 9, "longitude": -2.891, "price": 375000, "price_currency": "\u00a3", "price_formatted": "\u00a3375,000", "price_high": 375000, "price_low": 375000, "price_type": "fixed", "property_type": "house", "size": 0, "size_type": "net", "summary": "A detached thatched cottage with gardens situated close to the cent...", "thumb_height": 60, "thumb_url": "https://imgs.nestimg.com/medium/3_bedroom_detached_house_for_sale_110412977822948361.jpg", "thumb_width": 80, "title": "Puckington, Ilminster, Somerset, TA19", "updated_in_days": 213, "updated_in_days_formatted": "first seen over a month ago"}, {"bathroom_number": "", "bedroom_number": 3, "car_spaces": 0, "commission": 0, "construction_year": 0, "datasource_name": "OnTheMarket.com", "img_height": 300, "img_url": "https://imgs.nestimg.com/3_bedroom_detached_bungalow_for_sale_109305900893504729.jpg", "img_width": 400, "keywords": "Detached, No Chain, Bungalow", "latitude": 51.2037, "lister_url": "https://www.nestoria.co.uk/detail/0000000109305900893504729/title/5/61-3?serpUid=&pt=1&ot=1&l=somerset&did=105_high1&t_sec=9&t_or=45&t_pvid=null&utm_source=api&utm_medium=external", "listing_type": "buy", "location_accuracy": 9, "longitude": -3.48531, "price": 280000, "price_currency": "\u00a3", "price_formatted": "\u00a3280,000", "price_high": 280000, "price_low": 280000, "price_type": "fixed", "property_type": "house", "size": 0, "size_type": "net", "summary": "No onward chain a detached three bedroom bungalow enjoying fine vie...", "thumb_height": 60, "thumb_url": "https://imgs.nestimg.com/medium/3_bedroom_detached_bungalow_for_sale_109305900893504729.jpg", "thumb_width": 80, "title": "Regents Way, Minehead, Somerset, TA24", "updated_in_days": 6, "updated_in_days_formatted": "first seen 6 days ago"}, {"bathroom_number": "", "bedroom_number": 5, "car_spaces": 0, "commission": 0, "construction_year": 0, "datasource_name": "OnTheMarket.com", "img_height": 300, "img_url": "https://imgs.nestimg.com/5_bedroom_semi_detached_house_for_sale_110488372182369620.jpg", "img_width": 400, "keywords": "Garden, Semi-Detached, Grade II, Listed", "latitude": 51.2158, "lister_name": "Greenslade Taylor Hunt", "lister_url": "https://www.nestoria.co.uk/detail/0000000110488372182369620/title/5/61-4?serpUid=&pt=1&ot=1&l=somerset&did=105_high1&t_sec=9&t_or=45&t_pvid=null&utm_source=api&utm_medium=external", "listing_type": "buy", "location_accuracy": 9, "longitude": -2.98769, "price": 650000, "price_currency": "\u00a3", "price_formatted": "\u00a3650,000", "price_high": 650000, "price_low": 650000, "price_type": "fixed", "property_type": "house", "size": 0, "size_type": "net", "summary": "This , attached 5 bedroom grade ii listed former farmhouse has been...", "thumb_height": 60, "thumb_url": "https://imgs.nestimg.com/medium/5_bedroom_semi_detached_house_for_sale_110488372182369620.jpg", "thumb_width": 80, "title": "Alstone Lane, West Huntspill, Highbridge, Somerset, TA9", "updated_in_days": 102, "updated_in_days_formatted": "first seen over a month ago"}, {"bathroom_number": "", "bedroom_number": 4, "car_spaces": 0, "commission": 0, "construction_year": 0, "datasource_name": "OnTheMarket.com", "img_height": 300, "img_url": "https://imgs.nestimg.com/4_bedroom_semi_detached_house_for_sale_109893165197834762.jpg", "img_width": 400, "keywords": "Garden, Semi-Detached, Grade II, Kitchen, Parking, Reception, Listed", "latitude": 51.0426, "lister_name": "Stags", "lister_url": "https://www.nestoria.co.uk/detail/0000000109893165197834762/title/5/61-5?serpUid=&pt=1&ot=1&l=somerset&did=105_high1&t_sec=9&t_or=45&t_pvid=null&utm_source=api&utm_medium=external", "listing_type": "buy", "location_accuracy": 9, "longitude": -3.32442, "price": 425000, "price_currency": "\u00a3", "price_formatted": "\u00a3425,000", "price_high": 425000, "price_low": 425000, "price_type": "fixed", "property_type": "house", "size": 0, "size_type": "net", "summary": "Grade ii listed four bedroom period house with gardens, garaging an...", "thumb_height": 60, "thumb_url": "https://imgs.nestimg.com/medium/4_bedroom_semi_detached_house_for_sale_109893165197834762.jpg", "thumb_width": 80, "title": "Abbotsfield, Wiveliscombe, Taunton, Somerset, TA4", "updated_in_days": 297, "updated_in_days_formatted": "first seen over a month ago"}, {"bathroom_number": 2, "bedroom_number": 3, "car_spaces": 0, "commission": 0, "construction_year": 0, "datasource_name": "OnTheMarket.com", "img_height": 300, "img_url": "https://imgs.nestimg.com/4_bedroom_detached_house_for_sale_109881245538673565.jpg", "img_width": 400, "keywords": "Detached, Garden, Double Garage, Kitchen, Reception", "latitude": 50.9335, "lister_name": "Stags", "lister_url": "https://www.nestoria.co.uk/detail/0000000109881245538673565/title/5/61-6?serpUid=&pt=1&ot=1&l=somerset&did=105_high1&t_sec=9&t_or=45&t_pvid=null&utm_source=api&utm_medium=external", "listing_type": "buy", "location_accuracy": 9, "longitude": -2.78994, "price": 500000, "price_currency": "\u00a3", "price_formatted": "\u00a3500,000", "price_high": 500000, "price_low": 500000, "price_type": "fixed", "property_type": "house", "size": 0, "size_type": "net", "summary": "A and characterful home with versatile accommodation and , varied g...", "thumb_height": 60, "thumb_url": "https://imgs.nestimg.com/medium/4_bedroom_detached_house_for_sale_109881245538673565.jpg", "thumb_width": 80, "title": "Wigborough, South Petherton, Somerset, TA13", "updated_in_days": 124, "updated_in_days_formatted": "first seen over a month ago"}, {"bathroom_number": "", "bedroom_number": 8, "car_spaces": 0, "commission": 0, "construction_year": 0, "datasource_name": "OnTheMarket.com", "img_height": 300, "img_url": "https://imgs.nestimg.com/8_bedroom_detached_house_for_sale_108916520449981218.jpg", "img_width": 400, "keywords": "Detached, Freehold, Garden, Grade II, Listed", "latitude": 50.9344, "lister_name": "Greenslade Taylor Hunt", "lister_url": "https://www.nestoria.co.uk/detail/0000000108916520449981218/title/5/61-7?serpUid=&pt=1&ot=1&l=somerset&did=105_high1&t_sec=9&t_or=45&t_pvid=null&utm_source=api&utm_medium=external", "listing_type": "buy", "location_accuracy": 9, "longitude": -2.96557, "price": 600000, "price_currency": "\u00a3", "price_formatted": "\u00a3600,000", "price_high": 600000, "price_low": 600000, "price_type": "fixed", "property_type": "house", "size": 0, "size_type": "net", "summary": "A large 6 bedroom detached grade ii listed former farmhouse requiri...", "thumb_height": 60, "thumb_url": "https://imgs.nestimg.com/medium/8_bedroom_detached_house_for_sale_108916520449981218.jpg", "thumb_width": 80, "title": "Broadway, Ilminster, Somerset, TA19", "updated_in_days": 370, "updated_in_days_formatted": "first seen over a month ago"}, {"bathroom_number": "", "bedroom_number": 4, "car_spaces": 0, "commission": 0, "construction_year": 0, "datasource_name": "OnTheMarket.com", "img_height": 300, "img_url": "https://imgs.nestimg.com/4_bedroom_detached_house_for_sale_110456136611724779.jpg", "img_width": 400, "keywords": "Detached, No Chain, Modern, Parking", "latitude": 51.1793, "lister_name": "Wilkie May & Tuckwood", "lister_url": "https://www.nestoria.co.uk/detail/0000000110456136611724779/title/5/61-8?serpUid=&pt=1&ot=1&l=somerset&did=105_high1&t_sec=9&t_or=45&t_pvid=null&utm_source=api&utm_medium=external", "listing_type": "buy", "location_accuracy": 9, "longitude": -3.33107, "price": 299950, "price_currency": "\u00a3", "price_formatted": "\u00a3299,950", "price_high": 299950, "price_low": 299950, "price_type": "fixed", "property_type": "house", "size": 0, "size_type": "net", "summary": "No onward chain a modern 4 bedroom detached family home with far re...", "thumb_height": 60, "thumb_url": "https://imgs.nestimg.com/medium/4_bedroom_detached_house_for_sale_110456136611724779.jpg", "thumb_width": 80, "title": "Brendon Road, Watchet, Somerset TA23", "updated_in_days": 13, "updated_in_days_formatted": "first seen last week"}, {"bathroom_number": "", "bedroom_number": 3, "car_spaces": 0, "commission": 0, "construction_year": 0, "datasource_name": "OnTheMarket.com", "img_height": 300, "img_url": "https://imgs.nestimg.com/3_bedroom_semi_detached_house_for_sale_109139179438067528.jpg", "img_width": 400, "keywords": "Semi-Detached", "latitude": 51.1805, "lister_url": "https://www.nestoria.co.uk/detail/0000000109139179438067528/title/5/61-9?serpUid=&pt=1&ot=1&l=somerset&did=105_high1&t_sec=9&t_or=45&t_pvid=null&utm_source=api&utm_medium=external", "listing_type": "buy", "location_accuracy": 9, "longitude": -3.14642, "price": 175000, "price_currency": "\u00a3", "price_formatted": "\u00a3175,000", "price_high": 175000, "price_low": 175000, "price_type": "fixed", "property_type": "house", "size": 0, "size_type": "net", "summary": "The property:tucked away off the road in a quiet position, is this ...", "thumb_height": 60, "thumb_url": "https://imgs.nestimg.com/medium/3_bedroom_semi_detached_house_for_sale_109139179438067528.jpg", "thumb_width": 80, "title": "Tower Hill, Stogursey, Somerset, TA5", "updated_in_days": 419, "updated_in_days_formatted": "first seen over a month ago"}, {"bathroom_number": "", "bedroom_number": 7, "car_spaces": 0, "commission": 0, "construction_year": 0, "datasource_name": "OnTheMarket.com", "img_height": 300, "img_url": "https://imgs.nestimg.com/7_bedroom_character_property_for_sale_109677567125064463.jpg", "img_width": 400, "keywords": "Garden, Grade II, Georgian, Listed", "latitude": 51.02462, "lister_name": "Savills", "lister_url": "https://www.nestoria.co.uk/detail/0000000109677567125064463/title/5/61-10?serpUid=&pt=1&ot=1&l=somerset&did=105_high1&t_sec=9&t_or=45&t_pvid=null&utm_source=api&utm_medium=external", "listing_type": "buy", "location_accuracy": 9, "longitude": -3.2533, "price": 795000, "price_currency": "\u00a3", "price_formatted": "\u00a3795,000", "price_high": 795000, "price_low": 795000, "price_type": "fixed", "property_type": "property", "size": 0, "size_type": "net", "summary": "A ly presented grade ii listed georgian townhouse, with sheltered w...", "thumb_height": 60, "thumb_url": "https://imgs.nestimg.com/medium/7_bedroom_character_property_for_sale_109677567125064463.jpg", "thumb_width": 80, "title": "Fore Street, Milverton, Taunton, Somerset, TA4", "updated_in_days": 332, "updated_in_days_formatted": "first seen over a month ago"}, {"bathroom_number": "", "bedroom_number": 10, "car_spaces": 0, "commission": 0, "construction_year": 0, "datasource_name": "OnTheMarket.com", "img_height": 300, "img_url": "https://imgs.nestimg.com/10_bedroom_detached_house_for_sale_109460224232583699.jpg", "img_width": 400, "keywords": "Detached, Garden, Cottage", "latitude": 51.0072, "lister_name": "Stags", "lister_url": "https://www.nestoria.co.uk/detail/0000000109460224232583699/title/5/61-11?serpUid=&pt=1&ot=1&l=somerset&did=105_high1&t_sec=9&t_or=45&t_pvid=null&utm_source=api&utm_medium=external", "listing_type": "buy", "location_accuracy": 9, "longitude": -2.81523, "price": 1100000, "price_currency": "\u00a3", "price_formatted": "\u00a31,100,000", "price_high": 1100000, "price_low": 1100000, "price_type": "fixed", "property_type": "house", "size": 0, "size_type": "net", "summary": "A five bedroom house with well-proportioned rooms built in the goth...", "thumb_height": 60, "thumb_url": "https://imgs.nestimg.com/medium/10_bedroom_detached_house_for_sale_109460224232583699.jpg", "thumb_width": 80, "title": "Thorney, Langport, Somerset, TA10", "updated_in_days": 367, "updated_in_days_formatted": "first seen over a month ago"}, {"bathroom_number": "", "bedroom_number": 2, "car_spaces": 0, "commission": 0, "construction_year": 0, "datasource_name": "NetHousePrices", "img_height": 300, "img_url": "https://imgs.nestimg.com/2_bedroom_detached_bungalow_111723954769236765.jpg", "img_width": 400, "keywords": "Detached, New Build, No Chain, Conservatory, Wood Floor, Kitchen, Bungalow, Parking, Gas Central Heating", "latitude": 51.360435, "lister_name": "Cooke", "lister_url": "https://www.nestoria.co.uk/detail/0000000111723954769236765/title/5/61-12?serpUid=&pt=1&ot=1&l=somerset&did=90_high1&t_sec=9&t_or=45&t_pvid=null&utm_source=api&utm_medium=external", "listing_type": "buy", "location_accuracy": 9, "longitude": -2.9381793, "price": 219950, "price_currency": "\u00a3", "price_formatted": "\u00a3219,950", "price_high": 219950, "price_low": 219950, "price_type": "fixed", "property_type": "house", "size": 0, "size_type": "net", "summary": "One off design detached bungalow with accommodation comprising sitt...", "thumb_height": 60, "thumb_url": "https://imgs.nestimg.com/medium/2_bedroom_detached_bungalow_111723954769236765.jpg", "thumb_width": 80, "title": "Whittington Drive, Somerset, BS22", "updated_in_days": 1, "updated_in_days_formatted": "New"}, {"bathroom_number": "", "bedroom_number": 2, "car_spaces": 0, "commission": 0, "construction_year": 0, "datasource_name": "OnTheMarket.com", "img_height": 300, "img_url": "https://imgs.nestimg.com/2_bedroom_terraced_house_for_sale_110450324560758082.jpg", "img_width": 400, "keywords": "No Chain, Terraced, Cottage, Gas Central Heating", "latitude": 51.182, "lister_name": "Wilkie May & Tuckwood", "lister_url": "https://www.nestoria.co.uk/detail/0000000110450324560758082/title/5/61-13?serpUid=&pt=1&ot=1&l=somerset&did=105_high1&t_sec=9&t_or=45&t_pvid=null&utm_source=api&utm_medium=external", "listing_type": "buy", "location_accuracy": 9, "longitude": -3.32985, "price": 149950, "price_currency": "\u00a3", "price_formatted": "\u00a3149,950", "price_high": 149950, "price_low": 149950, "price_type": "fixed", "property_type": "house", "size": 0, "size_type": "net", "summary": "No onward chain a 2 bedroom mid terrace cottage situated in a prime...", "thumb_height": 60, "thumb_url": "https://imgs.nestimg.com/medium/2_bedroom_terraced_house_for_sale_110450324560758082.jpg", "thumb_width": 80, "title": "Esplanade Lane, Watchet, Somerset TA23", "updated_in_days": 35, "updated_in_days_formatted": "first seen over a month ago"}, {"bathroom_number": "", "bedroom_number": 4, "car_spaces": 0, "commission": 0, "construction_year": 0, "datasource_name": "OnTheMarket.com", "img_height": 300, "img_url": "https://imgs.nestimg.com/4_bedroom_property_for_sale_110177968342067526.jpg", "img_width": 400, "keywords": "Conversion", "latitude": 51.2045, "lister_name": "Greenslade Taylor Hunt", "lister_url": "https://www.nestoria.co.uk/detail/0000000110177968342067526/title/5/61-14?serpUid=&pt=1&ot=1&l=somerset&did=105_high1&t_sec=9&t_or=45&t_pvid=null&utm_source=api&utm_medium=external", "listing_type": "buy", "location_accuracy": 9, "longitude": -2.92939, "price": 950000, "price_currency": "\u00a3", "price_formatted": "\u00a3950,000", "price_high": 950000, "price_low": 950000, "price_type": "fixed", "property_type": "property", "size": 0, "size_type": "net", "summary": "Moor row farm, merry lane, east huntspill, nr highbridge, somerset ...", "thumb_height": 60, "thumb_url": "https://imgs.nestimg.com/medium/4_bedroom_property_for_sale_110177968342067526.jpg", "thumb_width": 80, "title": "Merry Lane, East Huntspill, Highbridge, Somerset, TA9", "updated_in_days": 251, "updated_in_days_formatted": "first seen over a month ago"}, {"bathroom_number": "", "bedroom_number": 5, "car_spaces": 0, "commission": 0, "construction_year": 0, "datasource_name": "OnTheMarket.com", "img_height": 300, "img_url": "https://imgs.nestimg.com/5_bedroom_detached_house_for_sale_109707786452027893.jpg", "img_width": 400, "keywords": "Detached, En suite", "latitude": 51.2425, "lister_url": "https://www.nestoria.co.uk/detail/0000000109707786452027893/title/5/61-15?serpUid=&pt=1&ot=1&l=somerset&did=105_high1&t_sec=9&t_or=45&t_pvid=null&utm_source=api&utm_medium=external", "listing_type": "buy", "location_accuracy": 9, "longitude": -2.93026, "price": 750000, "price_currency": "\u00a3", "price_formatted": "\u00a3750,000", "price_high": 750000, "price_low": 750000, "price_type": "fixed", "property_type": "house", "size": 0, "size_type": "net", "summary": "Willow tree farm is a detached period farmhouse with parts dating b...", "thumb_height": 60, "thumb_url": "https://imgs.nestimg.com/medium/5_bedroom_detached_house_for_sale_109707786452027893.jpg", "thumb_width": 80, "title": "Vole Road, MARK, Somerset - Detached", "updated_in_days": 58, "updated_in_days_formatted": "first seen over a month ago"}], "locations": [{"center_lat": 51.080967, "center_long": -3.045432, "long_title": "Somerset, county", "place_name": "somerset", "title": "Somerset"}], "page": 61, "sort": "nestoria_rank", "status_code": "200", "status_text": "OK", "thanks": "For using the Nestoria API.", "total_pages": 410, "total_results": 6149, "_cu5t0mP434m_": "remove"}}