{"request": {"country": "uk", "language": "en", "location": "somerset", "num_res": "15", "offset": 915, "output": "json_xs", "page": 62, "product_type": "realestate", "property_type": "property", "size_type": "net", "size_unit": "m2", "sort": "nestoria_rank", "listing_type": "buy"}, "response": {"application_response_code": "100", "application_response_text": "listings returned for one unambiguous location", "attribution": {"img_height": 22, "img_url": "https://resources.nestimg.com/nestoria/img/pbr_v1.png", "img_width": 183, "link_to_img": "http://www.nestoria.com"}, "created_http": "Tue, 18 Jun 2019 17:30:08 GMT", "created_unix": 1560879008, "link_to_url": "https://www.nestoria.co.uk/somerset/property/buy/62", "listings": [{"bathroom_number": 2, "bedroom_number": 2, "car_spaces": 0, "commission": 0, "construction_year": 0, "datasource_name": "OnTheMarket.com", "img_height": 300, "img_url": "https://imgs.nestimg.com/2_bedroom_detached_house_for_sale_110245723588136869.jpg", "img_width": 400, "keywords": "Detached, Garden, Double Bedroom, Kitchen, Cottage", "latitude": 50.9667, "lister_name": "Stags", "lister_url": "https://www.nestoria.co.uk/detail/0000000110245723588136869/title/5/62-1?serpUid=&pt=1&ot=1&l=somerset&did=105_high1&t_sec=9&t_or=45&t_pvid=null&utm_source=api&utm_medium=external", "listing_type": "buy", "location_accuracy": 9, "longitude": -3.37001, "price": 395000, "price_currency": "\u00a3", "price_formatted": "\u00a3395,000", "price_high": 395000, "price_low": 395000, "price_type": "fixed", "property_type": "house", "size": 0, "size_type": "net", "summary": "A detached two bed cottage with planning to extend set in private e...", "thumb_height": 60, "thumb_url": "https://imgs.nestimg.com/medium/2_bedroom_detached_house_for_sale_110245723588136869.jpg", "thumb_width": 80, "title": "Hockworthy, Wellington, Somerset, TA21", "updated_in_days": 240, "updated_in_days_formatted": "first seen over a month ago"}, {"bathroom_number": "", "bedroom_number": 8, "car_spaces": 0, "commission": 0, "construction_year": 0, "datasource_name": "OnTheMarket.com", "img_height": 300, "img_url": "https://imgs.nestimg.com/8_bedroom_detached_house_for_sale_107592439123426433.jpg", "img_width": 400, "keywords": "Detached, Swimming Pool, Cottage", "latitude": 50.9616, "lister_name": "Knight Frank", "lister_url": "https://www.nestoria.co.uk/detail/0000000107592439123426433/title/5/62-2?serpUid=&pt=1&ot=1&l=somerset&did=105_high1&t_sec=9&t_or=45&t_pvid=null&utm_source=api&utm_medium=external", "listing_type": "buy", "location_accuracy": 9, "longitude": -3.261139, "price": 2250000, "price_currency": "\u00a3", "price_formatted": "\u00a32,250,000", "price_high": 2250000, "price_low": 2250000, "price_type": "fixed", "property_type": "house", "size": 0, "size_type": "net", "summary": "An unlisted country residence surrounded by its own parkland boasti...", "thumb_height": 60, "thumb_url": "https://imgs.nestimg.com/medium/8_bedroom_detached_house_for_sale_107592439123426433.jpg", "thumb_width": 80, "title": "Sampford Arundel, Wellington, Somerset, TA21", "updated_in_days": 669, "updated_in_days_formatted": "first seen over a month ago"}, {"bathroom_number": "", "bedroom_number": 3, "car_spaces": 0, "commission": 0, "construction_year": 0, "datasource_name": "NetHousePrices", "img_height": 300, "img_url": "https://imgs.nestimg.com/3_bedroom_semi_detached_house_111587781829071243.jpg", "img_width": 400, "keywords": "Garden, Semi-Detached, Conservatory, Garage, Kitchen", "latitude": 51.000732, "lister_name": "Palmer Snell", "lister_url": "https://www.nestoria.co.uk/detail/0000000111587781829071243/title/5/62-3?serpUid=&pt=1&ot=1&l=somerset&did=90_high1&t_sec=9&t_or=45&t_pvid=null&utm_source=api&utm_medium=external", "listing_type": "buy", "location_accuracy": 9, "longitude": -3.0839643, "price": 200000, "price_currency": "\u00a3", "price_formatted": "\u00a3200,000", "price_high": 200000, "price_low": 200000, "price_type": "fixed", "property_type": "house", "size": 0, "size_type": "net", "summary": "The house itself is a ly presented home which has been well maintai...", "thumb_height": 60, "thumb_url": "https://imgs.nestimg.com/medium/3_bedroom_semi_detached_house_111587781829071243.jpg", "thumb_width": 80, "title": "Orchid Close, Taunton, Somerset, TA1", "updated_in_days": 3, "updated_in_days_formatted": "first seen 3 days ago"}, {"bathroom_number": "", "bedroom_number": "", "car_spaces": 0, "commission": 0, "construction_year": 0, "datasource_name": "OnTheMarket.com", "img_height": 300, "img_url": "https://imgs.nestimg.com/land_for_sale_107684784324720633.jpg", "img_width": 400, "keywords": "", "latitude": 51.1462, "lister_name": "Greenslade Taylor Hunt", "lister_url": "https://www.nestoria.co.uk/detail/0000000107684784324720633/title/5/62-4?serpUid=&pt=1&ot=1&l=somerset&did=105_high1&t_sec=9&t_or=45&t_pvid=null&utm_source=api&utm_medium=external", "listing_type": "buy", "location_accuracy": 9, "longitude": -3.03526, "price": 55000, "price_currency": "\u00a3", "price_formatted": "\u00a355,000", "price_high": 55000, "price_low": 55000, "price_type": "fixed", "property_type": "land", "size": 0, "size_type": "net", "summary": "1.89 acres of agricultural pasture land a level single parcel of pa...", "thumb_height": 60, "thumb_url": "https://imgs.nestimg.com/medium/land_for_sale_107684784324720633.jpg", "thumb_width": 80, "title": "Perry Green, Bridgwater, Somerset, TA5", "updated_in_days": 270, "updated_in_days_formatted": "first seen over a month ago"}, {"bathroom_number": "", "bedroom_number": 5, "car_spaces": 0, "commission": 0, "construction_year": 0, "datasource_name": "OnTheMarket.com", "img_height": 300, "img_url": "https://imgs.nestimg.com/5_bedroom_country_house_for_sale_109707787079590324.jpg", "img_width": 400, "keywords": "Detached", "latitude": 51.2425, "lister_url": "https://www.nestoria.co.uk/detail/0000000109707787079590324/title/5/62-5?serpUid=&pt=1&ot=1&l=somerset&did=105_high1&t_sec=9&t_or=45&t_pvid=null&utm_source=api&utm_medium=external", "listing_type": "buy", "location_accuracy": 9, "longitude": -2.93026, "price": 950000, "price_currency": "\u00a3", "price_formatted": "\u00a3950,000", "price_high": 950000, "price_low": 950000, "price_type": "fixed", "property_type": "house", "size": 0, "size_type": "net", "summary": "Family home with a detached single storey building with full planni...", "thumb_height": 60, "thumb_url": "https://imgs.nestimg.com/medium/5_bedroom_country_house_for_sale_109707787079590324.jpg", "thumb_width": 80, "title": "Vole Road, MARK, Somerset - Detached", "updated_in_days": 44, "updated_in_days_formatted": "first seen over a month ago"}, {"bathroom_number": "", "bedroom_number": "", "car_spaces": 0, "commission": 0, "construction_year": 0, "datasource_name": "OnTheMarket.com", "img_height": 300, "img_url": "https://imgs.nestimg.com/land_for_sale_107684784445143295.jpg", "img_width": 400, "keywords": "", "latitude": 51.1462, "lister_name": "Greenslade Taylor Hunt", "lister_url": "https://www.nestoria.co.uk/detail/0000000107684784445143295/title/5/62-6?serpUid=&pt=1&ot=1&l=somerset&did=105_high1&t_sec=9&t_or=45&t_pvid=null&utm_source=api&utm_medium=external", "listing_type": "buy", "location_accuracy": 9, "longitude": -3.03526, "price": 141000, "price_currency": "\u00a3", "price_formatted": "\u00a3141,000", "price_high": 141000, "price_low": 141000, "price_type": "fixed", "property_type": "land", "size": 0, "size_type": "net", "summary": "12.52 acres of agricultural pasture land at perry green, bridgwater...", "thumb_height": 60, "thumb_url": "https://imgs.nestimg.com/medium/land_for_sale_107684784445143295.jpg", "thumb_width": 80, "title": "12.52 Acres Of Agricultural Pasture, Perry Green, Bridgwater, Somerset, TA5", "updated_in_days": 654, "updated_in_days_formatted": "first seen over a month ago"}, {"bathroom_number": "", "bedroom_number": 7, "car_spaces": 0, "commission": 0, "construction_year": 0, "datasource_name": "OnTheMarket.com", "img_height": 300, "img_url": "https://imgs.nestimg.com/7_bedroom_detached_house_for_sale_110450324793302287.jpg", "img_width": 400, "keywords": "Detached, Garden, Swimming Pool, Cottage", "latitude": 50.9611, "lister_name": "Stags", "lister_url": "https://www.nestoria.co.uk/detail/0000000110450324793302287/title/5/62-7?serpUid=&pt=1&ot=1&l=somerset&did=105_high1&t_sec=9&t_or=45&t_pvid=null&utm_source=api&utm_medium=external", "listing_type": "buy", "location_accuracy": 9, "longitude": -3.28389, "price": 1500000, "price_currency": "\u00a3", "price_formatted": "\u00a31,500,000", "price_high": 1500000, "price_low": 1500000, "price_type": "fixed", "property_type": "house", "size": 0, "size_type": "net", "summary": "Superb 4/5 bed country house with attached 2 bed annexe, 2 addition...", "thumb_height": 60, "thumb_url": "https://imgs.nestimg.com/medium/7_bedroom_detached_house_for_sale_110450324793302287.jpg", "thumb_width": 80, "title": "Whiteball, Wellington, Somerset, TA21", "updated_in_days": 84, "updated_in_days_formatted": "first seen over a month ago"}, {"bathroom_number": "", "bedroom_number": 0, "car_spaces": 0, "commission": 0, "construction_year": 0, "datasource_name": "OnTheMarket.com", "img_height": 300, "img_url": "https://imgs.nestimg.com/studio_property_for_sale_110140882879930685.jpg", "img_width": 400, "keywords": "", "latitude": 51.2045, "lister_name": "Greenslade Taylor Hunt", "lister_url": "https://www.nestoria.co.uk/detail/0000000110140882879930685/title/5/62-8?serpUid=&pt=1&ot=1&l=somerset&did=105_high1&t_sec=9&t_or=45&t_pvid=null&utm_source=api&utm_medium=external", "listing_type": "buy", "location_accuracy": 9, "longitude": -2.92939, "price": 450000, "price_currency": "\u00a3", "price_formatted": "\u00a3450,000", "price_high": 450000, "price_low": 450000, "price_type": "fixed", "property_type": "flat", "size": 0, "size_type": "net", "summary": "Lot 2 range of farm buildings with 3 having planning permission for...", "thumb_height": 60, "thumb_url": "https://imgs.nestimg.com/medium/studio_property_for_sale_110140882879930685.jpg", "thumb_width": 80, "title": "Merry Lane, East Huntspill, Highbridge, Somerset, TA9", "updated_in_days": 257, "updated_in_days_formatted": "first seen over a month ago"}, {"bathroom_number": "", "bedroom_number": 4, "car_spaces": 0, "commission": 0, "construction_year": 0, "datasource_name": "OnTheMarket.com", "img_height": 300, "img_url": "https://imgs.nestimg.com/4_bedroom_detached_house_for_sale_107024229713426052.jpg", "img_width": 400, "keywords": "Detached", "latitude": 51.0743, "lister_name": "Stags", "lister_url": "https://www.nestoria.co.uk/detail/0000000107024229713426052/title/5/62-9?serpUid=&pt=1&ot=1&l=somerset&did=105_high1&t_sec=9&t_or=45&t_pvid=null&utm_source=api&utm_medium=external", "listing_type": "buy", "location_accuracy": 9, "longitude": -3.29061, "price": 595000, "price_currency": "\u00a3", "price_formatted": "\u00a3595,000", "price_high": 595000, "price_low": 595000, "price_type": "fixed", "property_type": "house", "size": 0, "size_type": "net", "summary": "Derelict farmhouse for renovation together with range of outbuildin...", "thumb_height": 60, "thumb_url": "https://imgs.nestimg.com/medium/4_bedroom_detached_house_for_sale_107024229713426052.jpg", "thumb_width": 80, "title": "Brompton Ralph, Taunton, Somerset, TA4", "updated_in_days": 761, "updated_in_days_formatted": "first seen over a month ago"}, {"bathroom_number": "", "bedroom_number": 6, "car_spaces": 0, "commission": 0, "construction_year": 0, "datasource_name": "OnTheMarket.com", "img_height": 300, "img_url": "https://imgs.nestimg.com/6_bedroom_detached_house_for_sale_110369684155618806.jpg", "img_width": 400, "keywords": "Detached, Garden, Double Garage, Conversion", "latitude": 50.9339, "lister_name": "Stags", "lister_url": "https://www.nestoria.co.uk/detail/0000000110369684155618806/title/5/62-10?serpUid=&pt=1&ot=1&l=somerset&did=105_high1&t_sec=9&t_or=45&t_pvid=null&utm_source=api&utm_medium=external", "listing_type": "buy", "location_accuracy": 9, "longitude": -2.63979, "price": 595000, "price_currency": "\u00a3", "price_formatted": "\u00a3595,000", "price_high": 595000, "price_low": 595000, "price_type": "fixed", "property_type": "house", "size": 0, "size_type": "net", "summary": "A 6 bedroom family home with , versatile accommodation presented in...", "thumb_height": 60, "thumb_url": "https://imgs.nestimg.com/medium/6_bedroom_detached_house_for_sale_110369684155618806.jpg", "thumb_width": 80, "title": "Southwoods, Yeovil, Somerset, BA20", "updated_in_days": 10, "updated_in_days_formatted": "first seen last week"}, {"bathroom_number": "", "bedroom_number": 4, "car_spaces": 0, "commission": 0, "construction_year": 0, "datasource_name": "OnTheMarket.com", "img_height": 300, "img_url": "https://imgs.nestimg.com/4_bedroom_detached_house_for_sale_110165574981956005.jpg", "img_width": 400, "keywords": "Detached, Grade II, Conversion, Refurbished, Listed", "latitude": 51.2233, "lister_url": "https://www.nestoria.co.uk/detail/0000000110165574981956005/title/5/62-11?serpUid=&pt=1&ot=1&l=somerset&did=105_high1&t_sec=9&t_or=45&t_pvid=null&utm_source=api&utm_medium=external", "listing_type": "buy", "location_accuracy": 9, "longitude": -2.81846, "price": 850000, "price_currency": "\u00a3", "price_formatted": "\u00a3850,000", "price_high": 850000, "price_low": 850000, "price_type": "fixed", "property_type": "house", "size": 0, "size_type": "net", "summary": "Westovers is a , versatile grade ii listed detached family home whi...", "thumb_height": 60, "thumb_url": "https://imgs.nestimg.com/medium/4_bedroom_detached_house_for_sale_110165574981956005.jpg", "thumb_width": 80, "title": "Westovers, West End, WEDMORE, Somerset", "updated_in_days": 253, "updated_in_days_formatted": "first seen over a month ago"}, {"bathroom_number": "", "bedroom_number": 4, "car_spaces": 0, "commission": 0, "construction_year": 0, "datasource_name": "OnTheMarket.com", "img_height": 300, "img_url": "https://imgs.nestimg.com/4_bedroom_detached_house_for_sale_109243772530505656.jpg", "img_width": 400, "keywords": "Detached, Cottage", "latitude": 51.1532, "lister_url": "https://www.nestoria.co.uk/detail/0000000109243772530505656/title/5/62-12?serpUid=&pt=1&ot=1&l=somerset&did=105_high1&t_sec=9&t_or=45&t_pvid=null&utm_source=api&utm_medium=external", "listing_type": "buy", "location_accuracy": 9, "longitude": -3.30788, "price": 530000, "price_currency": "\u00a3", "price_formatted": "\u00a3530,000", "price_high": 530000, "price_low": 530000, "price_type": "fixed", "property_type": "house", "size": 0, "size_type": "net", "summary": "A 4 bedroom detached period house created from a pair of stone cott...", "thumb_height": 60, "thumb_url": "https://imgs.nestimg.com/medium/4_bedroom_detached_house_for_sale_109243772530505656.jpg", "thumb_width": 80, "title": "Cinques, Sampford Brett, Taunton, Somerset, TA4", "updated_in_days": 297, "updated_in_days_formatted": "first seen over a month ago"}, {"bathroom_number": "", "bedroom_number": 6, "car_spaces": 0, "commission": 0, "construction_year": 0, "datasource_name": "OnTheMarket.com", "img_height": 300, "img_url": "https://imgs.nestimg.com/6_bedroom_detached_house_for_sale_109763289985258693.jpg", "img_width": 400, "keywords": "Detached, Cottage", "latitude": 50.95944, "lister_name": "Strutt & Parker", "lister_url": "https://www.nestoria.co.uk/detail/0000000109763289985258693/title/5/62-13?serpUid=&pt=1&ot=1&l=somerset&did=105_high1&t_sec=9&t_or=45&t_pvid=null&utm_source=api&utm_medium=external", "listing_type": "buy", "location_accuracy": 9, "longitude": -3.3195, "price": 1750000, "price_currency": "\u00a3", "price_formatted": "\u00a31,750,000", "price_high": 1750000, "price_low": 1750000, "price_type": "fixed", "property_type": "house", "size": 0, "size_type": "net", "summary": "A family home, with five bedrooms and an attached annexe, plus seve...", "thumb_height": 60, "thumb_url": "https://imgs.nestimg.com/medium/6_bedroom_detached_house_for_sale_109763289985258693.jpg", "thumb_width": 80, "title": "Holcombe Rogus, Wellington, Somerset", "updated_in_days": 20, "updated_in_days_formatted": "first seen 2 weeks ago"}, {"bathroom_number": "", "bedroom_number": 4, "car_spaces": 0, "commission": 0, "construction_year": 0, "datasource_name": "OnTheMarket.com", "img_height": 300, "img_url": "https://imgs.nestimg.com/4_bedroom_detached_bungalow_for_sale_109979637983609936.jpg", "img_width": 400, "keywords": "Detached, Bungalow", "latitude": 50.8972, "lister_name": "Greenslade Taylor Hunt", "lister_url": "https://www.nestoria.co.uk/detail/0000000109979637983609936/title/5/62-14?serpUid=&pt=1&ot=1&l=somerset&did=105_high1&t_sec=9&t_or=45&t_pvid=null&utm_source=api&utm_medium=external", "listing_type": "buy", "location_accuracy": 9, "longitude": -2.99264, "price": 399950, "price_currency": "\u00a3", "price_formatted": "\u00a3399,950", "price_high": 399950, "price_low": 399950, "price_type": "fixed", "property_type": "house", "size": 0, "size_type": "net", "summary": "An smart, contemporary and light 4 bedroom detached bungalow in a h...", "thumb_height": 60, "thumb_url": "https://imgs.nestimg.com/medium/4_bedroom_detached_bungalow_for_sale_109979637983609936.jpg", "thumb_width": 80, "title": "Underway, Combe St. Nicholas, Chard, Somerset, TA20", "updated_in_days": 216, "updated_in_days_formatted": "first seen over a month ago"}, {"bathroom_number": "", "bedroom_number": 2, "car_spaces": 0, "commission": 0, "construction_year": 0, "datasource_name": "OnTheMarket.com", "img_height": 300, "img_url": "https://imgs.nestimg.com/2_bedroom_flat_for_sale_109707787461450203.jpg", "img_width": 400, "keywords": "Grade II, Penthouse, Conversion, Listed", "latitude": 51.2267, "lister_url": "https://www.nestoria.co.uk/detail/0000000109707787461450203/title/5/62-15?serpUid=&pt=1&ot=1&l=somerset&did=105_high1&t_sec=9&t_or=45&t_pvid=null&utm_source=api&utm_medium=external", "listing_type": "buy", "location_accuracy": 9, "longitude": -2.81197, "price": 325000, "price_currency": "\u00a3", "price_formatted": "\u00a3325,000", "price_high": 325000, "price_low": 325000, "price_type": "fixed", "property_type": "flat", "size": 0, "size_type": "net", "summary": "A ly presented two bedroom penthouse apartment situated within a co...", "thumb_height": 60, "thumb_url": "https://imgs.nestimg.com/medium/2_bedroom_flat_for_sale_109707787461450203.jpg", "thumb_width": 80, "title": "11 Elmsett Hall, Glanville Road, WEDMORE, Somerset", "updated_in_days": 327, "updated_in_days_formatted": "first seen over a month ago"}], "locations": [{"center_lat": 51.080967, "center_long": -3.045432, "long_title": "Somerset, county", "place_name": "somerset", "title": "Somerset"}], "page": 62, "sort": "nestoria_rank", "status_code": "200", "status_text": "OK", "thanks": "For using the Nestoria API.", "total_pages": 410, "total_results": 6149, "_cu5t0mP434m_": "remove"}}