{"request": {"country": "uk", "language": "en", "location": "somerset", "num_res": "15", "offset": 930, "output": "json_xs", "page": 63, "product_type": "realestate", "property_type": "property", "size_type": "net", "size_unit": "m2", "sort": "nestoria_rank", "listing_type": "buy"}, "response": {"application_response_code": "100", "application_response_text": "listings returned for one unambiguous location", "attribution": {"img_height": 22, "img_url": "https://resources.nestimg.com/nestoria/img/pbr_v1.png", "img_width": 183, "link_to_img": "http://www.nestoria.com"}, "created_http": "Tue, 18 Jun 2019 17:30:10 GMT", "created_unix": 1560879010, "link_to_url": "https://www.nestoria.co.uk/somerset/property/buy/63", "listings": [{"bathroom_number": "", "bedroom_number": 3, "car_spaces": 0, "commission": 0, "construction_year": 0, "datasource_name": "NetHousePrices", "img_height": 300, "img_url": "https://imgs.nestimg.com/3_bedroom_semi_detached_house_111693371087884975.jpg", "img_width": 400, "keywords": "Semi-Detached, Detached Garage, Double Bedroom, Kitchen, Patio", "latitude": 51.0685, "lister_name": "Palmer Snell", "lister_url": "https://www.nestoria.co.uk/detail/0000000111693371087884975/title/5/63-1?serpUid=&pt=1&ot=1&l=somerset&did=90_high1&t_sec=9&t_or=45&t_pvid=null&utm_source=api&utm_medium=external", "listing_type": "buy", "location_accuracy": 9, "longitude": -3.0375636, "price": 350000, "price_currency": "\u00a3", "price_formatted": "\u00a3350,000", "price_high": 350000, "price_low": 350000, "price_type": "fixed", "property_type": "house", "size": 0, "size_type": "net", "summary": "Open house 22/06/19 10:00am until 11:00amthis three double bedroom ...", "thumb_height": 60, "thumb_url": "https://imgs.nestimg.com/medium/3_bedroom_semi_detached_house_111693371087884975.jpg", "thumb_width": 80, "title": "Thurloxton, Taunton, Somerset, TA2", "updated_in_days": 6, "updated_in_days_formatted": "first seen 6 days ago"}, {"bathroom_number": "", "bedroom_number": 2, "car_spaces": 0, "commission": 0, "construction_year": 0, "datasource_name": "OnTheMarket.com", "img_height": 300, "img_url": "https://imgs.nestimg.com/2_bedroom_detached_house_for_sale_109707787523396322.jpg", "img_width": 400, "keywords": "Detached, Conversion, Double Bedroom", "latitude": 51.215, "lister_url": "https://www.nestoria.co.uk/detail/0000000109707787523396322/title/5/63-2?serpUid=&pt=1&ot=1&l=somerset&did=105_high1&t_sec=9&t_or=45&t_pvid=null&utm_source=api&utm_medium=external", "listing_type": "buy", "location_accuracy": 9, "longitude": -2.83366, "price": 299999, "price_currency": "\u00a3", "price_formatted": "\u00a3299,999", "price_high": 299999, "price_low": 299999, "price_type": "fixed", "property_type": "house", "size": 0, "size_type": "net", "summary": "Unique two double bedroom chapel conversion within easy reach of th...", "thumb_height": 60, "thumb_url": "https://imgs.nestimg.com/medium/2_bedroom_detached_house_for_sale_109707787523396322.jpg", "thumb_width": 80, "title": "The Old Chapel, HEATH HOUSE, Wedmore, Somerset", "updated_in_days": 327, "updated_in_days_formatted": "first seen over a month ago"}, {"bathroom_number": "", "bedroom_number": 5, "car_spaces": 0, "commission": 0, "construction_year": 0, "datasource_name": "OnTheMarket.com", "img_height": 300, "img_url": "https://imgs.nestimg.com/5_bedroom_country_house_for_sale_109707785594941966.jpg", "img_width": 400, "keywords": "", "latitude": 51.2425, "lister_url": "https://www.nestoria.co.uk/detail/0000000109707785594941966/title/5/63-3?serpUid=&pt=1&ot=1&l=somerset&did=105_high1&t_sec=9&t_or=45&t_pvid=null&utm_source=api&utm_medium=external", "listing_type": "buy", "location_accuracy": 9, "longitude": -2.93026, "price": 1200000, "price_currency": "\u00a3", "price_formatted": "\u00a31,200,000", "price_high": 1200000, "price_low": 1200000, "price_type": "fixed", "property_type": "house", "size": 0, "size_type": "net", "summary": "Family home with the added benefit of two buildings with full plann...", "thumb_height": 60, "thumb_url": "https://imgs.nestimg.com/medium/5_bedroom_country_house_for_sale_109707785594941966.jpg", "thumb_width": 80, "title": "Willow Tree Farm, Vole Road, MARK, Somerset", "updated_in_days": 95, "updated_in_days_formatted": "first seen over a month ago"}, {"bathroom_number": "", "bedroom_number": 4, "car_spaces": 0, "commission": 0, "construction_year": 0, "datasource_name": "OnTheMarket.com", "img_height": 300, "img_url": "https://imgs.nestimg.com/4_bedroom_detached_house_for_sale_109806589076483892.jpg", "img_width": 400, "keywords": "Detached, Grade II, Listed", "latitude": 50.9652, "lister_name": "Greenslade Taylor Hunt", "lister_url": "https://www.nestoria.co.uk/detail/0000000109806589076483892/title/5/63-4?serpUid=&pt=1&ot=1&l=somerset&did=105_high1&t_sec=9&t_or=45&t_pvid=null&utm_source=api&utm_medium=external", "listing_type": "buy", "location_accuracy": 9, "longitude": -2.77349, "price": 595000, "price_currency": "\u00a3", "price_formatted": "\u00a3595,000", "price_high": 595000, "price_low": 595000, "price_type": "fixed", "property_type": "house", "size": 0, "size_type": "net", "summary": "Offered for sale, on a sole agency basis is this grade ii listed de...", "thumb_height": 60, "thumb_url": "https://imgs.nestimg.com/medium/4_bedroom_detached_house_for_sale_109806589076483892.jpg", "thumb_width": 80, "title": "Hurst, Martock, Somerset, TA12", "updated_in_days": 311, "updated_in_days_formatted": "first seen over a month ago"}, {"bathroom_number": "", "bedroom_number": 3, "car_spaces": 0, "commission": 0, "construction_year": 0, "datasource_name": "Home.co.uk", "img_height": 300, "img_url": "https://imgs.nestimg.com/detached_house_111358888538125474.jpg", "img_width": 400, "keywords": "Detached, Kitchen", "latitude": 51.173246, "lister_name": "Webbers", "lister_url": "https://www.nestoria.co.uk/detail/0000000111358888538125474/title/5/63-5?serpUid=&pt=1&ot=1&l=somerset&did=85_default&t_sec=9&t_or=45&t_pvid=null&utm_source=api&utm_medium=external", "listing_type": "buy", "location_accuracy": 10, "longitude": -3.287597, "price": 340000, "price_currency": "\u00a3", "price_formatted": "\u00a3340,000", "price_high": 340000, "price_low": 340000, "price_type": "fixed", "property_type": "house", "size": 0, "size_type": "net", "summary": "Period mock tudor detached house edge of quantock hills village coa...", "thumb_height": 60, "thumb_url": "https://imgs.nestimg.com/medium/detached_house_111358888538125474.jpg", "thumb_width": 80, "title": "West Quantoxhead, Taunton, Somerset", "updated_in_days": 2, "updated_in_days_formatted": "first seen 2 days ago"}, {"bathroom_number": "", "bedroom_number": "", "car_spaces": 0, "commission": 0, "construction_year": 0, "datasource_name": "OnTheMarket.com", "img_height": 300, "img_url": "https://imgs.nestimg.com/land_for_sale_107197050297352141.jpg", "img_width": 400, "keywords": "", "latitude": 51.0609, "lister_name": "Stags", "lister_url": "https://www.nestoria.co.uk/detail/0000000107197050297352141/title/5/63-6?serpUid=&pt=1&ot=1&l=somerset&did=105_high1&t_sec=9&t_or=45&t_pvid=null&utm_source=api&utm_medium=external", "listing_type": "buy", "location_accuracy": 9, "longitude": -2.90589, "price": 65000, "price_currency": "\u00a3", "price_formatted": "\u00a365,000", "price_high": 65000, "price_low": 65000, "price_type": "fixed", "property_type": "land", "size": 0, "size_type": "net", "summary": "A single enclosure of level pasture accessed off brownings drove. T...", "thumb_height": 60, "thumb_url": "https://imgs.nestimg.com/medium/land_for_sale_107197050297352141.jpg", "thumb_width": 80, "title": "Stathe Road, Burrowbridge, Bridgwater, Somerset, TA7", "updated_in_days": 733, "updated_in_days_formatted": "first seen over a month ago"}, {"bathroom_number": 1, "bedroom_number": 4, "car_spaces": 0, "commission": 0, "construction_year": 0, "datasource_name": "NetHousePrices", "img_height": 300, "img_url": "https://imgs.nestimg.com/4_bedroom_detached_house_111711490938916227.jpg", "img_width": 400, "keywords": "Detached, Garden, Fireplace, Kitchen, Reception", "latitude": 51.15309, "lister_name": "Express", "lister_url": "https://www.nestoria.co.uk/detail/0000000111711490938916227/title/5/63-7?serpUid=&pt=1&ot=1&l=somerset&did=90_high1&t_sec=9&t_or=45&t_pvid=null&utm_source=api&utm_medium=external", "listing_type": "buy", "location_accuracy": 9, "longitude": -3.183331, "price": 640000, "price_currency": "\u00a3", "price_formatted": "\u00a3640,000", "price_high": 640000, "price_low": 640000, "price_type": "fixed", "property_type": "house", "size": 0, "size_type": "net", "summary": "Characteristic period detached house with four bedrooms and extensi...", "thumb_height": 60, "thumb_url": "https://imgs.nestimg.com/medium/4_bedroom_detached_house_111711490938916227.jpg", "thumb_width": 80, "title": "Dodington, Nether Stowey, Bridgwater, Somerset, TA5", "updated_in_days": 3, "updated_in_days_formatted": "first seen 3 days ago"}, {"bathroom_number": "", "bedroom_number": 4, "car_spaces": 0, "commission": 0, "construction_year": 0, "datasource_name": "OnTheMarket.com", "img_height": 300, "img_url": "https://imgs.nestimg.com/3_bedroom_end_of_terrace_house_for_sale_110004760734368085.jpg", "img_width": 400, "keywords": "Garden, Terraced, Garage", "latitude": 50.875, "lister_name": "Greenslade Taylor Hunt", "lister_url": "https://www.nestoria.co.uk/detail/0000000110004760734368085/title/5/63-8?serpUid=&pt=1&ot=1&l=somerset&did=105_high1&t_sec=9&t_or=45&t_pvid=null&utm_source=api&utm_medium=external", "listing_type": "buy", "location_accuracy": 9, "longitude": -2.95925, "price": 285000, "price_currency": "\u00a3", "price_formatted": "\u00a3285,000", "price_high": 285000, "price_low": 285000, "price_type": "fixed", "property_type": "house", "size": 0, "size_type": "net", "summary": "A well and imaginatively presented 4 bedroom end terraced property ...", "thumb_height": 60, "thumb_url": "https://imgs.nestimg.com/medium/3_bedroom_end_of_terrace_house_for_sale_110004760734368085.jpg", "thumb_width": 80, "title": "Furnham Road, Chard, Somerset, TA20", "updated_in_days": 279, "updated_in_days_formatted": "first seen over a month ago"}, {"bathroom_number": "", "bedroom_number": 3, "car_spaces": 0, "commission": 0, "construction_year": 0, "datasource_name": "OnTheMarket.com", "img_height": 300, "img_url": "https://imgs.nestimg.com/14_bedroom_detached_house_for_sale_110122662672806115.jpg", "img_width": 400, "keywords": "Detached, Garden, Grade II, Cottage, Listed", "latitude": 51.1598, "lister_name": "Stags", "lister_url": "https://www.nestoria.co.uk/detail/0000000110122662672806115/title/5/63-9?serpUid=&pt=1&ot=1&l=somerset&did=105_high1&t_sec=9&t_or=45&t_pvid=null&utm_source=api&utm_medium=external", "listing_type": "buy", "location_accuracy": 9, "longitude": -3.37991, "price": 900000, "price_currency": "\u00a3", "price_formatted": "\u00a3900,000", "price_high": 900000, "price_low": 900000, "price_type": "fixed", "property_type": "house", "size": 0, "size_type": "net", "summary": "Grade ii listed house with adjoining 2 bedroom cottage providing la...", "thumb_height": 60, "thumb_url": "https://imgs.nestimg.com/medium/14_bedroom_detached_house_for_sale_110122662672806115.jpg", "thumb_width": 80, "title": "Edge Of Exmoor, Bilbrook, Somerset, TA24", "updated_in_days": 260, "updated_in_days_formatted": "first seen over a month ago"}, {"bathroom_number": "", "bedroom_number": 2, "car_spaces": 0, "commission": 0, "construction_year": 0, "datasource_name": "NetHousePrices", "img_height": 300, "img_url": "https://imgs.nestimg.com/2_bedroom_flat_111186332600552695.jpg", "img_width": 400, "keywords": "Shared Garden, Fireplace, Kitchen, Reception, Gas Central Heating", "latitude": 51.01893, "lister_name": "Express", "lister_url": "https://www.nestoria.co.uk/detail/0000000111186332600552695/title/5/63-10?serpUid=&pt=1&ot=1&l=somerset&did=90_high1&t_sec=9&t_or=45&t_pvid=null&utm_source=api&utm_medium=external", "listing_type": "buy", "location_accuracy": 9, "longitude": -3.1094384, "price": 85000, "price_currency": "\u00a3", "price_formatted": "\u00a385,000", "price_high": 85000, "price_low": 85000, "price_type": "fixed", "property_type": "flat", "size": 0, "size_type": "net", "summary": "Two bedroom first floor retirement flat all interest and offers are...", "thumb_height": 60, "thumb_url": "https://imgs.nestimg.com/medium/2_bedroom_flat_111186332600552695.jpg", "thumb_width": 80, "title": "Northfield Gardens, Taunton, Somerset, TA1", "updated_in_days": 4, "updated_in_days_formatted": "first seen 4 days ago"}, {"bathroom_number": "", "bedroom_number": 5, "car_spaces": 0, "commission": 0, "construction_year": 0, "datasource_name": "OnTheMarket.com", "img_height": 300, "img_url": "https://imgs.nestimg.com/5_bedroom_detached_house_for_sale_109707784745987141.jpg", "img_width": 400, "keywords": "Detached, Victorian", "latitude": 51.2238, "lister_url": "https://www.nestoria.co.uk/detail/0000000109707784745987141/title/5/63-11?serpUid=&pt=1&ot=1&l=somerset&did=105_high1&t_sec=9&t_or=45&t_pvid=null&utm_source=api&utm_medium=external", "listing_type": "buy", "location_accuracy": 9, "longitude": -2.81364, "price": 1500000, "price_currency": "\u00a3", "price_formatted": "\u00a31,500,000", "price_high": 1500000, "price_low": 1500000, "price_type": "fixed", "property_type": "house", "size": 0, "size_type": "net", "summary": "Stanford house is a example of a period family home located in the ...", "thumb_height": 60, "thumb_url": "https://imgs.nestimg.com/medium/5_bedroom_detached_house_for_sale_109707784745987141.jpg", "thumb_width": 80, "title": "Stanford House, Sand Road, WEDMORE, Somerset", "updated_in_days": 327, "updated_in_days_formatted": "first seen over a month ago"}, {"bathroom_number": "", "bedroom_number": 2, "car_spaces": 0, "commission": 0, "construction_year": 0, "datasource_name": "OnTheMarket.com", "img_height": 300, "img_url": "https://imgs.nestimg.com/2_bedroom_terraced_house_for_sale_110265037069300081.jpg", "img_width": 400, "keywords": "Garden, Terraced, Double Bedroom", "latitude": 50.8719, "lister_name": "Greenslade Taylor Hunt", "lister_url": "https://www.nestoria.co.uk/detail/0000000110265037069300081/title/5/63-12?serpUid=&pt=1&ot=1&l=somerset&did=105_high1&t_sec=9&t_or=45&t_pvid=null&utm_source=api&utm_medium=external", "listing_type": "buy", "location_accuracy": 9, "longitude": -2.96908, "price": 160000, "price_currency": "\u00a3", "price_formatted": "\u00a3160,000", "price_high": 160000, "price_low": 160000, "price_type": "fixed", "property_type": "house", "size": 0, "size_type": "net", "summary": "A well proportioned 2 double bedroom terraced house with garden wit...", "thumb_height": 60, "thumb_url": "https://imgs.nestimg.com/medium/2_bedroom_terraced_house_for_sale_110265037069300081.jpg", "thumb_width": 80, "title": "Lower Montrose Terrace, High Street, Chard, Somerset, TA20", "updated_in_days": 90, "updated_in_days_formatted": "first seen over a month ago"}, {"bathroom_number": "", "bedroom_number": 4, "car_spaces": 0, "commission": 0, "construction_year": 0, "datasource_name": "OnTheMarket.com", "img_height": 300, "img_url": "https://imgs.nestimg.com/4_bedroom_detached_house_for_sale_106986781335748528.jpg", "img_width": 400, "keywords": "Detached", "latitude": 50.95409, "lister_name": "Strutt & Parker", "lister_url": "https://www.nestoria.co.uk/detail/0000000106986781335748528/title/5/63-13?serpUid=&pt=1&ot=1&l=somerset&did=105_high1&t_sec=9&t_or=45&t_pvid=null&utm_source=api&utm_medium=external", "listing_type": "buy", "location_accuracy": 9, "longitude": -3.26675, "price": 450000, "price_currency": "\u00a3", "price_formatted": "\u00a3450,000", "price_high": 450000, "price_low": 450000, "price_type": "fixed", "property_type": "house", "size": 0, "size_type": "net", "summary": "A characterful 4 bedroom detached family home in a convenient locat...", "thumb_height": 60, "thumb_url": "https://imgs.nestimg.com/medium/4_bedroom_detached_house_for_sale_106986781335748528.jpg", "thumb_width": 80, "title": "Sampford Moor, Wellington, Somerset", "updated_in_days": 313, "updated_in_days_formatted": "first seen over a month ago"}, {"bathroom_number": "", "bedroom_number": 2, "car_spaces": 0, "commission": 0, "construction_year": 0, "datasource_name": "NetHousePrices", "img_height": 300, "img_url": "https://imgs.nestimg.com/2_bedroom_flat_111705350627531629.jpg", "img_width": 400, "keywords": "Shared Garden, Kitchen, Parking, Reception, Gas Central Heating", "latitude": 51.011646, "lister_name": "Express", "lister_url": "https://www.nestoria.co.uk/detail/0000000111705350627531629/title/5/63-14?serpUid=&pt=1&ot=1&l=somerset&did=90_high1&t_sec=9&t_or=45&t_pvid=null&utm_source=api&utm_medium=external", "listing_type": "buy", "location_accuracy": 9, "longitude": -3.1062427, "price": 105000, "price_currency": "\u00a3", "price_formatted": "\u00a3105,000", "price_high": 105000, "price_low": 105000, "price_type": "fixed", "property_type": "flat", "size": 0, "size_type": "net", "summary": "Two bedroom top floor retirement flat all interest and offers are i...", "thumb_height": 60, "thumb_url": "https://imgs.nestimg.com/medium/2_bedroom_flat_111705350627531629.jpg", "thumb_width": 80, "title": "Upper High Street, Taunton, Somerset, TA1", "updated_in_days": 4, "updated_in_days_formatted": "first seen 4 days ago"}, {"bathroom_number": "", "bedroom_number": "", "car_spaces": 0, "commission": 0, "construction_year": 0, "datasource_name": "OnTheMarket.com", "img_height": 300, "img_url": "https://imgs.nestimg.com/land_for_sale_110227425311822082.jpg", "img_width": 400, "keywords": "", "latitude": 50.9613, "lister_name": "Stags", "lister_url": "https://www.nestoria.co.uk/detail/0000000110227425311822082/title/5/63-15?serpUid=&pt=1&ot=1&l=somerset&did=105_high1&t_sec=9&t_or=45&t_pvid=null&utm_source=api&utm_medium=external", "listing_type": "buy", "location_accuracy": 9, "longitude": -2.99213, "price": 50000, "price_currency": "\u00a3", "price_formatted": "\u00a350,000", "price_high": 50000, "price_low": 50000, "price_type": "fixed", "property_type": "land", "size": 0, "size_type": "net", "summary": "A level field of approximately 2.75 acres with road access and is s...", "thumb_height": 60, "thumb_url": "https://imgs.nestimg.com/medium/land_for_sale_110227425311822082.jpg", "thumb_width": 80, "title": "Capland, Hatch Beauchamp, Taunton, Somerset, TA3", "updated_in_days": 39, "updated_in_days_formatted": "first seen over a month ago"}], "locations": [{"center_lat": 51.080967, "center_long": -3.045432, "long_title": "Somerset, county", "place_name": "somerset", "title": "Somerset"}], "page": 63, "sort": "nestoria_rank", "status_code": "200", "status_text": "OK", "thanks": "For using the Nestoria API.", "total_pages": 410, "total_results": 6149, "_cu5t0mP434m_": "remove"}}