{"request": {"country": "uk", "language": "en", "location": "somerset", "num_res": "15", "offset": 945, "output": "json_xs", "page": 64, "product_type": "realestate", "property_type": "property", "size_type": "net", "size_unit": "m2", "sort": "nestoria_rank", "listing_type": "buy"}, "response": {"application_response_code": "100", "application_response_text": "listings returned for one unambiguous location", "attribution": {"img_height": 22, "img_url": "https://resources.nestimg.com/nestoria/img/pbr_v1.png", "img_width": 183, "link_to_img": "http://www.nestoria.com"}, "created_http": "Tue, 18 Jun 2019 17:30:11 GMT", "created_unix": 1560879011, "link_to_url": "https://www.nestoria.co.uk/somerset/property/buy/64", "listings": [{"bathroom_number": "", "bedroom_number": 4, "car_spaces": 0, "commission": 0, "construction_year": 0, "datasource_name": "OnTheMarket.com", "img_height": 300, "img_url": "https://imgs.nestimg.com/4_bedroom_detached_house_for_sale_107976195114023814.jpg", "img_width": 400, "keywords": "Detached, Garden, Double Garage, Kitchen", "latitude": 50.9199, "lister_name": "Stags", "lister_url": "https://www.nestoria.co.uk/detail/0000000107976195114023814/title/5/64-1?serpUid=&pt=1&ot=1&l=somerset&did=105_high1&t_sec=9&t_or=45&t_pvid=null&utm_source=api&utm_medium=external", "listing_type": "buy", "location_accuracy": 9, "longitude": -2.75714, "price": 550000, "price_currency": "\u00a3", "price_formatted": "\u00a3550,000", "price_high": 550000, "price_low": 550000, "price_type": "fixed", "property_type": "house", "size": 0, "size_type": "net", "summary": "A ly appointed 4 bedroom home located at the heart of a village. Hi...", "thumb_height": 60, "thumb_url": "https://imgs.nestimg.com/medium/4_bedroom_detached_house_for_sale_107976195114023814.jpg", "thumb_width": 80, "title": "Lower Street, West Chinnock, Crewkerne, Somerset, TA18", "updated_in_days": 607, "updated_in_days_formatted": "first seen over a month ago"}, {"bathroom_number": "", "bedroom_number": 4, "car_spaces": 0, "commission": 0, "construction_year": 0, "datasource_name": "NetHousePrices", "img_height": 300, "img_url": "https://imgs.nestimg.com/4_bedroom_detached_house_111717668557925860.jpg", "img_width": 400, "keywords": "Detached, Garden, En suite, Conservatory, Fireplace, Garage, Kitchen, Reception, Gas Central Heating", "latitude": 50.95101, "lister_name": "Express", "lister_url": "https://www.nestoria.co.uk/detail/0000000111717668557925860/title/5/64-2?serpUid=&pt=1&ot=1&l=somerset&did=90_high1&t_sec=9&t_or=45&t_pvid=null&utm_source=api&utm_medium=external", "listing_type": "buy", "location_accuracy": 9, "longitude": -2.8117359, "price": 450000, "price_currency": "\u00a3", "price_formatted": "\u00a3450,000", "price_high": 450000, "price_low": 450000, "price_type": "fixed", "property_type": "house", "size": 0, "size_type": "net", "summary": "Four bedroom detached house all interest and offers are invited. Gu...", "thumb_height": 60, "thumb_url": "https://imgs.nestimg.com/medium/4_bedroom_detached_house_111717668557925860.jpg", "thumb_width": 80, "title": "Orchard Close, South Petherton, Somerset, TA13", "updated_in_days": 2, "updated_in_days_formatted": "first seen 2 days ago"}, {"bathroom_number": "", "bedroom_number": 3, "car_spaces": 0, "commission": 0, "construction_year": 0, "datasource_name": "OnTheMarket.com", "img_height": 300, "img_url": "https://imgs.nestimg.com/3_bedroom_detached_bungalow_for_sale_109268961553574922.jpg", "img_width": 400, "keywords": "Detached, Garden, Conversion, Garage, Bungalow", "latitude": 50.8685, "lister_name": "Greenslade Taylor Hunt", "lister_url": "https://www.nestoria.co.uk/detail/0000000109268961553574922/title/5/64-3?serpUid=&pt=1&ot=1&l=somerset&did=105_high1&t_sec=9&t_or=45&t_pvid=null&utm_source=api&utm_medium=external", "listing_type": "buy", "location_accuracy": 9, "longitude": -2.83885, "price": 500000, "price_currency": "\u00a3", "price_formatted": "\u00a3500,000", "price_high": 500000, "price_low": 500000, "price_type": "fixed", "property_type": "house", "size": 0, "size_type": "net", "summary": "This unique, detached barn conversion is located in the hamlet of w...", "thumb_height": 60, "thumb_url": "https://imgs.nestimg.com/medium/3_bedroom_detached_bungalow_for_sale_109268961553574922.jpg", "thumb_width": 80, "title": "Woolminstone, Crewkerne, Somerset, TA18", "updated_in_days": 118, "updated_in_days_formatted": "first seen over a month ago"}, {"bathroom_number": "", "bedroom_number": 3, "car_spaces": 0, "commission": 0, "construction_year": 0, "datasource_name": "OnTheMarket.com", "img_height": 300, "img_url": "https://imgs.nestimg.com/3_bedroom_house_for_sale_108830249681349798.jpg", "img_width": 400, "keywords": "Freehold, Semi-Detached, Bungalow", "latitude": 51.1778, "lister_url": "https://www.nestoria.co.uk/detail/0000000108830249681349798/title/5/64-4?serpUid=&pt=1&ot=1&l=somerset&did=105_high1&t_sec=9&t_or=45&t_pvid=null&utm_source=api&utm_medium=external", "listing_type": "buy", "location_accuracy": 9, "longitude": -3.37676, "price": 255000, "price_currency": "\u00a3", "price_formatted": "\u00a3255,000", "price_high": 255000, "price_low": 255000, "price_type": "fixed", "property_type": "house", "size": 0, "size_type": "net", "summary": "A well maintained three bedroom semi detached chalet bungalow in a ...", "thumb_height": 60, "thumb_url": "https://imgs.nestimg.com/medium/3_bedroom_house_for_sale_108830249681349798.jpg", "thumb_width": 80, "title": "Chestnut Avenue, Chapel Cleeve, Minehead, Somerset, TA24", "updated_in_days": 41, "updated_in_days_formatted": "first seen over a month ago"}, {"bathroom_number": "", "bedroom_number": 5, "car_spaces": 0, "commission": 0, "construction_year": 0, "datasource_name": "Home.co.uk", "img_height": 300, "img_url": "https://imgs.nestimg.com/detached_house_111056566934525152.jpg", "img_width": 400, "keywords": "Detached", "latitude": 51.043024, "lister_name": "Greenslade Taylor Hunt", "lister_url": "https://www.nestoria.co.uk/detail/0000000111056566934525152/title/5/64-5?serpUid=&pt=1&ot=1&l=somerset&did=85_default&t_sec=9&t_or=45&t_pvid=null&utm_source=api&utm_medium=external", "listing_type": "buy", "location_accuracy": 10, "longitude": -2.922172, "price": 399000, "price_currency": "\u00a3", "price_formatted": "\u00a3399,000", "price_high": 399000, "price_low": 399000, "price_type": "fixed", "property_type": "house", "size": 0, "size_type": "net", "summary": "Located in a thriving village with a large catchment area. Characte...", "thumb_height": 60, "thumb_url": "https://imgs.nestimg.com/medium/detached_house_111056566934525152.jpg", "thumb_width": 80, "title": "Woodhill, Stoke St. Gregory, Taunton, Somerset, TA3", "updated_in_days": 4, "updated_in_days_formatted": "first seen 4 days ago"}, {"bathroom_number": "", "bedroom_number": 5, "car_spaces": 0, "commission": 0, "construction_year": 0, "datasource_name": "OnTheMarket.com", "img_height": 300, "img_url": "https://imgs.nestimg.com/5_bedroom_end_of_terrace_house_for_sale_110265030605553674.jpg", "img_width": 400, "keywords": "Conservatory, Terraced, Garage", "latitude": 51.346, "lister_url": "https://www.nestoria.co.uk/detail/0000000110265030605553674/title/5/64-6?serpUid=&pt=1&ot=1&l=somerset&did=105_high1&t_sec=9&t_or=45&t_pvid=null&utm_source=api&utm_medium=external", "listing_type": "buy", "location_accuracy": 9, "longitude": -2.93468, "price": 245000, "price_currency": "\u00a3", "price_formatted": "\u00a3245,000", "price_high": 245000, "price_low": 245000, "price_type": "fixed", "property_type": "house", "size": 0, "size_type": "net", "summary": "Town house five beds plenty of room for eone! Are you looking for a...", "thumb_height": 60, "thumb_url": "https://imgs.nestimg.com/medium/5_bedroom_end_of_terrace_house_for_sale_110265030605553674.jpg", "thumb_width": 80, "title": "Worle Moor Road, Weston Village, Weston-super-Mare, North Somerset. BS24", "updated_in_days": 16, "updated_in_days_formatted": "first seen 2 weeks ago"}, {"bathroom_number": "", "bedroom_number": 3, "car_spaces": 0, "commission": 0, "construction_year": 0, "datasource_name": "OnTheMarket.com", "img_height": 300, "img_url": "https://imgs.nestimg.com/3_bedroom_bungalow_for_sale_110134880092715643.jpg", "img_width": 400, "keywords": "Garden, Garage, Bungalow, Cul-de-Sac", "latitude": 50.9159, "lister_name": "Stags", "lister_url": "https://www.nestoria.co.uk/detail/0000000110134880092715643/title/5/64-7?serpUid=&pt=1&ot=1&l=somerset&did=105_high1&t_sec=9&t_or=45&t_pvid=null&utm_source=api&utm_medium=external", "listing_type": "buy", "location_accuracy": 9, "longitude": -2.75988, "price": 289950, "price_currency": "\u00a3", "price_formatted": "\u00a3289,950", "price_high": 289950, "price_low": 289950, "price_type": "fixed", "property_type": "house", "size": 0, "size_type": "net", "summary": "A and recently improved 3 bedroom bungalow located at the end of a ...", "thumb_height": 60, "thumb_url": "https://imgs.nestimg.com/medium/3_bedroom_bungalow_for_sale_110134880092715643.jpg", "thumb_width": 80, "title": "Hill View Close, West Chinnock, Crewkerne, Somerset, TA18", "updated_in_days": 157, "updated_in_days_formatted": "first seen over a month ago"}, {"bathroom_number": "", "bedroom_number": 4, "car_spaces": 0, "commission": 0, "construction_year": 0, "datasource_name": "NetHousePrices", "img_height": 300, "img_url": "https://imgs.nestimg.com/4_bedroom_semi_detached_house_111717649314105604.jpg", "img_width": 400, "keywords": "Garden, Semi-Detached, En suite, Conservatory, Fireplace, Garage, Kitchen, Gas Central Heating", "latitude": 50.97274, "lister_name": "Palmer Snell", "lister_url": "https://www.nestoria.co.uk/detail/0000000111717649314105604/title/5/64-8?serpUid=&pt=1&ot=1&l=somerset&did=90_high1&t_sec=9&t_or=45&t_pvid=null&utm_source=api&utm_medium=external", "listing_type": "buy", "location_accuracy": 9, "longitude": -2.769771, "price": 275000, "price_currency": "\u00a3", "price_formatted": "\u00a3275,000", "price_high": 275000, "price_low": 275000, "price_type": "fixed", "property_type": "house", "size": 0, "size_type": "net", "summary": "A well presented 4 bedroom family home with the benefits of its' lo...", "thumb_height": 60, "thumb_url": "https://imgs.nestimg.com/medium/4_bedroom_semi_detached_house_111717649314105604.jpg", "thumb_width": 80, "title": "Beech Road, Martock, Somerset, TA12", "updated_in_days": 2, "updated_in_days_formatted": "first seen 2 days ago"}, {"bathroom_number": "", "bedroom_number": 4, "car_spaces": 0, "commission": 0, "construction_year": 0, "datasource_name": "OnTheMarket.com", "img_height": 300, "img_url": "https://imgs.nestimg.com/4_bedroom_detached_house_for_sale_108953492938181910.jpg", "img_width": 400, "keywords": "Detached, Garden, Kitchen, Cottage", "latitude": 51.116, "lister_name": "Stags", "lister_url": "https://www.nestoria.co.uk/detail/0000000108953492938181910/title/5/64-9?serpUid=&pt=1&ot=1&l=somerset&did=105_high1&t_sec=9&t_or=45&t_pvid=null&utm_source=api&utm_medium=external", "listing_type": "buy", "location_accuracy": 9, "longitude": -3.4186, "price": 650000, "price_currency": "\u00a3", "price_formatted": "\u00a3650,000", "price_high": 650000, "price_low": 650000, "price_type": "fixed", "property_type": "house", "size": 0, "size_type": "net", "summary": "A 4 bedroom character house set in a peaceful hamlet with gardens, ...", "thumb_height": 60, "thumb_url": "https://imgs.nestimg.com/medium/4_bedroom_detached_house_for_sale_108953492938181910.jpg", "thumb_width": 80, "title": "Treborough, Watchet, Somerset, TA23", "updated_in_days": 449, "updated_in_days_formatted": "first seen over a month ago"}, {"bathroom_number": "", "bedroom_number": 3, "car_spaces": 0, "commission": 0, "construction_year": 0, "datasource_name": "NetHousePrices", "img_height": 300, "img_url": "https://imgs.nestimg.com/3_bedroom_terraced_house_111699664554292535.jpg", "img_width": 400, "keywords": "Garden, No Chain, Terraced, Victorian, Double Bedroom, Kitchen, Modern, Parking, Reception", "latitude": 51.016045, "lister_url": "https://www.nestoria.co.uk/detail/0000000111699664554292535/title/5/64-10?serpUid=&pt=1&ot=1&l=somerset&did=90_high1&t_sec=9&t_or=45&t_pvid=null&utm_source=api&utm_medium=external", "listing_type": "buy", "location_accuracy": 9, "longitude": -3.094985, "price": 165000, "price_currency": "\u00a3", "price_formatted": "\u00a3165,000", "price_high": 165000, "price_low": 165000, "price_type": "fixed", "property_type": "house", "size": 0, "size_type": "net", "summary": "Victorian terrace central to taunton's town centre with the benefit...", "thumb_height": 60, "thumb_url": "https://imgs.nestimg.com/medium/3_bedroom_terraced_house_111699664554292535.jpg", "thumb_width": 80, "title": "Eastbourne Road, Taunton, Somerset, TA1", "updated_in_days": 5, "updated_in_days_formatted": "first seen 5 days ago"}, {"bathroom_number": "", "bedroom_number": 0, "car_spaces": 0, "commission": 0, "construction_year": 0, "datasource_name": "NetHousePrices", "img_height": 300, "img_url": "https://imgs.nestimg.com/property_111717661635969123.jpg", "img_width": 400, "keywords": "Garden, No Chain, Accessibility, Purpose Built, Terraced, Garage, Kitchen, Lift, Modern, Cottage", "latitude": 51.160896, "lister_url": "https://www.nestoria.co.uk/detail/0000000111717661635969123/title/5/64-11?serpUid=&pt=1&ot=1&l=somerset&did=90_high1&t_sec=9&t_or=45&t_pvid=null&utm_source=api&utm_medium=external", "listing_type": "buy", "location_accuracy": 9, "longitude": -3.3604345, "price": 199950, "price_currency": "\u00a3", "price_formatted": "\u00a3199,950", "price_high": 199950, "price_low": 199950, "price_type": "fixed", "property_type": "house", "size": 0, "size_type": "net", "summary": "No onward chain a ly presented two/three bedroom end of terrace cot...", "thumb_height": 60, "thumb_url": "https://imgs.nestimg.com/medium/property_111717661635969123.jpg", "thumb_width": 80, "title": "Washford, Watchet, Somerset, TA23", "updated_in_days": 2, "updated_in_days_formatted": "first seen 2 days ago"}, {"bathroom_number": "", "bedroom_number": 3, "car_spaces": 0, "commission": 0, "construction_year": 0, "datasource_name": "NetHousePrices", "img_height": 300, "img_url": "https://imgs.nestimg.com/3_bedroom_semi_detached_house_111699662555858995.jpg", "img_width": 400, "keywords": "Garden, Semi-Detached, No Chain, Garage, Modern", "latitude": 51.008423, "lister_url": "https://www.nestoria.co.uk/detail/0000000111699662555858995/title/5/64-12?serpUid=&pt=1&ot=1&l=somerset&did=90_high1&t_sec=9&t_or=45&t_pvid=null&utm_source=api&utm_medium=external", "listing_type": "buy", "location_accuracy": 9, "longitude": -3.076917, "price": 225000, "price_currency": "\u00a3", "price_formatted": "\u00a3225,000", "price_high": 225000, "price_low": 225000, "price_type": "fixed", "property_type": "house", "size": 0, "size_type": "net", "summary": "Ly positioned within quiet, non estate location three bedroom moder...", "thumb_height": 60, "thumb_url": "https://imgs.nestimg.com/medium/3_bedroom_semi_detached_house_111699662555858995.jpg", "thumb_width": 80, "title": "Holway Green, Holway, Taunton, Somerset, TA1", "updated_in_days": 5, "updated_in_days_formatted": "first seen 5 days ago"}, {"bathroom_number": "", "bedroom_number": 7, "car_spaces": 0, "commission": 0, "construction_year": 0, "datasource_name": "OnTheMarket.com", "img_height": 300, "img_url": "https://imgs.nestimg.com/7_bedroom_detached_house_for_sale_109293240879482480.jpg", "img_width": 400, "keywords": "Detached, Garden, Listed", "latitude": 50.97424, "lister_name": "Savills", "lister_url": "https://www.nestoria.co.uk/detail/0000000109293240879482480/title/5/64-13?serpUid=&pt=1&ot=1&l=somerset&did=105_high1&t_sec=9&t_or=45&t_pvid=null&utm_source=api&utm_medium=external", "listing_type": "buy", "location_accuracy": 9, "longitude": -2.71536, "price": 1750000, "price_currency": "\u00a3", "price_formatted": "\u00a31,750,000", "price_high": 1750000, "price_low": 1750000, "price_type": "fixed", "property_type": "house", "size": 0, "size_type": "net", "summary": "An grade i listed village house with medieval origins, ly proportio...", "thumb_height": 60, "thumb_url": "https://imgs.nestimg.com/medium/7_bedroom_detached_house_for_sale_109293240879482480.jpg", "thumb_width": 80, "title": "St. Margarets Road, Tintinhull, Yeovil, Somerset, BA22", "updated_in_days": 394, "updated_in_days_formatted": "first seen over a month ago"}, {"bathroom_number": "", "bedroom_number": 2, "car_spaces": 0, "commission": 0, "construction_year": 0, "datasource_name": "OnTheMarket.com", "img_height": 300, "img_url": "https://imgs.nestimg.com/2_bedroom_retirement_property_for_sale_109682900405415751.jpg", "img_width": 400, "keywords": "Garden, No Chain, Kitchen, Lift, Parking, Reception", "latitude": 51.2067, "lister_name": "Greenslade Taylor Hunt", "lister_url": "https://www.nestoria.co.uk/detail/0000000109682900405415751/title/5/64-14?serpUid=&pt=1&ot=1&l=somerset&did=105_high1&t_sec=9&t_or=45&t_pvid=null&utm_source=api&utm_medium=external", "listing_type": "buy", "location_accuracy": 9, "longitude": -2.64638, "price": 215000, "price_currency": "\u00a3", "price_formatted": "\u00a3215,000", "price_high": 215000, "price_low": 215000, "price_type": "fixed", "property_type": "property", "size": 0, "size_type": "net", "summary": "A lift assisted 2nd floor retirement apartment in sought after the ...", "thumb_height": 60, "thumb_url": "https://imgs.nestimg.com/medium/2_bedroom_retirement_property_for_sale_109682900405415751.jpg", "thumb_width": 80, "title": "The Cloisters, South Street, Wells, Somerset, BA5", "updated_in_days": 331, "updated_in_days_formatted": "first seen over a month ago"}, {"bathroom_number": "", "bedroom_number": 2, "car_spaces": 0, "commission": 0, "construction_year": 0, "datasource_name": "NetHousePrices", "img_height": 300, "img_url": "https://imgs.nestimg.com/2_bedroom_flat_111711493169646280.jpg", "img_width": 400, "keywords": "En suite, Double Bedroom, Kitchen, Gas Central Heating", "latitude": 50.98014, "lister_name": "Express", "lister_url": "https://www.nestoria.co.uk/detail/0000000111711493169646280/title/5/64-15?serpUid=&pt=1&ot=1&l=somerset&did=90_high1&t_sec=9&t_or=45&t_pvid=null&utm_source=api&utm_medium=external", "listing_type": "buy", "location_accuracy": 9, "longitude": -3.225624, "price": 75000, "price_currency": "\u00a3", "price_formatted": "\u00a375,000", "price_high": 75000, "price_low": 75000, "price_type": "fixed", "property_type": "flat", "size": 0, "size_type": "net", "summary": "Two bedroom ground floor flatl interest and offers are invited. 20,...", "thumb_height": 60, "thumb_url": "https://imgs.nestimg.com/medium/2_bedroom_flat_111711493169646280.jpg", "thumb_width": 80, "title": "High Street, Wellington, Somerset, TA21", "updated_in_days": 3, "updated_in_days_formatted": "first seen 3 days ago"}], "locations": [{"center_lat": 51.080967, "center_long": -3.045432, "long_title": "Somerset, county", "place_name": "somerset", "title": "Somerset"}], "page": 64, "sort": "nestoria_rank", "status_code": "200", "status_text": "OK", "thanks": "For using the Nestoria API.", "total_pages": 410, "total_results": 6149, "_cu5t0mP434m_": "remove"}}