{"request": {"country": "uk", "language": "en", "location": "somerset", "num_res": "15", "offset": 960, "output": "json_xs", "page": 65, "product_type": "realestate", "property_type": "property", "size_type": "net", "size_unit": "m2", "sort": "nestoria_rank", "listing_type": "buy"}, "response": {"application_response_code": "100", "application_response_text": "listings returned for one unambiguous location", "attribution": {"img_height": 22, "img_url": "https://resources.nestimg.com/nestoria/img/pbr_v1.png", "img_width": 183, "link_to_img": "http://www.nestoria.com"}, "created_http": "Tue, 18 Jun 2019 17:30:13 GMT", "created_unix": 1560879013, "link_to_url": "https://www.nestoria.co.uk/somerset/property/buy/65", "listings": [{"bathroom_number": "", "bedroom_number": 4, "car_spaces": 0, "commission": 0, "construction_year": 0, "datasource_name": "OnTheMarket.com", "img_height": 300, "img_url": "https://imgs.nestimg.com/4_bedroom_semi_detached_house_for_sale_109707785514469951.jpg", "img_width": 400, "keywords": "Semi-Detached, Cottage", "latitude": 51.2665, "lister_url": "https://www.nestoria.co.uk/detail/0000000109707785514469951/title/5/65-1?serpUid=&pt=1&ot=1&l=somerset&did=105_high1&t_sec=9&t_or=45&t_pvid=null&utm_source=api&utm_medium=external", "listing_type": "buy", "location_accuracy": 9, "longitude": -2.83094, "price": 425000, "price_currency": "\u00a3", "price_formatted": "\u00a3425,000", "price_high": 425000, "price_low": 425000, "price_type": "fixed", "property_type": "house", "size": 0, "size_type": "net", "summary": "Countryside views. Laurel cottage is a four bedroom property in an ...", "thumb_height": 60, "thumb_url": "https://imgs.nestimg.com/medium/4_bedroom_semi_detached_house_for_sale_109707785514469951.jpg", "thumb_width": 80, "title": "Laurel Cottage, Brinscombe, WEARE, Somerset", "updated_in_days": 327, "updated_in_days_formatted": "first seen over a month ago"}, {"bathroom_number": "", "bedroom_number": 4, "car_spaces": 0, "commission": 0, "construction_year": 0, "datasource_name": "OnTheMarket.com", "img_height": 300, "img_url": "https://imgs.nestimg.com/4_bedroom_detached_house_for_sale_110060296922311564.jpg", "img_width": 400, "keywords": "Detached, Double Garage, No Chain, Cul-de-Sac", "latitude": 50.9296, "lister_name": "Greenslade Taylor Hunt", "lister_url": "https://www.nestoria.co.uk/detail/0000000110060296922311564/title/5/65-2?serpUid=&pt=1&ot=1&l=somerset&did=105_high1&t_sec=9&t_or=45&t_pvid=null&utm_source=api&utm_medium=external", "listing_type": "buy", "location_accuracy": 9, "longitude": -2.65971, "price": 375000, "price_currency": "\u00a3", "price_formatted": "\u00a3375,000", "price_high": 375000, "price_low": 375000, "price_type": "fixed", "property_type": "house", "size": 0, "size_type": "net", "summary": "This superb, 4 bedroom detached family home is located on the sough...", "thumb_height": 60, "thumb_url": "https://imgs.nestimg.com/medium/4_bedroom_detached_house_for_sale_110060296922311564.jpg", "thumb_width": 80, "title": "Watercombe Heights, Yeovil, Somerset, BA20", "updated_in_days": 270, "updated_in_days_formatted": "first seen over a month ago"}, {"bathroom_number": "", "bedroom_number": 3, "car_spaces": 0, "commission": 0, "construction_year": 0, "datasource_name": "OnTheMarket.com", "img_height": 300, "img_url": "https://imgs.nestimg.com/3_bedroom_house_for_sale_108013288650440426.jpg", "img_width": 400, "keywords": "Detached, Freehold, En suite, Garage", "latitude": 50.9424, "lister_name": "Greenslade Taylor Hunt", "lister_url": "https://www.nestoria.co.uk/detail/0000000108013288650440426/title/5/65-3?serpUid=&pt=1&ot=1&l=somerset&did=105_high1&t_sec=9&t_or=45&t_pvid=null&utm_source=api&utm_medium=external", "listing_type": "buy", "location_accuracy": 9, "longitude": -2.68062, "price": 259000, "price_currency": "\u00a3", "price_formatted": "\u00a3259,000", "price_high": 259000, "price_low": 259000, "price_type": "fixed", "property_type": "house", "size": 0, "size_type": "net", "summary": "This superb, 3 bedroom detached family home is situated in a quiet ...", "thumb_height": 60, "thumb_url": "https://imgs.nestimg.com/medium/3_bedroom_house_for_sale_108013288650440426.jpg", "thumb_width": 80, "title": "Fennel Way, Yeovil, Somerset, BA22", "updated_in_days": 341, "updated_in_days_formatted": "first seen over a month ago"}, {"bathroom_number": "", "bedroom_number": 6, "car_spaces": 0, "commission": 0, "construction_year": 0, "datasource_name": "OnTheMarket.com", "img_height": 300, "img_url": "https://imgs.nestimg.com/9_bedroom_detached_house_for_sale_109330330882309557.jpg", "img_width": 400, "keywords": "Detached", "latitude": 50.909348, "lister_name": "Knight Frank", "lister_url": "https://www.nestoria.co.uk/detail/0000000109330330882309557/title/5/65-4?serpUid=&pt=1&ot=1&l=somerset&did=105_high1&t_sec=9&t_or=45&t_pvid=null&utm_source=api&utm_medium=external", "listing_type": "buy", "location_accuracy": 9, "longitude": -2.787281, "price": 2000000, "price_currency": "\u00a3", "price_formatted": "\u00a32,000,000", "price_high": 2000000, "price_low": 2000000, "price_type": "fixed", "property_type": "house", "size": 0, "size_type": "net", "summary": "Period village house with stables, coach house and paddock in merri...", "thumb_height": 60, "thumb_url": "https://imgs.nestimg.com/medium/9_bedroom_detached_house_for_sale_109330330882309557.jpg", "thumb_width": 80, "title": "Lower Street, Merriott, Somerset, TA16", "updated_in_days": 388, "updated_in_days_formatted": "first seen over a month ago"}, {"bathroom_number": "", "bedroom_number": "", "car_spaces": 0, "commission": 0, "construction_year": 0, "datasource_name": "OnTheMarket.com", "img_height": 300, "img_url": "https://imgs.nestimg.com/land_for_sale_110140885856315299.jpg", "img_width": 400, "keywords": "", "latitude": 51.2045, "lister_name": "Greenslade Taylor Hunt", "lister_url": "https://www.nestoria.co.uk/detail/0000000110140885856315299/title/5/65-5?serpUid=&pt=1&ot=1&l=somerset&did=105_high1&t_sec=9&t_or=45&t_pvid=null&utm_source=api&utm_medium=external", "listing_type": "buy", "location_accuracy": 9, "longitude": -2.92939, "price": 550000, "price_currency": "\u00a3", "price_formatted": "\u00a3550,000", "price_high": 550000, "price_low": 550000, "price_type": "fixed", "property_type": "land", "size": 0, "size_type": "net", "summary": "Lot 1 moor row farmhouse, merry lane, east huntspill, highbridge, s...", "thumb_height": 60, "thumb_url": "https://imgs.nestimg.com/medium/land_for_sale_110140885856315299.jpg", "thumb_width": 80, "title": "Merry Lane, East Huntspill, Highbridge, Somerset, TA9", "updated_in_days": 257, "updated_in_days_formatted": "first seen over a month ago"}, {"bathroom_number": "", "bedroom_number": 3, "car_spaces": 0, "commission": 0, "construction_year": 0, "datasource_name": "OnTheMarket.com", "img_height": 300, "img_url": "https://imgs.nestimg.com/3_bedroom_detached_house_for_sale_110010934894087573.jpg", "img_width": 400, "keywords": "Detached, Garden, Detached Garage", "latitude": 50.9438, "lister_name": "Greenslade Taylor Hunt", "lister_url": "https://www.nestoria.co.uk/detail/0000000110010934894087573/title/5/65-6?serpUid=&pt=1&ot=1&l=somerset&did=105_high1&t_sec=9&t_or=45&t_pvid=null&utm_source=api&utm_medium=external", "listing_type": "buy", "location_accuracy": 9, "longitude": -2.63936, "price": 450000, "price_currency": "\u00a3", "price_formatted": "\u00a3450,000", "price_high": 450000, "price_low": 450000, "price_type": "fixed", "property_type": "house", "size": 0, "size_type": "net", "summary": "Residential development opportunity, situated on one of yeovils mos...", "thumb_height": 60, "thumb_url": "https://imgs.nestimg.com/medium/3_bedroom_detached_house_for_sale_110010934894087573.jpg", "thumb_width": 80, "title": "The Park, Yeovil, Somerset, BA20", "updated_in_days": 80, "updated_in_days_formatted": "first seen over a month ago"}, {"bathroom_number": "", "bedroom_number": 5, "car_spaces": 0, "commission": 0, "construction_year": 0, "datasource_name": "OnTheMarket.com", "img_height": 300, "img_url": "https://imgs.nestimg.com/5_bedroom_detached_house_for_sale_109596297742393656.jpg", "img_width": 400, "keywords": "Detached, Victorian", "latitude": 51.0536, "lister_name": "Knight Frank", "lister_url": "https://www.nestoria.co.uk/detail/0000000109596297742393656/title/5/65-7?serpUid=&pt=1&ot=1&l=somerset&did=105_high1&t_sec=9&t_or=45&t_pvid=null&utm_source=api&utm_medium=external", "listing_type": "buy", "location_accuracy": 9, "longitude": -2.664536, "price": 1300000, "price_currency": "\u00a3", "price_formatted": "\u00a31,300,000", "price_high": 1300000, "price_low": 1300000, "price_type": "fixed", "property_type": "house", "size": 0, "size_type": "net", "summary": "Former 5 bedroom victorian rectory with 1.32 acres in charlton adam...", "thumb_height": 60, "thumb_url": "https://imgs.nestimg.com/medium/5_bedroom_detached_house_for_sale_109596297742393656.jpg", "thumb_width": 80, "title": "Chessels Lane, Charlton Adam, Somerton, Somerset, TA11", "updated_in_days": 345, "updated_in_days_formatted": "first seen over a month ago"}, {"bathroom_number": "", "bedroom_number": 3, "car_spaces": 0, "commission": 0, "construction_year": 0, "datasource_name": "OnTheMarket.com", "img_height": 300, "img_url": "https://imgs.nestimg.com/3_bedroom_detached_house_for_sale_110412978130650699.jpg", "img_width": 400, "keywords": "Detached, Garden, No Chain, Cottage", "latitude": 50.9192, "lister_name": "Greenslade Taylor Hunt", "lister_url": "https://www.nestoria.co.uk/detail/0000000110412978130650699/title/5/65-8?serpUid=&pt=1&ot=1&l=somerset&did=105_high1&t_sec=9&t_or=45&t_pvid=null&utm_source=api&utm_medium=external", "listing_type": "buy", "location_accuracy": 9, "longitude": -2.68796, "price": 325000, "price_currency": "\u00a3", "price_formatted": "\u00a3325,000", "price_high": 325000, "price_low": 325000, "price_type": "fixed", "property_type": "house", "size": 0, "size_type": "net", "summary": "This , period, chocolate box, detached cottage is located in the ce...", "thumb_height": 60, "thumb_url": "https://imgs.nestimg.com/medium/3_bedroom_detached_house_for_sale_110412978130650699.jpg", "thumb_width": 80, "title": "Church Street, West Coker, Yeovil, Somerset, BA22", "updated_in_days": 213, "updated_in_days_formatted": "first seen over a month ago"}, {"bathroom_number": "", "bedroom_number": 6, "car_spaces": 0, "commission": 0, "construction_year": 0, "datasource_name": "OnTheMarket.com", "img_height": 300, "img_url": "https://imgs.nestimg.com/6_bedroom_detached_house_for_sale_110060301990764792.jpg", "img_width": 400, "keywords": "Detached, Garden, Swimming Pool", "latitude": 51.20625, "lister_name": "Savills", "lister_url": "https://www.nestoria.co.uk/detail/0000000110060301990764792/title/5/65-9?serpUid=&pt=1&ot=1&l=somerset&did=105_high1&t_sec=9&t_or=45&t_pvid=null&utm_source=api&utm_medium=external", "listing_type": "buy", "location_accuracy": 9, "longitude": -2.68321, "price": 2500000, "price_currency": "\u00a3", "price_formatted": "\u00a32,500,000", "price_high": 2500000, "price_low": 2500000, "price_type": "fixed", "property_type": "house", "size": 0, "size_type": "net", "summary": "A family house set amongst its gardens with unique indoor swimming ...", "thumb_height": 60, "thumb_url": "https://imgs.nestimg.com/medium/6_bedroom_detached_house_for_sale_110060301990764792.jpg", "thumb_width": 80, "title": "Pennybatch Lane, Burcott, Wells, Somerset, BA5", "updated_in_days": 270, "updated_in_days_formatted": "first seen over a month ago"}, {"bathroom_number": "", "bedroom_number": 7, "car_spaces": 0, "commission": 0, "construction_year": 0, "datasource_name": "OnTheMarket.com", "img_height": 300, "img_url": "https://imgs.nestimg.com/7_bedroom_detached_house_for_sale_109460225881807609.jpg", "img_width": 400, "keywords": "Detached", "latitude": 50.955, "lister_name": "Stags", "lister_url": "https://www.nestoria.co.uk/detail/0000000109460225881807609/title/5/65-10?serpUid=&pt=1&ot=1&l=somerset&did=105_high1&t_sec=9&t_or=45&t_pvid=null&utm_source=api&utm_medium=external", "listing_type": "buy", "location_accuracy": 9, "longitude": -2.7134, "price": 895000, "price_currency": "\u00a3", "price_formatted": "\u00a3895,000", "price_high": 895000, "price_low": 895000, "price_type": "fixed", "property_type": "house", "size": 0, "size_type": "net", "summary": "A versatile character home comprising two dwellings located in a ru...", "thumb_height": 60, "thumb_url": "https://imgs.nestimg.com/medium/7_bedroom_detached_house_for_sale_109460225881807609.jpg", "thumb_width": 80, "title": "Lower Town, Montacute, Somerset, TA15", "updated_in_days": 367, "updated_in_days_formatted": "first seen over a month ago"}, {"bathroom_number": 4, "bedroom_number": 4, "car_spaces": 0, "commission": 0, "construction_year": 0, "datasource_name": "OnTheMarket.com", "img_height": 300, "img_url": "https://imgs.nestimg.com/4_bedroom_semi_detached_house_for_sale_111724141709342169.jpg", "img_width": 400, "keywords": "Garden, Semi-Detached, No Chain, Ex Local Auth, Double Bedroom, Kitchen, Reception, Gas Central Heating", "latitude": 51.0363, "lister_name": "Gibbins Richards", "lister_url": "https://www.nestoria.co.uk/detail/0000000111724141709342169/title/5/65-11?serpUid=&pt=1&ot=1&l=somerset&did=105_high1&t_sec=9&t_or=45&t_pvid=null&utm_source=api&utm_medium=external", "listing_type": "buy", "location_accuracy": 9, "longitude": -3.08916, "price": 200000, "price_currency": "\u00a3", "price_formatted": "\u00a3200,000", "price_high": 200000, "price_low": 200000, "price_type": "fixed", "property_type": "house", "size": 0, "size_type": "net", "summary": "A most ex-local authority home standing in large corner plot garden...", "thumb_height": 60, "thumb_url": "https://imgs.nestimg.com/medium/4_bedroom_semi_detached_house_for_sale_111724141709342169.jpg", "thumb_width": 80, "title": "BOSSINGTON DRIVE - No Chain, Garden", "updated_in_days": 1, "updated_in_days_formatted": "New"}, {"bathroom_number": "", "bedroom_number": 4, "car_spaces": 0, "commission": 0, "construction_year": 0, "datasource_name": "OnTheMarket.com", "img_height": 300, "img_url": "https://imgs.nestimg.com/4_bedroom_detached_house_for_sale_109707786199075860.jpg", "img_width": 400, "keywords": "Detached, Refurbished", "latitude": 51.1274, "lister_url": "https://www.nestoria.co.uk/detail/0000000109707786199075860/title/5/65-12?serpUid=&pt=1&ot=1&l=somerset&did=105_high1&t_sec=9&t_or=45&t_pvid=null&utm_source=api&utm_medium=external", "listing_type": "buy", "location_accuracy": 9, "longitude": -2.61925, "price": 625000, "price_currency": "\u00a3", "price_formatted": "\u00a3625,000", "price_high": 625000, "price_low": 625000, "price_type": "fixed", "property_type": "house", "size": 0, "size_type": "net", "summary": "Bell house is a four bedroom detached property in a good sized plot...", "thumb_height": 60, "thumb_url": "https://imgs.nestimg.com/medium/4_bedroom_detached_house_for_sale_109707786199075860.jpg", "thumb_width": 80, "title": "PARBROOK, Glastonbury, Somerset", "updated_in_days": 327, "updated_in_days_formatted": "first seen over a month ago"}, {"bathroom_number": "", "bedroom_number": 5, "car_spaces": 0, "commission": 0, "construction_year": 0, "datasource_name": "OnTheMarket.com", "img_height": 300, "img_url": "https://imgs.nestimg.com/5_bedroom_semi_detached_house_for_sale_110134882097523784.jpg", "img_width": 400, "keywords": "Garden, Grade II, Kitchen, Parking, Reception, Listed", "latitude": 51.0402, "lister_name": "Stags", "lister_url": "https://www.nestoria.co.uk/detail/0000000110134882097523784/title/5/65-13?serpUid=&pt=1&ot=1&l=somerset&did=105_high1&t_sec=9&t_or=45&t_pvid=null&utm_source=api&utm_medium=external", "listing_type": "buy", "location_accuracy": 9, "longitude": -3.54933, "price": 675000, "price_currency": "\u00a3", "price_formatted": "\u00a3675,000", "price_high": 675000, "price_low": 675000, "price_type": "fixed", "property_type": "house", "size": 0, "size_type": "net", "summary": "A grade ii listed house with large walled gardens and parking. Town...", "thumb_height": 60, "thumb_url": "https://imgs.nestimg.com/medium/5_bedroom_semi_detached_house_for_sale_110134882097523784.jpg", "thumb_width": 80, "title": "High Street, Dulverton, Somerset, TA22", "updated_in_days": 258, "updated_in_days_formatted": "first seen over a month ago"}, {"bathroom_number": "", "bedroom_number": "", "car_spaces": 0, "commission": 0, "construction_year": 0, "datasource_name": "OnTheMarket.com", "img_height": 300, "img_url": "https://imgs.nestimg.com/residential_development_for_sale_107697684143602032.jpg", "img_width": 400, "keywords": "", "latitude": 51.0433, "lister_name": "Stags", "lister_url": "https://www.nestoria.co.uk/detail/0000000107697684143602032/title/5/65-14?serpUid=&pt=1&ot=1&l=somerset&did=105_high1&t_sec=9&t_or=45&t_pvid=null&utm_source=api&utm_medium=external", "listing_type": "buy", "location_accuracy": 9, "longitude": -3.31036, "price": 400000, "price_currency": "\u00a3", "price_formatted": "\u00a3400,000", "price_high": 400000, "price_low": 400000, "price_type": "fixed", "property_type": "land", "size": 0, "size_type": "net", "summary": "A fine opportunity to purchase a well located residential developme...", "thumb_height": 60, "thumb_url": "https://imgs.nestimg.com/medium/residential_development_for_sale_107697684143602032.jpg", "thumb_width": 80, "title": "Golden Hill, Wiveliscombe, Taunton, Somerset, TA4", "updated_in_days": 652, "updated_in_days_formatted": "first seen over a month ago"}, {"bathroom_number": "", "bedroom_number": 2, "car_spaces": 0, "commission": 0, "construction_year": 0, "datasource_name": "NetHousePrices", "img_height": 300, "img_url": "https://imgs.nestimg.com/2_bedroom_flat_111111780610872329.jpg", "img_width": 400, "keywords": "En suite, No Chain, Balcony, Double Bedroom, Garage, Kitchen, Lift", "latitude": 51.341312, "lister_name": "Palmer Snell", "lister_url": "https://www.nestoria.co.uk/detail/0000000111111780610872329/title/5/65-15?serpUid=&pt=1&ot=1&l=somerset&did=90_high1&t_sec=9&t_or=45&t_pvid=null&utm_source=api&utm_medium=external", "listing_type": "buy", "location_accuracy": 9, "longitude": -2.980414, "price": 225000, "price_currency": "\u00a3", "price_formatted": "\u00a3225,000", "price_high": 225000, "price_low": 225000, "price_type": "fixed", "property_type": "flat", "size": 0, "size_type": "net", "summary": "Apartments like this rarely come available in this block especially...", "thumb_height": 60, "thumb_url": "https://imgs.nestimg.com/medium/2_bedroom_flat_111111780610872329.jpg", "thumb_width": 80, "title": "Beach Road, Weston-super-mare, Somerset, BS23", "updated_in_days": 2, "updated_in_days_formatted": "first seen 2 days ago"}], "locations": [{"center_lat": 51.080967, "center_long": -3.045432, "long_title": "Somerset, county", "place_name": "somerset", "title": "Somerset"}], "page": 65, "sort": "nestoria_rank", "status_code": "200", "status_text": "OK", "thanks": "For using the Nestoria API.", "total_pages": 410, "total_results": 6149, "_cu5t0mP434m_": "remove"}}