{"request": {"country": "uk", "language": "en", "location": "somerset", "num_res": "15", "offset": 975, "output": "json_xs", "page": 66, "product_type": "realestate", "property_type": "property", "size_type": "net", "size_unit": "m2", "sort": "nestoria_rank", "listing_type": "buy"}, "response": {"application_response_code": "100", "application_response_text": "listings returned for one unambiguous location", "attribution": {"img_height": 22, "img_url": "https://resources.nestimg.com/nestoria/img/pbr_v1.png", "img_width": 183, "link_to_img": "http://www.nestoria.com"}, "created_http": "Tue, 18 Jun 2019 17:30:15 GMT", "created_unix": 1560879015, "link_to_url": "https://www.nestoria.co.uk/somerset/property/buy/66", "listings": [{"bathroom_number": "", "bedroom_number": 2, "car_spaces": 0, "commission": 0, "construction_year": 0, "datasource_name": "OnTheMarket.com", "img_height": 300, "img_url": "https://imgs.nestimg.com/2_bedroom_flat_for_sale_110265035483425786.jpg", "img_width": 400, "keywords": "", "latitude": 51.3476, "lister_url": "https://www.nestoria.co.uk/detail/0000000110265035483425786/title/5/66-1?serpUid=&pt=1&ot=1&l=somerset&did=105_high1&t_sec=9&t_or=45&t_pvid=null&utm_source=api&utm_medium=external", "listing_type": "buy", "location_accuracy": 9, "longitude": -2.97661, "price": 79950, "price_currency": "\u00a3", "price_formatted": "\u00a379,950", "price_high": 79950, "price_low": 79950, "price_type": "fixed", "property_type": "flat", "size": 0, "size_type": "net", "summary": "The property is located on alexandra parade. Shopping amenities are...", "thumb_height": 60, "thumb_url": "https://imgs.nestimg.com/medium/2_bedroom_flat_for_sale_110265035483425786.jpg", "thumb_width": 80, "title": "Alexandra Parade, BS23, Somerset", "updated_in_days": 84, "updated_in_days_formatted": "first seen over a month ago"}, {"bathroom_number": "", "bedroom_number": 4, "car_spaces": 0, "commission": 0, "construction_year": 0, "datasource_name": "OnTheMarket.com", "img_height": 300, "img_url": "https://imgs.nestimg.com/4_bedroom_detached_house_for_sale_108582419586679434.jpg", "img_width": 400, "keywords": "Detached, Garden, Kitchen, Parking", "latitude": 51.1407, "lister_name": "Stags", "lister_url": "https://www.nestoria.co.uk/detail/0000000108582419586679434/title/5/66-2?serpUid=&pt=1&ot=1&l=somerset&did=105_high1&t_sec=9&t_or=45&t_pvid=null&utm_source=api&utm_medium=external", "listing_type": "buy", "location_accuracy": 9, "longitude": -3.53149, "price": 445000, "price_currency": "\u00a3", "price_formatted": "\u00a3445,000", "price_high": 445000, "price_low": 445000, "price_type": "fixed", "property_type": "house", "size": 0, "size_type": "net", "summary": "A detached property with views across open countryside. Kitchen/din...", "thumb_height": 60, "thumb_url": "https://imgs.nestimg.com/medium/4_bedroom_detached_house_for_sale_108582419586679434.jpg", "thumb_width": 80, "title": "Cutcombe, Exmoor, Somerset, TA24", "updated_in_days": 185, "updated_in_days_formatted": "first seen over a month ago"}, {"bathroom_number": "", "bedroom_number": 4, "car_spaces": 0, "commission": 0, "construction_year": 0, "datasource_name": "NetHousePrices", "img_height": 300, "img_url": "https://imgs.nestimg.com/4_bedroom_detached_house_111173672452094672.jpg", "img_width": 400, "keywords": "Detached, Garden, Garage, Kitchen, Cottage", "latitude": 51.023167, "lister_url": "https://www.nestoria.co.uk/detail/0000000111173672452094672/title/5/66-3?serpUid=&pt=1&ot=1&l=somerset&did=90_high1&t_sec=9&t_or=45&t_pvid=null&utm_source=api&utm_medium=external", "listing_type": "buy", "location_accuracy": 9, "longitude": -2.9953444, "price": 325000, "price_currency": "\u00a3", "price_formatted": "\u00a3325,000", "price_high": 325000, "price_low": 325000, "price_type": "fixed", "property_type": "house", "size": 0, "size_type": "net", "summary": "Well presented, detached period cottage with south facing rear gard...", "thumb_height": 60, "thumb_url": "https://imgs.nestimg.com/medium/4_bedroom_detached_house_111173672452094672.jpg", "thumb_width": 80, "title": "Knapp, North Curry, Taunton, Somerset, TA3", "updated_in_days": 10, "updated_in_days_formatted": "first seen last week"}, {"bathroom_number": "", "bedroom_number": 2, "car_spaces": 0, "commission": 0, "construction_year": 0, "datasource_name": "OnTheMarket.com", "img_height": 300, "img_url": "https://imgs.nestimg.com/2_bedroom_house_for_sale_109608832775310114.jpg", "img_width": 400, "keywords": "Semi-Detached, No Chain, Bungalow", "latitude": 51.1936, "lister_url": "https://www.nestoria.co.uk/detail/0000000109608832775310114/title/5/66-4?serpUid=&pt=1&ot=1&l=somerset&did=105_high1&t_sec=9&t_or=45&t_pvid=null&utm_source=api&utm_medium=external", "listing_type": "buy", "location_accuracy": 9, "longitude": -3.46875, "price": 275000, "price_currency": "\u00a3", "price_formatted": "\u00a3275,000", "price_high": 275000, "price_low": 275000, "price_type": "fixed", "property_type": "house", "size": 0, "size_type": "net", "summary": "No onward chain a double fronted semi detached bungalow situated in...", "thumb_height": 60, "thumb_url": "https://imgs.nestimg.com/medium/2_bedroom_house_for_sale_109608832775310114.jpg", "thumb_width": 80, "title": "Manor Road, Minehead, Somerset, TA24", "updated_in_days": 272, "updated_in_days_formatted": "first seen over a month ago"}, {"bathroom_number": "", "bedroom_number": 4, "car_spaces": 0, "commission": 0, "construction_year": 0, "datasource_name": "OnTheMarket.com", "img_height": 300, "img_url": "https://imgs.nestimg.com/4_bedroom_detached_house_for_sale_109979632349935013.jpg", "img_width": 400, "keywords": "Detached, Garden, Grade II, Listed", "latitude": 51.02899, "lister_name": "Knight Frank", "lister_url": "https://www.nestoria.co.uk/detail/0000000109979632349935013/title/5/66-5?serpUid=&pt=1&ot=1&l=somerset&did=105_high1&t_sec=9&t_or=45&t_pvid=null&utm_source=api&utm_medium=external", "listing_type": "buy", "location_accuracy": 9, "longitude": -2.541551, "price": 1150000, "price_currency": "\u00a3", "price_formatted": "\u00a31,150,000", "price_high": 1150000, "price_low": 1150000, "price_type": "fixed", "property_type": "house", "size": 0, "size_type": "net", "summary": "A 4 bed edge of village grade ii listed house in sparkford ba22 a e...", "thumb_height": 60, "thumb_url": "https://imgs.nestimg.com/medium/4_bedroom_detached_house_for_sale_109979632349935013.jpg", "thumb_width": 80, "title": "Little Weston, Somerset, BA22", "updated_in_days": 109, "updated_in_days_formatted": "first seen over a month ago"}, {"bathroom_number": "", "bedroom_number": 2, "car_spaces": 0, "commission": 0, "construction_year": 0, "datasource_name": "NetHousePrices", "img_height": 300, "img_url": "https://imgs.nestimg.com/2_bedroom_detached_bungalow_111173673258402357.jpg", "img_width": 400, "keywords": "Detached, Garden, New Build, Kitchen, Bungalow, Parking", "latitude": 51.018806, "lister_url": "https://www.nestoria.co.uk/detail/0000000111173673258402357/title/5/66-6?serpUid=&pt=1&ot=1&l=somerset&did=90_high1&t_sec=9&t_or=45&t_pvid=null&utm_source=api&utm_medium=external", "listing_type": "buy", "location_accuracy": 9, "longitude": -3.0843146, "price": 200000, "price_currency": "\u00a3", "price_formatted": "\u00a3200,000", "price_high": 200000, "price_low": 200000, "price_type": "fixed", "property_type": "house", "size": 0, "size_type": "net", "summary": "Brand new build detached bungalow. Two bedrooms, open plan living a...", "thumb_height": 60, "thumb_url": "https://imgs.nestimg.com/medium/2_bedroom_detached_bungalow_111173673258402357.jpg", "thumb_width": 80, "title": "Lambrook Way, Taunton, Somerset, TA1", "updated_in_days": 11, "updated_in_days_formatted": "first seen last week"}, {"bathroom_number": "", "bedroom_number": 3, "car_spaces": 0, "commission": 0, "construction_year": 0, "datasource_name": "NetHousePrices", "img_height": 300, "img_url": "https://imgs.nestimg.com/3_bedroom_detached_bungalow_111656049535191939.jpg", "img_width": 400, "keywords": "Detached, Garden, En suite, Wood Floor, Kitchen, Bungalow, Dishwasher, Patio", "latitude": 51.06204, "lister_name": "Express", "lister_url": "https://www.nestoria.co.uk/detail/0000000111656049535191939/title/5/66-7?serpUid=&pt=1&ot=1&l=somerset&did=90_high1&t_sec=9&t_or=45&t_pvid=null&utm_source=api&utm_medium=external", "listing_type": "buy", "location_accuracy": 9, "longitude": -3.1393094, "price": 500000, "price_currency": "\u00a3", "price_formatted": "\u00a3500,000", "price_high": 500000, "price_low": 500000, "price_type": "fixed", "property_type": "house", "size": 0, "size_type": "net", "summary": "Three bedroom detached bungalow set in extensive garden grounds wit...", "thumb_height": 60, "thumb_url": "https://imgs.nestimg.com/medium/3_bedroom_detached_bungalow_111656049535191939.jpg", "thumb_width": 80, "title": "Yarford, Kingston St. Mary, Taunton, Somerset, TA2", "updated_in_days": 12, "updated_in_days_formatted": "first seen last week"}, {"bathroom_number": "", "bedroom_number": 3, "car_spaces": 0, "commission": 0, "construction_year": 0, "datasource_name": "OnTheMarket.com", "img_height": 300, "img_url": "https://imgs.nestimg.com/3_bedroom_end_of_terrace_house_for_sale_110010934312362242.jpg", "img_width": 400, "keywords": "Freehold, No Chain, Terraced", "latitude": 50.9261, "lister_name": "Greenslade Taylor Hunt", "lister_url": "https://www.nestoria.co.uk/detail/0000000110010934312362242/title/5/66-8?serpUid=&pt=1&ot=1&l=somerset&did=105_high1&t_sec=9&t_or=45&t_pvid=null&utm_source=api&utm_medium=external", "listing_type": "buy", "location_accuracy": 9, "longitude": -2.62712, "price": 349000, "price_currency": "\u00a3", "price_formatted": "\u00a3349,000", "price_high": 349000, "price_low": 349000, "price_type": "fixed", "property_type": "house", "size": 0, "size_type": "net", "summary": "This superb three bedroom home is set within the grounds of the bar...", "thumb_height": 60, "thumb_url": "https://imgs.nestimg.com/medium/3_bedroom_end_of_terrace_house_for_sale_110010934312362242.jpg", "thumb_width": 80, "title": "Lake Mews, Barwick, Yeovil, Somerset, BA22", "updated_in_days": 81, "updated_in_days_formatted": "first seen over a month ago"}, {"bathroom_number": "", "bedroom_number": 2, "car_spaces": 0, "commission": 0, "construction_year": 0, "datasource_name": "OnTheMarket.com", "img_height": 300, "img_url": "https://imgs.nestimg.com/2_bedroom_ground_flat_for_sale_109535611225951818.jpg", "img_width": 400, "keywords": "No Chain, Purpose Built, Parking", "latitude": 51.3658, "lister_url": "https://www.nestoria.co.uk/detail/0000000109535611225951818/title/5/66-9?serpUid=&pt=1&ot=1&l=somerset&did=105_high1&t_sec=9&t_or=45&t_pvid=null&utm_source=api&utm_medium=external", "listing_type": "buy", "location_accuracy": 9, "longitude": -2.90283, "price": 140000, "price_currency": "\u00a3", "price_formatted": "\u00a3140,000", "price_high": 140000, "price_low": 140000, "price_type": "fixed", "property_type": "flat", "size": 0, "size_type": "net", "summary": "Purpose built ground floor flat st georges two beds ideal investmen...", "thumb_height": 60, "thumb_url": "https://imgs.nestimg.com/medium/2_bedroom_ground_flat_for_sale_109535611225951818.jpg", "thumb_width": 80, "title": "Market Avenue, St Georges, Weston-super-Mare, North Somerset. BS22", "updated_in_days": 133, "updated_in_days_formatted": "first seen over a month ago"}, {"bathroom_number": "", "bedroom_number": 4, "car_spaces": 0, "commission": 0, "construction_year": 0, "datasource_name": "OnTheMarket.com", "img_height": 300, "img_url": "https://imgs.nestimg.com/house_for_sale_109720016590823272.jpg", "img_width": 400, "keywords": "Detached, Cottage", "latitude": 51.2072, "lister_url": "https://www.nestoria.co.uk/detail/0000000109720016590823272/title/5/66-10?serpUid=&pt=1&ot=1&l=somerset&did=105_high1&t_sec=9&t_or=45&t_pvid=null&utm_source=api&utm_medium=external", "listing_type": "buy", "location_accuracy": 9, "longitude": -3.4534, "price": 675000, "price_currency": "\u00a3", "price_formatted": "\u00a3675,000", "price_high": 675000, "price_low": 675000, "price_type": "fixed", "property_type": "house", "size": 0, "size_type": "net", "summary": "A ly presented and extended virtually detached cottage with annexe ...", "thumb_height": 60, "thumb_url": "https://imgs.nestimg.com/medium/house_for_sale_109720016590823272.jpg", "thumb_width": 80, "title": "Warren Road, Minehead, Somerset, TA24", "updated_in_days": 325, "updated_in_days_formatted": "first seen over a month ago"}, {"bathroom_number": "", "bedroom_number": 3, "car_spaces": 0, "commission": 0, "construction_year": 0, "datasource_name": "OnTheMarket.com", "img_height": 300, "img_url": "https://imgs.nestimg.com/3_bedroom_detached_bungalow_for_sale_109318412271684668.jpg", "img_width": 400, "keywords": "Detached, Bungalow", "latitude": 51.207, "lister_url": "https://www.nestoria.co.uk/detail/0000000109318412271684668/title/5/66-11?serpUid=&pt=1&ot=1&l=somerset&did=105_high1&t_sec=9&t_or=45&t_pvid=null&utm_source=api&utm_medium=external", "listing_type": "buy", "location_accuracy": 9, "longitude": -3.4829, "price": 475000, "price_currency": "\u00a3", "price_formatted": "\u00a3475,000", "price_high": 475000, "price_low": 475000, "price_type": "fixed", "property_type": "house", "size": 0, "size_type": "net", "summary": "A well maintained three bedroom detached split level bungalow resid...", "thumb_height": 60, "thumb_url": "https://imgs.nestimg.com/medium/3_bedroom_detached_bungalow_for_sale_109318412271684668.jpg", "thumb_width": 80, "title": "Western Lane, Minehead, Somerset, TA24", "updated_in_days": 292, "updated_in_days_formatted": "first seen over a month ago"}, {"bathroom_number": "", "bedroom_number": 2, "car_spaces": 0, "commission": 0, "construction_year": 0, "datasource_name": "NetHousePrices", "img_height": 300, "img_url": "https://imgs.nestimg.com/2_bedroom_flat_111519932288620938.jpg", "img_width": 400, "keywords": "En suite, Purpose Built, Kitchen, Parking", "latitude": 51.123592, "lister_name": "Palmer Snellcountrywide", "lister_url": "https://www.nestoria.co.uk/detail/0000000111519932288620938/title/5/66-12?serpUid=&pt=1&ot=1&l=somerset&did=90_high1&t_sec=9&t_or=45&t_pvid=null&utm_source=api&utm_medium=external", "listing_type": "buy", "location_accuracy": 9, "longitude": -2.998502, "price": 104950, "price_currency": "\u00a3", "price_formatted": "\u00a3104,950", "price_high": 104950, "price_low": 104950, "price_type": "fixed", "property_type": "flat", "size": 0, "size_type": "net", "summary": "Of interest to owner occupiers and investors this ground floor two ...", "thumb_height": 60, "thumb_url": "https://imgs.nestimg.com/medium/2_bedroom_flat_111519932288620938.jpg", "thumb_width": 80, "title": "Manley Gardens, Bridgwater, Somerset, TA6", "updated_in_days": 17, "updated_in_days_formatted": "first seen 2 weeks ago"}, {"bathroom_number": "", "bedroom_number": 11, "car_spaces": 0, "commission": 0, "construction_year": 0, "datasource_name": "OnTheMarket.com", "img_height": 300, "img_url": "https://imgs.nestimg.com/11_bedroom_detached_house_for_sale_110308745963283255.jpg", "img_width": 400, "keywords": "Detached, Edwardian", "latitude": 51.211, "lister_url": "https://www.nestoria.co.uk/detail/0000000110308745963283255/title/5/66-13?serpUid=&pt=1&ot=1&l=somerset&did=105_high1&t_sec=9&t_or=45&t_pvid=null&utm_source=api&utm_medium=external", "listing_type": "buy", "location_accuracy": 9, "longitude": -3.47851, "price": 725000, "price_currency": "\u00a3", "price_formatted": "\u00a3725,000", "price_high": 725000, "price_low": 725000, "price_type": "fixed", "property_type": "house", "size": 0, "size_type": "net", "summary": "A detached edwardian property of considerable character, occupying ...", "thumb_height": 60, "thumb_url": "https://imgs.nestimg.com/medium/11_bedroom_detached_house_for_sale_110308745963283255.jpg", "thumb_width": 80, "title": "St Michaels Road, Minehead, Somerset, TA24", "updated_in_days": 98, "updated_in_days_formatted": "first seen over a month ago"}, {"bathroom_number": "", "bedroom_number": 4, "car_spaces": 0, "commission": 0, "construction_year": 0, "datasource_name": "Home.co.uk", "img_height": 300, "img_url": "https://imgs.nestimg.com/detached_house_111260168470154237.jpg", "img_width": 400, "keywords": "Detached", "latitude": 51.090115, "lister_url": "https://www.nestoria.co.uk/detail/0000000111260168470154237/title/5/66-14?serpUid=&pt=1&ot=1&l=somerset&did=85_default&t_sec=9&t_or=45&t_pvid=null&utm_source=api&utm_medium=external", "listing_type": "buy", "location_accuracy": 10, "longitude": -3.017835, "price": 349950, "price_currency": "\u00a3", "price_formatted": "\u00a3349,950", "price_high": 349950, "price_low": 349950, "price_type": "fixed", "property_type": "house", "size": 0, "size_type": "net", "summary": "Positioned within a quiet avenue in the much sought-after town of n...", "thumb_height": 60, "thumb_url": "https://imgs.nestimg.com/medium/detached_house_111260168470154237.jpg", "thumb_width": 80, "title": "Hyde Park Avenue, North Petherton, Somerset", "updated_in_days": 76, "updated_in_days_formatted": "first seen over a month ago"}, {"bathroom_number": "", "bedroom_number": 3, "car_spaces": 0, "commission": 0, "construction_year": 0, "datasource_name": "OnTheMarket.com", "img_height": 300, "img_url": "https://imgs.nestimg.com/3_bedroom_apartment_for_sale_109788428112760339.jpg", "img_width": 400, "keywords": "Leasehold, Maisonette", "latitude": 51.2054, "lister_url": "https://www.nestoria.co.uk/detail/0000000109788428112760339/title/5/66-15?serpUid=&pt=1&ot=1&l=somerset&did=105_high1&t_sec=9&t_or=45&t_pvid=null&utm_source=api&utm_medium=external", "listing_type": "buy", "location_accuracy": 9, "longitude": -3.48014, "price": 136000, "price_currency": "\u00a3", "price_formatted": "\u00a3136,000", "price_high": 136000, "price_low": 136000, "price_type": "fixed", "property_type": "flat", "size": 0, "size_type": "net", "summary": "This is a and ly presented first and second floor maisonette situat...", "thumb_height": 60, "thumb_url": "https://imgs.nestimg.com/medium/3_bedroom_apartment_for_sale_109788428112760339.jpg", "thumb_width": 80, "title": "Park Street, Minehead, Somerset, TA24", "updated_in_days": 126, "updated_in_days_formatted": "first seen over a month ago"}], "locations": [{"center_lat": 51.080967, "center_long": -3.045432, "long_title": "Somerset, county", "place_name": "somerset", "title": "Somerset"}], "page": 66, "sort": "nestoria_rank", "status_code": "200", "status_text": "OK", "thanks": "For using the Nestoria API.", "total_pages": 410, "total_results": 6149, "_cu5t0mP434m_": "remove"}}