{"request": {"country": "uk", "language": "en", "location": "somerset", "num_res": "15", "offset": 990, "output": "json_xs", "page": 67, "product_type": "realestate", "property_type": "property", "size_type": "net", "size_unit": "m2", "sort": "nestoria_rank", "listing_type": "buy"}, "response": {"application_response_code": "100", "application_response_text": "listings returned for one unambiguous location", "attribution": {"img_height": 22, "img_url": "https://resources.nestimg.com/nestoria/img/pbr_v1.png", "img_width": 183, "link_to_img": "http://www.nestoria.com"}, "created_http": "Tue, 18 Jun 2019 17:30:16 GMT", "created_unix": 1560879016, "link_to_url": "https://www.nestoria.co.uk/somerset/property/buy/67", "listings": [{"bathroom_number": 2, "bedroom_number": 4, "car_spaces": 0, "commission": 0, "construction_year": 0, "datasource_name": "NetHousePrices", "img_height": 300, "img_url": "https://imgs.nestimg.com/4_bedroom_end_of_terrace_house_111717648494991617.jpg", "img_width": 400, "keywords": "Garden, Conversion, Terraced, Double Bedroom, Garage, Kitchen", "latitude": 51.36089, "lister_name": "Palmer Snell", "lister_url": "https://www.nestoria.co.uk/detail/0000000111717648494991617/title/5/67-1?serpUid=&pt=1&ot=1&l=somerset&did=90_high1&t_sec=9&t_or=45&t_pvid=null&utm_source=api&utm_medium=external", "listing_type": "buy", "location_accuracy": 9, "longitude": -2.91584, "price": 210000, "price_currency": "\u00a3", "price_formatted": "\u00a3210,000", "price_high": 210000, "price_low": 210000, "price_type": "fixed", "property_type": "house", "size": 0, "size_type": "net", "summary": "This four bedroom end of terrace house offers space in abundance ma...", "thumb_height": 60, "thumb_url": "https://imgs.nestimg.com/medium/4_bedroom_end_of_terrace_house_111717648494991617.jpg", "thumb_width": 80, "title": "Tavistock Road, Weston-super-mare, Somerset, BS22", "updated_in_days": 2, "updated_in_days_formatted": "first seen 2 days ago"}, {"bathroom_number": "", "bedroom_number": 3, "car_spaces": 0, "commission": 0, "construction_year": 0, "datasource_name": "NetHousePrices", "img_height": 300, "img_url": "https://imgs.nestimg.com/3_bedroom_semi_detached_house_111717662650053606.jpg", "img_width": 400, "keywords": "Garden, Semi-Detached, Fireplace, Kitchen, Cul-de-Sac, Gas Central Heating", "latitude": 51.36455, "lister_url": "https://www.nestoria.co.uk/detail/0000000111717662650053606/title/5/67-2?serpUid=&pt=1&ot=1&l=somerset&did=90_high1&t_sec=9&t_or=45&t_pvid=null&utm_source=api&utm_medium=external", "listing_type": "buy", "location_accuracy": 9, "longitude": -2.931383, "price": 265000, "price_currency": "\u00a3", "price_formatted": "\u00a3265,000", "price_high": 265000, "price_low": 265000, "price_type": "fixed", "property_type": "house", "size": 0, "size_type": "net", "summary": "Semi detached house ideally located on worle hillside and enjoys vi...", "thumb_height": 60, "thumb_url": "https://imgs.nestimg.com/medium/3_bedroom_semi_detached_house_111717662650053606.jpg", "thumb_width": 80, "title": "Lower Kewstoke Road, Worle, Weston-super-mare, Somerset, BS22", "updated_in_days": 2, "updated_in_days_formatted": "first seen 2 days ago"}, {"bathroom_number": "", "bedroom_number": 3, "car_spaces": 0, "commission": 0, "construction_year": 0, "datasource_name": "NetHousePrices", "img_height": 300, "img_url": "https://imgs.nestimg.com/3_bedroom_house_111358962530476714.jpg", "img_width": 400, "keywords": "Detached, Garden, En suite, Detached Garage, Double Bedroom", "latitude": 51.13457, "lister_name": "Palmer Snellcountrywide", "lister_url": "https://www.nestoria.co.uk/detail/0000000111358962530476714/title/5/67-3?serpUid=&pt=1&ot=1&l=somerset&did=90_high1&t_sec=9&t_or=45&t_pvid=null&utm_source=api&utm_medium=external", "listing_type": "buy", "location_accuracy": 9, "longitude": -3.0136175, "price": 189950, "price_currency": "\u00a3", "price_formatted": "\u00a3189,950", "price_high": 189950, "price_low": 189950, "price_type": "fixed", "property_type": "house", "size": 0, "size_type": "net", "summary": "This ly presented, three storey town house, is ally and perfect for...", "thumb_height": 60, "thumb_url": "https://imgs.nestimg.com/medium/3_bedroom_house_111358962530476714.jpg", "thumb_width": 80, "title": "Meadowlands Avenue, Bridgwater, Somerset, TA6", "updated_in_days": 17, "updated_in_days_formatted": "first seen 2 weeks ago"}, {"bathroom_number": "", "bedroom_number": 4, "car_spaces": 0, "commission": 0, "construction_year": 0, "datasource_name": "NetHousePrices", "img_height": 300, "img_url": "https://imgs.nestimg.com/4_bedroom_semi_detached_house_111656030738141088.jpg", "img_width": 400, "keywords": "Garden, Semi-Detached, Conservatory, Garage, Kitchen, Reception", "latitude": 51.00767, "lister_url": "https://www.nestoria.co.uk/detail/0000000111656030738141088/title/5/67-4?serpUid=&pt=1&ot=1&l=somerset&did=90_high1&t_sec=9&t_or=45&t_pvid=null&utm_source=api&utm_medium=external", "listing_type": "buy", "location_accuracy": 9, "longitude": -3.0745335, "price": 250000, "price_currency": "\u00a3", "price_formatted": "\u00a3250,000", "price_high": 250000, "price_low": 250000, "price_type": "fixed", "property_type": "house", "size": 0, "size_type": "net", "summary": "Professionally extended four bedroom semi detached home with two re...", "thumb_height": 60, "thumb_url": "https://imgs.nestimg.com/medium/4_bedroom_semi_detached_house_111656030738141088.jpg", "thumb_width": 80, "title": "Poplar Road, Taunton, Somerset, TA1", "updated_in_days": 12, "updated_in_days_formatted": "first seen last week"}, {"bathroom_number": "", "bedroom_number": "", "car_spaces": 0, "commission": 0, "construction_year": 0, "datasource_name": "OnTheMarket.com", "img_height": 300, "img_url": "https://imgs.nestimg.com/land_for_sale_109405035157271070.jpg", "img_width": 400, "keywords": "", "latitude": 51.2676, "lister_name": "Greenslade Taylor Hunt", "lister_url": "https://www.nestoria.co.uk/detail/0000000109405035157271070/title/5/67-5?serpUid=&pt=1&ot=1&l=somerset&did=105_high1&t_sec=9&t_or=45&t_pvid=null&utm_source=api&utm_medium=external", "listing_type": "buy", "location_accuracy": 9, "longitude": -2.91553, "price": 50000, "price_currency": "\u00a3", "price_formatted": "\u00a350,000", "price_high": 50000, "price_low": 50000, "price_type": "fixed", "property_type": "land", "size": 0, "size_type": "net", "summary": "Lot 7 comprises a single parcel of agricultural pasture land extend...", "thumb_height": 60, "thumb_url": "https://imgs.nestimg.com/medium/land_for_sale_109405035157271070.jpg", "thumb_width": 80, "title": "Mendip Road, Rooksbridge, Axbridge, Somerset, BS26", "updated_in_days": 376, "updated_in_days_formatted": "first seen over a month ago"}, {"bathroom_number": "", "bedroom_number": 2, "car_spaces": 0, "commission": 0, "construction_year": 0, "datasource_name": "OnTheMarket.com", "img_height": 300, "img_url": "https://imgs.nestimg.com/2_bedroom_terraced_house_for_sale_110313912399405195.jpg", "img_width": 400, "keywords": "Terraced, Parking", "latitude": 50.9475, "lister_name": "Greenslade Taylor Hunt", "lister_url": "https://www.nestoria.co.uk/detail/0000000110313912399405195/title/5/67-6?serpUid=&pt=1&ot=1&l=somerset&did=105_high1&t_sec=9&t_or=45&t_pvid=null&utm_source=api&utm_medium=external", "listing_type": "buy", "location_accuracy": 9, "longitude": -2.61649, "price": 155000, "price_currency": "\u00a3", "price_formatted": "\u00a3155,000", "price_high": 155000, "price_low": 155000, "price_type": "fixed", "property_type": "house", "size": 0, "size_type": "net", "summary": "This superb, two bedroom, mid-terrace house benefits from allocated...", "thumb_height": 60, "thumb_url": "https://imgs.nestimg.com/medium/2_bedroom_terraced_house_for_sale_110313912399405195.jpg", "thumb_width": 80, "title": "Hulberts Court, Victoria Road, Yeovil, Somerset, BA21", "updated_in_days": 229, "updated_in_days_formatted": "first seen over a month ago"}, {"bathroom_number": "", "bedroom_number": "", "car_spaces": 0, "commission": 0, "construction_year": 0, "datasource_name": "OnTheMarket.com", "img_height": 300, "img_url": "https://imgs.nestimg.com/land_for_sale_109274961389545710.jpg", "img_width": 400, "keywords": "", "latitude": 51.2676, "lister_name": "Greenslade Taylor Hunt", "lister_url": "https://www.nestoria.co.uk/detail/0000000109274961389545710/title/5/67-7?serpUid=&pt=1&ot=1&l=somerset&did=105_high1&t_sec=9&t_or=45&t_pvid=null&utm_source=api&utm_medium=external", "listing_type": "buy", "location_accuracy": 9, "longitude": -2.91553, "price": 575000, "price_currency": "\u00a3", "price_formatted": "\u00a3575,000", "price_high": 575000, "price_low": 575000, "price_type": "fixed", "property_type": "land", "size": 0, "size_type": "net", "summary": "Lot 8 comprises 8 parcels of agricultural pasture land extending to...", "thumb_height": 60, "thumb_url": "https://imgs.nestimg.com/medium/land_for_sale_109274961389545710.jpg", "thumb_width": 80, "title": "Mendip Road, Rooksbridge, Nr Axbridge, Somerset, BS26", "updated_in_days": 397, "updated_in_days_formatted": "first seen over a month ago"}, {"bathroom_number": "", "bedroom_number": "", "car_spaces": 0, "commission": 0, "construction_year": 0, "datasource_name": "OnTheMarket.com", "img_height": 300, "img_url": "https://imgs.nestimg.com/land_for_sale_109274959360363618.jpg", "img_width": 400, "keywords": "", "latitude": 51.2676, "lister_name": "Greenslade Taylor Hunt", "lister_url": "https://www.nestoria.co.uk/detail/0000000109274959360363618/title/5/67-8?serpUid=&pt=1&ot=1&l=somerset&did=105_high1&t_sec=9&t_or=45&t_pvid=null&utm_source=api&utm_medium=external", "listing_type": "buy", "location_accuracy": 9, "longitude": -2.91553, "price": 185000, "price_currency": "\u00a3", "price_formatted": "\u00a3185,000", "price_high": 185000, "price_low": 185000, "price_type": "fixed", "property_type": "land", "size": 0, "size_type": "net", "summary": "Lot 4 comprises four parcels of agricultural land pasture land exte...", "thumb_height": 60, "thumb_url": "https://imgs.nestimg.com/medium/land_for_sale_109274959360363618.jpg", "thumb_width": 80, "title": "Mendip Road, Rooksbridge, Nr Axbridge, Somerset, BS26", "updated_in_days": 397, "updated_in_days_formatted": "first seen over a month ago"}, {"bathroom_number": "", "bedroom_number": "", "car_spaces": 0, "commission": 0, "construction_year": 0, "datasource_name": "OnTheMarket.com", "img_height": 300, "img_url": "https://imgs.nestimg.com/land_for_sale_109274960129475171.jpg", "img_width": 400, "keywords": "", "latitude": 51.2676, "lister_name": "Greenslade Taylor Hunt", "lister_url": "https://www.nestoria.co.uk/detail/0000000109274960129475171/title/5/67-9?serpUid=&pt=1&ot=1&l=somerset&did=105_high1&t_sec=9&t_or=45&t_pvid=null&utm_source=api&utm_medium=external", "listing_type": "buy", "location_accuracy": 9, "longitude": -2.91553, "price": 95000, "price_currency": "\u00a3", "price_formatted": "\u00a395,000", "price_high": 95000, "price_low": 95000, "price_type": "fixed", "property_type": "land", "size": 0, "size_type": "net", "summary": "Lot 5 comprises of a single parcel of agricultural pasture land ext...", "thumb_height": 60, "thumb_url": "https://imgs.nestimg.com/medium/land_for_sale_109274960129475171.jpg", "thumb_width": 80, "title": "Mendip Road, Rooksbridge, Nr Axbridge, Somerset, BS26", "updated_in_days": 397, "updated_in_days_formatted": "first seen over a month ago"}, {"bathroom_number": "", "bedroom_number": 5, "car_spaces": 0, "commission": 0, "construction_year": 0, "datasource_name": "OnTheMarket.com", "img_height": 300, "img_url": "https://imgs.nestimg.com/5_bedroom_detached_house_for_sale_109936447543377239.jpg", "img_width": 400, "keywords": "Detached, Garden", "latitude": 51.33224, "lister_name": "Knight Frank", "lister_url": "https://www.nestoria.co.uk/detail/0000000109936447543377239/title/5/67-10?serpUid=&pt=1&ot=1&l=somerset&did=105_high1&t_sec=9&t_or=45&t_pvid=null&utm_source=api&utm_medium=external", "listing_type": "buy", "location_accuracy": 9, "longitude": -2.7735, "price": 575000, "price_currency": "\u00a3", "price_formatted": "\u00a3575,000", "price_high": 575000, "price_low": 575000, "price_type": "fixed", "property_type": "house", "size": 0, "size_type": "net", "summary": "Pretty 5 bedroom house for sale within close proximity to bristol, ...", "thumb_height": 60, "thumb_url": "https://imgs.nestimg.com/medium/5_bedroom_detached_house_for_sale_109936447543377239.jpg", "thumb_width": 80, "title": "Bath Road, Langford, Bristol, North Somerset, BS40", "updated_in_days": 202, "updated_in_days_formatted": "first seen over a month ago"}, {"bathroom_number": "", "bedroom_number": 4, "car_spaces": 0, "commission": 0, "construction_year": 0, "datasource_name": "OnTheMarket.com", "img_height": 300, "img_url": "https://imgs.nestimg.com/4_bedroom_house_for_sale_108570592269582509.jpg", "img_width": 400, "keywords": "Detached, Freehold", "latitude": 51.1994, "lister_url": "https://www.nestoria.co.uk/detail/0000000108570592269582509/title/5/67-11?serpUid=&pt=1&ot=1&l=somerset&did=105_high1&t_sec=9&t_or=45&t_pvid=null&utm_source=api&utm_medium=external", "listing_type": "buy", "location_accuracy": 9, "longitude": -3.48949, "price": 500000, "price_currency": "\u00a3", "price_formatted": "\u00a3500,000", "price_high": 500000, "price_low": 500000, "price_type": "fixed", "property_type": "house", "size": 0, "size_type": "net", "summary": "An individual detached three/four bedroom house situated on a large...", "thumb_height": 60, "thumb_url": "https://imgs.nestimg.com/medium/4_bedroom_house_for_sale_108570592269582509.jpg", "thumb_width": 80, "title": "Periton Road, Minehead, Somerset, TA24", "updated_in_days": 216, "updated_in_days_formatted": "first seen over a month ago"}, {"bathroom_number": "", "bedroom_number": 2, "car_spaces": 0, "commission": 0, "construction_year": 0, "datasource_name": "NetHousePrices", "img_height": 300, "img_url": "https://imgs.nestimg.com/2_bedroom_terraced_house_111612973232331249.jpg", "img_width": 400, "keywords": "Garden, No Chain, Terraced, Double Bedroom, Kitchen, Reception", "latitude": 51.1281, "lister_name": "Palmer Snellcountrywide", "lister_url": "https://www.nestoria.co.uk/detail/0000000111612973232331249/title/5/67-12?serpUid=&pt=1&ot=1&l=somerset&did=90_high1&t_sec=9&t_or=45&t_pvid=null&utm_source=api&utm_medium=external", "listing_type": "buy", "location_accuracy": 9, "longitude": -2.9931831, "price": 115000, "price_currency": "\u00a3", "price_formatted": "\u00a3115,000", "price_high": 115000, "price_low": 115000, "price_type": "fixed", "property_type": "house", "size": 0, "size_type": "net", "summary": "Offered with no onward chain this two bedroom home offers a opportu...", "thumb_height": 60, "thumb_url": "https://imgs.nestimg.com/medium/2_bedroom_terraced_house_111612973232331249.jpg", "thumb_width": 80, "title": "Edward Street, Bridgwater, Somerset, TA6", "updated_in_days": 19, "updated_in_days_formatted": "first seen 2 weeks ago"}, {"bathroom_number": "", "bedroom_number": 1, "car_spaces": 0, "commission": 0, "construction_year": 0, "datasource_name": "NetHousePrices", "img_height": 300, "img_url": "https://imgs.nestimg.com/1_bedroom_terraced_house_111612972896659708.jpg", "img_width": 400, "keywords": "Garden, En suite, Terraced, Kitchen, Dishwasher, Parking", "latitude": 51.121925, "lister_name": "Palmer Snellcountrywide", "lister_url": "https://www.nestoria.co.uk/detail/0000000111612972896659708/title/5/67-13?serpUid=&pt=1&ot=1&l=somerset&did=90_high1&t_sec=9&t_or=45&t_pvid=null&utm_source=api&utm_medium=external", "listing_type": "buy", "location_accuracy": 9, "longitude": -2.9798336, "price": 135000, "price_currency": "\u00a3", "price_formatted": "\u00a3135,000", "price_high": 135000, "price_low": 135000, "price_type": "fixed", "property_type": "house", "size": 0, "size_type": "net", "summary": "This little house boasts one galleried bedroom with an en-suite bat...", "thumb_height": 60, "thumb_url": "https://imgs.nestimg.com/medium/1_bedroom_terraced_house_111612972896659708.jpg", "thumb_width": 80, "title": "Stratton Close, Bridgwater, Somerset, TA6", "updated_in_days": 19, "updated_in_days_formatted": "first seen 2 weeks ago"}, {"bathroom_number": "", "bedroom_number": 2, "car_spaces": 0, "commission": 0, "construction_year": 0, "datasource_name": "Home.co.uk", "img_height": 300, "img_url": "https://imgs.nestimg.com/semi_detached_house_111699616283179045.jpg", "img_width": 400, "keywords": "Freehold, Garden, Semi-Detached, No Chain, Terraced, Cottage", "latitude": 51.237349, "lister_name": "Greenslade Taylor Hunt", "lister_url": "https://www.nestoria.co.uk/detail/0000000111699616283179045/title/5/67-14?serpUid=&pt=1&ot=1&l=somerset&did=85_default&t_sec=9&t_or=45&t_pvid=null&utm_source=api&utm_medium=external", "listing_type": "buy", "location_accuracy": 10, "longitude": -2.997821, "price": 144950, "price_currency": "\u00a3", "price_formatted": "\u00a3144,950", "price_high": 144950, "price_low": 144950, "price_type": "fixed", "property_type": "house", "size": 0, "size_type": "net", "summary": "This well presented 2 bedroom end of terrace cottage is situated in...", "thumb_height": 60, "thumb_url": "https://imgs.nestimg.com/medium/semi_detached_house_111699616283179045.jpg", "thumb_width": 80, "title": "Chapel Street, Burnham-on-Sea, Somerset, TA8", "updated_in_days": 5, "updated_in_days_formatted": "first seen 5 days ago"}, {"bathroom_number": "", "bedroom_number": 3, "car_spaces": 0, "commission": 0, "construction_year": 0, "datasource_name": "NetHousePrices", "img_height": 300, "img_url": "https://imgs.nestimg.com/3_bedroom_detached_house_111624938415348195.jpg", "img_width": 400, "keywords": "Detached, Garden, Grade II, No Chain, Conversion, Refurbished, Double Bedroom, Kitchen, Modern, Parking, Cottage, Listed", "latitude": 51.02896, "lister_name": "Palmer Snell", "lister_url": "https://www.nestoria.co.uk/detail/0000000111624938415348195/title/5/67-15?serpUid=&pt=1&ot=1&l=somerset&did=90_high1&t_sec=9&t_or=45&t_pvid=null&utm_source=api&utm_medium=external", "listing_type": "buy", "location_accuracy": 9, "longitude": -3.1058848, "price": 260000, "price_currency": "\u00a3", "price_formatted": "\u00a3260,000", "price_high": 260000, "price_low": 260000, "price_type": "fixed", "property_type": "house", "size": 0, "size_type": "net", "summary": "A professionally refurbished detached grade ii listed former public...", "thumb_height": 60, "thumb_url": "https://imgs.nestimg.com/medium/3_bedroom_detached_house_111624938415348195.jpg", "thumb_width": 80, "title": "Kingston Road, Taunton, Somerset, TA2", "updated_in_days": 17, "updated_in_days_formatted": "first seen 2 weeks ago"}], "locations": [{"center_lat": 51.080967, "center_long": -3.045432, "long_title": "Somerset, county", "place_name": "somerset", "title": "Somerset"}], "page": 67, "sort": "nestoria_rank", "status_code": "200", "status_text": "OK", "thanks": "For using the Nestoria API.", "total_pages": 410, "total_results": 6149, "_cu5t0mP434m_": "remove"}}