{"request": {"country": "uk", "language": "en", "location": "somerset", "num_res": "15", "offset": 1005, "output": "json_xs", "page": 68, "product_type": "realestate", "property_type": "property", "size_type": "net", "size_unit": "m2", "sort": "nestoria_rank", "listing_type": "buy"}, "response": {"application_response_code": "100", "application_response_text": "listings returned for one unambiguous location", "attribution": {"img_height": 22, "img_url": "https://resources.nestimg.com/nestoria/img/pbr_v1.png", "img_width": 183, "link_to_img": "http://www.nestoria.com"}, "created_http": "Tue, 18 Jun 2019 17:30:17 GMT", "created_unix": 1560879017, "link_to_url": "https://www.nestoria.co.uk/somerset/property/buy/68", "listings": [{"bathroom_number": "", "bedroom_number": 3, "car_spaces": 0, "commission": 0, "construction_year": 0, "datasource_name": "OnTheMarket.com", "img_height": 300, "img_url": "https://imgs.nestimg.com/3_bedroom_cottage_for_sale_110227426031262592.jpg", "img_width": 400, "keywords": "Garden, Grade II, Fireplace, Wood Floor, Cottage, Gas Central Heating, Listed", "latitude": 51.0569, "lister_url": "https://www.nestoria.co.uk/detail/0000000110227426031262592/title/5/68-1?serpUid=&pt=1&ot=1&l=somerset&did=105_high1&t_sec=9&t_or=45&t_pvid=null&utm_source=api&utm_medium=external", "listing_type": "buy", "location_accuracy": 9, "longitude": -2.41217, "price": 225000, "price_currency": "\u00a3", "price_formatted": "\u00a3225,000", "price_high": 225000, "price_low": 225000, "price_type": "fixed", "property_type": "house", "size": 0, "size_type": "net", "summary": "A grade ii listed cottage situated in a convenient location within ...", "thumb_height": 60, "thumb_url": "https://imgs.nestimg.com/medium/3_bedroom_cottage_for_sale_110227426031262592.jpg", "thumb_width": 80, "title": "Wincanton, Somerset, BA9 - Garden", "updated_in_days": 39, "updated_in_days_formatted": "first seen over a month ago"}, {"bathroom_number": "", "bedroom_number": 3, "car_spaces": 0, "commission": 0, "construction_year": 0, "datasource_name": "NetHousePrices", "img_height": 300, "img_url": "https://imgs.nestimg.com/3_bedroom_semi_detached_house_111618886394678709.jpg", "img_width": 400, "keywords": "Semi-Detached, Double Bedroom, Garage, Kitchen, Reception", "latitude": 51.137012, "lister_name": "Palmer Snellcountrywide", "lister_url": "https://www.nestoria.co.uk/detail/0000000111618886394678709/title/5/68-2?serpUid=&pt=1&ot=1&l=somerset&did=90_high1&t_sec=9&t_or=45&t_pvid=null&utm_source=api&utm_medium=external", "listing_type": "buy", "location_accuracy": 9, "longitude": -2.9950895, "price": 150000, "price_currency": "\u00a3", "price_formatted": "\u00a3150,000", "price_high": 150000, "price_low": 150000, "price_type": "fixed", "property_type": "house", "size": 0, "size_type": "net", "summary": "Unique semi-detached property situated in boards road in bridgwater...", "thumb_height": 60, "thumb_url": "https://imgs.nestimg.com/medium/3_bedroom_semi_detached_house_111618886394678709.jpg", "thumb_width": 80, "title": "Boards Road, Bridgwater, Somerset, TA6", "updated_in_days": 18, "updated_in_days_formatted": "first seen 2 weeks ago"}, {"bathroom_number": "", "bedroom_number": "", "car_spaces": 0, "commission": 0, "construction_year": 0, "datasource_name": "NetHousePrices", "img_height": 300, "img_url": "https://imgs.nestimg.com/land_commercial_111482737584497658.jpg", "img_width": 400, "keywords": "", "latitude": 51.121517, "lister_name": "Greenslade Taylor Hunt", "lister_url": "https://www.nestoria.co.uk/detail/0000000111482737584497658/title/5/68-3?serpUid=&pt=1&ot=1&l=somerset&did=90_high1&t_sec=9&t_or=45&t_pvid=null&utm_source=api&utm_medium=external", "listing_type": "buy", "location_accuracy": 9, "longitude": -3.023391, "price": 235000, "price_currency": "\u00a3", "price_formatted": "\u00a3235,000", "price_high": 235000, "price_low": 235000, "price_type": "fixed", "property_type": "land", "size": 0, "size_type": "net", "summary": "An block of agricultural pasture land situated on the edge of bridg...", "thumb_height": 60, "thumb_url": "https://imgs.nestimg.com/medium/land_commercial_111482737584497658.jpg", "thumb_width": 80, "title": "Haygrove Road, Bridgwater, Somerset, TA6", "updated_in_days": 40, "updated_in_days_formatted": "first seen over a month ago"}, {"bathroom_number": "", "bedroom_number": 4, "car_spaces": 0, "commission": 0, "construction_year": 0, "datasource_name": "OnTheMarket.com", "img_height": 300, "img_url": "https://imgs.nestimg.com/5_bedroom_detached_house_for_sale_110103711929080114.jpg", "img_width": 400, "keywords": "Detached, Garden", "latitude": 51.301685, "lister_name": "Knight Frank", "lister_url": "https://www.nestoria.co.uk/detail/0000000110103711929080114/title/5/68-4?serpUid=&pt=1&ot=1&l=somerset&did=105_high1&t_sec=9&t_or=45&t_pvid=null&utm_source=api&utm_medium=external", "listing_type": "buy", "location_accuracy": 9, "longitude": -2.686144, "price": 800000, "price_currency": "\u00a3", "price_formatted": "\u00a3800,000", "price_high": 800000, "price_low": 800000, "price_type": "fixed", "property_type": "house", "size": 0, "size_type": "net", "summary": "Farmhouse with attached outbuilding for sale in bs40. A well-presen...", "thumb_height": 60, "thumb_url": "https://imgs.nestimg.com/medium/5_bedroom_detached_house_for_sale_110103711929080114.jpg", "thumb_width": 80, "title": "Compton Martin, Bristol, North Somerset, BS40", "updated_in_days": 125, "updated_in_days_formatted": "first seen over a month ago"}, {"bathroom_number": "", "bedroom_number": 2, "car_spaces": 0, "commission": 0, "construction_year": 0, "datasource_name": "Home.co.uk", "img_height": 300, "img_url": "https://imgs.nestimg.com/flatapartment_111693337303431130.jpg", "img_width": 400, "keywords": "No Chain, Purpose Built", "latitude": 51.218828, "lister_name": "C J Hole", "lister_url": "https://www.nestoria.co.uk/detail/0000000111693337303431130/title/5/68-5?serpUid=&pt=1&ot=1&l=somerset&did=85_default&t_sec=9&t_or=45&t_pvid=null&utm_source=api&utm_medium=external", "listing_type": "buy", "location_accuracy": 10, "longitude": -2.976086, "price": 93000, "price_currency": "\u00a3", "price_formatted": "\u00a393,000", "price_high": 93000, "price_low": 93000, "price_type": "fixed", "property_type": "flat", "size": 0, "size_type": "net", "summary": "Cj hole are delighted at being able to offer prospective purchasers...", "thumb_height": 60, "thumb_url": "https://imgs.nestimg.com/medium/flatapartment_111693337303431130.jpg", "thumb_width": 80, "title": "Vardy Court Highbridge Somerset TA9", "updated_in_days": 6, "updated_in_days_formatted": "first seen 6 days ago"}, {"bathroom_number": "", "bedroom_number": 2, "car_spaces": 0, "commission": 0, "construction_year": 0, "datasource_name": "NetHousePrices", "img_height": 300, "img_url": "https://imgs.nestimg.com/2_bedroom_flat_111013070897403596.jpg", "img_width": 400, "keywords": "Garden, Garage, Kitchen, Cellar", "latitude": 51.04855, "lister_url": "https://www.nestoria.co.uk/detail/0000000111013070897403596/title/5/68-6?serpUid=&pt=1&ot=1&l=somerset&did=90_high1&t_sec=9&t_or=45&t_pvid=null&utm_source=api&utm_medium=external", "listing_type": "buy", "location_accuracy": 9, "longitude": -3.0402277, "price": 300000, "price_currency": "\u00a3", "price_formatted": "\u00a3300,000", "price_high": 300000, "price_low": 300000, "price_type": "fixed", "property_type": "flat", "size": 0, "size_type": "net", "summary": "A most two bedroom ground floor apartment within this pretigious de...", "thumb_height": 60, "thumb_url": "https://imgs.nestimg.com/medium/2_bedroom_flat_111013070897403596.jpg", "thumb_width": 80, "title": "Walford Cross, Taunton, Somerset, TA2", "updated_in_days": 116, "updated_in_days_formatted": "first seen over a month ago"}, {"bathroom_number": "", "bedroom_number": 2, "car_spaces": 0, "commission": 0, "construction_year": 0, "datasource_name": "NetHousePrices", "img_height": 300, "img_url": "https://imgs.nestimg.com/2_bedroom_terraced_house_111662418691403990.jpg", "img_width": 400, "keywords": "Garden, No Chain, Terraced, Double Bedroom, Kitchen, Cottage, Gas Central Heating", "latitude": 50.993755, "lister_name": "Palmer Snell", "lister_url": "https://www.nestoria.co.uk/detail/0000000111662418691403990/title/5/68-7?serpUid=&pt=1&ot=1&l=somerset&did=90_high1&t_sec=9&t_or=45&t_pvid=null&utm_source=api&utm_medium=external", "listing_type": "buy", "location_accuracy": 9, "longitude": -3.1171596, "price": 160000, "price_currency": "\u00a3", "price_formatted": "\u00a3160,000", "price_high": 160000, "price_low": 160000, "price_type": "fixed", "property_type": "house", "size": 0, "size_type": "net", "summary": "A two bedroom cottage, available to the market with no onward chain...", "thumb_height": 60, "thumb_url": "https://imgs.nestimg.com/medium/2_bedroom_terraced_house_111662418691403990.jpg", "thumb_width": 80, "title": "Mill Lane, Trull, Taunton, Somerset, TA3", "updated_in_days": 11, "updated_in_days_formatted": "first seen last week"}, {"bathroom_number": "", "bedroom_number": "", "car_spaces": 0, "commission": 0, "construction_year": 0, "datasource_name": "NetHousePrices", "img_height": 300, "img_url": "https://imgs.nestimg.com/land_commercial_111680955547004312.jpg", "img_width": 400, "keywords": "", "latitude": 51.03179, "lister_name": "Greenslade Taylor Hunt", "lister_url": "https://www.nestoria.co.uk/detail/0000000111680955547004312/title/5/68-8?serpUid=&pt=1&ot=1&l=somerset&did=90_high1&t_sec=9&t_or=45&t_pvid=null&utm_source=api&utm_medium=external", "listing_type": "buy", "location_accuracy": 9, "longitude": -2.867837, "price": 80000, "price_currency": "\u00a3", "price_formatted": "\u00a380,000", "price_high": 80000, "price_low": 80000, "price_type": "fixed", "property_type": "land", "size": 0, "size_type": "net", "summary": "Approximately 9.55 acres conveniently situated productive pasture l...", "thumb_height": 60, "thumb_url": "https://imgs.nestimg.com/medium/land_commercial_111680955547004312.jpg", "thumb_width": 80, "title": "Curry Rivel, Langport, Somerset, TA10", "updated_in_days": 8, "updated_in_days_formatted": "first seen last week"}, {"bathroom_number": "", "bedroom_number": 3, "car_spaces": 0, "commission": 0, "construction_year": 0, "datasource_name": "OnTheMarket.com", "img_height": 300, "img_url": "https://imgs.nestimg.com/3_bedroom_terraced_house_for_sale_110029095310138912.jpg", "img_width": 400, "keywords": "Terraced, Kitchen, Modern", "latitude": 51.1229, "lister_url": "https://www.nestoria.co.uk/detail/0000000110029095310138912/title/5/68-9?serpUid=&pt=1&ot=1&l=somerset&did=105_high1&t_sec=9&t_or=45&t_pvid=null&utm_source=api&utm_medium=external", "listing_type": "buy", "location_accuracy": 9, "longitude": -2.49021, "price": 265000, "price_currency": "\u00a3", "price_formatted": "\u00a3265,000", "price_high": 265000, "price_low": 265000, "price_type": "fixed", "property_type": "house", "size": 0, "size_type": "net", "summary": "An three bedroom mid terrace period stone cottagesituated in the vi...", "thumb_height": 60, "thumb_url": "https://imgs.nestimg.com/medium/3_bedroom_terraced_house_for_sale_110029095310138912.jpg", "thumb_width": 80, "title": "Lamyatt, Somerset BA4 - Modern", "updated_in_days": 200, "updated_in_days_formatted": "first seen over a month ago"}, {"bathroom_number": "", "bedroom_number": 5, "car_spaces": 0, "commission": 0, "construction_year": 0, "datasource_name": "OnTheMarket.com", "img_height": 300, "img_url": "https://imgs.nestimg.com/5_bedroom_detached_house_for_sale_109973716889728226.jpg", "img_width": 400, "keywords": "Detached, Garden, No Chain, Victorian, Kitchen, Reception", "latitude": 51.335075, "lister_name": "Knight Frank", "lister_url": "https://www.nestoria.co.uk/detail/0000000109973716889728226/title/5/68-10?serpUid=&pt=1&ot=1&l=somerset&did=105_high1&t_sec=9&t_or=45&t_pvid=null&utm_source=api&utm_medium=external", "listing_type": "buy", "location_accuracy": 9, "longitude": -2.595383, "price": 725000, "price_currency": "\u00a3", "price_formatted": "\u00a3725,000", "price_high": 725000, "price_low": 725000, "price_type": "fixed", "property_type": "house", "size": 0, "size_type": "net", "summary": "Victorian house at the heart of a chew valley village. No chaintrac...", "thumb_height": 60, "thumb_url": "https://imgs.nestimg.com/medium/5_bedroom_detached_house_for_sale_109973716889728226.jpg", "thumb_width": 80, "title": "The Street, Bishop Sutton, Bristol, North Somerset, BS39", "updated_in_days": 41, "updated_in_days_formatted": "first seen over a month ago"}, {"bathroom_number": "", "bedroom_number": 4, "car_spaces": 0, "commission": 0, "construction_year": 0, "datasource_name": "NetHousePrices", "img_height": 300, "img_url": "https://imgs.nestimg.com/4_bedroom_semi_detached_house_111612975147082188.jpg", "img_width": 400, "keywords": "Garden, Semi-Detached, Garage, Kitchen", "latitude": 51.026882, "lister_name": "Palmer Snell", "lister_url": "https://www.nestoria.co.uk/detail/0000000111612975147082188/title/5/68-11?serpUid=&pt=1&ot=1&l=somerset&did=90_high1&t_sec=9&t_or=45&t_pvid=null&utm_source=api&utm_medium=external", "listing_type": "buy", "location_accuracy": 9, "longitude": -3.1258986, "price": 260000, "price_currency": "\u00a3", "price_formatted": "\u00a3260,000", "price_high": 260000, "price_low": 260000, "price_type": "fixed", "property_type": "house", "size": 0, "size_type": "net", "summary": "Irvine close is a recently extended four bedroom family home which ...", "thumb_height": 60, "thumb_url": "https://imgs.nestimg.com/medium/4_bedroom_semi_detached_house_111612975147082188.jpg", "thumb_width": 80, "title": "Irvine Close, Taunton, Somerset, TA2", "updated_in_days": 19, "updated_in_days_formatted": "first seen 2 weeks ago"}, {"bathroom_number": "", "bedroom_number": 0, "car_spaces": 0, "commission": 0, "construction_year": 0, "datasource_name": "NetHousePrices", "img_height": 300, "img_url": "https://imgs.nestimg.com/flat_111575771443260724.jpg", "img_width": 400, "keywords": "Garden, Auction", "latitude": 51.026573, "lister_name": "Palmer Snell", "lister_url": "https://www.nestoria.co.uk/detail/0000000111575771443260724/title/5/68-12?serpUid=&pt=1&ot=1&l=somerset&did=90_high1&t_sec=9&t_or=45&t_pvid=null&utm_source=api&utm_medium=external", "listing_type": "buy", "location_accuracy": 9, "longitude": -3.1017926, "price": 35000, "price_currency": "\u00a3", "price_formatted": "\u00a335,000", "price_high": 35000, "price_low": 35000, "price_type": "fixed", "property_type": "flat", "size": 0, "size_type": "net", "summary": "A vacant first floor studio apartment enjoying its own external acc...", "thumb_height": 60, "thumb_url": "https://imgs.nestimg.com/medium/flat_111575771443260724.jpg", "thumb_width": 80, "title": "Cheddon Road, Taunton, Somerset, TA2", "updated_in_days": 25, "updated_in_days_formatted": "first seen 3 weeks ago"}, {"bathroom_number": "", "bedroom_number": "", "car_spaces": 0, "commission": 0, "construction_year": 0, "datasource_name": "NetHousePrices", "img_height": 300, "img_url": "https://imgs.nestimg.com/land_commercial_111482734345443793.jpg", "img_width": 400, "keywords": "New Build, Conversion, Parking, Listed", "latitude": 51.12873, "lister_url": "https://www.nestoria.co.uk/detail/0000000111482734345443793/title/5/68-13?serpUid=&pt=1&ot=1&l=somerset&did=90_high1&t_sec=9&t_or=45&t_pvid=null&utm_source=api&utm_medium=external", "listing_type": "buy", "location_accuracy": 9, "longitude": -3.0077732, "price": 450000, "price_currency": "\u00a3", "price_formatted": "\u00a3450,000", "price_high": 450000, "price_low": 450000, "price_type": "fixed", "property_type": "land", "size": 0, "size_type": "net", "summary": "Redevelopment options, residential conversion potential for new bui...", "thumb_height": 60, "thumb_url": "https://imgs.nestimg.com/medium/land_commercial_111482734345443793.jpg", "thumb_width": 80, "title": "Mount Street, Bridgwater, Somerset, TA6", "updated_in_days": 40, "updated_in_days_formatted": "first seen over a month ago"}, {"bathroom_number": "", "bedroom_number": "", "car_spaces": 0, "commission": 0, "construction_year": 0, "datasource_name": "Newhomesforsale", "img_height": 300, "img_url": "https://imgs.nestimg.com/tail_mill_108224075186673175.jpg", "img_width": 400, "keywords": "Conversion, Modern, Listed", "latitude": 50.907, "lister_url": "https://www.nestoria.co.uk/detail/0000000108224075186673175/title/5/68-14?serpUid=&pt=1&ot=1&l=somerset&did=115_default&t_sec=9&t_or=45&t_pvid=null&utm_source=api&utm_medium=external", "listing_type": "buy", "location_accuracy": 9, "longitude": -2.78669, "price_currency": "\u00a3", "property_type": "house", "size": 0, "size_type": "net", "summary": "Tail mill perfectly combines the old and new. From contemporary coa...", "thumb_height": 60, "thumb_url": "https://imgs.nestimg.com/medium/tail_mill_108224075186673175.jpg", "thumb_width": 80, "title": "House for sale, Somerset - Modern", "updated_in_days": 567, "updated_in_days_formatted": "first seen over a month ago"}, {"bathroom_number": "", "bedroom_number": 2, "car_spaces": 0, "commission": 0, "construction_year": 0, "datasource_name": "OnTheMarket.com", "img_height": 300, "img_url": "https://imgs.nestimg.com/2_bedroom_end_of_terrace_house_for_sale_110432022558803603.jpg", "img_width": 400, "keywords": "Shared Garden, En suite, Terraced, Kitchen, Parking, Gas Central Heating", "latitude": 51.0542, "lister_url": "https://www.nestoria.co.uk/detail/0000000110432022558803603/title/5/68-15?serpUid=&pt=1&ot=1&l=somerset&did=105_high1&t_sec=9&t_or=45&t_pvid=null&utm_source=api&utm_medium=external", "listing_type": "buy", "location_accuracy": 9, "longitude": -2.42445, "price": 186000, "price_currency": "\u00a3", "price_formatted": "\u00a3186,000", "price_high": 186000, "price_low": 186000, "price_type": "fixed", "property_type": "house", "size": 0, "size_type": "net", "summary": "An well presented two bedroom end terrace house situated on a resid...", "thumb_height": 60, "thumb_url": "https://imgs.nestimg.com/medium/2_bedroom_end_of_terrace_house_for_sale_110432022558803603.jpg", "thumb_width": 80, "title": "Wincanton, Somerset, BA9 - En Suite", "updated_in_days": 90, "updated_in_days_formatted": "first seen over a month ago"}], "locations": [{"center_lat": 51.080967, "center_long": -3.045432, "long_title": "Somerset, county", "place_name": "somerset", "title": "Somerset"}], "page": 68, "sort": "nestoria_rank", "status_code": "200", "status_text": "OK", "thanks": "For using the Nestoria API.", "total_pages": 410, "total_results": 6149, "_cu5t0mP434m_": "remove"}}