{"request": {"country": "uk", "language": "en", "location": "somerset", "num_res": "15", "offset": 1020, "output": "json_xs", "page": 69, "product_type": "realestate", "property_type": "property", "size_type": "net", "size_unit": "m2", "sort": "nestoria_rank", "listing_type": "buy"}, "response": {"application_response_code": "100", "application_response_text": "listings returned for one unambiguous location", "attribution": {"img_height": 22, "img_url": "https://resources.nestimg.com/nestoria/img/pbr_v1.png", "img_width": 183, "link_to_img": "http://www.nestoria.com"}, "created_http": "Tue, 18 Jun 2019 17:30:20 GMT", "created_unix": 1560879020, "link_to_url": "https://www.nestoria.co.uk/somerset/property/buy/69", "listings": [{"bathroom_number": "", "bedroom_number": 1, "car_spaces": 0, "commission": 0, "construction_year": 0, "datasource_name": "NetHousePrices", "img_height": 300, "img_url": "https://imgs.nestimg.com/1_bedroom_flat_111600373821615944.jpg", "img_width": 400, "keywords": "Garden, No Chain, Double Bedroom, Kitchen, Lift", "latitude": 51.02022, "lister_name": "Palmer Snell", "lister_url": "https://www.nestoria.co.uk/detail/0000000111600373821615944/title/5/69-1?serpUid=&pt=1&ot=1&l=somerset&did=90_high1&t_sec=9&t_or=45&t_pvid=null&utm_source=api&utm_medium=external", "listing_type": "buy", "location_accuracy": 9, "longitude": -3.1076443, "price": 90000, "price_currency": "\u00a3", "price_formatted": "\u00a390,000", "price_high": 90000, "price_low": 90000, "price_type": "fixed", "property_type": "flat", "size": 0, "size_type": "net", "summary": "Developed in 2000 by mccarthy & stone, this one bedroom apartment p...", "thumb_height": 60, "thumb_url": "https://imgs.nestimg.com/medium/1_bedroom_flat_111600373821615944.jpg", "thumb_width": 80, "title": "The Avenue, Taunton, Somerset, TA1", "updated_in_days": 21, "updated_in_days_formatted": "first seen 3 weeks ago"}, {"bathroom_number": 2, "bedroom_number": 5, "car_spaces": 0, "commission": 0, "construction_year": 0, "datasource_name": "NetHousePrices", "img_height": 300, "img_url": "https://imgs.nestimg.com/5_bedroom_detached_house_111482737400364161.jpg", "img_width": 400, "keywords": "Detached, Garden, Grade II, No Chain, Conversion, Fireplace, Kitchen, Cellar, Listed", "latitude": 51.13597, "lister_name": "Greenslade Taylor Hunt", "lister_url": "https://www.nestoria.co.uk/detail/0000000111482737400364161/title/5/69-2?serpUid=&pt=1&ot=1&l=somerset&did=90_high1&t_sec=9&t_or=45&t_pvid=null&utm_source=api&utm_medium=external", "listing_type": "buy", "location_accuracy": 9, "longitude": -3.044321, "price": 750000, "price_currency": "\u00a3", "price_formatted": "\u00a3750,000", "price_high": 750000, "price_low": 750000, "price_type": "fixed", "property_type": "house", "size": 0, "size_type": "net", "summary": "A historic grade ii listed, detached period residence situated in a...", "thumb_height": 60, "thumb_url": "https://imgs.nestimg.com/medium/5_bedroom_detached_house_111482737400364161.jpg", "thumb_width": 80, "title": "Sandford Hill, Wembdon, Bridgwater, Somerset, TA5", "updated_in_days": 40, "updated_in_days_formatted": "first seen over a month ago"}, {"bathroom_number": "", "bedroom_number": 3, "car_spaces": 0, "commission": 0, "construction_year": 0, "datasource_name": "OnTheMarket.com", "img_height": 300, "img_url": "https://imgs.nestimg.com/3_bedroom_mews_for_sale_110432021787477560.jpg", "img_width": 400, "keywords": "Mews, Garage, Kitchen, Modern", "latitude": 51.0564, "lister_url": "https://www.nestoria.co.uk/detail/0000000110432021787477560/title/5/69-3?serpUid=&pt=1&ot=1&l=somerset&did=105_high1&t_sec=9&t_or=45&t_pvid=null&utm_source=api&utm_medium=external", "listing_type": "buy", "location_accuracy": 9, "longitude": -2.4112, "price": 230000, "price_currency": "\u00a3", "price_formatted": "\u00a3230,000", "price_high": 230000, "price_low": 230000, "price_type": "fixed", "property_type": "house", "size": 0, "size_type": "net", "summary": "A rare opportunity to purchase an three bedroom period mews house t...", "thumb_height": 60, "thumb_url": "https://imgs.nestimg.com/medium/3_bedroom_mews_for_sale_110432021787477560.jpg", "thumb_width": 80, "title": "Wincanton, Somerset, BA9 - Mews", "updated_in_days": 31, "updated_in_days_formatted": "first seen over a month ago"}, {"bathroom_number": "", "bedroom_number": 3, "car_spaces": 0, "commission": 0, "construction_year": 0, "datasource_name": "NetHousePrices", "img_height": 300, "img_url": "https://imgs.nestimg.com/3_bedroom_terraced_house_111365856929499841.jpg", "img_width": 400, "keywords": "Freehold, En suite, New Build, Terraced, Kitchen, Modern, Parking, Shared Equity, Gas Central Heating", "latitude": 51.120777, "lister_name": "Palmer Snellcountrywide", "lister_url": "https://www.nestoria.co.uk/detail/0000000111365856929499841/title/5/69-4?serpUid=&pt=1&ot=1&l=somerset&did=90_high1&t_sec=9&t_or=45&t_pvid=null&utm_source=api&utm_medium=external", "listing_type": "buy", "location_accuracy": 9, "longitude": -2.99877, "price": 222000, "price_currency": "\u00a3", "price_formatted": "\u00a3222,000", "price_high": 222000, "price_low": 222000, "price_type": "fixed", "property_type": "house", "size": 0, "size_type": "net", "summary": "3 bed mid terrace modern town house with double parking plot 20 upg...", "thumb_height": 60, "thumb_url": "https://imgs.nestimg.com/medium/3_bedroom_terraced_house_111365856929499841.jpg", "thumb_width": 80, "title": "Taunton Road, Bridgwater, Somerset, TA6", "updated_in_days": 59, "updated_in_days_formatted": "first seen over a month ago"}, {"bathroom_number": "", "bedroom_number": 3, "car_spaces": 0, "commission": 0, "construction_year": 0, "datasource_name": "NetHousePrices", "img_height": 300, "img_url": "https://imgs.nestimg.com/3_bedroom_end_of_terrace_house_111365858100512539.jpg", "img_width": 400, "keywords": "Freehold, En suite, New Build, Terraced, Kitchen, Modern, Parking, Shared Equity, Gas Central Heating", "latitude": 51.120777, "lister_name": "Palmer Snellcountrywide", "lister_url": "https://www.nestoria.co.uk/detail/0000000111365858100512539/title/5/69-5?serpUid=&pt=1&ot=1&l=somerset&did=90_high1&t_sec=9&t_or=45&t_pvid=null&utm_source=api&utm_medium=external", "listing_type": "buy", "location_accuracy": 9, "longitude": -2.99877, "price": 225000, "price_currency": "\u00a3", "price_formatted": "\u00a3225,000", "price_high": 225000, "price_low": 225000, "price_type": "fixed", "property_type": "house", "size": 0, "size_type": "net", "summary": "3 bed end of terrace modern town house with a double parking space ...", "thumb_height": 60, "thumb_url": "https://imgs.nestimg.com/medium/3_bedroom_end_of_terrace_house_111365858100512539.jpg", "thumb_width": 80, "title": "Taunton Road, Bridgwater, Somerset, TA6", "updated_in_days": 59, "updated_in_days_formatted": "first seen over a month ago"}, {"bathroom_number": "", "bedroom_number": 2, "car_spaces": 0, "commission": 0, "construction_year": 0, "datasource_name": "OnTheMarket.com", "img_height": 300, "img_url": "https://imgs.nestimg.com/2_bedroom_semi_detached_house_for_sale_110432019259174084.jpg", "img_width": 400, "keywords": "Garden, Semi-Detached, Kitchen, Parking, Cul-de-Sac, Gas Central Heating", "latitude": 51.0506, "lister_url": "https://www.nestoria.co.uk/detail/0000000110432019259174084/title/5/69-6?serpUid=&pt=1&ot=1&l=somerset&did=105_high1&t_sec=9&t_or=45&t_pvid=null&utm_source=api&utm_medium=external", "listing_type": "buy", "location_accuracy": 9, "longitude": -2.40717, "price": 167000, "price_currency": "\u00a3", "price_formatted": "\u00a3167,000", "price_high": 167000, "price_low": 167000, "price_type": "fixed", "property_type": "house", "size": 0, "size_type": "net", "summary": "An two bedroom semi detached house situated in a cul-de-sac on a re...", "thumb_height": 60, "thumb_url": "https://imgs.nestimg.com/medium/2_bedroom_semi_detached_house_for_sale_110432019259174084.jpg", "thumb_width": 80, "title": "Wincanton, Somerset, BA9 - Garden", "updated_in_days": 46, "updated_in_days_formatted": "first seen over a month ago"}, {"bathroom_number": "", "bedroom_number": 4, "car_spaces": 0, "commission": 0, "construction_year": 0, "datasource_name": "NetHousePrices", "img_height": 300, "img_url": "https://imgs.nestimg.com/4_bedroom_bungalow_111501199749696052.jpg", "img_width": 400, "keywords": "Detached, Garden, En suite, Conservatory, Detached Garage, Fireplace, Double Bedroom, Kitchen, Bungalow, Modern, Patio", "latitude": 51.125237, "lister_name": "Palmer Snellcountrywide", "lister_url": "https://www.nestoria.co.uk/detail/0000000111501199749696052/title/5/69-7?serpUid=&pt=1&ot=1&l=somerset&did=90_high1&t_sec=9&t_or=45&t_pvid=null&utm_source=api&utm_medium=external", "listing_type": "buy", "location_accuracy": 9, "longitude": -3.1067255, "price": 375000, "price_currency": "\u00a3", "price_formatted": "\u00a3375,000", "price_high": 375000, "price_low": 375000, "price_type": "fixed", "property_type": "house", "size": 0, "size_type": "net", "summary": "4 bedroom bungalow with garage and large garden that backs onto the...", "thumb_height": 60, "thumb_url": "https://imgs.nestimg.com/medium/4_bedroom_bungalow_111501199749696052.jpg", "thumb_width": 80, "title": "High Street, Spaxton, Bridgwater, Somerset, TA5", "updated_in_days": 37, "updated_in_days_formatted": "first seen over a month ago"}, {"bathroom_number": "", "bedroom_number": 3, "car_spaces": 0, "commission": 0, "construction_year": 0, "datasource_name": "Home.co.uk", "img_height": 300, "img_url": "https://imgs.nestimg.com/terraced_house_111291676767505581.jpg", "img_width": 400, "keywords": "Terraced, Kitchen", "latitude": 51.008644, "lister_name": "Webbers", "lister_url": "https://www.nestoria.co.uk/detail/0000000111291676767505581/title/5/69-8?serpUid=&pt=1&ot=1&l=somerset&did=85_default&t_sec=9&t_or=45&t_pvid=null&utm_source=api&utm_medium=external", "listing_type": "buy", "location_accuracy": 10, "longitude": -3.07894, "price": 200000, "price_currency": "\u00a3", "price_formatted": "\u00a3200,000", "price_high": 200000, "price_low": 200000, "price_type": "fixed", "property_type": "house", "size": 0, "size_type": "net", "summary": "Now looking for a new owner, this property offers its perspective b...", "thumb_height": 60, "thumb_url": "https://imgs.nestimg.com/medium/terraced_house_111291676767505581.jpg", "thumb_width": 80, "title": "Bramble Park, Taunton, Somerset", "updated_in_days": 21, "updated_in_days_formatted": "first seen 3 weeks ago"}, {"bathroom_number": "", "bedroom_number": 3, "car_spaces": 0, "commission": 0, "construction_year": 0, "datasource_name": "NetHousePrices", "img_height": 300, "img_url": "https://imgs.nestimg.com/3_bedroom_end_of_terrace_house_111606516197926669.jpg", "img_width": 400, "keywords": "Garden, En suite, Grade II, No Chain, Fireplace, Terraced, Double Bedroom, Kitchen, Cellar, Listed", "latitude": 51.011097, "lister_name": "Palmer Snell", "lister_url": "https://www.nestoria.co.uk/detail/0000000111606516197926669/title/5/69-9?serpUid=&pt=1&ot=1&l=somerset&did=90_high1&t_sec=9&t_or=45&t_pvid=null&utm_source=api&utm_medium=external", "listing_type": "buy", "location_accuracy": 9, "longitude": -3.1009126, "price": 290000, "price_currency": "\u00a3", "price_formatted": "\u00a3290,000", "price_high": 290000, "price_low": 290000, "price_type": "fixed", "property_type": "house", "size": 0, "size_type": "net", "summary": "This well grade ii listed 17th century home offers ideally situated...", "thumb_height": 60, "thumb_url": "https://imgs.nestimg.com/medium/3_bedroom_end_of_terrace_house_111606516197926669.jpg", "thumb_width": 80, "title": "Mount Street, Taunton, Somerset, TA1", "updated_in_days": 20, "updated_in_days_formatted": "first seen 2 weeks ago"}, {"bathroom_number": "", "bedroom_number": 3, "car_spaces": 0, "commission": 0, "construction_year": 0, "datasource_name": "NetHousePrices", "img_height": 300, "img_url": "https://imgs.nestimg.com/3_bedroom_detached_house_111223259529206605.jpg", "img_width": 400, "keywords": "Detached, Garden, Fireplace, Garage, Kitchen, Modern", "latitude": 51.01817, "lister_url": "https://www.nestoria.co.uk/detail/0000000111223259529206605/title/5/69-10?serpUid=&pt=1&ot=1&l=somerset&did=90_high1&t_sec=9&t_or=45&t_pvid=null&utm_source=api&utm_medium=external", "listing_type": "buy", "location_accuracy": 9, "longitude": -3.0713117, "price": 367500, "price_currency": "\u00a3", "price_formatted": "\u00a3367,500", "price_high": 367500, "price_low": 367500, "price_type": "fixed", "property_type": "house", "size": 0, "size_type": "net", "summary": "A most , ly presented 1930s home within a large plot providing for ...", "thumb_height": 60, "thumb_url": "https://imgs.nestimg.com/medium/3_bedroom_detached_house_111223259529206605.jpg", "thumb_width": 80, "title": "Ilminster Road, Taunton, Somerset, TA1", "updated_in_days": 32, "updated_in_days_formatted": "first seen over a month ago"}, {"bathroom_number": "", "bedroom_number": 3, "car_spaces": 0, "commission": 0, "construction_year": 0, "datasource_name": "OnTheMarket.com", "img_height": 300, "img_url": "https://imgs.nestimg.com/3_bedroom_semi_detached_house_for_sale_110004762490764512.jpg", "img_width": 400, "keywords": "Cottage", "latitude": 51.0395, "lister_name": "Stags", "lister_url": "https://www.nestoria.co.uk/detail/0000000110004762490764512/title/5/69-11?serpUid=&pt=1&ot=1&l=somerset&did=105_high1&t_sec=9&t_or=45&t_pvid=null&utm_source=api&utm_medium=external", "listing_type": "buy", "location_accuracy": 9, "longitude": -3.55119, "price": 325000, "price_currency": "\u00a3", "price_formatted": "\u00a3325,000", "price_high": 325000, "price_low": 325000, "price_type": "fixed", "property_type": "house", "size": 0, "size_type": "net", "summary": "Commercial investment premises with the benefit of two apartments a...", "thumb_height": 60, "thumb_url": "https://imgs.nestimg.com/medium/3_bedroom_semi_detached_house_for_sale_110004762490764512.jpg", "thumb_width": 80, "title": "High Street, Dulverton, Somerset, TA22", "updated_in_days": 279, "updated_in_days_formatted": "first seen over a month ago"}, {"bathroom_number": "", "bedroom_number": 6, "car_spaces": 0, "commission": 0, "construction_year": 0, "datasource_name": "NetHousePrices", "img_height": 300, "img_url": "https://imgs.nestimg.com/6_bedroom_detached_house_111587802847113859.jpg", "img_width": 400, "keywords": "Detached, Garden, En suite, Wood Floor, Garage, Kitchen, Modern, Reception", "latitude": 51.137714, "lister_name": "Express", "lister_url": "https://www.nestoria.co.uk/detail/0000000111587802847113859/title/5/69-12?serpUid=&pt=1&ot=1&l=somerset&did=90_high1&t_sec=9&t_or=45&t_pvid=null&utm_source=api&utm_medium=external", "listing_type": "buy", "location_accuracy": 9, "longitude": -2.9616148, "price": 645000, "price_currency": "\u00a3", "price_formatted": "\u00a3645,000", "price_high": 645000, "price_low": 645000, "price_type": "fixed", "property_type": "house", "size": 0, "size_type": "net", "summary": "Six bedroom detached country house with a holiday let, garage, leis...", "thumb_height": 60, "thumb_url": "https://imgs.nestimg.com/medium/6_bedroom_detached_house_111587802847113859.jpg", "thumb_width": 80, "title": "Chedzoy Lane, Bridgwater, Somerset, TA7", "updated_in_days": 23, "updated_in_days_formatted": "first seen 3 weeks ago"}, {"bathroom_number": "", "bedroom_number": 4, "car_spaces": 0, "commission": 0, "construction_year": 0, "datasource_name": "OnTheMarket.com", "img_height": 300, "img_url": "https://imgs.nestimg.com/4_bedroom_detached_house_for_sale_110134881976416548.jpg", "img_width": 400, "keywords": "Detached, No Chain", "latitude": 51.3436, "lister_url": "https://www.nestoria.co.uk/detail/0000000110134881976416548/title/5/69-13?serpUid=&pt=1&ot=1&l=somerset&did=105_high1&t_sec=9&t_or=45&t_pvid=null&utm_source=api&utm_medium=external", "listing_type": "buy", "location_accuracy": 9, "longitude": -2.49304, "price": 499950, "price_currency": "\u00a3", "price_formatted": "\u00a3499,950", "price_high": 499950, "price_low": 499950, "price_type": "fixed", "property_type": "house", "size": 0, "size_type": "net", "summary": "No onward chain.", "thumb_height": 60, "thumb_url": "https://imgs.nestimg.com/medium/4_bedroom_detached_house_for_sale_110134881976416548.jpg", "thumb_width": 80, "title": "Bath Road, Farmborough, Bath, Somerset, BA2", "updated_in_days": 7, "updated_in_days_formatted": "first seen last week"}, {"bathroom_number": "", "bedroom_number": 5, "car_spaces": 0, "commission": 0, "construction_year": 0, "datasource_name": "OnTheMarket.com", "img_height": 300, "img_url": "https://imgs.nestimg.com/5_bedroom_detached_house_for_sale_110276895646714514.jpg", "img_width": 400, "keywords": "Detached, Garden, Double Bedroom", "latitude": 51.300472, "lister_name": "Knight Frank", "lister_url": "https://www.nestoria.co.uk/detail/0000000110276895646714514/title/5/69-14?serpUid=&pt=1&ot=1&l=somerset&did=105_high1&t_sec=9&t_or=45&t_pvid=null&utm_source=api&utm_medium=external", "listing_type": "buy", "location_accuracy": 9, "longitude": -2.595793, "price": 1699500, "price_currency": "\u00a3", "price_formatted": "\u00a31,699,500", "price_high": 1699500, "price_low": 1699500, "price_type": "fixed", "property_type": "house", "size": 0, "size_type": "net", "summary": "Former farmhouse for sale in an elevated position in the chew valle...", "thumb_height": 60, "thumb_url": "https://imgs.nestimg.com/medium/5_bedroom_detached_house_for_sale_110276895646714514.jpg", "thumb_width": 80, "title": "Coley, East Harptree, Bristol, Somerset, BS40", "updated_in_days": 133, "updated_in_days_formatted": "first seen over a month ago"}, {"bathroom_number": "", "bedroom_number": 3, "car_spaces": 0, "commission": 0, "construction_year": 0, "datasource_name": "NetHousePrices", "img_height": 300, "img_url": "https://imgs.nestimg.com/3_bedroom_terraced_house_111470410660284036.jpg", "img_width": 400, "keywords": "Garden, Terraced, Kitchen, Parking", "latitude": 51.127502, "lister_url": "https://www.nestoria.co.uk/detail/0000000111470410660284036/title/5/69-15?serpUid=&pt=1&ot=1&l=somerset&did=90_high1&t_sec=9&t_or=45&t_pvid=null&utm_source=api&utm_medium=external", "listing_type": "buy", "location_accuracy": 9, "longitude": -2.978737, "price": 127000, "price_currency": "\u00a3", "price_formatted": "\u00a3127,000", "price_high": 127000, "price_low": 127000, "price_type": "fixed", "property_type": "house", "size": 0, "size_type": "net", "summary": "Priced to sell residential location family accommodation local amen...", "thumb_height": 60, "thumb_url": "https://imgs.nestimg.com/medium/3_bedroom_terraced_house_111470410660284036.jpg", "thumb_width": 80, "title": "Butleigh Close, Bridgwater, Somerset, TA6", "updated_in_days": 42, "updated_in_days_formatted": "first seen over a month ago"}], "locations": [{"center_lat": 51.080967, "center_long": -3.045432, "long_title": "Somerset, county", "place_name": "somerset", "title": "Somerset"}], "page": 69, "sort": "nestoria_rank", "status_code": "200", "status_text": "OK", "thanks": "For using the Nestoria API.", "total_pages": 410, "total_results": 6149, "_cu5t0mP434m_": "remove"}}