{"request": {"country": "uk", "language": "en", "location": "somerset", "num_res": "15", "offset": 75, "output": "json_xs", "page": 6, "product_type": "realestate", "property_type": "property", "size_type": "net", "size_unit": "m2", "sort": "nestoria_rank", "listing_type": "buy"}, "response": {"application_response_code": "100", "application_response_text": "listings returned for one unambiguous location", "attribution": {"img_height": 22, "img_url": "https://resources.nestimg.com/nestoria/img/pbr_v1.png", "img_width": 183, "link_to_img": "http://www.nestoria.com"}, "created_http": "Tue, 18 Jun 2019 17:28:42 GMT", "created_unix": 1560878922, "link_to_url": "https://www.nestoria.co.uk/somerset/property/buy/6", "listings": [{"bathroom_number": "", "bedroom_number": 4, "car_spaces": 0, "commission": 0, "construction_year": 0, "datasource_name": "OnTheMarket.com", "img_height": 300, "img_url": "https://imgs.nestimg.com/4_bedroom_detached_house_for_sale_111569521179116579.jpg", "img_width": 400, "keywords": "Detached, Garden, En suite, Grade II, Garage, Kitchen, Reception, Listed", "latitude": 51.0216, "lister_name": "Stags", "lister_url": "https://www.nestoria.co.uk/detail/0000000111569521179116579/title/5/6-1?serpUid=&pt=1&ot=1&l=somerset&did=105_high1&t_sec=9&t_or=45&t_pvid=null&utm_source=api&utm_medium=external", "listing_type": "buy", "location_accuracy": 9, "longitude": -3.01728, "price": 625000, "price_currency": "\u00a3", "price_formatted": "\u00a3625,000", "price_high": 625000, "price_low": 625000, "price_type": "fixed", "property_type": "house", "size": 0, "size_type": "net", "summary": "The most grade ii listed house with landscaped gardens. The propert...", "thumb_height": 60, "thumb_url": "https://imgs.nestimg.com/medium/4_bedroom_detached_house_for_sale_111569521179116579.jpg", "thumb_width": 80, "title": "Ham, Creech St Michael, Taunton, Somerset, TA3", "updated_in_days": 26, "updated_in_days_formatted": "first seen 3 weeks ago"}, {"bathroom_number": "", "bedroom_number": 3, "car_spaces": 0, "commission": 0, "construction_year": 0, "datasource_name": "OnTheMarket.com", "img_height": 300, "img_url": "https://imgs.nestimg.com/3_bedroom_semi_detached_house_for_sale_111637559699576830.jpg", "img_width": 400, "keywords": "Freehold, Garden, Semi-Detached, Grade II, Parking, Georgian, Listed", "latitude": 51.056, "lister_name": "Greenslade Taylor Hunt", "lister_url": "https://www.nestoria.co.uk/detail/0000000111637559699576830/title/5/6-2?serpUid=&pt=1&ot=1&l=somerset&did=105_high1&t_sec=9&t_or=45&t_pvid=null&utm_source=api&utm_medium=external", "listing_type": "buy", "location_accuracy": 9, "longitude": -2.95168, "price": 390000, "price_currency": "\u00a3", "price_formatted": "\u00a3390,000", "price_high": 390000, "price_low": 390000, "price_type": "fixed", "property_type": "house", "size": 0, "size_type": "net", "summary": "An grade ii listed georgian semi-detached residence with newly reno...", "thumb_height": 60, "thumb_url": "https://imgs.nestimg.com/medium/3_bedroom_semi_detached_house_for_sale_111637559699576830.jpg", "thumb_width": 80, "title": "East Lyng, Taunton, Somerset, TA3", "updated_in_days": 15, "updated_in_days_formatted": "first seen 2 weeks ago"}, {"bathroom_number": "", "bedroom_number": 5, "car_spaces": 0, "commission": 0, "construction_year": 0, "datasource_name": "OnTheMarket.com", "img_height": 300, "img_url": "https://imgs.nestimg.com/5_bedroom_detached_house_for_sale_111557528635457490.jpg", "img_width": 400, "keywords": "Detached, Garden, En suite, Double Garage, Conservatory, Kitchen", "latitude": 51.0304, "lister_name": "Stags", "lister_url": "https://www.nestoria.co.uk/detail/0000000111557528635457490/title/5/6-3?serpUid=&pt=1&ot=1&l=somerset&did=105_high1&t_sec=9&t_or=45&t_pvid=null&utm_source=api&utm_medium=external", "listing_type": "buy", "location_accuracy": 9, "longitude": -3.07355, "price": 435000, "price_currency": "\u00a3", "price_formatted": "\u00a3435,000", "price_high": 435000, "price_low": 435000, "price_type": "fixed", "property_type": "house", "size": 0, "size_type": "net", "summary": "A detached family house providing accommodation arranged over three...", "thumb_height": 60, "thumb_url": "https://imgs.nestimg.com/medium/5_bedroom_detached_house_for_sale_111557528635457490.jpg", "thumb_width": 80, "title": "Waterleaze, Taunton, Somerset, TA2", "updated_in_days": 28, "updated_in_days_formatted": "first seen last month"}, {"bathroom_number": "", "bedroom_number": 4, "car_spaces": 0, "commission": 0, "construction_year": 0, "datasource_name": "OnTheMarket.com", "img_height": 300, "img_url": "https://imgs.nestimg.com/4_bedroom_detached_house_for_sale_110759316137881522.jpg", "img_width": 400, "keywords": "Detached, Freehold, Double Garage, Cottage", "latitude": 51.2613, "lister_name": "Greenslade Taylor Hunt", "lister_url": "https://www.nestoria.co.uk/detail/0000000110759316137881522/title/5/6-4?serpUid=&pt=1&ot=1&l=somerset&did=105_high1&t_sec=9&t_or=45&t_pvid=null&utm_source=api&utm_medium=external", "listing_type": "buy", "location_accuracy": 9, "longitude": -2.96191, "price": 575000, "price_currency": "\u00a3", "price_formatted": "\u00a3575,000", "price_high": 575000, "price_low": 575000, "price_type": "fixed", "property_type": "house", "size": 0, "size_type": "net", "summary": "This most characterful, detached, stone built 4 bedroom country cot...", "thumb_height": 60, "thumb_url": "https://imgs.nestimg.com/medium/4_bedroom_detached_house_for_sale_110759316137881522.jpg", "thumb_width": 80, "title": "Burton Row, Brent Knoll, Highbridge, Somerset, TA9", "updated_in_days": 6, "updated_in_days_formatted": "first seen 6 days ago"}, {"bathroom_number": "", "bedroom_number": 4, "car_spaces": 0, "commission": 0, "construction_year": 0, "datasource_name": "OnTheMarket.com", "img_height": 300, "img_url": "https://imgs.nestimg.com/4_bedroom_detached_bungalow_for_sale_110981940235146116.jpg", "img_width": 400, "keywords": "Detached, Freehold, Garden, Garage, Bungalow", "latitude": 51.1012, "lister_name": "Greenslade Taylor Hunt", "lister_url": "https://www.nestoria.co.uk/detail/0000000110981940235146116/title/5/6-5?serpUid=&pt=1&ot=1&l=somerset&did=105_high1&t_sec=9&t_or=45&t_pvid=null&utm_source=api&utm_medium=external", "listing_type": "buy", "location_accuracy": 9, "longitude": -3.02511, "price": 375000, "price_currency": "\u00a3", "price_formatted": "\u00a3375,000", "price_high": 375000, "price_low": 375000, "price_type": "fixed", "property_type": "house", "size": 0, "size_type": "net", "summary": "A well-presented detached chalet bungalow situated in a rural locat...", "thumb_height": 60, "thumb_url": "https://imgs.nestimg.com/medium/4_bedroom_detached_bungalow_for_sale_110981940235146116.jpg", "thumb_width": 80, "title": "Woolmersdon, North Petherton, Bridgwater, Somerset, TA5", "updated_in_days": 41, "updated_in_days_formatted": "first seen over a month ago"}, {"bathroom_number": "", "bedroom_number": 4, "car_spaces": 0, "commission": 0, "construction_year": 0, "datasource_name": "OnTheMarket.com", "img_height": 300, "img_url": "https://imgs.nestimg.com/4_bedroom_detached_house_for_sale_111402760866479382.jpg", "img_width": 400, "keywords": "Detached, Garden, Double Garage", "latitude": 51.0625, "lister_name": "Stags", "lister_url": "https://www.nestoria.co.uk/detail/0000000111402760866479382/title/5/6-6?serpUid=&pt=1&ot=1&l=somerset&did=105_high1&t_sec=9&t_or=45&t_pvid=null&utm_source=api&utm_medium=external", "listing_type": "buy", "location_accuracy": 9, "longitude": -3.03542, "price": 539950, "price_currency": "\u00a3", "price_formatted": "\u00a3539,950", "price_high": 539950, "price_low": 539950, "price_type": "fixed", "property_type": "house", "size": 0, "size_type": "net", "summary": "A high quality detached house with flexible accommodation. The prop...", "thumb_height": 60, "thumb_url": "https://imgs.nestimg.com/medium/4_bedroom_detached_house_for_sale_111402760866479382.jpg", "thumb_width": 80, "title": "Thurloxton, Taunton, Somerset, TA2", "updated_in_days": 53, "updated_in_days_formatted": "first seen over a month ago"}, {"bathroom_number": "", "bedroom_number": 4, "car_spaces": 0, "commission": 0, "construction_year": 0, "datasource_name": "OnTheMarket.com", "img_height": 300, "img_url": "https://imgs.nestimg.com/4_bedroom_detached_house_for_sale_111699712829584956.jpg", "img_width": 400, "keywords": "Detached, Garden, Double Bedroom, Garage, Reception", "latitude": 50.8934, "lister_name": "Greenslade Taylor Hunt", "lister_url": "https://www.nestoria.co.uk/detail/0000000111699712829584956/title/5/6-7?serpUid=&pt=1&ot=1&l=somerset&did=105_high1&t_sec=9&t_or=45&t_pvid=null&utm_source=api&utm_medium=external", "listing_type": "buy", "location_accuracy": 9, "longitude": -2.75077, "price": 435000, "price_currency": "\u00a3", "price_formatted": "\u00a3435,000", "price_high": 435000, "price_low": 435000, "price_type": "fixed", "property_type": "house", "size": 0, "size_type": "net", "summary": "A four double bedroom detached family home with three reception roo...", "thumb_height": 60, "thumb_url": "https://imgs.nestimg.com/medium/4_bedroom_detached_house_for_sale_111699712829584956.jpg", "thumb_width": 80, "title": "Claycastle, Haselbury Plucknett, Crewkerne, Somerset, TA18", "updated_in_days": 5, "updated_in_days_formatted": "first seen 5 days ago"}, {"bathroom_number": "", "bedroom_number": 3, "car_spaces": 0, "commission": 0, "construction_year": 0, "datasource_name": "OnTheMarket.com", "img_height": 300, "img_url": "https://imgs.nestimg.com/3_bedroom_detached_bungalow_for_sale_111495044135427161.jpg", "img_width": 400, "keywords": "Detached, Freehold, Garden, Needs Modernisation, Double Garage, No Chain, Bungalow", "latitude": 51.1299, "lister_name": "Greenslade Taylor Hunt", "lister_url": "https://www.nestoria.co.uk/detail/0000000111495044135427161/title/5/6-8?serpUid=&pt=1&ot=1&l=somerset&did=105_high1&t_sec=9&t_or=45&t_pvid=null&utm_source=api&utm_medium=external", "listing_type": "buy", "location_accuracy": 9, "longitude": -3.09569, "price": 300000, "price_currency": "\u00a3", "price_formatted": "\u00a3300,000", "price_high": 300000, "price_low": 300000, "price_type": "fixed", "property_type": "house", "size": 0, "size_type": "net", "summary": "A detached bungalow in need of complete refurbishment. Good size ga...", "thumb_height": 60, "thumb_url": "https://imgs.nestimg.com/medium/3_bedroom_detached_bungalow_for_sale_111495044135427161.jpg", "thumb_width": 80, "title": "Charlynch Road, Spaxton, Bridgwater, Somerset, TA5", "updated_in_days": 38, "updated_in_days_formatted": "first seen over a month ago"}, {"bathroom_number": "", "bedroom_number": 4, "car_spaces": 0, "commission": 0, "construction_year": 0, "datasource_name": "OnTheMarket.com", "img_height": 300, "img_url": "https://imgs.nestimg.com/4_bedroom_detached_house_for_sale_111705544170802149.jpg", "img_width": 400, "keywords": "Detached, Garden", "latitude": 51.1422, "lister_name": "Stags", "lister_url": "https://www.nestoria.co.uk/detail/0000000111705544170802149/title/5/6-9?serpUid=&pt=1&ot=1&l=somerset&did=105_high1&t_sec=9&t_or=45&t_pvid=null&utm_source=api&utm_medium=external", "listing_type": "buy", "location_accuracy": 9, "longitude": -3.54952, "price": 625000, "price_currency": "\u00a3", "price_formatted": "\u00a3625,000", "price_high": 625000, "price_low": 625000, "price_type": "fixed", "property_type": "house", "size": 0, "size_type": "net", "summary": "A detached 4 bedroom house enjoying far reaching rural views with g...", "thumb_height": 60, "thumb_url": "https://imgs.nestimg.com/medium/4_bedroom_detached_house_for_sale_111705544170802149.jpg", "thumb_width": 80, "title": "Wheddon Cross, Exmoor, Somerset, TA24", "updated_in_days": 4, "updated_in_days_formatted": "first seen 4 days ago"}, {"bathroom_number": "", "bedroom_number": 3, "car_spaces": 0, "commission": 0, "construction_year": 0, "datasource_name": "OnTheMarket.com", "img_height": 300, "img_url": "https://imgs.nestimg.com/3_bedroom_detached_bungalow_for_sale_111440826996667528.jpg", "img_width": 400, "keywords": "Detached, Freehold, Garden, No Chain, Garage, Bungalow", "latitude": 51.1025, "lister_name": "Greenslade Taylor Hunt", "lister_url": "https://www.nestoria.co.uk/detail/0000000111440826996667528/title/5/6-10?serpUid=&pt=1&ot=1&l=somerset&did=105_high1&t_sec=9&t_or=45&t_pvid=null&utm_source=api&utm_medium=external", "listing_type": "buy", "location_accuracy": 9, "longitude": -3.0618, "price": 285000, "price_currency": "\u00a3", "price_formatted": "\u00a3285,000", "price_high": 285000, "price_low": 285000, "price_type": "fixed", "property_type": "house", "size": 0, "size_type": "net", "summary": "A detached bungalow with garage, driveway and enclosed rear garden....", "thumb_height": 60, "thumb_url": "https://imgs.nestimg.com/medium/3_bedroom_detached_bungalow_for_sale_111440826996667528.jpg", "thumb_width": 80, "title": "Goathurst, Bridgwater, Somerset, TA5", "updated_in_days": 47, "updated_in_days_formatted": "first seen over a month ago"}, {"bathroom_number": "", "bedroom_number": 3, "car_spaces": 0, "commission": 0, "construction_year": 0, "datasource_name": "OnTheMarket.com", "img_height": 300, "img_url": "https://imgs.nestimg.com/3_bedroom_bungalow_for_sale_111650100086159119.jpg", "img_width": 400, "keywords": "Detached, No Chain, Garage, Bungalow, Reception", "latitude": 51.0042, "lister_name": "Stags", "lister_url": "https://www.nestoria.co.uk/detail/0000000111650100086159119/title/5/6-11?serpUid=&pt=1&ot=1&l=somerset&did=105_high1&t_sec=9&t_or=45&t_pvid=null&utm_source=api&utm_medium=external", "listing_type": "buy", "location_accuracy": 9, "longitude": -3.08506, "price": 350000, "price_currency": "\u00a3", "price_formatted": "\u00a3350,000", "price_high": 350000, "price_low": 350000, "price_type": "fixed", "property_type": "house", "size": 0, "size_type": "net", "summary": "A well-proportioned detached chalet bungalow situated in a location...", "thumb_height": 60, "thumb_url": "https://imgs.nestimg.com/medium/3_bedroom_bungalow_for_sale_111650100086159119.jpg", "thumb_width": 80, "title": "Stoke Road, Taunton, Somerset, TA1", "updated_in_days": 13, "updated_in_days_formatted": "first seen last week"}, {"bathroom_number": "", "bedroom_number": 4, "car_spaces": 0, "commission": 0, "construction_year": 0, "datasource_name": "OnTheMarket.com", "img_height": 300, "img_url": "https://imgs.nestimg.com/4_bedroom_terraced_house_for_sale_111613021115276029.jpg", "img_width": 400, "keywords": "Garden, Terraced, Victorian, Double Bedroom, Parking", "latitude": 51.1274, "lister_url": "https://www.nestoria.co.uk/detail/0000000111613021115276029/title/5/6-12?serpUid=&pt=1&ot=1&l=somerset&did=105_high1&t_sec=9&t_or=45&t_pvid=null&utm_source=api&utm_medium=external", "listing_type": "buy", "location_accuracy": 9, "longitude": -3.01476, "price": 267500, "price_currency": "\u00a3", "price_formatted": "\u00a3267,500", "price_high": 267500, "price_low": 267500, "price_type": "fixed", "property_type": "house", "size": 0, "size_type": "net", "summary": "An period property located with access to bridgwater town centre of...", "thumb_height": 60, "thumb_url": "https://imgs.nestimg.com/medium/4_bedroom_terraced_house_for_sale_111613021115276029.jpg", "thumb_width": 80, "title": "Wembdon Road, Bridgwater, Somerset, TA6 7", "updated_in_days": 19, "updated_in_days_formatted": "first seen 2 weeks ago"}, {"bathroom_number": "", "bedroom_number": 4, "car_spaces": 0, "commission": 0, "construction_year": 0, "datasource_name": "OnTheMarket.com", "img_height": 300, "img_url": "https://imgs.nestimg.com/4_bedroom_detached_house_for_sale_111266575792196816.jpg", "img_width": 400, "keywords": "Detached, Cottage", "latitude": 51.0732, "lister_name": "Greenslade Taylor Hunt", "lister_url": "https://www.nestoria.co.uk/detail/0000000111266575792196816/title/5/6-13?serpUid=&pt=1&ot=1&l=somerset&did=105_high1&t_sec=9&t_or=45&t_pvid=null&utm_source=api&utm_medium=external", "listing_type": "buy", "location_accuracy": 9, "longitude": -3.00227, "price": 365000, "price_currency": "\u00a3", "price_formatted": "\u00a3365,000", "price_high": 365000, "price_low": 365000, "price_type": "fixed", "property_type": "house", "size": 0, "size_type": "net", "summary": "A detached character cottage with separate annexe situated within a...", "thumb_height": 60, "thumb_url": "https://imgs.nestimg.com/medium/4_bedroom_detached_house_for_sale_111266575792196816.jpg", "thumb_width": 80, "title": "Maunsel Road, North Newton, Bridgwater, Somerset, TA7", "updated_in_days": 13, "updated_in_days_formatted": "first seen last week"}, {"bathroom_number": 2, "bedroom_number": 3, "car_spaces": 0, "commission": 0, "construction_year": 0, "datasource_name": "OnTheMarket.com", "img_height": 300, "img_url": "https://imgs.nestimg.com/3_bedroom_semi_detached_house_for_sale_111532307629202422.jpg", "img_width": 400, "keywords": "Semi-Detached, No Chain, Reception", "latitude": 51.0346, "lister_name": "Newton King", "lister_url": "https://www.nestoria.co.uk/detail/0000000111532307629202422/title/5/6-14?serpUid=&pt=1&ot=1&l=somerset&did=105_high1&t_sec=9&t_or=45&t_pvid=null&utm_source=api&utm_medium=external", "listing_type": "buy", "location_accuracy": 9, "longitude": -3.06905, "price": 275000, "price_currency": "\u00a3", "price_formatted": "\u00a3275,000", "price_high": 275000, "price_low": 275000, "price_type": "fixed", "property_type": "house", "size": 0, "size_type": "net", "summary": "3 bedroom semi detached family home situated in a great location wi...", "thumb_height": 60, "thumb_url": "https://imgs.nestimg.com/medium/3_bedroom_semi_detached_house_for_sale_111532307629202422.jpg", "thumb_width": 80, "title": "Yallands Hill, Monkton Heathfield, Taunton, Somerset", "updated_in_days": 32, "updated_in_days_formatted": "first seen over a month ago"}, {"bathroom_number": "", "bedroom_number": 4, "car_spaces": 0, "commission": 0, "construction_year": 0, "datasource_name": "OnTheMarket.com", "img_height": 300, "img_url": "https://imgs.nestimg.com/4_bedroom_terraced_house_for_sale_111631120817132625.jpg", "img_width": 400, "keywords": "Freehold, Garden, Terraced, Garage", "latitude": 51.130627, "lister_name": "Greenslade Taylor Hunt", "lister_url": "https://www.nestoria.co.uk/detail/0000000111631120817132625/title/5/6-15?serpUid=&pt=1&ot=1&l=somerset&did=105_high1&t_sec=9&t_or=45&t_pvid=null&utm_source=api&utm_medium=external", "listing_type": "buy", "location_accuracy": 9, "longitude": -3.0183945, "price": 215000, "price_currency": "\u00a3", "price_formatted": "\u00a3215,000", "price_high": 215000, "price_low": 215000, "price_type": "fixed", "property_type": "house", "size": 0, "size_type": "net", "summary": "A well presented four bed town house with a low maintenance garden,...", "thumb_height": 60, "thumb_url": "https://imgs.nestimg.com/medium/4_bedroom_terraced_house_for_sale_111631120817132625.jpg", "thumb_width": 80, "title": "Forester Close, Wembdon, Bridgwater, Somerset, TA6", "updated_in_days": 16, "updated_in_days_formatted": "first seen 2 weeks ago"}], "locations": [{"center_lat": 51.080967, "center_long": -3.045432, "long_title": "Somerset, county", "place_name": "somerset", "title": "Somerset"}], "page": 6, "sort": "nestoria_rank", "status_code": "200", "status_text": "OK", "thanks": "For using the Nestoria API.", "total_pages": 410, "total_results": 6149, "_cu5t0mP434m_": "remove"}}