{"request": {"country": "uk", "language": "en", "location": "somerset", "num_res": "15", "offset": 1035, "output": "json_xs", "page": 70, "product_type": "realestate", "property_type": "property", "size_type": "net", "size_unit": "m2", "sort": "nestoria_rank", "listing_type": "buy"}, "response": {"application_response_code": "100", "application_response_text": "listings returned for one unambiguous location", "attribution": {"img_height": 22, "img_url": "https://resources.nestimg.com/nestoria/img/pbr_v1.png", "img_width": 183, "link_to_img": "http://www.nestoria.com"}, "created_http": "Tue, 18 Jun 2019 17:30:21 GMT", "created_unix": 1560879021, "link_to_url": "https://www.nestoria.co.uk/somerset/property/buy/70", "listings": [{"bathroom_number": "", "bedroom_number": 4, "car_spaces": 0, "commission": 0, "construction_year": 0, "datasource_name": "OnTheMarket.com", "img_height": 300, "img_url": "https://imgs.nestimg.com/4_bedroom_property_with_land_for_sale_110265037014314761.jpg", "img_width": 400, "keywords": "Detached, Cottage", "latitude": 51.193317, "lister_name": "Knight Frank", "lister_url": "https://www.nestoria.co.uk/detail/0000000110265037014314761/title/5/70-1?serpUid=&pt=1&ot=1&l=somerset&did=105_high1&t_sec=9&t_or=45&t_pvid=null&utm_source=api&utm_medium=external", "listing_type": "buy", "location_accuracy": 9, "longitude": -2.519527, "price": 925000, "price_currency": "\u00a3", "price_formatted": "\u00a3925,000", "price_high": 925000, "price_low": 925000, "price_type": "fixed", "property_type": "house", "size": 0, "size_type": "net", "summary": "A detached 4 bedroom family home, in a peaceful rural location. For...", "thumb_height": 60, "thumb_url": "https://imgs.nestimg.com/medium/4_bedroom_property_with_land_for_sale_110265037014314761.jpg", "thumb_width": 80, "title": "Bodden, Shepton Mallet, Somerset, BA4", "updated_in_days": 114, "updated_in_days_formatted": "first seen over a month ago"}, {"bathroom_number": "", "bedroom_number": 4, "car_spaces": 0, "commission": 0, "construction_year": 0, "datasource_name": "NetHousePrices", "img_height": 300, "img_url": "https://imgs.nestimg.com/4_bedroom_end_of_terrace_house_111309420288541373.jpg", "img_width": 400, "keywords": "Garden, No Chain, Conservatory, Terraced, Garage, Kitchen", "latitude": 51.03199, "lister_name": "Palmer Snell", "lister_url": "https://www.nestoria.co.uk/detail/0000000111309420288541373/title/5/70-2?serpUid=&pt=1&ot=1&l=somerset&did=90_high1&t_sec=9&t_or=45&t_pvid=null&utm_source=api&utm_medium=external", "listing_type": "buy", "location_accuracy": 9, "longitude": -3.0898418, "price": 240000, "price_currency": "\u00a3", "price_formatted": "\u00a3240,000", "price_high": 240000, "price_low": 240000, "price_type": "fixed", "property_type": "house", "size": 0, "size_type": "net", "summary": "The property itself is a ly presented and , extended family home. T...", "thumb_height": 60, "thumb_url": "https://imgs.nestimg.com/medium/4_bedroom_end_of_terrace_house_111309420288541373.jpg", "thumb_width": 80, "title": "Blackmoor Road, Taunton, Somerset, TA2", "updated_in_days": 68, "updated_in_days_formatted": "first seen over a month ago"}, {"bathroom_number": "", "bedroom_number": "", "car_spaces": 0, "commission": 0, "construction_year": 0, "datasource_name": "NetHousePrices", "img_height": 300, "img_url": "https://imgs.nestimg.com/land_commercial_111482735238627035.jpg", "img_width": 400, "keywords": "", "latitude": 51.146233, "lister_name": "Greenslade Taylor Hunt", "lister_url": "https://www.nestoria.co.uk/detail/0000000111482735238627035/title/5/70-3?serpUid=&pt=1&ot=1&l=somerset&did=90_high1&t_sec=9&t_or=45&t_pvid=null&utm_source=api&utm_medium=external", "listing_type": "buy", "location_accuracy": 9, "longitude": -3.0352173, "price": 85000, "price_currency": "\u00a3", "price_formatted": "\u00a385,000", "price_high": 85000, "price_low": 85000, "price_type": "fixed", "property_type": "land", "size": 0, "size_type": "net", "summary": "8.91 acres of agricultural pasture land and red on the os plan)lot ...", "thumb_height": 60, "thumb_url": "https://imgs.nestimg.com/medium/land_commercial_111482735238627035.jpg", "thumb_width": 80, "title": "Perry Green, Wembdon, Bridgwater, Somerset, TA5", "updated_in_days": 40, "updated_in_days_formatted": "first seen over a month ago"}, {"bathroom_number": "", "bedroom_number": "", "car_spaces": 0, "commission": 0, "construction_year": 0, "datasource_name": "NetHousePrices", "img_height": 300, "img_url": "https://imgs.nestimg.com/land_commercial_111482736150581443.jpg", "img_width": 400, "keywords": "Garden", "latitude": 51.146233, "lister_name": "Greenslade Taylor Hunt", "lister_url": "https://www.nestoria.co.uk/detail/0000000111482736150581443/title/5/70-4?serpUid=&pt=1&ot=1&l=somerset&did=90_high1&t_sec=9&t_or=45&t_pvid=null&utm_source=api&utm_medium=external", "listing_type": "buy", "location_accuracy": 9, "longitude": -3.0352173, "price": 55000, "price_currency": "\u00a3", "price_formatted": "\u00a355,000", "price_high": 55000, "price_low": 55000, "price_type": "fixed", "property_type": "land", "size": 0, "size_type": "net", "summary": "1.89 acres of agricultural pasture land a level single parcel of pa...", "thumb_height": 60, "thumb_url": "https://imgs.nestimg.com/medium/land_commercial_111482736150581443.jpg", "thumb_width": 80, "title": "Perry Green, Wembdon, Bridgwater, Somerset, TA5", "updated_in_days": 40, "updated_in_days_formatted": "first seen over a month ago"}, {"bathroom_number": "", "bedroom_number": 2, "car_spaces": 0, "commission": 0, "construction_year": 0, "datasource_name": "NetHousePrices", "img_height": 300, "img_url": "https://imgs.nestimg.com/2_bedroom_semi_detached_house_111346626175372009.jpg", "img_width": 400, "keywords": "Garden, Semi-Detached, No Chain, Double Bedroom, Kitchen, Parking, Shared Ownership", "latitude": 51.127777, "lister_name": "Palmer Snellcountrywide", "lister_url": "https://www.nestoria.co.uk/detail/0000000111346626175372009/title/5/70-5?serpUid=&pt=1&ot=1&l=somerset&did=90_high1&t_sec=9&t_or=45&t_pvid=null&utm_source=api&utm_medium=external", "listing_type": "buy", "location_accuracy": 9, "longitude": -2.9885604, "price": 70000, "price_currency": "\u00a3", "price_formatted": "\u00a370,000", "price_high": 70000, "price_low": 70000, "price_type": "fixed", "property_type": "house", "size": 0, "size_type": "net", "summary": "Set in a private road this two bedroom home is now available with n...", "thumb_height": 60, "thumb_url": "https://imgs.nestimg.com/medium/2_bedroom_semi_detached_house_111346626175372009.jpg", "thumb_width": 80, "title": "Gooch Close, Bridgwater, Somerset, TA6", "updated_in_days": 62, "updated_in_days_formatted": "first seen over a month ago"}, {"bathroom_number": "", "bedroom_number": 4, "car_spaces": 0, "commission": 0, "construction_year": 0, "datasource_name": "NetHousePrices", "img_height": 300, "img_url": "https://imgs.nestimg.com/4_bedroom_semi_detached_house_111111787051040926.jpg", "img_width": 400, "keywords": "Garden, Semi-Detached, En suite, No Chain, Detached Garage, Double Bedroom, Kitchen", "latitude": 51.00425, "lister_name": "Palmer Snell", "lister_url": "https://www.nestoria.co.uk/detail/0000000111111787051040926/title/5/70-6?serpUid=&pt=1&ot=1&l=somerset&did=90_high1&t_sec=9&t_or=45&t_pvid=null&utm_source=api&utm_medium=external", "listing_type": "buy", "location_accuracy": 9, "longitude": -3.0850155, "price": 260000, "price_currency": "\u00a3", "price_formatted": "\u00a3260,000", "price_high": 260000, "price_low": 260000, "price_type": "fixed", "property_type": "house", "size": 0, "size_type": "net", "summary": "This four bedroom semi detached home offers family living over thre...", "thumb_height": 60, "thumb_url": "https://imgs.nestimg.com/medium/4_bedroom_semi_detached_house_111111787051040926.jpg", "thumb_width": 80, "title": "Stoke Road, Taunton, Somerset, TA1", "updated_in_days": 23, "updated_in_days_formatted": "first seen 3 weeks ago"}, {"bathroom_number": "", "bedroom_number": 2, "car_spaces": 0, "commission": 0, "construction_year": 0, "datasource_name": "NetHousePrices", "img_height": 300, "img_url": "https://imgs.nestimg.com/2_bedroom_detached_bungalow_111093395641363322.jpg", "img_width": 400, "keywords": "Detached, Conservatory, Detached Garage, Fireplace, Kitchen, Bungalow, Reception, Gas Central Heating", "latitude": 51.121464, "lister_name": "Express", "lister_url": "https://www.nestoria.co.uk/detail/0000000111093395641363322/title/5/70-7?serpUid=&pt=1&ot=1&l=somerset&did=90_high1&t_sec=9&t_or=45&t_pvid=null&utm_source=api&utm_medium=external", "listing_type": "buy", "location_accuracy": 9, "longitude": -2.9846249, "price": 199000, "price_currency": "\u00a3", "price_formatted": "\u00a3199,000", "price_high": 199000, "price_low": 199000, "price_type": "fixed", "property_type": "house", "size": 0, "size_type": "net", "summary": "Two bedroom detached bungalow all interest and offers are invited. ...", "thumb_height": 60, "thumb_url": "https://imgs.nestimg.com/medium/2_bedroom_detached_bungalow_111093395641363322.jpg", "thumb_width": 80, "title": "Norfolk Close, Bridgwater, Somerset, TA6", "updated_in_days": 87, "updated_in_days_formatted": "first seen over a month ago"}, {"bathroom_number": "", "bedroom_number": 3, "car_spaces": 0, "commission": 0, "construction_year": 0, "datasource_name": "NetHousePrices", "img_height": 300, "img_url": "https://imgs.nestimg.com/3_bedroom_semi_detached_house_111025206378058163.jpg", "img_width": 400, "keywords": "Garden, Semi-Detached, Dishwasher, Parking", "latitude": 51.028496, "lister_url": "https://www.nestoria.co.uk/detail/0000000111025206378058163/title/5/70-8?serpUid=&pt=1&ot=1&l=somerset&did=90_high1&t_sec=9&t_or=45&t_pvid=null&utm_source=api&utm_medium=external", "listing_type": "buy", "location_accuracy": 9, "longitude": -3.103806, "price": 235000, "price_currency": "\u00a3", "price_formatted": "\u00a3235,000", "price_high": 235000, "price_low": 235000, "price_type": "fixed", "property_type": "house", "size": 0, "size_type": "net", "summary": "A and well-presented three bedroom semi-detached family home set wi...", "thumb_height": 60, "thumb_url": "https://imgs.nestimg.com/medium/3_bedroom_semi_detached_house_111025206378058163.jpg", "thumb_width": 80, "title": "Rowbarton Close, Taunton, Somerset, TA2", "updated_in_days": 53, "updated_in_days_formatted": "first seen over a month ago"}, {"bathroom_number": "", "bedroom_number": 2, "car_spaces": 0, "commission": 0, "construction_year": 0, "datasource_name": "OnTheMarket.com", "img_height": 300, "img_url": "https://imgs.nestimg.com/2_bedroom_terraced_house_for_sale_109651668658553074.jpg", "img_width": 400, "keywords": "Freehold, Terraced, Cottage", "latitude": 51.2075, "lister_url": "https://www.nestoria.co.uk/detail/0000000109651668658553074/title/5/70-9?serpUid=&pt=1&ot=1&l=somerset&did=105_high1&t_sec=9&t_or=45&t_pvid=null&utm_source=api&utm_medium=external", "listing_type": "buy", "location_accuracy": 9, "longitude": -3.59625, "price": 219950, "price_currency": "\u00a3", "price_formatted": "\u00a3219,950", "price_high": 219950, "price_low": 219950, "price_type": "fixed", "property_type": "house", "size": 0, "size_type": "net", "summary": "A two bedroom end of terrace cottage situated in a convenient posit...", "thumb_height": 60, "thumb_url": "https://imgs.nestimg.com/medium/2_bedroom_terraced_house_for_sale_109651668658553074.jpg", "thumb_width": 80, "title": "Parsons Street, Porlock, Minehead, Somerset, TA24", "updated_in_days": 33, "updated_in_days_formatted": "first seen over a month ago"}, {"bathroom_number": "", "bedroom_number": 4, "car_spaces": 0, "commission": 0, "construction_year": 0, "datasource_name": "OnTheMarket.com", "img_height": 300, "img_url": "https://imgs.nestimg.com/5_bedroom_detached_house_for_sale_110047853807362427.jpg", "img_width": 400, "keywords": "Detached, No Chain, Cottage", "latitude": 51.227848, "lister_name": "Knight Frank", "lister_url": "https://www.nestoria.co.uk/detail/0000000110047853807362427/title/5/70-10?serpUid=&pt=1&ot=1&l=somerset&did=105_high1&t_sec=9&t_or=45&t_pvid=null&utm_source=api&utm_medium=external", "listing_type": "buy", "location_accuracy": 9, "longitude": -2.484868, "price": 700000, "price_currency": "\u00a3", "price_formatted": "\u00a3700,000", "price_high": 700000, "price_low": 700000, "price_type": "fixed", "property_type": "house", "size": 0, "size_type": "net", "summary": "Detached 4/5 bedroom family home with potential, land and an annexe...", "thumb_height": 60, "thumb_url": "https://imgs.nestimg.com/medium/5_bedroom_detached_house_for_sale_110047853807362427.jpg", "thumb_width": 80, "title": "Giddy Lane, Stoke St. Michael, Near Oakhill, Somerset, BA3", "updated_in_days": 24, "updated_in_days_formatted": "first seen 3 weeks ago"}, {"bathroom_number": "", "bedroom_number": 3, "car_spaces": 0, "commission": 0, "construction_year": 0, "datasource_name": "NetHousePrices", "img_height": 300, "img_url": "https://imgs.nestimg.com/3_bedroom_detached_house_111402719159226870.jpg", "img_width": 400, "keywords": "Detached, Garden, No Chain, Fireplace, Kitchen, Parking, Cottage, Gas Central Heating", "latitude": 51.020477, "lister_name": "Palmer Snell", "lister_url": "https://www.nestoria.co.uk/detail/0000000111402719159226870/title/5/70-11?serpUid=&pt=1&ot=1&l=somerset&did=90_high1&t_sec=9&t_or=45&t_pvid=null&utm_source=api&utm_medium=external", "listing_type": "buy", "location_accuracy": 9, "longitude": -2.9740288, "price": 210000, "price_currency": "\u00a3", "price_formatted": "\u00a3210,000", "price_high": 210000, "price_low": 210000, "price_type": "fixed", "property_type": "house", "size": 0, "size_type": "net", "summary": "Situated in the village of north curry, this three bedroom detached...", "thumb_height": 60, "thumb_url": "https://imgs.nestimg.com/medium/3_bedroom_detached_house_111402719159226870.jpg", "thumb_width": 80, "title": "Windmill Hill, North Curry, Taunton, Somerset, TA3", "updated_in_days": 34, "updated_in_days_formatted": "first seen over a month ago"}, {"bathroom_number": "", "bedroom_number": 3, "car_spaces": 0, "commission": 0, "construction_year": 0, "datasource_name": "NetHousePrices", "img_height": 300, "img_url": "https://imgs.nestimg.com/3_bedroom_house_111328678021530414.jpg", "img_width": 400, "keywords": "Garden, En suite, Terraced, Garage, Kitchen, Modern", "latitude": 51.139755, "lister_name": "Palmer Snellcountrywide", "lister_url": "https://www.nestoria.co.uk/detail/0000000111328678021530414/title/5/70-12?serpUid=&pt=1&ot=1&l=somerset&did=90_high1&t_sec=9&t_or=45&t_pvid=null&utm_source=api&utm_medium=external", "listing_type": "buy", "location_accuracy": 9, "longitude": -3.003425, "price": 195000, "price_currency": "\u00a3", "price_formatted": "\u00a3195,000", "price_high": 195000, "price_low": 195000, "price_type": "fixed", "property_type": "house", "size": 0, "size_type": "net", "summary": "Ly presented property situated in this modern development. Comprisi...", "thumb_height": 60, "thumb_url": "https://imgs.nestimg.com/medium/3_bedroom_house_111328678021530414.jpg", "thumb_width": 80, "title": "Standish Street, Bridgwater, Somerset, TA6", "updated_in_days": 65, "updated_in_days_formatted": "first seen over a month ago"}, {"bathroom_number": "", "bedroom_number": 3, "car_spaces": 0, "commission": 0, "construction_year": 0, "datasource_name": "NetHousePrices", "img_height": 300, "img_url": "https://imgs.nestimg.com/3_bedroom_terraced_house_111581649859046148.jpg", "img_width": 400, "keywords": "Garden, En suite, Terraced, Kitchen, Modern, Gas Central Heating", "latitude": 51.02535, "lister_name": "Palmer Snell", "lister_url": "https://www.nestoria.co.uk/detail/0000000111581649859046148/title/5/70-13?serpUid=&pt=1&ot=1&l=somerset&did=90_high1&t_sec=9&t_or=45&t_pvid=null&utm_source=api&utm_medium=external", "listing_type": "buy", "location_accuracy": 9, "longitude": -3.148619, "price": 230000, "price_currency": "\u00a3", "price_formatted": "\u00a3230,000", "price_high": 230000, "price_low": 230000, "price_type": "fixed", "property_type": "house", "size": 0, "size_type": "net", "summary": "Benefitting from gas central heating and double glazing, this three...", "thumb_height": 60, "thumb_url": "https://imgs.nestimg.com/medium/3_bedroom_terraced_house_111581649859046148.jpg", "thumb_width": 80, "title": "Morse Road, Norton Fitzwarren, Taunton, Somerset, TA2", "updated_in_days": 24, "updated_in_days_formatted": "first seen 3 weeks ago"}, {"bathroom_number": "", "bedroom_number": 2, "car_spaces": 0, "commission": 0, "construction_year": 0, "datasource_name": "NetHousePrices", "img_height": 300, "img_url": "https://imgs.nestimg.com/2_bedroom_terraced_house_111217086970683581.jpg", "img_width": 400, "keywords": "Garden, No Chain, Fireplace, Terraced, Victorian, Double Bedroom, Kitchen, Reception", "latitude": 51.015854, "lister_url": "https://www.nestoria.co.uk/detail/0000000111217086970683581/title/5/70-14?serpUid=&pt=1&ot=1&l=somerset&did=90_high1&t_sec=9&t_or=45&t_pvid=null&utm_source=api&utm_medium=external", "listing_type": "buy", "location_accuracy": 9, "longitude": -3.0882373, "price": 160000, "price_currency": "\u00a3", "price_formatted": "\u00a3160,000", "price_high": 160000, "price_low": 160000, "price_type": "fixed", "property_type": "house", "size": 0, "size_type": "net", "summary": "A well finished victorian terrace home within the centre of taunton...", "thumb_height": 60, "thumb_url": "https://imgs.nestimg.com/medium/2_bedroom_terraced_house_111217086970683581.jpg", "thumb_width": 80, "title": "Noble Street, Taunton, Somerset, TA1", "updated_in_days": 44, "updated_in_days_formatted": "first seen over a month ago"}, {"bathroom_number": "", "bedroom_number": 2, "car_spaces": 0, "commission": 0, "construction_year": 0, "datasource_name": "NetHousePrices", "img_height": 300, "img_url": "https://imgs.nestimg.com/2_bedroom_apartment_flat_111482735728380794.jpg", "img_width": 400, "keywords": "Freehold, Maisonette, Refurbished, Kitchen", "latitude": 51.01542, "lister_name": "Greenslade Taylor Hunt", "lister_url": "https://www.nestoria.co.uk/detail/0000000111482735728380794/title/5/70-15?serpUid=&pt=1&ot=1&l=somerset&did=90_high1&t_sec=9&t_or=45&t_pvid=null&utm_source=api&utm_medium=external", "listing_type": "buy", "location_accuracy": 9, "longitude": -3.0944571, "price": 195000, "price_currency": "\u00a3", "price_formatted": "\u00a3195,000", "price_high": 195000, "price_low": 195000, "price_type": "fixed", "property_type": "flat", "size": 0, "size_type": "net", "summary": "Prominent location fronting busy thoroughfare. Well maintained refu...", "thumb_height": 60, "thumb_url": "https://imgs.nestimg.com/medium/2_bedroom_apartment_flat_111482735728380794.jpg", "thumb_width": 80, "title": "East Reach, Taunton, Somerset, TA1", "updated_in_days": 40, "updated_in_days_formatted": "first seen over a month ago"}], "locations": [{"center_lat": 51.080967, "center_long": -3.045432, "long_title": "Somerset, county", "place_name": "somerset", "title": "Somerset"}], "page": 70, "sort": "nestoria_rank", "status_code": "200", "status_text": "OK", "thanks": "For using the Nestoria API.", "total_pages": 410, "total_results": 6149, "_cu5t0mP434m_": "remove"}}