{"request": {"country": "uk", "language": "en", "location": "somerset", "num_res": "15", "offset": 1050, "output": "json_xs", "page": 71, "product_type": "realestate", "property_type": "property", "size_type": "net", "size_unit": "m2", "sort": "nestoria_rank", "listing_type": "buy"}, "response": {"application_response_code": "100", "application_response_text": "listings returned for one unambiguous location", "attribution": {"img_height": 22, "img_url": "https://resources.nestimg.com/nestoria/img/pbr_v1.png", "img_width": 183, "link_to_img": "http://www.nestoria.com"}, "created_http": "Tue, 18 Jun 2019 17:30:23 GMT", "created_unix": 1560879023, "link_to_url": "https://www.nestoria.co.uk/somerset/property/buy/71", "listings": [{"bathroom_number": "", "bedroom_number": 3, "car_spaces": 0, "commission": 0, "construction_year": 0, "datasource_name": "NetHousePrices", "img_height": 300, "img_url": "https://imgs.nestimg.com/3_bedroom_detached_house_111624941247679440.jpg", "img_width": 400, "keywords": "Detached, Garden, Gym, Garage, Kitchen, Dishwasher, Modern, Patio", "latitude": 51.166836, "lister_name": "Palmer Snellcountrywide", "lister_url": "https://www.nestoria.co.uk/detail/0000000111624941247679440/title/5/71-1?serpUid=&pt=1&ot=1&l=somerset&did=90_high1&t_sec=9&t_or=45&t_pvid=null&utm_source=api&utm_medium=external", "listing_type": "buy", "location_accuracy": 9, "longitude": -2.966826, "price": 260000, "price_currency": "\u00a3", "price_formatted": "\u00a3260,000", "price_high": 260000, "price_low": 260000, "price_type": "fixed", "property_type": "house", "size": 0, "size_type": "net", "summary": "This three-bedroom home is cavity insulated and has been lovingly c...", "thumb_height": 60, "thumb_url": "https://imgs.nestimg.com/medium/3_bedroom_detached_house_111624941247679440.jpg", "thumb_width": 80, "title": "Puriton Park, Puriton, Bridgwater, Somerset, TA7", "updated_in_days": 17, "updated_in_days_formatted": "first seen 2 weeks ago"}, {"bathroom_number": 2, "bedroom_number": 3, "car_spaces": 0, "commission": 0, "construction_year": 0, "datasource_name": "NetHousePrices", "img_height": 300, "img_url": "https://imgs.nestimg.com/3_bedroom_semi_detached_house_111482737186182988.jpg", "img_width": 400, "keywords": "Garden, Semi-Detached, En suite, Grade II, Conversion, Double Bedroom, Kitchen, Reception, Listed", "latitude": 50.933514, "lister_name": "Greenslade Taylor Hunt", "lister_url": "https://www.nestoria.co.uk/detail/0000000111482737186182988/title/5/71-2?serpUid=&pt=1&ot=1&l=somerset&did=90_high1&t_sec=9&t_or=45&t_pvid=null&utm_source=api&utm_medium=external", "listing_type": "buy", "location_accuracy": 9, "longitude": -2.8416572, "price": 350000, "price_currency": "\u00a3", "price_formatted": "\u00a3350,000", "price_high": 350000, "price_low": 350000, "price_type": "fixed", "property_type": "house", "size": 0, "size_type": "net", "summary": "Horseshoes is situated in a central position within this developmen...", "thumb_height": 60, "thumb_url": "https://imgs.nestimg.com/medium/3_bedroom_semi_detached_house_111482737186182988.jpg", "thumb_width": 80, "title": "Seavington, Ilminster, Somerset, TA19", "updated_in_days": 5, "updated_in_days_formatted": "first seen 5 days ago"}, {"bathroom_number": "", "bedroom_number": 4, "car_spaces": 0, "commission": 0, "construction_year": 0, "datasource_name": "NetHousePrices", "img_height": 300, "img_url": "https://imgs.nestimg.com/4_bedroom_detached_house_111198381662709035.jpg", "img_width": 400, "keywords": "Detached, Garden, Kitchen, Modern", "latitude": 51.13984, "lister_name": "Palmer Snellcountrywide", "lister_url": "https://www.nestoria.co.uk/detail/0000000111198381662709035/title/5/71-3?serpUid=&pt=1&ot=1&l=somerset&did=90_high1&t_sec=9&t_or=45&t_pvid=null&utm_source=api&utm_medium=external", "listing_type": "buy", "location_accuracy": 9, "longitude": -3.0126607, "price": 300000, "price_currency": "\u00a3", "price_formatted": "\u00a3300,000", "price_high": 300000, "price_low": 300000, "price_type": "fixed", "property_type": "house", "size": 0, "size_type": "net", "summary": "Situated in modern development north east of bridgwater this 4 bedr...", "thumb_height": 60, "thumb_url": "https://imgs.nestimg.com/medium/4_bedroom_detached_house_111198381662709035.jpg", "thumb_width": 80, "title": "Halyard Drive, Bridgwater, Somerset, TA6", "updated_in_days": 86, "updated_in_days_formatted": "first seen over a month ago"}, {"bathroom_number": "", "bedroom_number": 4, "car_spaces": 0, "commission": 0, "construction_year": 0, "datasource_name": "NetHousePrices", "img_height": 300, "img_url": "https://imgs.nestimg.com/4_bedroom_semi_detached_house_111457857381221525.jpg", "img_width": 400, "keywords": "Garden, Semi-Detached, No Chain, Garage, Kitchen", "latitude": 51.13818, "lister_name": "Palmer Snellcountrywide", "lister_url": "https://www.nestoria.co.uk/detail/0000000111457857381221525/title/5/71-4?serpUid=&pt=1&ot=1&l=somerset&did=90_high1&t_sec=9&t_or=45&t_pvid=null&utm_source=api&utm_medium=external", "listing_type": "buy", "location_accuracy": 9, "longitude": -2.9750035, "price": 240000, "price_currency": "\u00a3", "price_formatted": "\u00a3240,000", "price_high": 240000, "price_low": 240000, "price_type": "fixed", "property_type": "house", "size": 0, "size_type": "net", "summary": "This four bedroom, semi detached property is the perfect family hom...", "thumb_height": 60, "thumb_url": "https://imgs.nestimg.com/medium/4_bedroom_semi_detached_house_111457857381221525.jpg", "thumb_width": 80, "title": "Withygrove Close, Bridgwater, Somerset, TA6", "updated_in_days": 44, "updated_in_days_formatted": "first seen over a month ago"}, {"bathroom_number": 2, "bedroom_number": 4, "car_spaces": 0, "commission": 0, "construction_year": 0, "datasource_name": "NetHousePrices", "img_height": 300, "img_url": "https://imgs.nestimg.com/4_bedroom_end_of_terrace_house_111662411024462361.jpg", "img_width": 400, "keywords": "Garden, En suite, No Chain, Fireplace, Terraced, Kitchen, Parking, Cottage, Reception", "latitude": 51.02238, "lister_name": "Palmer Snell", "lister_url": "https://www.nestoria.co.uk/detail/0000000111662411024462361/title/5/71-5?serpUid=&pt=1&ot=1&l=somerset&did=90_high1&t_sec=9&t_or=45&t_pvid=null&utm_source=api&utm_medium=external", "listing_type": "buy", "location_accuracy": 9, "longitude": -2.870969, "price": 290000, "price_currency": "\u00a3", "price_formatted": "\u00a3290,000", "price_high": 290000, "price_low": 290000, "price_type": "fixed", "property_type": "house", "size": 0, "size_type": "net", "summary": "Double fronted character cottage offering good size accommodation c...", "thumb_height": 60, "thumb_url": "https://imgs.nestimg.com/medium/4_bedroom_end_of_terrace_house_111662411024462361.jpg", "thumb_width": 80, "title": "High Street, Curry Rivel, Langport, Somerset, TA10", "updated_in_days": 11, "updated_in_days_formatted": "first seen last week"}, {"bathroom_number": "", "bedroom_number": 4, "car_spaces": 0, "commission": 0, "construction_year": 0, "datasource_name": "NetHousePrices", "img_height": 300, "img_url": "https://imgs.nestimg.com/4_bedroom_semi_detached_house_110981903693681995.jpg", "img_width": 400, "keywords": "Garden, Semi-Detached, No Chain, Garage, Kitchen", "latitude": 51.009968, "lister_url": "https://www.nestoria.co.uk/detail/0000000110981903693681995/title/5/71-6?serpUid=&pt=1&ot=1&l=somerset&did=90_high1&t_sec=9&t_or=45&t_pvid=null&utm_source=api&utm_medium=external", "listing_type": "buy", "location_accuracy": 9, "longitude": -3.0819702, "price": 260000, "price_currency": "\u00a3", "price_formatted": "\u00a3260,000", "price_high": 260000, "price_low": 260000, "price_type": "fixed", "property_type": "house", "size": 0, "size_type": "net", "summary": "Well presented and professionally extended four bedroom semi-detach...", "thumb_height": 60, "thumb_url": "https://imgs.nestimg.com/medium/4_bedroom_semi_detached_house_110981903693681995.jpg", "thumb_width": 80, "title": "Broughton Close, Taunton, Somerset, TA1", "updated_in_days": 41, "updated_in_days_formatted": "first seen over a month ago"}, {"bathroom_number": "", "bedroom_number": 2, "car_spaces": 0, "commission": 0, "construction_year": 0, "datasource_name": "NetHousePrices", "img_height": 300, "img_url": "https://imgs.nestimg.com/2_bedroom_end_of_terrace_house_111217086197132934.jpg", "img_width": 400, "keywords": "Detached, Garden, Conservatory, Detached Garage, Terraced, Double Bedroom, Kitchen", "latitude": 51.132755, "lister_name": "Palmer Snellcountrywide", "lister_url": "https://www.nestoria.co.uk/detail/0000000111217086197132934/title/5/71-7?serpUid=&pt=1&ot=1&l=somerset&did=90_high1&t_sec=9&t_or=45&t_pvid=null&utm_source=api&utm_medium=external", "listing_type": "buy", "location_accuracy": 9, "longitude": -2.982721, "price": 160000, "price_currency": "\u00a3", "price_formatted": "\u00a3160,000", "price_high": 160000, "price_low": 160000, "price_type": "fixed", "property_type": "house", "size": 0, "size_type": "net", "summary": "This is a free hold two bedroomed, end of terrace house with detach...", "thumb_height": 60, "thumb_url": "https://imgs.nestimg.com/medium/2_bedroom_end_of_terrace_house_111217086197132934.jpg", "thumb_width": 80, "title": "Parkway, Bridgwater, Somerset, TA6", "updated_in_days": 83, "updated_in_days_formatted": "first seen over a month ago"}, {"bathroom_number": 3, "bedroom_number": 3, "car_spaces": 0, "commission": 0, "construction_year": 0, "datasource_name": "Home.co.uk", "img_height": 300, "img_url": "https://imgs.nestimg.com/detached_house_111291675373478281.jpg", "img_width": 400, "keywords": "Detached, No Chain, Double Bedroom, Kitchen, Bungalow", "latitude": 51.148225, "lister_url": "https://www.nestoria.co.uk/detail/0000000111291675373478281/title/5/71-8?serpUid=&pt=1&ot=1&l=somerset&did=85_default&t_sec=9&t_or=45&t_pvid=null&utm_source=api&utm_medium=external", "listing_type": "buy", "location_accuracy": 10, "longitude": -3.058446, "price": 280000, "price_currency": "\u00a3", "price_formatted": "\u00a3280,000", "price_high": 280000, "price_low": 280000, "price_type": "fixed", "property_type": "house", "size": 0, "size_type": "net", "summary": "Located within the sought-after village of cannington is this detac...", "thumb_height": 60, "thumb_url": "https://imgs.nestimg.com/medium/detached_house_111291675373478281.jpg", "thumb_width": 80, "title": "Lonsdale Road, Cannington, Somerset", "updated_in_days": 71, "updated_in_days_formatted": "first seen over a month ago"}, {"bathroom_number": "", "bedroom_number": 2, "car_spaces": 0, "commission": 0, "construction_year": 0, "datasource_name": "NetHousePrices", "img_height": 300, "img_url": "https://imgs.nestimg.com/2_bedroom_end_of_terrace_house_111402711615081880.jpg", "img_width": 400, "keywords": "Garden, Fireplace, Terraced, Double Bedroom, Kitchen, Modern, Cottage, Reception", "latitude": 51.013607, "lister_url": "https://www.nestoria.co.uk/detail/0000000111402711615081880/title/5/71-9?serpUid=&pt=1&ot=1&l=somerset&did=90_high1&t_sec=9&t_or=45&t_pvid=null&utm_source=api&utm_medium=external", "listing_type": "buy", "location_accuracy": 9, "longitude": -3.0922332, "price": 170000, "price_currency": "\u00a3", "price_formatted": "\u00a3170,000", "price_high": 170000, "price_low": 170000, "price_type": "fixed", "property_type": "house", "size": 0, "size_type": "net", "summary": "Well presented period cottage located centrally to the town with tw...", "thumb_height": 60, "thumb_url": "https://imgs.nestimg.com/medium/2_bedroom_end_of_terrace_house_111402711615081880.jpg", "thumb_width": 80, "title": "South Street, Taunton, Somerset, TA1", "updated_in_days": 53, "updated_in_days_formatted": "first seen over a month ago"}, {"bathroom_number": "", "bedroom_number": 3, "car_spaces": 0, "commission": 0, "construction_year": 0, "datasource_name": "NetHousePrices", "img_height": 300, "img_url": "https://imgs.nestimg.com/3_bedroom_end_of_terrace_house_111229455854802555.jpg", "img_width": 400, "keywords": "Garden, En suite, Terraced, Double Bedroom, Kitchen, Modern, Parking, Reception", "latitude": 51.02535, "lister_name": "Palmer Snell", "lister_url": "https://www.nestoria.co.uk/detail/0000000111229455854802555/title/5/71-10?serpUid=&pt=1&ot=1&l=somerset&did=90_high1&t_sec=9&t_or=45&t_pvid=null&utm_source=api&utm_medium=external", "listing_type": "buy", "location_accuracy": 9, "longitude": -3.148619, "price": 235000, "price_currency": "\u00a3", "price_formatted": "\u00a3235,000", "price_high": 235000, "price_low": 235000, "price_type": "fixed", "property_type": "house", "size": 0, "size_type": "net", "summary": "Extended and improved by the current owners, this three double bedr...", "thumb_height": 60, "thumb_url": "https://imgs.nestimg.com/medium/3_bedroom_end_of_terrace_house_111229455854802555.jpg", "thumb_width": 80, "title": "Morse Road, Norton Fitzwarren, Taunton, Somerset, TA2", "updated_in_days": 30, "updated_in_days_formatted": "first seen over a month ago"}, {"bathroom_number": "", "bedroom_number": 3, "car_spaces": 0, "commission": 0, "construction_year": 0, "datasource_name": "OnTheMarket.com", "img_height": 300, "img_url": "https://imgs.nestimg.com/4_bedroom_detached_house_for_sale_110177968561169238.jpg", "img_width": 400, "keywords": "Detached, Grade II, Conversion, Listed", "latitude": 51.2506, "lister_url": "https://www.nestoria.co.uk/detail/0000000110177968561169238/title/5/71-11?serpUid=&pt=1&ot=1&l=somerset&did=105_high1&t_sec=9&t_or=45&t_pvid=null&utm_source=api&utm_medium=external", "listing_type": "buy", "location_accuracy": 9, "longitude": -2.51655, "price": 599950, "price_currency": "\u00a3", "price_formatted": "\u00a3599,950", "price_high": 599950, "price_low": 599950, "price_type": "fixed", "property_type": "house", "size": 0, "size_type": "net", "summary": "A grade ii listed three bedroom former church well converted in 200...", "thumb_height": 60, "thumb_url": "https://imgs.nestimg.com/medium/4_bedroom_detached_house_for_sale_110177968561169238.jpg", "thumb_width": 80, "title": "Stockhill Road, Chilcompton, Somerset, BA3", "updated_in_days": 105, "updated_in_days_formatted": "first seen over a month ago"}, {"bathroom_number": "", "bedroom_number": 3, "car_spaces": 0, "commission": 0, "construction_year": 0, "datasource_name": "NetHousePrices", "img_height": 300, "img_url": "https://imgs.nestimg.com/3_bedroom_terraced_house_111266389921805886.jpg", "img_width": 400, "keywords": "Garden, No Chain, Terraced, Kitchen, Parking", "latitude": 51.01368, "lister_name": "Palmer Snell", "lister_url": "https://www.nestoria.co.uk/detail/0000000111266389921805886/title/5/71-12?serpUid=&pt=1&ot=1&l=somerset&did=90_high1&t_sec=9&t_or=45&t_pvid=null&utm_source=api&utm_medium=external", "listing_type": "buy", "location_accuracy": 9, "longitude": -3.0726624, "price": 175000, "price_currency": "\u00a3", "price_formatted": "\u00a3175,000", "price_high": 175000, "price_low": 175000, "price_type": "fixed", "property_type": "house", "size": 0, "size_type": "net", "summary": "Offered to the market with no onward chain, this well presented hom...", "thumb_height": 60, "thumb_url": "https://imgs.nestimg.com/medium/3_bedroom_terraced_house_111266389921805886.jpg", "thumb_width": 80, "title": "Amber Mead, Taunton, Somerset, TA1", "updated_in_days": 75, "updated_in_days_formatted": "first seen over a month ago"}, {"bathroom_number": "", "bedroom_number": 4, "car_spaces": 0, "commission": 0, "construction_year": 0, "datasource_name": "NetHousePrices", "img_height": 300, "img_url": "https://imgs.nestimg.com/4_bedroom_terraced_house_111427244534322456.jpg", "img_width": 400, "keywords": "Garden, Double Garage, Fireplace, Refurbished, Terraced, Wood Floor, Kitchen, Dishwasher, Reception", "latitude": 51.01133, "lister_url": "https://www.nestoria.co.uk/detail/0000000111427244534322456/title/5/71-13?serpUid=&pt=1&ot=1&l=somerset&did=90_high1&t_sec=9&t_or=45&t_pvid=null&utm_source=api&utm_medium=external", "listing_type": "buy", "location_accuracy": 9, "longitude": -3.0941186, "price": 400000, "price_currency": "\u00a3", "price_formatted": "\u00a3400,000", "price_high": 400000, "price_low": 400000, "price_type": "fixed", "property_type": "house", "size": 0, "size_type": "net", "summary": "Four bedroom period property within this highly favoured central lo...", "thumb_height": 60, "thumb_url": "https://imgs.nestimg.com/medium/4_bedroom_terraced_house_111427244534322456.jpg", "thumb_width": 80, "title": "South Road, Taunton, Somerset, TA1", "updated_in_days": 49, "updated_in_days_formatted": "first seen over a month ago"}, {"bathroom_number": "", "bedroom_number": 2, "car_spaces": 0, "commission": 0, "construction_year": 0, "datasource_name": "NetHousePrices", "img_height": 300, "img_url": "https://imgs.nestimg.com/2_bedroom_terraced_house_111111783319513054.jpg", "img_width": 400, "keywords": "Garden, Fireplace, Terraced, Kitchen, Cottage, Gas Central Heating", "latitude": 51.013607, "lister_name": "Palmer Snell", "lister_url": "https://www.nestoria.co.uk/detail/0000000111111783319513054/title/5/71-14?serpUid=&pt=1&ot=1&l=somerset&did=90_high1&t_sec=9&t_or=45&t_pvid=null&utm_source=api&utm_medium=external", "listing_type": "buy", "location_accuracy": 9, "longitude": -3.0922332, "price": 150000, "price_currency": "\u00a3", "price_formatted": "\u00a3150,000", "price_high": 150000, "price_low": 150000, "price_type": "fixed", "property_type": "house", "size": 0, "size_type": "net", "summary": "This character filled two bedroom cottage offers warm and homely ac...", "thumb_height": 60, "thumb_url": "https://imgs.nestimg.com/medium/2_bedroom_terraced_house_111111783319513054.jpg", "thumb_width": 80, "title": "South Street, Taunton, Somerset, TA1", "updated_in_days": 59, "updated_in_days_formatted": "first seen over a month ago"}, {"bathroom_number": 2, "bedroom_number": 3, "car_spaces": 0, "commission": 0, "construction_year": 0, "datasource_name": "NetHousePrices", "img_height": 300, "img_url": "https://imgs.nestimg.com/3_bedroom_semi_detached_house_111711473490343414.jpg", "img_width": 400, "keywords": "Garden, Semi-Detached, Double Bedroom, Garage, Kitchen", "latitude": 51.21228, "lister_name": "Palmer Snell", "lister_url": "https://www.nestoria.co.uk/detail/0000000111711473490343414/title/5/71-15?serpUid=&pt=1&ot=1&l=somerset&did=90_high1&t_sec=9&t_or=45&t_pvid=null&utm_source=api&utm_medium=external", "listing_type": "buy", "location_accuracy": 9, "longitude": -2.6606884, "price": 275000, "price_currency": "\u00a3", "price_formatted": "\u00a3275,000", "price_high": 275000, "price_low": 275000, "price_type": "fixed", "property_type": "house", "size": 0, "size_type": "net", "summary": "Three bedroom semi-detached home with solar panels and a large sout...", "thumb_height": 60, "thumb_url": "https://imgs.nestimg.com/medium/3_bedroom_semi_detached_house_111711473490343414.jpg", "thumb_width": 80, "title": "Mount Pleasant Avenue, Wells, Somerset, BA5", "updated_in_days": 3, "updated_in_days_formatted": "first seen 3 days ago"}], "locations": [{"center_lat": 51.080967, "center_long": -3.045432, "long_title": "Somerset, county", "place_name": "somerset", "title": "Somerset"}], "page": 71, "sort": "nestoria_rank", "status_code": "200", "status_text": "OK", "thanks": "For using the Nestoria API.", "total_pages": 410, "total_results": 6149, "_cu5t0mP434m_": "remove"}}