{"request": {"country": "uk", "language": "en", "location": "somerset", "num_res": "15", "offset": 1065, "output": "json_xs", "page": 72, "product_type": "realestate", "property_type": "property", "size_type": "net", "size_unit": "m2", "sort": "nestoria_rank", "listing_type": "buy"}, "response": {"application_response_code": "100", "application_response_text": "listings returned for one unambiguous location", "attribution": {"img_height": 22, "img_url": "https://resources.nestimg.com/nestoria/img/pbr_v1.png", "img_width": 183, "link_to_img": "http://www.nestoria.com"}, "created_http": "Tue, 18 Jun 2019 17:30:25 GMT", "created_unix": 1560879025, "link_to_url": "https://www.nestoria.co.uk/somerset/property/buy/72", "listings": [{"bathroom_number": "", "bedroom_number": 3, "car_spaces": 0, "commission": 0, "construction_year": 0, "datasource_name": "OnTheMarket.com", "img_height": 300, "img_url": "https://imgs.nestimg.com/3_bedroom_semi_detached_house_for_sale_110437946510338268.jpg", "img_width": 400, "keywords": "Garden, Semi-Detached, New Build, Conversion, Cottage", "latitude": 50.9988, "lister_name": "Greenslade Taylor Hunt", "lister_url": "https://www.nestoria.co.uk/detail/0000000110437946510338268/title/5/72-1?serpUid=&pt=1&ot=1&l=somerset&did=105_high1&t_sec=9&t_or=45&t_pvid=null&utm_source=api&utm_medium=external", "listing_type": "buy", "location_accuracy": 9, "longitude": -2.41714, "price": 270000, "price_currency": "\u00a3", "price_formatted": "\u00a3270,000", "price_high": 270000, "price_low": 270000, "price_type": "fixed", "property_type": "house", "size": 0, "size_type": "net", "summary": "A 3 bedroom house with views and garden, forming part of an develop...", "thumb_height": 60, "thumb_url": "https://imgs.nestimg.com/medium/3_bedroom_semi_detached_house_for_sale_110437946510338268.jpg", "thumb_width": 80, "title": "Park Farm Court, Templecombe, Somerset, BA8", "updated_in_days": 39, "updated_in_days_formatted": "first seen over a month ago"}, {"bathroom_number": "", "bedroom_number": 4, "car_spaces": 0, "commission": 0, "construction_year": 0, "datasource_name": "OnTheMarket.com", "img_height": 300, "img_url": "https://imgs.nestimg.com/4_bedroom_semi_detached_house_for_sale_111724136371914109.jpg", "img_width": 400, "keywords": "Garden, Semi-Detached, Garage, Cottage", "latitude": 51.0397, "lister_name": "Gibbins Richards", "lister_url": "https://www.nestoria.co.uk/detail/0000000111724136371914109/title/5/72-2?serpUid=&pt=1&ot=1&l=somerset&did=105_high1&t_sec=9&t_or=45&t_pvid=null&utm_source=api&utm_medium=external", "listing_type": "buy", "location_accuracy": 9, "longitude": -2.93, "price": 375000, "price_currency": "\u00a3", "price_formatted": "\u00a3375,000", "price_high": 375000, "price_low": 375000, "price_type": "fixed", "property_type": "house", "size": 0, "size_type": "net", "summary": "A large and well maintained semi detached period village home with ...", "thumb_height": 60, "thumb_url": "https://imgs.nestimg.com/medium/4_bedroom_semi_detached_house_for_sale_111724136371914109.jpg", "thumb_width": 80, "title": "STOKE ST GREGORY - Semi-Detached", "updated_in_days": 1, "updated_in_days_formatted": "New"}, {"bathroom_number": "", "bedroom_number": 2, "car_spaces": 0, "commission": 0, "construction_year": 0, "datasource_name": "NetHousePrices", "img_height": 300, "img_url": "https://imgs.nestimg.com/2_bedroom_flat_111711490424663287.jpg", "img_width": 400, "keywords": "Shared Garden, Kitchen, Modern, Parking, Reception, Gas Central Heating", "latitude": 51.35569, "lister_name": "Express", "lister_url": "https://www.nestoria.co.uk/detail/0000000111711490424663287/title/5/72-3?serpUid=&pt=1&ot=1&l=somerset&did=90_high1&t_sec=9&t_or=45&t_pvid=null&utm_source=api&utm_medium=external", "listing_type": "buy", "location_accuracy": 9, "longitude": -2.9910612, "price": 110000, "price_currency": "\u00a3", "price_formatted": "\u00a3110,000", "price_high": 110000, "price_low": 110000, "price_type": "fixed", "property_type": "flat", "size": 0, "size_type": "net", "summary": "Two bedroom second floor flat with sea views all interest and offer...", "thumb_height": 60, "thumb_url": "https://imgs.nestimg.com/medium/2_bedroom_flat_111711490424663287.jpg", "thumb_width": 80, "title": "South Road, Weston-super-mare, Somerset, BS23", "updated_in_days": 3, "updated_in_days_formatted": "first seen 3 days ago"}, {"bathroom_number": "", "bedroom_number": 2, "car_spaces": 0, "commission": 0, "construction_year": 0, "datasource_name": "NetHousePrices", "img_height": 300, "img_url": "https://imgs.nestimg.com/2_bedroom_semi_detached_house_111111786757899608.jpg", "img_width": 400, "keywords": "Garden, Semi-Detached, No Chain, Double Bedroom, Garage, Kitchen", "latitude": 51.02642, "lister_name": "Palmer Snell", "lister_url": "https://www.nestoria.co.uk/detail/0000000111111786757899608/title/5/72-4?serpUid=&pt=1&ot=1&l=somerset&did=90_high1&t_sec=9&t_or=45&t_pvid=null&utm_source=api&utm_medium=external", "listing_type": "buy", "location_accuracy": 9, "longitude": -3.1236057, "price": 180000, "price_currency": "\u00a3", "price_formatted": "\u00a3180,000", "price_high": 180000, "price_low": 180000, "price_type": "fixed", "property_type": "house", "size": 0, "size_type": "net", "summary": "This two double bedroom semi detached home is set in an sub urban l...", "thumb_height": 60, "thumb_url": "https://imgs.nestimg.com/medium/2_bedroom_semi_detached_house_111111786757899608.jpg", "thumb_width": 80, "title": "Scott Close, Taunton, Somerset, TA2", "updated_in_days": 100, "updated_in_days_formatted": "first seen over a month ago"}, {"bathroom_number": "", "bedroom_number": 3, "car_spaces": 0, "commission": 0, "construction_year": 0, "datasource_name": "NetHousePrices", "img_height": 300, "img_url": "https://imgs.nestimg.com/3_bedroom_bungalow_111693366957902668.jpg", "img_width": 400, "keywords": "Detached, Garden, Conservatory, Fireplace, Double Bedroom, Garage, Kitchen, Bungalow, Reception", "latitude": 51.053963, "lister_name": "Palmer Snell", "lister_url": "https://www.nestoria.co.uk/detail/0000000111693366957902668/title/5/72-5?serpUid=&pt=1&ot=1&l=somerset&did=90_high1&t_sec=9&t_or=45&t_pvid=null&utm_source=api&utm_medium=external", "listing_type": "buy", "location_accuracy": 9, "longitude": -2.7499442, "price": 350000, "price_currency": "\u00a3", "price_formatted": "\u00a3350,000", "price_high": 350000, "price_low": 350000, "price_type": "fixed", "property_type": "house", "size": 0, "size_type": "net", "summary": "A detached chalet bungalow offering good size accommodation and sur...", "thumb_height": 60, "thumb_url": "https://imgs.nestimg.com/medium/3_bedroom_bungalow_111693366957902668.jpg", "thumb_width": 80, "title": "Langport Road, Somerton, Somerset, TA11", "updated_in_days": 6, "updated_in_days_formatted": "first seen 6 days ago"}, {"bathroom_number": "", "bedroom_number": 3, "car_spaces": 0, "commission": 0, "construction_year": 0, "datasource_name": "NetHousePrices", "img_height": 300, "img_url": "https://imgs.nestimg.com/3_bedroom_semi_detached_house_111056611439113615.jpg", "img_width": 400, "keywords": "Garden, Semi-Detached, No Chain, Conservatory, Garage, Modern", "latitude": 51.021152, "lister_url": "https://www.nestoria.co.uk/detail/0000000111056611439113615/title/5/72-6?serpUid=&pt=1&ot=1&l=somerset&did=90_high1&t_sec=9&t_or=45&t_pvid=null&utm_source=api&utm_medium=external", "listing_type": "buy", "location_accuracy": 9, "longitude": -3.116877, "price": 220000, "price_currency": "\u00a3", "price_formatted": "\u00a3220,000", "price_high": 220000, "price_low": 220000, "price_type": "fixed", "property_type": "house", "size": 0, "size_type": "net", "summary": "Ly positioned three bedroom semi-detached modern home enjoying view...", "thumb_height": 60, "thumb_url": "https://imgs.nestimg.com/medium/3_bedroom_semi_detached_house_111056611439113615.jpg", "thumb_width": 80, "title": "Roughmoor Close, Taunton, Somerset, TA1", "updated_in_days": 109, "updated_in_days_formatted": "first seen over a month ago"}, {"bathroom_number": "", "bedroom_number": 3, "car_spaces": 0, "commission": 0, "construction_year": 0, "datasource_name": "NetHousePrices", "img_height": 300, "img_url": "https://imgs.nestimg.com/3_bedroom_bungalow_111154988230085156.jpg", "img_width": 400, "keywords": "Detached, Garden, No Chain, Double Bedroom, Garage, Kitchen, Bungalow", "latitude": 51.008373, "lister_name": "Palmer Snell", "lister_url": "https://www.nestoria.co.uk/detail/0000000111154988230085156/title/5/72-7?serpUid=&pt=1&ot=1&l=somerset&did=90_high1&t_sec=9&t_or=45&t_pvid=null&utm_source=api&utm_medium=external", "listing_type": "buy", "location_accuracy": 9, "longitude": -3.1128783, "price": 375000, "price_currency": "\u00a3", "price_formatted": "\u00a3375,000", "price_high": 375000, "price_low": 375000, "price_type": "fixed", "property_type": "house", "size": 0, "size_type": "net", "summary": "Boasting a high standard of specification and a favourable position...", "thumb_height": 60, "thumb_url": "https://imgs.nestimg.com/medium/3_bedroom_bungalow_111154988230085156.jpg", "thumb_width": 80, "title": "Angela Close, Taunton, Somerset, TA1", "updated_in_days": 56, "updated_in_days_formatted": "first seen over a month ago"}, {"bathroom_number": "", "bedroom_number": 2, "car_spaces": 0, "commission": 0, "construction_year": 0, "datasource_name": "NetHousePrices", "img_height": 300, "img_url": "https://imgs.nestimg.com/2_bedroom_bungalow_111711475532809690.jpg", "img_width": 400, "keywords": "Garden, Needs Modernisation, Semi-Detached, Fireplace, Garage, Kitchen, Bungalow, Patio, Gas Central Heating", "latitude": 50.952854, "lister_name": "Palmer Snell", "lister_url": "https://www.nestoria.co.uk/detail/0000000111711475532809690/title/5/72-8?serpUid=&pt=1&ot=1&l=somerset&did=90_high1&t_sec=9&t_or=45&t_pvid=null&utm_source=api&utm_medium=external", "listing_type": "buy", "location_accuracy": 9, "longitude": -2.647549, "price": 175000, "price_currency": "\u00a3", "price_formatted": "\u00a3175,000", "price_high": 175000, "price_low": 175000, "price_type": "fixed", "property_type": "house", "size": 0, "size_type": "net", "summary": "This semi detached bungalow is in need of updating and offers a goo...", "thumb_height": 60, "thumb_url": "https://imgs.nestimg.com/medium/2_bedroom_bungalow_111711475532809690.jpg", "thumb_width": 80, "title": "Thatcham Park, Yeovil, Somerset, BA21", "updated_in_days": 3, "updated_in_days_formatted": "first seen 3 days ago"}, {"bathroom_number": "", "bedroom_number": 3, "car_spaces": 0, "commission": 0, "construction_year": 0, "datasource_name": "NetHousePrices", "img_height": 300, "img_url": "https://imgs.nestimg.com/3_bedroom_end_of_terrace_house_111544464202301233.jpg", "img_width": 400, "keywords": "Garden, Conservatory, Terraced, Kitchen, Modern, Parking", "latitude": 51.03851, "lister_url": "https://www.nestoria.co.uk/detail/0000000111544464202301233/title/5/72-9?serpUid=&pt=1&ot=1&l=somerset&did=90_high1&t_sec=9&t_or=45&t_pvid=null&utm_source=api&utm_medium=external", "listing_type": "buy", "location_accuracy": 9, "longitude": -3.184902, "price": 215000, "price_currency": "\u00a3", "price_formatted": "\u00a3215,000", "price_high": 215000, "price_low": 215000, "price_type": "fixed", "property_type": "house", "size": 0, "size_type": "net", "summary": "A well appointed and ly presented three bedroom family home with co...", "thumb_height": 60, "thumb_url": "https://imgs.nestimg.com/medium/3_bedroom_end_of_terrace_house_111544464202301233.jpg", "thumb_width": 80, "title": "Nichol Place, Cotford St. Luke, Taunton, Somerset, TA4", "updated_in_days": 30, "updated_in_days_formatted": "first seen over a month ago"}, {"bathroom_number": "", "bedroom_number": 3, "car_spaces": 0, "commission": 0, "construction_year": 0, "datasource_name": "NetHousePrices", "img_height": 300, "img_url": "https://imgs.nestimg.com/3_bedroom_semi_detached_house_111717648551659506.jpg", "img_width": 400, "keywords": "Garden, Semi-Detached, No Chain, Fireplace, Double Bedroom, Garage, Kitchen, Cottage", "latitude": 51.151775, "lister_name": "Palmer Snell", "lister_url": "https://www.nestoria.co.uk/detail/0000000111717648551659506/title/5/72-10?serpUid=&pt=1&ot=1&l=somerset&did=90_high1&t_sec=9&t_or=45&t_pvid=null&utm_source=api&utm_medium=external", "listing_type": "buy", "location_accuracy": 9, "longitude": -2.4918268, "price": 400000, "price_currency": "\u00a3", "price_formatted": "\u00a3400,000", "price_high": 400000, "price_low": 400000, "price_type": "fixed", "property_type": "house", "size": 0, "size_type": "net", "summary": "A three bedroom cottage situated in the village of stoney stratton....", "thumb_height": 60, "thumb_url": "https://imgs.nestimg.com/medium/3_bedroom_semi_detached_house_111717648551659506.jpg", "thumb_width": 80, "title": "Back Lane, Stoney Stratton, Shepton Mallet, Somerset, BA4", "updated_in_days": 2, "updated_in_days_formatted": "first seen 2 days ago"}, {"bathroom_number": "", "bedroom_number": 4, "car_spaces": 0, "commission": 0, "construction_year": 0, "datasource_name": "OnTheMarket.com", "img_height": 300, "img_url": "https://imgs.nestimg.com/4_bedroom_detached_house_for_sale_111724139140722373.jpg", "img_width": 400, "keywords": "Detached, Modern", "latitude": 51.0289, "lister_name": "Webbers", "lister_url": "https://www.nestoria.co.uk/detail/0000000111724139140722373/title/5/72-11?serpUid=&pt=1&ot=1&l=somerset&did=105_high1&t_sec=9&t_or=45&t_pvid=null&utm_source=api&utm_medium=external", "listing_type": "buy", "location_accuracy": 9, "longitude": -3.04632, "price": 300000, "price_currency": "\u00a3", "price_formatted": "\u00a3300,000", "price_high": 300000, "price_low": 300000, "price_type": "fixed", "property_type": "house", "size": 0, "size_type": "net", "summary": "A modern four bedroom detached home located in the village of creec...", "thumb_height": 60, "thumb_url": "https://imgs.nestimg.com/medium/4_bedroom_detached_house_for_sale_111724139140722373.jpg", "thumb_width": 80, "title": "Meredith Close, Creech St. Michael", "updated_in_days": 1, "updated_in_days_formatted": "New"}, {"bathroom_number": "", "bedroom_number": 5, "car_spaces": 0, "commission": 0, "construction_year": 0, "datasource_name": "OnTheMarket.com", "img_height": 300, "img_url": "https://imgs.nestimg.com/8_bedroom_detached_house_for_sale_110184703880172476.jpg", "img_width": 400, "keywords": "Detached, Garden, Cottage, Listed", "latitude": 51.365494, "lister_name": "Knight Frank", "lister_url": "https://www.nestoria.co.uk/detail/0000000110184703880172476/title/5/72-12?serpUid=&pt=1&ot=1&l=somerset&did=105_high1&t_sec=9&t_or=45&t_pvid=null&utm_source=api&utm_medium=external", "listing_type": "buy", "location_accuracy": 9, "longitude": -2.616544, "price": 1750000, "price_currency": "\u00a3", "price_formatted": "\u00a31,750,000", "price_high": 1750000, "price_low": 1750000, "price_type": "fixed", "property_type": "house", "size": 0, "size_type": "net", "summary": "A listed village home with separate two bed cottage for sale in che...", "thumb_height": 60, "thumb_url": "https://imgs.nestimg.com/medium/8_bedroom_detached_house_for_sale_110184703880172476.jpg", "thumb_width": 80, "title": "High Street, Chew Magna, Bristol, Somerset, BS40", "updated_in_days": 110, "updated_in_days_formatted": "first seen over a month ago"}, {"bathroom_number": "", "bedroom_number": 4, "car_spaces": 0, "commission": 0, "construction_year": 0, "datasource_name": "OnTheMarket.com", "img_height": 300, "img_url": "https://imgs.nestimg.com/4_bedroom_terraced_house_for_sale_110177968453547174.jpg", "img_width": 400, "keywords": "Terraced, Victorian", "latitude": 51.2075, "lister_url": "https://www.nestoria.co.uk/detail/0000000110177968453547174/title/5/72-13?serpUid=&pt=1&ot=1&l=somerset&did=105_high1&t_sec=9&t_or=45&t_pvid=null&utm_source=api&utm_medium=external", "listing_type": "buy", "location_accuracy": 9, "longitude": -3.59625, "price": 260000, "price_currency": "\u00a3", "price_formatted": "\u00a3260,000", "price_high": 260000, "price_low": 260000, "price_type": "fixed", "property_type": "house", "size": 0, "size_type": "net", "summary": "A well maintained four bedroom late victorian end of terrace town h...", "thumb_height": 60, "thumb_url": "https://imgs.nestimg.com/medium/4_bedroom_terraced_house_for_sale_110177968453547174.jpg", "thumb_width": 80, "title": "Parsons Street, Porlock, Minehead, Somerset, TA24", "updated_in_days": 109, "updated_in_days_formatted": "first seen over a month ago"}, {"bathroom_number": "", "bedroom_number": 3, "car_spaces": 0, "commission": 0, "construction_year": 0, "datasource_name": "NetHousePrices", "img_height": 300, "img_url": "https://imgs.nestimg.com/3_bedroom_detached_house_111489607411619419.jpg", "img_width": 400, "keywords": "Detached, En suite, Grade II, Conversion, Fireplace, Kitchen, Dishwasher, Modern, Reception, Listed", "latitude": 51.070175, "lister_name": "Express", "lister_url": "https://www.nestoria.co.uk/detail/0000000111489607411619419/title/5/72-14?serpUid=&pt=1&ot=1&l=somerset&did=90_high1&t_sec=9&t_or=45&t_pvid=null&utm_source=api&utm_medium=external", "listing_type": "buy", "location_accuracy": 9, "longitude": -2.8885224, "price": 450000, "price_currency": "\u00a3", "price_formatted": "\u00a3450,000", "price_high": 450000, "price_low": 450000, "price_type": "fixed", "property_type": "house", "size": 0, "size_type": "net", "summary": "Realistically priced opportunity all interest and offers are invite...", "thumb_height": 60, "thumb_url": "https://imgs.nestimg.com/medium/3_bedroom_detached_house_111489607411619419.jpg", "thumb_width": 80, "title": "Pathe, Othery, Bridgwater, Somerset, TA7", "updated_in_days": 39, "updated_in_days_formatted": "first seen over a month ago"}, {"bathroom_number": "", "bedroom_number": 5, "car_spaces": 0, "commission": 0, "construction_year": 0, "datasource_name": "NetHousePrices", "img_height": 300, "img_url": "https://imgs.nestimg.com/5_bedroom_property_111550883024724616.jpg", "img_width": 400, "keywords": "Detached, Garden, Conversion", "latitude": 51.187424, "lister_url": "https://www.nestoria.co.uk/detail/0000000111550883024724616/title/5/72-15?serpUid=&pt=1&ot=1&l=somerset&did=90_high1&t_sec=9&t_or=45&t_pvid=null&utm_source=api&utm_medium=external", "listing_type": "buy", "location_accuracy": 9, "longitude": -3.0833025, "price": 375000, "price_currency": "\u00a3", "price_formatted": "\u00a3375,000", "price_high": 375000, "price_low": 375000, "price_type": "fixed", "property_type": "house", "size": 0, "size_type": "net", "summary": "Three bedroom family home and further two bed detached barn convers...", "thumb_height": 60, "thumb_url": "https://imgs.nestimg.com/medium/5_bedroom_property_111550883024724616.jpg", "thumb_width": 80, "title": "Stockland Bristol, Bridgwater, Somerset, TA5", "updated_in_days": 29, "updated_in_days_formatted": "first seen last month"}], "locations": [{"center_lat": 51.080967, "center_long": -3.045432, "long_title": "Somerset, county", "place_name": "somerset", "title": "Somerset"}], "page": 72, "sort": "nestoria_rank", "status_code": "200", "status_text": "OK", "thanks": "For using the Nestoria API.", "total_pages": 410, "total_results": 6149, "_cu5t0mP434m_": "remove"}}