{"request": {"country": "uk", "language": "en", "location": "somerset", "num_res": "15", "offset": 1080, "output": "json_xs", "page": 73, "product_type": "realestate", "property_type": "property", "size_type": "net", "size_unit": "m2", "sort": "nestoria_rank", "listing_type": "buy"}, "response": {"application_response_code": "100", "application_response_text": "listings returned for one unambiguous location", "attribution": {"img_height": 22, "img_url": "https://resources.nestimg.com/nestoria/img/pbr_v1.png", "img_width": 183, "link_to_img": "http://www.nestoria.com"}, "created_http": "Tue, 18 Jun 2019 17:30:27 GMT", "created_unix": 1560879027, "link_to_url": "https://www.nestoria.co.uk/somerset/property/buy/73", "listings": [{"bathroom_number": "", "bedroom_number": 3, "car_spaces": 0, "commission": 0, "construction_year": 0, "datasource_name": "NetHousePrices", "img_height": 300, "img_url": "https://imgs.nestimg.com/3_bedroom_end_of_terrace_house_111581663253908788.jpg", "img_width": 400, "keywords": "Garden, Conservatory, Fireplace, Terraced, Wood Floor, Garage, Kitchen, Patio, Gas Central Heating", "latitude": 51.022453, "lister_name": "Express", "lister_url": "https://www.nestoria.co.uk/detail/0000000111581663253908788/title/5/73-1?serpUid=&pt=1&ot=1&l=somerset&did=90_high1&t_sec=9&t_or=45&t_pvid=null&utm_source=api&utm_medium=external", "listing_type": "buy", "location_accuracy": 9, "longitude": -3.2074625, "price": 160000, "price_currency": "\u00a3", "price_formatted": "\u00a3160,000", "price_high": 160000, "price_low": 160000, "price_type": "fixed", "property_type": "house", "size": 0, "size_type": "net", "summary": "Three bedroom end terrace house with a garden all interest and offe...", "thumb_height": 60, "thumb_url": "https://imgs.nestimg.com/medium/3_bedroom_end_of_terrace_house_111581663253908788.jpg", "thumb_width": 80, "title": "Oake Close, Oake, Taunton, Somerset, TA4", "updated_in_days": 24, "updated_in_days_formatted": "first seen 3 weeks ago"}, {"bathroom_number": 2, "bedroom_number": 3, "car_spaces": 0, "commission": 0, "construction_year": 0, "datasource_name": "NetHousePrices", "img_height": 300, "img_url": "https://imgs.nestimg.com/3_bedroom_semi_detached_house_110964013733855596.jpg", "img_width": 400, "keywords": "Freehold, Garden, Semi-Detached, Garage, Kitchen, Modern", "latitude": 51.001873, "lister_url": "https://www.nestoria.co.uk/detail/0000000110964013733855596/title/5/73-2?serpUid=&pt=1&ot=1&l=somerset&did=90_high1&t_sec=9&t_or=45&t_pvid=null&utm_source=api&utm_medium=external", "listing_type": "buy", "location_accuracy": 9, "longitude": -3.128799, "price": 225000, "price_currency": "\u00a3", "price_formatted": "\u00a3225,000", "price_high": 225000, "price_low": 225000, "price_type": "fixed", "property_type": "house", "size": 0, "size_type": "net", "summary": "Ly finished three bedroom semi detached family home with corner plo...", "thumb_height": 60, "thumb_url": "https://imgs.nestimg.com/medium/3_bedroom_semi_detached_house_110964013733855596.jpg", "thumb_width": 80, "title": "Hine Road, Taunton, Somerset, TA1", "updated_in_days": 83, "updated_in_days_formatted": "first seen over a month ago"}, {"bathroom_number": "", "bedroom_number": 4, "car_spaces": 0, "commission": 0, "construction_year": 0, "datasource_name": "NetHousePrices", "img_height": 300, "img_url": "https://imgs.nestimg.com/4_bedroom_detached_house_111699665065026156.jpg", "img_width": 400, "keywords": "Detached, Garden, En suite, Double Garage, Conservatory, Fireplace, Kitchen, Dishwasher, Reception", "latitude": 51.03268, "lister_name": "Palmer Snell", "lister_url": "https://www.nestoria.co.uk/detail/0000000111699665065026156/title/5/73-3?serpUid=&pt=1&ot=1&l=somerset&did=90_high1&t_sec=9&t_or=45&t_pvid=null&utm_source=api&utm_medium=external", "listing_type": "buy", "location_accuracy": 9, "longitude": -2.691216, "price": 500000, "price_currency": "\u00a3", "price_formatted": "\u00a3500,000", "price_high": 500000, "price_low": 500000, "price_type": "fixed", "property_type": "house", "size": 0, "size_type": "net", "summary": "Offering accommodation, this detached property comprises; porch, en...", "thumb_height": 60, "thumb_url": "https://imgs.nestimg.com/medium/4_bedroom_detached_house_111699665065026156.jpg", "thumb_width": 80, "title": "Kingsdon, Somerton, Somerset, TA11", "updated_in_days": 5, "updated_in_days_formatted": "first seen 5 days ago"}, {"bathroom_number": "", "bedroom_number": 4, "car_spaces": 0, "commission": 0, "construction_year": 0, "datasource_name": "NetHousePrices", "img_height": 300, "img_url": "https://imgs.nestimg.com/4_bedroom_detached_house_111501201151410382.jpg", "img_width": 400, "keywords": "Detached, Garden, En suite, Conservatory, Conversion, Garage, Kitchen, Modern, Reception", "latitude": 50.978867, "lister_url": "https://www.nestoria.co.uk/detail/0000000111501201151410382/title/5/73-4?serpUid=&pt=1&ot=1&l=somerset&did=90_high1&t_sec=9&t_or=45&t_pvid=null&utm_source=api&utm_medium=external", "listing_type": "buy", "location_accuracy": 9, "longitude": -2.9925876, "price": 300000, "price_currency": "\u00a3", "price_formatted": "\u00a3300,000", "price_high": 300000, "price_low": 300000, "price_type": "fixed", "property_type": "house", "size": 0, "size_type": "net", "summary": "Well presented four bedroom detached family home with two reception...", "thumb_height": 60, "thumb_url": "https://imgs.nestimg.com/medium/4_bedroom_detached_house_111501201151410382.jpg", "thumb_width": 80, "title": "Station Road, Hatch Beauchamp, Taunton, Somerset, TA3", "updated_in_days": 37, "updated_in_days_formatted": "first seen over a month ago"}, {"bathroom_number": "", "bedroom_number": 3, "car_spaces": 0, "commission": 0, "construction_year": 0, "datasource_name": "NetHousePrices", "img_height": 300, "img_url": "https://imgs.nestimg.com/3_bedroom_semi_detached_house_111111785045956769.jpg", "img_width": 400, "keywords": "Garden, Semi-Detached, No Chain, Garage, Kitchen, Gas Central Heating", "latitude": 51.03851, "lister_name": "Palmer Snell", "lister_url": "https://www.nestoria.co.uk/detail/0000000111111785045956769/title/5/73-5?serpUid=&pt=1&ot=1&l=somerset&did=90_high1&t_sec=9&t_or=45&t_pvid=null&utm_source=api&utm_medium=external", "listing_type": "buy", "location_accuracy": 9, "longitude": -3.184902, "price": 210000, "price_currency": "\u00a3", "price_formatted": "\u00a3210,000", "price_high": 210000, "price_low": 210000, "price_type": "fixed", "property_type": "house", "size": 0, "size_type": "net", "summary": "Offered to the market with no onward chain, this three bedroom fami...", "thumb_height": 60, "thumb_url": "https://imgs.nestimg.com/medium/3_bedroom_semi_detached_house_111111785045956769.jpg", "thumb_width": 80, "title": "Nichol Place, Cotford St. Luke, Somerset, TA4", "updated_in_days": 100, "updated_in_days_formatted": "first seen over a month ago"}, {"bathroom_number": "", "bedroom_number": 2, "car_spaces": 0, "commission": 0, "construction_year": 0, "datasource_name": "NetHousePrices", "img_height": 300, "img_url": "https://imgs.nestimg.com/2_bedroom_terraced_house_111229454556165766.jpg", "img_width": 400, "keywords": "New Build, Conversion, Terraced", "latitude": 51.03703, "lister_url": "https://www.nestoria.co.uk/detail/0000000111229454556165766/title/5/73-6?serpUid=&pt=1&ot=1&l=somerset&did=90_high1&t_sec=9&t_or=45&t_pvid=null&utm_source=api&utm_medium=external", "listing_type": "buy", "location_accuracy": 9, "longitude": -3.1889577, "price": 220000, "price_currency": "\u00a3", "price_formatted": "\u00a3220,000", "price_high": 220000, "price_low": 220000, "price_type": "fixed", "property_type": "house", "size": 0, "size_type": "net", "summary": "Standing majestically at the heart of the village ofcotford st. Luk...", "thumb_height": 60, "thumb_url": "https://imgs.nestimg.com/medium/2_bedroom_terraced_house_111229454556165766.jpg", "thumb_width": 80, "title": "Bethell Mead, Cotford St. Luke, Taunton, Somerset, TA4", "updated_in_days": 81, "updated_in_days_formatted": "first seen over a month ago"}, {"bathroom_number": "", "bedroom_number": 2, "car_spaces": 0, "commission": 0, "construction_year": 0, "datasource_name": "NetHousePrices", "img_height": 300, "img_url": "https://imgs.nestimg.com/semi_detached_house_111519932846943335.jpg", "img_width": 400, "keywords": "Garden, Semi-Detached, Conservatory, Fireplace, Double Bedroom, Garage, Kitchen", "latitude": 51.20251, "lister_name": "Palmer Snellcountrywide", "lister_url": "https://www.nestoria.co.uk/detail/0000000111519932846943335/title/5/73-7?serpUid=&pt=1&ot=1&l=somerset&did=90_high1&t_sec=9&t_or=45&t_pvid=null&utm_source=api&utm_medium=external", "listing_type": "buy", "location_accuracy": 9, "longitude": -2.941107, "price": 184950, "price_currency": "\u00a3", "price_formatted": "\u00a3184,950", "price_high": 184950, "price_low": 184950, "price_type": "fixed", "property_type": "house", "size": 0, "size_type": "net", "summary": "2 bedroom semi detached property in the somerset village of east hu...", "thumb_height": 60, "thumb_url": "https://imgs.nestimg.com/medium/semi_detached_house_111519932846943335.jpg", "thumb_width": 80, "title": "Ashlea Park, East Huntspill, Highbridge, Somerset, TA9", "updated_in_days": 17, "updated_in_days_formatted": "first seen 2 weeks ago"}, {"bathroom_number": "", "bedroom_number": 1, "car_spaces": 0, "commission": 0, "construction_year": 0, "datasource_name": "NetHousePrices", "img_height": 300, "img_url": "https://imgs.nestimg.com/1_bedroom_terraced_house_111111784058814541.jpg", "img_width": 400, "keywords": "Freehold, No Chain, Terraced, Double Bedroom, Garage, Kitchen, Gas Central Heating", "latitude": 51.04045, "lister_name": "Palmer Snell", "lister_url": "https://www.nestoria.co.uk/detail/0000000111111784058814541/title/5/73-8?serpUid=&pt=1&ot=1&l=somerset&did=90_high1&t_sec=9&t_or=45&t_pvid=null&utm_source=api&utm_medium=external", "listing_type": "buy", "location_accuracy": 9, "longitude": -3.1911135, "price": 140000, "price_currency": "\u00a3", "price_formatted": "\u00a3140,000", "price_high": 140000, "price_low": 140000, "price_type": "fixed", "property_type": "house", "size": 0, "size_type": "net", "summary": "This one bedroom freehold coach house offers accommodation in a qui...", "thumb_height": 60, "thumb_url": "https://imgs.nestimg.com/medium/1_bedroom_terraced_house_111111784058814541.jpg", "thumb_width": 80, "title": "Burge Crescent, Cotford St. Luke, Taunton, Somerset, TA4", "updated_in_days": 100, "updated_in_days_formatted": "first seen over a month ago"}, {"bathroom_number": "", "bedroom_number": 2, "car_spaces": 0, "commission": 0, "construction_year": 0, "datasource_name": "Home.co.uk", "img_height": 300, "img_url": "https://imgs.nestimg.com/semi_detached_house_110542757718711902.jpg", "img_width": 400, "keywords": "Freehold, Garden, Semi-Detached, Conversion, Parking", "latitude": 51.187419, "lister_name": "Greenslade Taylor Hunt", "lister_url": "https://www.nestoria.co.uk/detail/0000000110542757718711902/title/5/73-9?serpUid=&pt=1&ot=1&l=somerset&did=85_default&t_sec=9&t_or=45&t_pvid=null&utm_source=api&utm_medium=external", "listing_type": "buy", "location_accuracy": 10, "longitude": -3.083311, "price": 275000, "price_currency": "\u00a3", "price_formatted": "\u00a3275,000", "price_high": 275000, "price_low": 275000, "price_type": "fixed", "property_type": "house", "size": 0, "size_type": "net", "summary": "Tenure: freehold a newly converted two bedroom barn conversion with...", "thumb_height": 60, "thumb_url": "https://imgs.nestimg.com/medium/semi_detached_house_110542757718711902.jpg", "thumb_width": 80, "title": "Stockland Bristol, Bridgwater, Somerset, TA5", "updated_in_days": 71, "updated_in_days_formatted": "first seen over a month ago"}, {"bathroom_number": "", "bedroom_number": 4, "car_spaces": 0, "commission": 0, "construction_year": 0, "datasource_name": "NetHousePrices", "img_height": 300, "img_url": "https://imgs.nestimg.com/4_bedroom_detached_house_111111785228699175.jpg", "img_width": 400, "keywords": "Detached, Garden, En suite, Double Garage, Kitchen, Patio, Reception", "latitude": 51.140842, "lister_name": "Palmer Snellcountrywide", "lister_url": "https://www.nestoria.co.uk/detail/0000000111111785228699175/title/5/73-10?serpUid=&pt=1&ot=1&l=somerset&did=90_high1&t_sec=9&t_or=45&t_pvid=null&utm_source=api&utm_medium=external", "listing_type": "buy", "location_accuracy": 9, "longitude": -2.9044733, "price": 430000, "price_currency": "\u00a3", "price_formatted": "\u00a3430,000", "price_high": 430000, "price_low": 430000, "price_type": "fixed", "property_type": "house", "size": 0, "size_type": "net", "summary": "This family home is located on a small close in the heart of stawel...", "thumb_height": 60, "thumb_url": "https://imgs.nestimg.com/medium/4_bedroom_detached_house_111111785228699175.jpg", "thumb_width": 80, "title": "Church Farm Close, Stawell, Bridgwater, Somerset, TA7", "updated_in_days": 100, "updated_in_days_formatted": "first seen over a month ago"}, {"bathroom_number": "", "bedroom_number": 3, "car_spaces": 0, "commission": 0, "construction_year": 0, "datasource_name": "NetHousePrices", "img_height": 300, "img_url": "https://imgs.nestimg.com/3_bedroom_barn_conversion_character_property_111668242728099075.jpg", "img_width": 400, "keywords": "Detached, Garden, En suite, Conversion, Fireplace, Kitchen, Parking", "latitude": 50.98479, "lister_name": "Palmer Snell", "lister_url": "https://www.nestoria.co.uk/detail/0000000111668242728099075/title/5/73-11?serpUid=&pt=1&ot=1&l=somerset&did=90_high1&t_sec=9&t_or=45&t_pvid=null&utm_source=api&utm_medium=external", "listing_type": "buy", "location_accuracy": 9, "longitude": -2.8084216, "price": 385000, "price_currency": "\u00a3", "price_formatted": "\u00a3385,000", "price_high": 385000, "price_low": 385000, "price_type": "fixed", "property_type": "house", "size": 0, "size_type": "net", "summary": "Detached barn conversion in a private courtyard settingranged over ...", "thumb_height": 60, "thumb_url": "https://imgs.nestimg.com/medium/3_bedroom_barn_conversion_character_property_111668242728099075.jpg", "thumb_width": 80, "title": "Kingsbury Episcopi, Martock, Somerset, TA12", "updated_in_days": 10, "updated_in_days_formatted": "first seen last week"}, {"bathroom_number": "", "bedroom_number": 3, "car_spaces": 0, "commission": 0, "construction_year": 0, "datasource_name": "NetHousePrices", "img_height": 300, "img_url": "https://imgs.nestimg.com/3_bedroom_detached_house_111680955419166351.jpg", "img_width": 400, "keywords": "Detached, Garden, En suite, Fireplace, Refurbished, Wood Floor, Double Bedroom, Garage, Kitchen, Reception, Gas Central Heating", "latitude": 50.950035, "lister_name": "Palmer Snell", "lister_url": "https://www.nestoria.co.uk/detail/0000000111680955419166351/title/5/73-12?serpUid=&pt=1&ot=1&l=somerset&did=90_high1&t_sec=9&t_or=45&t_pvid=null&utm_source=api&utm_medium=external", "listing_type": "buy", "location_accuracy": 9, "longitude": -2.8151639, "price": 650000, "price_currency": "\u00a3", "price_formatted": "\u00a3650,000", "price_high": 650000, "price_low": 650000, "price_type": "fixed", "property_type": "house", "size": 0, "size_type": "net", "summary": "Highly , extended, detached three double bed-room house built in 19...", "thumb_height": 60, "thumb_url": "https://imgs.nestimg.com/medium/3_bedroom_detached_house_111680955419166351.jpg", "thumb_width": 80, "title": "Compton Road, South Petherton, Somerset, TA13", "updated_in_days": 8, "updated_in_days_formatted": "first seen last week"}, {"bathroom_number": "", "bedroom_number": 2, "car_spaces": 0, "commission": 0, "construction_year": 0, "datasource_name": "Home.co.uk", "img_height": 300, "img_url": "https://imgs.nestimg.com/detached_house_111519866898643602.jpg", "img_width": 400, "keywords": "Detached, Garden, Bungalow", "latitude": 51.029839, "lister_name": "Greenslade Taylor Hunt", "lister_url": "https://www.nestoria.co.uk/detail/0000000111519866898643602/title/5/73-13?serpUid=&pt=1&ot=1&l=somerset&did=85_default&t_sec=9&t_or=45&t_pvid=null&utm_source=api&utm_medium=external", "listing_type": "buy", "location_accuracy": 10, "longitude": -3.236044, "price": 235000, "price_currency": "\u00a3", "price_formatted": "\u00a3235,000", "price_high": 235000, "price_low": 235000, "price_type": "fixed", "property_type": "house", "size": 0, "size_type": "net", "summary": "A detached holiday home with well appointed two bedroom living acco...", "thumb_height": 60, "thumb_url": "https://imgs.nestimg.com/medium/detached_house_111519866898643602.jpg", "thumb_width": 80, "title": "Preston Bowyer, Milverton, Taunton, Somerset, TA4", "updated_in_days": 34, "updated_in_days_formatted": "first seen over a month ago"}, {"bathroom_number": "", "bedroom_number": 2, "car_spaces": 0, "commission": 0, "construction_year": 0, "datasource_name": "NetHousePrices", "img_height": 300, "img_url": "https://imgs.nestimg.com/2_bedroom_bungalow_111680955356022711.jpg", "img_width": 400, "keywords": "Detached, Garden, Double Bedroom, Garage, Kitchen, Bungalow, Modern, Gas Central Heating", "latitude": 51.052567, "lister_name": "Palmer Snell", "lister_url": "https://www.nestoria.co.uk/detail/0000000111680955356022711/title/5/73-14?serpUid=&pt=1&ot=1&l=somerset&did=90_high1&t_sec=9&t_or=45&t_pvid=null&utm_source=api&utm_medium=external", "listing_type": "buy", "location_accuracy": 9, "longitude": -2.727508, "price": 260000, "price_currency": "\u00a3", "price_formatted": "\u00a3260,000", "price_high": 260000, "price_low": 260000, "price_type": "fixed", "property_type": "house", "size": 0, "size_type": "net", "summary": "A linked detached bungalow offering entrance hall, modern kitchen d...", "thumb_height": 60, "thumb_url": "https://imgs.nestimg.com/medium/2_bedroom_bungalow_111680955356022711.jpg", "thumb_width": 80, "title": "Wessex Rise, Somerton, Somerset, TA11", "updated_in_days": 8, "updated_in_days_formatted": "first seen last week"}, {"bathroom_number": "", "bedroom_number": 0, "car_spaces": 0, "commission": 0, "construction_year": 0, "datasource_name": "NetHousePrices", "img_height": 300, "img_url": "https://imgs.nestimg.com/property_111402732904106269.jpg", "img_width": 400, "keywords": "Auction, Listed", "latitude": 50.964222, "lister_url": "https://www.nestoria.co.uk/detail/0000000111402732904106269/title/5/73-15?serpUid=&pt=1&ot=1&l=somerset&did=90_high1&t_sec=9&t_or=45&t_pvid=null&utm_source=api&utm_medium=external", "listing_type": "buy", "location_accuracy": 9, "longitude": -2.976198, "price": 210000, "price_currency": "\u00a3", "price_formatted": "\u00a3210,000", "price_high": 210000, "price_low": 210000, "price_type": "fixed", "property_type": "property", "size": 0, "size_type": "net", "summary": "For sale by auction on friday, 24 may 2019 at 2.00pm venue: hound s...", "thumb_height": 60, "thumb_url": "https://imgs.nestimg.com/medium/property_111402732904106269.jpg", "thumb_width": 80, "title": "Ashill, Ilminster, Somerset, TA19", "updated_in_days": 53, "updated_in_days_formatted": "first seen over a month ago"}], "locations": [{"center_lat": 51.080967, "center_long": -3.045432, "long_title": "Somerset, county", "place_name": "somerset", "title": "Somerset"}], "page": 73, "sort": "nestoria_rank", "status_code": "200", "status_text": "OK", "thanks": "For using the Nestoria API.", "total_pages": 410, "total_results": 6149, "_cu5t0mP434m_": "remove"}}