{"request": {"country": "uk", "language": "en", "location": "somerset", "num_res": "15", "offset": 1095, "output": "json_xs", "page": 74, "product_type": "realestate", "property_type": "property", "size_type": "net", "size_unit": "m2", "sort": "nestoria_rank", "listing_type": "buy"}, "response": {"application_response_code": "100", "application_response_text": "listings returned for one unambiguous location", "attribution": {"img_height": 22, "img_url": "https://resources.nestimg.com/nestoria/img/pbr_v1.png", "img_width": 183, "link_to_img": "http://www.nestoria.com"}, "created_http": "Tue, 18 Jun 2019 17:30:28 GMT", "created_unix": 1560879028, "link_to_url": "https://www.nestoria.co.uk/somerset/property/buy/74", "listings": [{"bathroom_number": "", "bedroom_number": 1, "car_spaces": 0, "commission": 0, "construction_year": 0, "datasource_name": "NetHousePrices", "img_height": 300, "img_url": "https://imgs.nestimg.com/1_bedroom_flat_111705329225826869.jpg", "img_width": 400, "keywords": "Balcony, Terraced, Double Bedroom, Garage, Kitchen, Modern", "latitude": 51.349182, "lister_name": "Palmer Snell", "lister_url": "https://www.nestoria.co.uk/detail/0000000111705329225826869/title/5/74-1?serpUid=&pt=1&ot=1&l=somerset&did=90_high1&t_sec=9&t_or=45&t_pvid=null&utm_source=api&utm_medium=external", "listing_type": "buy", "location_accuracy": 9, "longitude": -2.9237194, "price": 139995, "price_currency": "\u00a3", "price_formatted": "\u00a3139,995", "price_high": 139995, "price_low": 139995, "price_type": "fixed", "property_type": "flat", "size": 0, "size_type": "net", "summary": "This one bedroom end of terrace coach house is offered to the marke...", "thumb_height": 60, "thumb_url": "https://imgs.nestimg.com/medium/1_bedroom_flat_111705329225826869.jpg", "thumb_width": 80, "title": "Montacute Circus, Weston-super-mare, Somerset, BS24", "updated_in_days": 4, "updated_in_days_formatted": "first seen 4 days ago"}, {"bathroom_number": "", "bedroom_number": 3, "car_spaces": 0, "commission": 0, "construction_year": 0, "datasource_name": "NetHousePrices", "img_height": 300, "img_url": "https://imgs.nestimg.com/3_bedroom_semi_detached_house_111680954103739990.jpg", "img_width": 400, "keywords": "Garden, Semi-Detached, Double Bedroom, Garage, Kitchen, Patio, Cul-de-Sac, Reception", "latitude": 50.973114, "lister_name": "Palmer Snell", "lister_url": "https://www.nestoria.co.uk/detail/0000000111680954103739990/title/5/74-2?serpUid=&pt=1&ot=1&l=somerset&did=90_high1&t_sec=9&t_or=45&t_pvid=null&utm_source=api&utm_medium=external", "listing_type": "buy", "location_accuracy": 9, "longitude": -2.7679827, "price": 215000, "price_currency": "\u00a3", "price_formatted": "\u00a3215,000", "price_high": 215000, "price_low": 215000, "price_type": "fixed", "property_type": "house", "size": 0, "size_type": "net", "summary": "Three double bedroom semi-detached house in a cul-de-sac location. ...", "thumb_height": 60, "thumb_url": "https://imgs.nestimg.com/medium/3_bedroom_semi_detached_house_111680954103739990.jpg", "thumb_width": 80, "title": "Birch Road, Martock, Somerset, TA12", "updated_in_days": 8, "updated_in_days_formatted": "first seen last week"}, {"bathroom_number": "", "bedroom_number": 3, "car_spaces": 0, "commission": 0, "construction_year": 0, "datasource_name": "NetHousePrices", "img_height": 300, "img_url": "https://imgs.nestimg.com/3_bedroom_detached_house_111284752799541514.jpg", "img_width": 400, "keywords": "Detached, Garden, Fireplace, Kitchen, Dishwasher, Parking, Cottage, Reception", "latitude": 51.0217, "lister_url": "https://www.nestoria.co.uk/detail/0000000111284752799541514/title/5/74-3?serpUid=&pt=1&ot=1&l=somerset&did=90_high1&t_sec=9&t_or=45&t_pvid=null&utm_source=api&utm_medium=external", "listing_type": "buy", "location_accuracy": 9, "longitude": -2.8750198, "price": 290000, "price_currency": "\u00a3", "price_formatted": "\u00a3290,000", "price_high": 290000, "price_low": 290000, "price_type": "fixed", "property_type": "house", "size": 0, "size_type": "net", "summary": "Ly restored and well finished two/three bedroom detached period cot...", "thumb_height": 60, "thumb_url": "https://imgs.nestimg.com/medium/3_bedroom_detached_house_111284752799541514.jpg", "thumb_width": 80, "title": "Townsend, Curry Rivel, Langport, Somerset, TA10", "updated_in_days": 72, "updated_in_days_formatted": "first seen over a month ago"}, {"bathroom_number": "", "bedroom_number": 3, "car_spaces": 0, "commission": 0, "construction_year": 0, "datasource_name": "NetHousePrices", "img_height": 300, "img_url": "https://imgs.nestimg.com/3_bedroom_semi_detached_house_111705361031938113.jpg", "img_width": 400, "keywords": "Garden, Semi-Detached, Conservatory, Conversion, Hot tub, Garage, Kitchen, Bungalow, Modern, Cul-de-Sac", "latitude": 51.353718, "lister_name": "Palmer Snell", "lister_url": "https://www.nestoria.co.uk/detail/0000000111705361031938113/title/5/74-4?serpUid=&pt=1&ot=1&l=somerset&did=90_high1&t_sec=9&t_or=45&t_pvid=null&utm_source=api&utm_medium=external", "listing_type": "buy", "location_accuracy": 9, "longitude": -2.9358735, "price": 269950, "price_currency": "\u00a3", "price_formatted": "\u00a3269,950", "price_high": 269950, "price_low": 269950, "price_type": "fixed", "property_type": "house", "size": 0, "size_type": "net", "summary": "This three bedroom semi detached chalet bungalow offers a large cor...", "thumb_height": 60, "thumb_url": "https://imgs.nestimg.com/medium/3_bedroom_semi_detached_house_111705361031938113.jpg", "thumb_width": 80, "title": "Cranford Close, Weston-super-mare, Somerset, BS22", "updated_in_days": 4, "updated_in_days_formatted": "first seen 4 days ago"}, {"bathroom_number": 2, "bedroom_number": 4, "car_spaces": 0, "commission": 0, "construction_year": 0, "datasource_name": "NetHousePrices", "img_height": 300, "img_url": "https://imgs.nestimg.com/4_bedroom_detached_house_111519932655811998.jpg", "img_width": 400, "keywords": "Detached, En suite, Fireplace, Double Bedroom, Kitchen, Modern", "latitude": 50.948524, "lister_name": "Greenslade Taylor Hunt", "lister_url": "https://www.nestoria.co.uk/detail/0000000111519932655811998/title/5/74-5?serpUid=&pt=1&ot=1&l=somerset&did=90_high1&t_sec=9&t_or=45&t_pvid=null&utm_source=api&utm_medium=external", "listing_type": "buy", "location_accuracy": 9, "longitude": -3.096387, "price": 950000, "price_currency": "\u00a3", "price_formatted": "\u00a3950,000", "price_high": 950000, "price_low": 950000, "price_type": "fixed", "property_type": "house", "size": 0, "size_type": "net", "summary": "A ally positioned country residence enjoying breath-taking views of...", "thumb_height": 60, "thumb_url": "https://imgs.nestimg.com/medium/4_bedroom_detached_house_111519932655811998.jpg", "thumb_width": 80, "title": "Corfe, Taunton, Somerset, TA3", "updated_in_days": 34, "updated_in_days_formatted": "first seen over a month ago"}, {"bathroom_number": "", "bedroom_number": 4, "car_spaces": 0, "commission": 0, "construction_year": 0, "datasource_name": "Home.co.uk", "img_height": 300, "img_url": "https://imgs.nestimg.com/detached_house_111563279547419082.jpg", "img_width": 400, "keywords": "Detached, Modern", "latitude": 50.902987, "lister_name": "Stags", "lister_url": "https://www.nestoria.co.uk/detail/0000000111563279547419082/title/5/74-6?serpUid=&pt=1&ot=1&l=somerset&did=85_default&t_sec=9&t_or=45&t_pvid=null&utm_source=api&utm_medium=external", "listing_type": "buy", "location_accuracy": 10, "longitude": -2.697145, "price": 575000, "price_currency": "\u00a3", "price_formatted": "\u00a3575,000", "price_high": 575000, "price_low": 575000, "price_type": "fixed", "property_type": "house", "size": 0, "size_type": "net", "summary": "An detached home set in this village. Epc band d. Description this ...", "thumb_height": 60, "thumb_url": "https://imgs.nestimg.com/medium/detached_house_111563279547419082.jpg", "thumb_width": 80, "title": "Broadstone Lane, Hardington Mandeville, Yeovil, Somerset, BA22", "updated_in_days": 4, "updated_in_days_formatted": "first seen 4 days ago"}, {"bathroom_number": "", "bedroom_number": 1, "car_spaces": 0, "commission": 0, "construction_year": 0, "datasource_name": "Home.co.uk", "img_height": 300, "img_url": "https://imgs.nestimg.com/flatapartment_111581591424371004.jpg", "img_width": 400, "keywords": "Shared Garden, Conversion, Parking", "latitude": 51.044423, "lister_name": "Greenslade Taylor Hunt", "lister_url": "https://www.nestoria.co.uk/detail/0000000111581591424371004/title/5/74-7?serpUid=&pt=1&ot=1&l=somerset&did=85_default&t_sec=9&t_or=45&t_pvid=null&utm_source=api&utm_medium=external", "listing_type": "buy", "location_accuracy": 10, "longitude": -2.817524, "price": 115000, "price_currency": "\u00a3", "price_formatted": "\u00a3115,000", "price_high": 115000, "price_low": 115000, "price_type": "fixed", "property_type": "flat", "size": 0, "size_type": "net", "summary": "One bedroom first floor apartment in period country house with allo...", "thumb_height": 60, "thumb_url": "https://imgs.nestimg.com/medium/flatapartment_111581591424371004.jpg", "thumb_width": 80, "title": "Redwood Grange, Bartletts Elm, Langport, Somerset, TA10", "updated_in_days": 24, "updated_in_days_formatted": "first seen 3 weeks ago"}, {"bathroom_number": 2, "bedroom_number": 4, "car_spaces": 0, "commission": 0, "construction_year": 0, "datasource_name": "NetHousePrices", "img_height": 300, "img_url": "https://imgs.nestimg.com/4_bedroom_detached_house_111643710006616183.jpg", "img_width": 400, "keywords": "Detached, Garden, En suite, New Build, Fireplace, Kitchen, Patio, Georgian", "latitude": 50.92012, "lister_name": "Greenslade Taylor Hunt", "lister_url": "https://www.nestoria.co.uk/detail/0000000111643710006616183/title/5/74-8?serpUid=&pt=1&ot=1&l=somerset&did=90_high1&t_sec=9&t_or=45&t_pvid=null&utm_source=api&utm_medium=external", "listing_type": "buy", "location_accuracy": 9, "longitude": -2.941045, "price": 315000, "price_currency": "\u00a3", "price_formatted": "\u00a3315,000", "price_high": 315000, "price_low": 315000, "price_type": "fixed", "property_type": "house", "size": 0, "size_type": "net", "summary": "A new build stone 4 bedroom 2 bathroom property offering accommodat...", "thumb_height": 60, "thumb_url": "https://imgs.nestimg.com/medium/4_bedroom_detached_house_111643710006616183.jpg", "thumb_width": 80, "title": "Donyatt, Somerset, TA19 - Patio", "updated_in_days": 14, "updated_in_days_formatted": "first seen 2 weeks ago"}, {"bathroom_number": "", "bedroom_number": "", "car_spaces": 0, "commission": 0, "construction_year": 0, "datasource_name": "OnTheMarket.com", "img_height": 300, "img_url": "https://imgs.nestimg.com/land_for_sale_110097535766552243.jpg", "img_width": 400, "keywords": "Freehold", "latitude": 51.1274, "lister_name": "Greenslade Taylor Hunt", "lister_url": "https://www.nestoria.co.uk/detail/0000000110097535766552243/title/5/74-9?serpUid=&pt=1&ot=1&l=somerset&did=105_high1&t_sec=9&t_or=45&t_pvid=null&utm_source=api&utm_medium=external", "listing_type": "buy", "location_accuracy": 9, "longitude": -3.57053, "price": 275000, "price_currency": "\u00a3", "price_formatted": "\u00a3275,000", "price_high": 275000, "price_low": 275000, "price_type": "fixed", "property_type": "land", "size": 0, "size_type": "net", "summary": "A picturesque block of pasture and amenity land enjoying far reachi...", "thumb_height": 60, "thumb_url": "https://imgs.nestimg.com/medium/land_for_sale_110097535766552243.jpg", "thumb_width": 80, "title": "Winsford, Minehead, Somerset, TA24", "updated_in_days": 264, "updated_in_days_formatted": "first seen over a month ago"}, {"bathroom_number": "", "bedroom_number": 2, "car_spaces": 0, "commission": 0, "construction_year": 0, "datasource_name": "NetHousePrices", "img_height": 300, "img_url": "https://imgs.nestimg.com/2_bedroom_apartment_flat_111482735830276074.jpg", "img_width": 400, "keywords": "Garden, Conversion, High Ceilings, Refurbished, Parking", "latitude": 51.035896, "lister_name": "Greenslade Taylor Hunt", "lister_url": "https://www.nestoria.co.uk/detail/0000000111482735830276074/title/5/74-10?serpUid=&pt=1&ot=1&l=somerset&did=90_high1&t_sec=9&t_or=45&t_pvid=null&utm_source=api&utm_medium=external", "listing_type": "buy", "location_accuracy": 9, "longitude": -2.8361948, "price": 110000, "price_currency": "\u00a3", "price_formatted": "\u00a3110,000", "price_high": 110000, "price_low": 110000, "price_type": "fixed", "property_type": "flat", "size": 0, "size_type": "net", "summary": "A newly refurbished self-contained two-bedroom first floor flat. Th...", "thumb_height": 60, "thumb_url": "https://imgs.nestimg.com/medium/2_bedroom_apartment_flat_111482735830276074.jpg", "thumb_width": 80, "title": "Westover, Langport, Somerset, TA10", "updated_in_days": 40, "updated_in_days_formatted": "first seen over a month ago"}, {"bathroom_number": "", "bedroom_number": 2, "car_spaces": 0, "commission": 0, "construction_year": 0, "datasource_name": "NetHousePrices", "img_height": 300, "img_url": "https://imgs.nestimg.com/2_bedroom_semi_detached_house_111699677545161026.jpg", "img_width": 400, "keywords": "Garden, Semi-Detached, No Chain, Conservatory, Kitchen, Dishwasher, Parking, Gas Central Heating", "latitude": 51.338745, "lister_url": "https://www.nestoria.co.uk/detail/0000000111699677545161026/title/5/74-11?serpUid=&pt=1&ot=1&l=somerset&did=90_high1&t_sec=9&t_or=45&t_pvid=null&utm_source=api&utm_medium=external", "listing_type": "buy", "location_accuracy": 9, "longitude": -2.9680274, "price": 175000, "price_currency": "\u00a3", "price_formatted": "\u00a3175,000", "price_high": 175000, "price_low": 175000, "price_type": "fixed", "property_type": "house", "size": 0, "size_type": "net", "summary": "Well presented semi detached house which is situated in a great loc...", "thumb_height": 60, "thumb_url": "https://imgs.nestimg.com/medium/2_bedroom_semi_detached_house_111699677545161026.jpg", "thumb_width": 80, "title": "Norfolk Road, Weston-super-mare, Somerset, BS23", "updated_in_days": 5, "updated_in_days_formatted": "first seen 5 days ago"}, {"bathroom_number": 2, "bedroom_number": 5, "car_spaces": 0, "commission": 0, "construction_year": 0, "datasource_name": "Home.co.uk", "img_height": 300, "img_url": "https://imgs.nestimg.com/detached_house_108502042276857531.jpg", "img_width": 400, "keywords": "Detached, Garden, Parking, Cottage", "latitude": 51.197566, "lister_name": "Greenslade Taylor Hunt", "lister_url": "https://www.nestoria.co.uk/detail/0000000108502042276857531/title/5/74-12?serpUid=&pt=1&ot=1&l=somerset&did=85_default&t_sec=9&t_or=45&t_pvid=null&utm_source=api&utm_medium=external", "listing_type": "buy", "location_accuracy": 10, "longitude": -2.963615, "price": 549950, "price_currency": "\u00a3", "price_formatted": "\u00a3549,950", "price_high": 549950, "price_low": 549950, "price_type": "fixed", "property_type": "house", "size": 0, "size_type": "net", "summary": "This 5 bedroom, 2 bathroom, extended detached former farm workers c...", "thumb_height": 60, "thumb_url": "https://imgs.nestimg.com/medium/detached_house_108502042276857531.jpg", "thumb_width": 80, "title": "Withy Road, East Huntspill, Highbridge, Somerset, TA9", "updated_in_days": 117, "updated_in_days_formatted": "first seen over a month ago"}, {"bathroom_number": "", "bedroom_number": 3, "car_spaces": 0, "commission": 0, "construction_year": 0, "datasource_name": "Home.co.uk", "img_height": 300, "img_url": "https://imgs.nestimg.com/detached_house_111637434235219465.jpg", "img_width": 400, "keywords": "Detached, Garden, Detached Garage, Cottage", "latitude": 50.909497, "lister_name": "Stags", "lister_url": "https://www.nestoria.co.uk/detail/0000000111637434235219465/title/5/74-13?serpUid=&pt=1&ot=1&l=somerset&did=85_default&t_sec=9&t_or=45&t_pvid=null&utm_source=api&utm_medium=external", "listing_type": "buy", "location_accuracy": 10, "longitude": -3.001245, "price": 565000, "price_currency": "\u00a3", "price_formatted": "\u00a3565,000", "price_high": 565000, "price_low": 565000, "price_type": "fixed", "property_type": "house", "size": 0, "size_type": "net", "summary": "A ly renovated cottage nestled in the blackdown hills with 1.35 acr...", "thumb_height": 60, "thumb_url": "https://imgs.nestimg.com/medium/detached_house_111637434235219465.jpg", "thumb_width": 80, "title": "Combe St Nicholas, Chard, Somerset, TA20", "updated_in_days": 15, "updated_in_days_formatted": "first seen 2 weeks ago"}, {"bathroom_number": "", "bedroom_number": 1, "car_spaces": 0, "commission": 0, "construction_year": 0, "datasource_name": "NetHousePrices", "img_height": 300, "img_url": "https://imgs.nestimg.com/1_bedroom_flat_111154983801323281.jpg", "img_width": 400, "keywords": "No Chain, Double Bedroom, Kitchen, Parking, Gas Central Heating", "latitude": 51.360054, "lister_name": "Palmer Snell", "lister_url": "https://www.nestoria.co.uk/detail/0000000111154983801323281/title/5/74-14?serpUid=&pt=1&ot=1&l=somerset&did=90_high1&t_sec=9&t_or=45&t_pvid=null&utm_source=api&utm_medium=external", "listing_type": "buy", "location_accuracy": 9, "longitude": -2.902782, "price": 125000, "price_currency": "\u00a3", "price_formatted": "\u00a3125,000", "price_high": 125000, "price_low": 125000, "price_type": "fixed", "property_type": "flat", "size": 0, "size_type": "net", "summary": "This one bedroom first floor apartment is offered to the market wit...", "thumb_height": 60, "thumb_url": "https://imgs.nestimg.com/medium/1_bedroom_flat_111154983801323281.jpg", "thumb_width": 80, "title": "Shepherds Way, St. Georges, Weston-super-mare, Somerset, BS22", "updated_in_days": 4, "updated_in_days_formatted": "first seen 4 days ago"}, {"bathroom_number": "", "bedroom_number": 3, "car_spaces": 0, "commission": 0, "construction_year": 0, "datasource_name": "Home.co.uk", "img_height": 300, "img_url": "https://imgs.nestimg.com/semi_detached_house_111538240978008416.jpg", "img_width": 400, "keywords": "Garden, Semi-Detached, Terraced, Kitchen, Cottage", "latitude": 50.979369, "lister_name": "Webbers", "lister_url": "https://www.nestoria.co.uk/detail/0000000111538240978008416/title/5/74-15?serpUid=&pt=1&ot=1&l=somerset&did=85_default&t_sec=9&t_or=45&t_pvid=null&utm_source=api&utm_medium=external", "listing_type": "buy", "location_accuracy": 10, "longitude": -3.224276, "price": 170000, "price_currency": "\u00a3", "price_formatted": "\u00a3170,000", "price_high": 170000, "price_low": 170000, "price_type": "fixed", "property_type": "house", "size": 0, "size_type": "net", "summary": "3 bedroom end of terrace cottage accommodation across 3 floors rear...", "thumb_height": 60, "thumb_url": "https://imgs.nestimg.com/medium/semi_detached_house_111538240978008416.jpg", "thumb_width": 80, "title": "Buckwell, Wellington, Somerset", "updated_in_days": 31, "updated_in_days_formatted": "first seen over a month ago"}], "locations": [{"center_lat": 51.080967, "center_long": -3.045432, "long_title": "Somerset, county", "place_name": "somerset", "title": "Somerset"}], "page": 74, "sort": "nestoria_rank", "status_code": "200", "status_text": "OK", "thanks": "For using the Nestoria API.", "total_pages": 410, "total_results": 6149, "_cu5t0mP434m_": "remove"}}