{"request": {"country": "uk", "language": "en", "location": "somerset", "num_res": "15", "offset": 1110, "output": "json_xs", "page": 75, "product_type": "realestate", "property_type": "property", "size_type": "net", "size_unit": "m2", "sort": "nestoria_rank", "listing_type": "buy"}, "response": {"application_response_code": "100", "application_response_text": "listings returned for one unambiguous location", "attribution": {"img_height": 22, "img_url": "https://resources.nestimg.com/nestoria/img/pbr_v1.png", "img_width": 183, "link_to_img": "http://www.nestoria.com"}, "created_http": "Tue, 18 Jun 2019 17:30:30 GMT", "created_unix": 1560879030, "link_to_url": "https://www.nestoria.co.uk/somerset/property/buy/75", "listings": [{"bathroom_number": "", "bedroom_number": 7, "car_spaces": 0, "commission": 0, "construction_year": 0, "datasource_name": "NetHousePrices", "img_height": 300, "img_url": "https://imgs.nestimg.com/7_bedroom_farm_commercial_111482737583364111.jpg", "img_width": 400, "keywords": "Detached, Needs Modernisation, Bungalow, Modern", "latitude": 50.935097, "lister_name": "Greenslade Taylor Hunt", "lister_url": "https://www.nestoria.co.uk/detail/0000000111482737583364111/title/5/75-1?serpUid=&pt=1&ot=1&l=somerset&did=90_high1&t_sec=9&t_or=45&t_pvid=null&utm_source=api&utm_medium=external", "listing_type": "buy", "location_accuracy": 9, "longitude": -3.0178552, "price": 1800000, "price_currency": "\u00a3", "price_formatted": "\u00a31,800,000", "price_high": 1800000, "price_low": 1800000, "price_type": "fixed", "property_type": "property", "size": 0, "size_type": "net", "summary": "An outstanding ring-fenced residential holding centred upon a detac...", "thumb_height": 60, "thumb_url": "https://imgs.nestimg.com/medium/7_bedroom_farm_commercial_111482737583364111.jpg", "thumb_width": 80, "title": "Hare Lane, Buckland St. Mary, Chard, Somerset, TA20", "updated_in_days": 40, "updated_in_days_formatted": "first seen over a month ago"}, {"bathroom_number": "", "bedroom_number": 3, "car_spaces": 0, "commission": 0, "construction_year": 0, "datasource_name": "NetHousePrices", "img_height": 300, "img_url": "https://imgs.nestimg.com/3_bedroom_farm_commercial_111482737105775277.jpg", "img_width": 400, "keywords": "Detached, Needs Modernisation, Bungalow, Modern", "latitude": 50.935097, "lister_name": "Greenslade Taylor Hunt", "lister_url": "https://www.nestoria.co.uk/detail/0000000111482737105775277/title/5/75-2?serpUid=&pt=1&ot=1&l=somerset&did=90_high1&t_sec=9&t_or=45&t_pvid=null&utm_source=api&utm_medium=external", "listing_type": "buy", "location_accuracy": 9, "longitude": -3.0178552, "price": 1250000, "price_currency": "\u00a3", "price_formatted": "\u00a31,250,000", "price_high": 1250000, "price_low": 1250000, "price_type": "fixed", "property_type": "property", "size": 0, "size_type": "net", "summary": "An outstanding ring-fenced residential holding centred upon a detac...", "thumb_height": 60, "thumb_url": "https://imgs.nestimg.com/medium/3_bedroom_farm_commercial_111482737105775277.jpg", "thumb_width": 80, "title": "Hare Lane, Buckland St. Mary, Chard, Somerset, TA20", "updated_in_days": 40, "updated_in_days_formatted": "first seen over a month ago"}, {"bathroom_number": "", "bedroom_number": 4, "car_spaces": 0, "commission": 0, "construction_year": 0, "datasource_name": "NetHousePrices", "img_height": 300, "img_url": "https://imgs.nestimg.com/4_bedroom_terraced_house_111693366749126788.jpg", "img_width": 400, "keywords": "Garden, En suite, Fireplace, Terraced, Double Bedroom, Kitchen, Parking, Reception, Gas Central Heating", "latitude": 50.89117, "lister_name": "Palmer Snell", "lister_url": "https://www.nestoria.co.uk/detail/0000000111693366749126788/title/5/75-3?serpUid=&pt=1&ot=1&l=somerset&did=90_high1&t_sec=9&t_or=45&t_pvid=null&utm_source=api&utm_medium=external", "listing_type": "buy", "location_accuracy": 9, "longitude": -2.7875483, "price": 275000, "price_currency": "\u00a3", "price_formatted": "\u00a3275,000", "price_high": 275000, "price_low": 275000, "price_type": "fixed", "property_type": "house", "size": 0, "size_type": "net", "summary": "Town house overlooking and open green to the front. Built in 2006 t...", "thumb_height": 60, "thumb_url": "https://imgs.nestimg.com/medium/4_bedroom_terraced_house_111693366749126788.jpg", "thumb_width": 80, "title": "Oak Drive, Crewkerne, Somerset, TA18", "updated_in_days": 6, "updated_in_days_formatted": "first seen 6 days ago"}, {"bathroom_number": "", "bedroom_number": 3, "car_spaces": 0, "commission": 0, "construction_year": 0, "datasource_name": "NetHousePrices", "img_height": 300, "img_url": "https://imgs.nestimg.com/3_bedroom_terraced_house_111705363479345890.jpg", "img_width": 400, "keywords": "Garden, Fireplace, Terraced, Kitchen, Gas Central Heating", "latitude": 50.951504, "lister_name": "Palmer Snell", "lister_url": "https://www.nestoria.co.uk/detail/0000000111705363479345890/title/5/75-4?serpUid=&pt=1&ot=1&l=somerset&did=90_high1&t_sec=9&t_or=45&t_pvid=null&utm_source=api&utm_medium=external", "listing_type": "buy", "location_accuracy": 9, "longitude": -2.618332, "price": 160000, "price_currency": "\u00a3", "price_formatted": "\u00a3160,000", "price_high": 160000, "price_low": 160000, "price_type": "fixed", "property_type": "house", "size": 0, "size_type": "net", "summary": "This well presented property, has been updated by the current owner...", "thumb_height": 60, "thumb_url": "https://imgs.nestimg.com/medium/3_bedroom_terraced_house_111705363479345890.jpg", "thumb_width": 80, "title": "Monmouth Road, Yeovil, Somerset, BA21", "updated_in_days": 4, "updated_in_days_formatted": "first seen 4 days ago"}, {"bathroom_number": "", "bedroom_number": 3, "car_spaces": 0, "commission": 0, "construction_year": 0, "datasource_name": "NetHousePrices", "img_height": 300, "img_url": "https://imgs.nestimg.com/3_bedroom_bungalow_111544462645627461.jpg", "img_width": 400, "keywords": "Garden, Semi-Detached, Garage, Kitchen, Bungalow", "latitude": 51.131065, "lister_name": "Palmer Snellcountrywide", "lister_url": "https://www.nestoria.co.uk/detail/0000000111544462645627461/title/5/75-5?serpUid=&pt=1&ot=1&l=somerset&did=90_high1&t_sec=9&t_or=45&t_pvid=null&utm_source=api&utm_medium=external", "listing_type": "buy", "location_accuracy": 9, "longitude": -2.8079724, "price": 245000, "price_currency": "\u00a3", "price_formatted": "\u00a3245,000", "price_high": 245000, "price_low": 245000, "price_type": "fixed", "property_type": "house", "size": 0, "size_type": "net", "summary": "A well proportioned semi detached bungalow located within its own p...", "thumb_height": 60, "thumb_url": "https://imgs.nestimg.com/medium/3_bedroom_bungalow_111544462645627461.jpg", "thumb_width": 80, "title": "High View Drive, Ashcott, Somerset, TA7", "updated_in_days": 30, "updated_in_days_formatted": "first seen over a month ago"}, {"bathroom_number": "", "bedroom_number": "", "car_spaces": 0, "commission": 0, "construction_year": 0, "datasource_name": "NetHousePrices", "img_height": 300, "img_url": "https://imgs.nestimg.com/land_commercial_111482737102850846.jpg", "img_width": 400, "keywords": "", "latitude": 51.223057, "lister_name": "Greenslade Taylor Hunt", "lister_url": "https://www.nestoria.co.uk/detail/0000000111482737102850846/title/5/75-6?serpUid=&pt=1&ot=1&l=somerset&did=90_high1&t_sec=9&t_or=45&t_pvid=null&utm_source=api&utm_medium=external", "listing_type": "buy", "location_accuracy": 9, "longitude": -2.9623187, "price": 150000, "price_currency": "\u00a3", "price_formatted": "\u00a3150,000", "price_high": 150000, "price_low": 150000, "price_type": "fixed", "property_type": "land", "size": 0, "size_type": "net", "summary": "The land currently forms part of a larger former agricultural level...", "thumb_height": 60, "thumb_url": "https://imgs.nestimg.com/medium/land_commercial_111482737102850846.jpg", "thumb_width": 80, "title": "Isleport Lane, Highbridge, Somerset, TA9", "updated_in_days": 40, "updated_in_days_formatted": "first seen over a month ago"}, {"bathroom_number": "", "bedroom_number": 2, "car_spaces": 0, "commission": 0, "construction_year": 0, "datasource_name": "NetHousePrices", "img_height": 300, "img_url": "https://imgs.nestimg.com/2_bedroom_detached_house_111699664597824342.jpg", "img_width": 400, "keywords": "Detached, Garden, No Chain, Kitchen, Parking", "latitude": 51.223583, "lister_name": "Palmer Snell", "lister_url": "https://www.nestoria.co.uk/detail/0000000111699664597824342/title/5/75-7?serpUid=&pt=1&ot=1&l=somerset&did=90_high1&t_sec=9&t_or=45&t_pvid=null&utm_source=api&utm_medium=external", "listing_type": "buy", "location_accuracy": 9, "longitude": -2.6715045, "price": 135000, "price_currency": "\u00a3", "price_formatted": "\u00a3135,000", "price_high": 135000, "price_low": 135000, "price_type": "fixed", "property_type": "house", "size": 0, "size_type": "net", "summary": "An three bedroom park home situated in homestead park, in the centr...", "thumb_height": 60, "thumb_url": "https://imgs.nestimg.com/medium/2_bedroom_detached_house_111699664597824342.jpg", "thumb_width": 80, "title": "Homestead Park, Wookey Hole, Wells, Somerset, BA5", "updated_in_days": 5, "updated_in_days_formatted": "first seen 5 days ago"}, {"bathroom_number": "", "bedroom_number": 3, "car_spaces": 0, "commission": 0, "construction_year": 0, "datasource_name": "NetHousePrices", "img_height": 300, "img_url": "https://imgs.nestimg.com/3_bedroom_terraced_house_111662414142223404.jpg", "img_width": 400, "keywords": "Garden, No Chain, Terraced, Kitchen, Parking, Gas Central Heating", "latitude": 50.979927, "lister_name": "Palmer Snell", "lister_url": "https://www.nestoria.co.uk/detail/0000000111662414142223404/title/5/75-8?serpUid=&pt=1&ot=1&l=somerset&did=90_high1&t_sec=9&t_or=45&t_pvid=null&utm_source=api&utm_medium=external", "listing_type": "buy", "location_accuracy": 9, "longitude": -2.7657163, "price": 170000, "price_currency": "\u00a3", "price_formatted": "\u00a3170,000", "price_high": 170000, "price_low": 170000, "price_type": "fixed", "property_type": "house", "size": 0, "size_type": "net", "summary": "A 3 bedroom terraced house with benefits including off road parking...", "thumb_height": 60, "thumb_url": "https://imgs.nestimg.com/medium/3_bedroom_terraced_house_111662414142223404.jpg", "thumb_width": 80, "title": "Stapleton Close, Martock, Somerset, TA12", "updated_in_days": 11, "updated_in_days_formatted": "first seen last week"}, {"bathroom_number": "", "bedroom_number": 3, "car_spaces": 0, "commission": 0, "construction_year": 0, "datasource_name": "NetHousePrices", "img_height": 300, "img_url": "https://imgs.nestimg.com/3_bedroom_ground_flat_111699674265922748.jpg", "img_width": 400, "keywords": "Leasehold, Garden, No Chain, Wood Floor, Kitchen, Gas Central Heating", "latitude": 51.35553, "lister_url": "https://www.nestoria.co.uk/detail/0000000111699674265922748/title/5/75-9?serpUid=&pt=1&ot=1&l=somerset&did=90_high1&t_sec=9&t_or=45&t_pvid=null&utm_source=api&utm_medium=external", "listing_type": "buy", "location_accuracy": 9, "longitude": -2.9919336, "price": 125000, "price_currency": "\u00a3", "price_formatted": "\u00a3125,000", "price_high": 125000, "price_low": 125000, "price_type": "fixed", "property_type": "flat", "size": 0, "size_type": "net", "summary": "Ground floor flat located close to prince consort gardens which is ...", "thumb_height": 60, "thumb_url": "https://imgs.nestimg.com/medium/3_bedroom_ground_flat_111699674265922748.jpg", "thumb_width": 80, "title": "South Road, Weston-super-mare, Somerset, BS23", "updated_in_days": 5, "updated_in_days_formatted": "first seen 5 days ago"}, {"bathroom_number": "", "bedroom_number": 3, "car_spaces": 0, "commission": 0, "construction_year": 0, "datasource_name": "NetHousePrices", "img_height": 300, "img_url": "https://imgs.nestimg.com/3_bedroom_terraced_house_111662411914639427.jpg", "img_width": 400, "keywords": "Garden, Terraced, Kitchen, Dishwasher, Parking", "latitude": 50.977238, "lister_name": "Palmer Snell", "lister_url": "https://www.nestoria.co.uk/detail/0000000111662411914639427/title/5/75-10?serpUid=&pt=1&ot=1&l=somerset&did=90_high1&t_sec=9&t_or=45&t_pvid=null&utm_source=api&utm_medium=external", "listing_type": "buy", "location_accuracy": 9, "longitude": -2.765501, "price": 210000, "price_currency": "\u00a3", "price_formatted": "\u00a3210,000", "price_high": 210000, "price_low": 210000, "price_type": "fixed", "property_type": "house", "size": 0, "size_type": "net", "summary": "A well presented 3 bedroom family home which comes to the market wi...", "thumb_height": 60, "thumb_url": "https://imgs.nestimg.com/medium/3_bedroom_terraced_house_111662411914639427.jpg", "thumb_width": 80, "title": "Whellers Meadow, Martock, Somerset, TA12", "updated_in_days": 11, "updated_in_days_formatted": "first seen last week"}, {"bathroom_number": "", "bedroom_number": 1, "car_spaces": 0, "commission": 0, "construction_year": 0, "datasource_name": "NetHousePrices", "img_height": 300, "img_url": "https://imgs.nestimg.com/1_bedroom_flat_111699676852211144.jpg", "img_width": 400, "keywords": "No Chain, Fireplace, Double Bedroom, Kitchen, Gas Central Heating", "latitude": 51.355762, "lister_url": "https://www.nestoria.co.uk/detail/0000000111699676852211144/title/5/75-11?serpUid=&pt=1&ot=1&l=somerset&did=90_high1&t_sec=9&t_or=45&t_pvid=null&utm_source=api&utm_medium=external", "listing_type": "buy", "location_accuracy": 9, "longitude": -2.9878602, "price": 117500, "price_currency": "\u00a3", "price_formatted": "\u00a3117,500", "price_high": 117500, "price_low": 117500, "price_type": "fixed", "property_type": "flat", "size": 0, "size_type": "net", "summary": "Top floor flat ideally situated on weston hillside. If you are look...", "thumb_height": 60, "thumb_url": "https://imgs.nestimg.com/medium/1_bedroom_flat_111699676852211144.jpg", "thumb_width": 80, "title": "South Road, Weston-super-mare, Somerset, BS23", "updated_in_days": 5, "updated_in_days_formatted": "first seen 5 days ago"}, {"bathroom_number": "", "bedroom_number": "", "car_spaces": 0, "commission": 0, "construction_year": 0, "datasource_name": "NetHousePrices", "img_height": 300, "img_url": "https://imgs.nestimg.com/land_commercial_111482732940672667.jpg", "img_width": 400, "keywords": "New Build, Conversion, Modern, Listed", "latitude": 50.978798, "lister_url": "https://www.nestoria.co.uk/detail/0000000111482732940672667/title/5/75-12?serpUid=&pt=1&ot=1&l=somerset&did=90_high1&t_sec=9&t_or=45&t_pvid=null&utm_source=api&utm_medium=external", "listing_type": "buy", "location_accuracy": 9, "longitude": -3.2330246, "price": 750000, "price_currency": "\u00a3", "price_formatted": "\u00a3750,000", "price_high": 750000, "price_low": 750000, "price_type": "fixed", "property_type": "land", "size": 0, "size_type": "net", "summary": "2.86 acres; mixture of traditional and modern buildings; suitable f...", "thumb_height": 60, "thumb_url": "https://imgs.nestimg.com/medium/land_commercial_111482732940672667.jpg", "thumb_width": 80, "title": "Courtland Road, Wellington, Somerset, TA21", "updated_in_days": 40, "updated_in_days_formatted": "first seen over a month ago"}, {"bathroom_number": "", "bedroom_number": 4, "car_spaces": 0, "commission": 0, "construction_year": 0, "datasource_name": "NetHousePrices", "img_height": 300, "img_url": "https://imgs.nestimg.com/4_bedroom_detached_house_111241440299935365.jpg", "img_width": 400, "keywords": "Detached, Garden, Detached Garage, Fireplace, Double Bedroom, Kitchen, Dishwasher, Modern, Cottage, Reception", "latitude": 51.04495, "lister_name": "Palmer Snell", "lister_url": "https://www.nestoria.co.uk/detail/0000000111241440299935365/title/5/75-13?serpUid=&pt=1&ot=1&l=somerset&did=90_high1&t_sec=9&t_or=45&t_pvid=null&utm_source=api&utm_medium=external", "listing_type": "buy", "location_accuracy": 9, "longitude": -2.806259, "price": 400000, "price_currency": "\u00a3", "price_formatted": "\u00a3400,000", "price_high": 400000, "price_low": 400000, "price_type": "fixed", "property_type": "house", "size": 0, "size_type": "net", "summary": "Teddy bear cottage is a natural stone, character cottage with a mod...", "thumb_height": 60, "thumb_url": "https://imgs.nestimg.com/medium/4_bedroom_detached_house_111241440299935365.jpg", "thumb_width": 80, "title": "Picts Hill, Langport, Somerset, TA10", "updated_in_days": 51, "updated_in_days_formatted": "first seen over a month ago"}, {"bathroom_number": "", "bedroom_number": 3, "car_spaces": 0, "commission": 0, "construction_year": 0, "datasource_name": "NetHousePrices", "img_height": 300, "img_url": "https://imgs.nestimg.com/3_bedroom_barn_conversion_character_property_111482738028789417.jpg", "img_width": 400, "keywords": "New Build, Conversion, Garage, Kitchen", "latitude": 50.922775, "lister_name": "Fulfords", "lister_url": "https://www.nestoria.co.uk/detail/0000000111482738028789417/title/5/75-14?serpUid=&pt=1&ot=1&l=somerset&did=90_high1&t_sec=9&t_or=45&t_pvid=null&utm_source=api&utm_medium=external", "listing_type": "buy", "location_accuracy": 9, "longitude": -3.1081452, "price": 425000, "price_currency": "\u00a3", "price_formatted": "\u00a3425,000", "price_high": 425000, "price_low": 425000, "price_type": "fixed", "property_type": "house", "size": 0, "size_type": "net", "summary": "An and rare opportunity to purchase one of 6 high quality 3 and 4 b...", "thumb_height": 60, "thumb_url": "https://imgs.nestimg.com/medium/3_bedroom_barn_conversion_character_property_111482738028789417.jpg", "thumb_width": 80, "title": "Pitminster, Somerset, TA3", "updated_in_days": 40, "updated_in_days_formatted": "first seen over a month ago"}, {"bathroom_number": "", "bedroom_number": 2, "car_spaces": 0, "commission": 0, "construction_year": 0, "datasource_name": "NetHousePrices", "img_height": 300, "img_url": "https://imgs.nestimg.com/2_bedroom_terraced_house_111656031325183962.jpg", "img_width": 400, "keywords": "Garden, Fireplace, Refurbished, Terraced, Kitchen, Parking, Cottage, Gas Central Heating", "latitude": 50.96195, "lister_name": "Palmer Snell", "lister_url": "https://www.nestoria.co.uk/detail/0000000111656031325183962/title/5/75-15?serpUid=&pt=1&ot=1&l=somerset&did=90_high1&t_sec=9&t_or=45&t_pvid=null&utm_source=api&utm_medium=external", "listing_type": "buy", "location_accuracy": 9, "longitude": -2.774491, "price": 190000, "price_currency": "\u00a3", "price_formatted": "\u00a3190,000", "price_high": 190000, "price_low": 190000, "price_type": "fixed", "property_type": "house", "size": 0, "size_type": "net", "summary": "Tastefully refurbished 'hamstone' fronted period cottage fronting b...", "thumb_height": 60, "thumb_url": "https://imgs.nestimg.com/medium/2_bedroom_terraced_house_111656031325183962.jpg", "thumb_width": 80, "title": "Bower Hinton, Martock, Somerset, TA12", "updated_in_days": 12, "updated_in_days_formatted": "first seen last week"}], "locations": [{"center_lat": 51.080967, "center_long": -3.045432, "long_title": "Somerset, county", "place_name": "somerset", "title": "Somerset"}], "page": 75, "sort": "nestoria_rank", "status_code": "200", "status_text": "OK", "thanks": "For using the Nestoria API.", "total_pages": 410, "total_results": 6149, "_cu5t0mP434m_": "remove"}}