{"request": {"country": "uk", "language": "en", "location": "somerset", "num_res": "15", "offset": 1125, "output": "json_xs", "page": 76, "product_type": "realestate", "property_type": "property", "size_type": "net", "size_unit": "m2", "sort": "nestoria_rank", "listing_type": "buy"}, "response": {"application_response_code": "100", "application_response_text": "listings returned for one unambiguous location", "attribution": {"img_height": 22, "img_url": "https://resources.nestimg.com/nestoria/img/pbr_v1.png", "img_width": 183, "link_to_img": "http://www.nestoria.com"}, "created_http": "Tue, 18 Jun 2019 17:30:33 GMT", "created_unix": 1560879033, "link_to_url": "https://www.nestoria.co.uk/somerset/property/buy/76", "listings": [{"bathroom_number": "", "bedroom_number": 6, "car_spaces": 0, "commission": 0, "construction_year": 0, "datasource_name": "Home.co.uk", "img_height": 300, "img_url": "https://imgs.nestimg.com/detached_house_111711436208041991.jpg", "img_width": 400, "keywords": "Detached, Garden", "latitude": 51.233744, "lister_name": "Crisp Cowley", "lister_url": "https://www.nestoria.co.uk/detail/0000000111711436208041991/title/5/76-1?serpUid=&pt=1&ot=1&l=somerset&did=85_default&t_sec=9&t_or=45&t_pvid=null&utm_source=api&utm_medium=external", "listing_type": "buy", "location_accuracy": 10, "longitude": -2.534868, "price": 1950000, "price_currency": "\u00a3", "price_formatted": "\u00a31,950,000", "price_high": 1950000, "price_low": 1950000, "price_type": "fixed", "property_type": "house", "size": 0, "size_type": "net", "summary": "A 19th century former farmhouse, set within gardens and grounds and...", "thumb_height": 60, "thumb_url": "https://imgs.nestimg.com/medium/detached_house_111711436208041991.jpg", "thumb_width": 80, "title": "Ashwick, Oakhill, Somerset, BA3", "updated_in_days": 3, "updated_in_days_formatted": "first seen 3 days ago"}, {"bathroom_number": "", "bedroom_number": 3, "car_spaces": 0, "commission": 0, "construction_year": 0, "datasource_name": "Home.co.uk", "img_height": 300, "img_url": "https://imgs.nestimg.com/detached_house_109843893665376055.jpg", "img_width": 400, "keywords": "Detached, Freehold", "latitude": 50.935091, "lister_name": "Greenslade Taylor Hunt", "lister_url": "https://www.nestoria.co.uk/detail/0000000109843893665376055/title/5/76-2?serpUid=&pt=1&ot=1&l=somerset&did=85_default&t_sec=9&t_or=45&t_pvid=null&utm_source=api&utm_medium=external", "listing_type": "buy", "location_accuracy": 10, "longitude": -3.017864, "price": 1250000, "price_currency": "\u00a3", "price_formatted": "\u00a31,250,000", "price_high": 1250000, "price_low": 1250000, "price_type": "fixed", "property_type": "house", "size": 0, "size_type": "net", "summary": "An outstanding ring-fenced residential holding centred upon a detac...", "thumb_height": 60, "thumb_url": "https://imgs.nestimg.com/medium/detached_house_109843893665376055.jpg", "thumb_width": 80, "title": "Hare Lane, Buckland St. Mary, Chard, Somerset, TA20", "updated_in_days": 305, "updated_in_days_formatted": "first seen over a month ago"}, {"bathroom_number": "", "bedroom_number": 3, "car_spaces": 0, "commission": 0, "construction_year": 0, "datasource_name": "NetHousePrices", "img_height": 300, "img_url": "https://imgs.nestimg.com/3_bedroom_semi_detached_house_111699663272279551.jpg", "img_width": 400, "keywords": "Garden, Semi-Detached, Conversion, Garage, Kitchen, Reception", "latitude": 51.358757, "lister_name": "Palmer Snell", "lister_url": "https://www.nestoria.co.uk/detail/0000000111699663272279551/title/5/76-3?serpUid=&pt=1&ot=1&l=somerset&did=90_high1&t_sec=9&t_or=45&t_pvid=null&utm_source=api&utm_medium=external", "listing_type": "buy", "location_accuracy": 9, "longitude": -2.9294846, "price": 285000, "price_currency": "\u00a3", "price_formatted": "\u00a3285,000", "price_high": 285000, "price_low": 285000, "price_type": "fixed", "property_type": "house", "size": 0, "size_type": "net", "summary": "This three bedroom semi detached home offers space in abundance thr...", "thumb_height": 60, "thumb_url": "https://imgs.nestimg.com/medium/3_bedroom_semi_detached_house_111699663272279551.jpg", "thumb_width": 80, "title": "Greenwood Road, Weston-super-mare, Somerset, BS22", "updated_in_days": 5, "updated_in_days_formatted": "first seen 5 days ago"}, {"bathroom_number": "", "bedroom_number": 5, "car_spaces": 0, "commission": 0, "construction_year": 0, "datasource_name": "Home.co.uk", "img_height": 300, "img_url": "https://imgs.nestimg.com/detached_house_111411402650913305.jpg", "img_width": 400, "keywords": "Detached, Freehold, Garden, Garage, Modern", "latitude": 51.238146, "lister_name": "Greenslade Taylor Hunt", "lister_url": "https://www.nestoria.co.uk/detail/0000000111411402650913305/title/5/76-4?serpUid=&pt=1&ot=1&l=somerset&did=85_default&t_sec=9&t_or=45&t_pvid=null&utm_source=api&utm_medium=external", "listing_type": "buy", "location_accuracy": 10, "longitude": -2.992925, "price": 289950, "price_currency": "\u00a3", "price_formatted": "\u00a3289,950", "price_high": 289950, "price_low": 289950, "price_type": "fixed", "property_type": "house", "size": 0, "size_type": "net", "summary": "Tenure: freehold this modern extended 4/5 bedroom detached house of...", "thumb_height": 60, "thumb_url": "https://imgs.nestimg.com/medium/detached_house_111411402650913305.jpg", "thumb_width": 80, "title": "Love Lane, Burnham-on-Sea, Somerset, TA8", "updated_in_days": 51, "updated_in_days_formatted": "first seen over a month ago"}, {"bathroom_number": "", "bedroom_number": 3, "car_spaces": 0, "commission": 0, "construction_year": 0, "datasource_name": "NetHousePrices", "img_height": 300, "img_url": "https://imgs.nestimg.com/3_bedroom_detached_bungalow_111680973426957993.jpg", "img_width": 400, "keywords": "Detached, Garden, Double Garage, Kitchen, Bungalow, Gas Central Heating", "latitude": 51.31755, "lister_name": "Cooke", "lister_url": "https://www.nestoria.co.uk/detail/0000000111680973426957993/title/5/76-5?serpUid=&pt=1&ot=1&l=somerset&did=90_high1&t_sec=9&t_or=45&t_pvid=null&utm_source=api&utm_medium=external", "listing_type": "buy", "location_accuracy": 9, "longitude": -2.9625444, "price": 370000, "price_currency": "\u00a3", "price_formatted": "\u00a3370,000", "price_high": 370000, "price_low": 370000, "price_type": "fixed", "property_type": "house", "size": 0, "size_type": "net", "summary": "Elevated detached bungalow taking advantage of the far reaching vie...", "thumb_height": 60, "thumb_url": "https://imgs.nestimg.com/medium/3_bedroom_detached_bungalow_111680973426957993.jpg", "thumb_width": 80, "title": "Channel Heights, Somerset, BS24", "updated_in_days": 8, "updated_in_days_formatted": "first seen last week"}, {"bathroom_number": "", "bedroom_number": 4, "car_spaces": 0, "commission": 0, "construction_year": 0, "datasource_name": "OnTheMarket.com", "img_height": 300, "img_url": "https://imgs.nestimg.com/4_bedroom_equestrian_facility_for_sale_111724142236830661.jpg", "img_width": 400, "keywords": "Semi-Detached, Bungalow", "latitude": 51.1572, "lister_name": "Fine & Country", "lister_url": "https://www.nestoria.co.uk/detail/0000000111724142236830661/title/5/76-6?serpUid=&pt=1&ot=1&l=somerset&did=105_high1&t_sec=9&t_or=45&t_pvid=null&utm_source=api&utm_medium=external", "listing_type": "buy", "location_accuracy": 9, "longitude": -2.91211, "price": 535000, "price_currency": "\u00a3", "price_formatted": "\u00a3535,000", "price_high": 535000, "price_low": 535000, "price_type": "fixed", "property_type": "house", "size": 0, "size_type": "net", "summary": "An equestrian property complete with stabling, manege and paddock, ...", "thumb_height": 60, "thumb_url": "https://imgs.nestimg.com/medium/4_bedroom_equestrian_facility_for_sale_111724142236830661.jpg", "thumb_width": 80, "title": "Middle Road, Cossington - Bungalow", "updated_in_days": 1, "updated_in_days_formatted": "New"}, {"bathroom_number": "", "bedroom_number": 3, "car_spaces": 0, "commission": 0, "construction_year": 0, "datasource_name": "NetHousePrices", "img_height": 300, "img_url": "https://imgs.nestimg.com/3_bedroom_terraced_house_111699662555418780.jpg", "img_width": 400, "keywords": "Garden, En suite, Fireplace, Terraced, Kitchen, Parking", "latitude": 50.94763, "lister_name": "Palmer Snell", "lister_url": "https://www.nestoria.co.uk/detail/0000000111699662555418780/title/5/76-7?serpUid=&pt=1&ot=1&l=somerset&did=90_high1&t_sec=9&t_or=45&t_pvid=null&utm_source=api&utm_medium=external", "listing_type": "buy", "location_accuracy": 9, "longitude": -2.6307218, "price": 170000, "price_currency": "\u00a3", "price_formatted": "\u00a3170,000", "price_high": 170000, "price_low": 170000, "price_type": "fixed", "property_type": "house", "size": 0, "size_type": "net", "summary": "This well presented property, offers a living room, kitchen and bat...", "thumb_height": 60, "thumb_url": "https://imgs.nestimg.com/medium/3_bedroom_terraced_house_111699662555418780.jpg", "thumb_width": 80, "title": "Goldcroft, Yeovil, Somerset, BA21", "updated_in_days": 5, "updated_in_days_formatted": "first seen 5 days ago"}, {"bathroom_number": 2, "bedroom_number": 3, "car_spaces": 0, "commission": 0, "construction_year": 0, "datasource_name": "Home.co.uk", "img_height": 300, "img_url": "https://imgs.nestimg.com/detached_house_111606450404307335.jpg", "img_width": 400, "keywords": "Detached", "latitude": 50.896005, "lister_name": "Greenslade Taylor Hunt", "lister_url": "https://www.nestoria.co.uk/detail/0000000111606450404307335/title/5/76-8?serpUid=&pt=1&ot=1&l=somerset&did=85_default&t_sec=9&t_or=45&t_pvid=null&utm_source=api&utm_medium=external", "listing_type": "buy", "location_accuracy": 10, "longitude": -2.97499, "price": 650000, "price_currency": "\u00a3", "price_formatted": "\u00a3650,000", "price_high": 650000, "price_low": 650000, "price_type": "fixed", "property_type": "house", "size": 0, "size_type": "net", "summary": "An individual architect designed 3 double bedroomed and 2 bathroom ...", "thumb_height": 60, "thumb_url": "https://imgs.nestimg.com/medium/detached_house_111606450404307335.jpg", "thumb_width": 80, "title": "Clayhanger, Chard, Somerset, TA20", "updated_in_days": 20, "updated_in_days_formatted": "first seen 2 weeks ago"}, {"bathroom_number": "", "bedroom_number": 2, "car_spaces": 0, "commission": 0, "construction_year": 0, "datasource_name": "NetHousePrices", "img_height": 300, "img_url": "https://imgs.nestimg.com/2_bedroom_flat_111618889099283717.jpg", "img_width": 400, "keywords": "Grade II, Garage, Kitchen, Lift, Gas Central Heating, Georgian, Listed", "latitude": 50.949383, "lister_name": "Palmer Snell", "lister_url": "https://www.nestoria.co.uk/detail/0000000111618889099283717/title/5/76-9?serpUid=&pt=1&ot=1&l=somerset&did=90_high1&t_sec=9&t_or=45&t_pvid=null&utm_source=api&utm_medium=external", "listing_type": "buy", "location_accuracy": 9, "longitude": -2.8128748, "price": 175000, "price_currency": "\u00a3", "price_formatted": "\u00a3175,000", "price_high": 175000, "price_low": 175000, "price_type": "fixed", "property_type": "flat", "size": 0, "size_type": "net", "summary": "This two bedroom apartment located on the first floor in grade ii l...", "thumb_height": 60, "thumb_url": "https://imgs.nestimg.com/medium/2_bedroom_flat_111618889099283717.jpg", "thumb_width": 80, "title": "Palmer Street, South Petherton, Somerset, TA13", "updated_in_days": 18, "updated_in_days_formatted": "first seen 2 weeks ago"}, {"bathroom_number": "", "bedroom_number": 3, "car_spaces": 0, "commission": 0, "construction_year": 0, "datasource_name": "NetHousePrices", "img_height": 300, "img_url": "https://imgs.nestimg.com/3_bedroom_semi_detached_house_111587778814950513.jpg", "img_width": 400, "keywords": "Semi-Detached, New Build, Garage, Kitchen", "latitude": 51.17128, "lister_name": "Palmer Snell", "lister_url": "https://www.nestoria.co.uk/detail/0000000111587778814950513/title/5/76-10?serpUid=&pt=1&ot=1&l=somerset&did=90_high1&t_sec=9&t_or=45&t_pvid=null&utm_source=api&utm_medium=external", "listing_type": "buy", "location_accuracy": 9, "longitude": -2.7822847, "price": 295000, "price_currency": "\u00a3", "price_formatted": "\u00a3295,000", "price_high": 295000, "price_low": 295000, "price_type": "fixed", "property_type": "house", "size": 0, "size_type": "net", "summary": "Try our virtual 3d tour of the showhome! Follow the link below: new...", "thumb_height": 60, "thumb_url": "https://imgs.nestimg.com/medium/3_bedroom_semi_detached_house_111587778814950513.jpg", "thumb_width": 80, "title": "St Marys Road, Meare, Glastonbury, Somerset, BA6", "updated_in_days": 23, "updated_in_days_formatted": "first seen 3 weeks ago"}, {"bathroom_number": "", "bedroom_number": 4, "car_spaces": 0, "commission": 0, "construction_year": 0, "datasource_name": "NetHousePrices", "img_height": 300, "img_url": "https://imgs.nestimg.com/4_bedroom_detached_house_111587779568158090.jpg", "img_width": 400, "keywords": "Detached, New Build, Double Bedroom, Garage, Kitchen", "latitude": 51.17128, "lister_name": "Palmer Snell", "lister_url": "https://www.nestoria.co.uk/detail/0000000111587779568158090/title/5/76-11?serpUid=&pt=1&ot=1&l=somerset&did=90_high1&t_sec=9&t_or=45&t_pvid=null&utm_source=api&utm_medium=external", "listing_type": "buy", "location_accuracy": 9, "longitude": -2.7822847, "price": 375000, "price_currency": "\u00a3", "price_formatted": "\u00a3375,000", "price_high": 375000, "price_low": 375000, "price_type": "fixed", "property_type": "house", "size": 0, "size_type": "net", "summary": "Try our virtual 3d tour of the showhome! Follow the link below: new...", "thumb_height": 60, "thumb_url": "https://imgs.nestimg.com/medium/4_bedroom_detached_house_111587779568158090.jpg", "thumb_width": 80, "title": "St Marys Road, Meare, Glastonbury, Somerset, BA6", "updated_in_days": 23, "updated_in_days_formatted": "first seen 3 weeks ago"}, {"bathroom_number": "", "bedroom_number": 1, "car_spaces": 0, "commission": 0, "construction_year": 0, "datasource_name": "NetHousePrices", "img_height": 300, "img_url": "https://imgs.nestimg.com/1_bedroom_apartment_flat_111482736801372550.jpg", "img_width": 400, "keywords": "Shared Garden, Fireplace, Garage, Kitchen, Lift", "latitude": 50.927307, "lister_name": "Greenslade Taylor Hunt", "lister_url": "https://www.nestoria.co.uk/detail/0000000111482736801372550/title/5/76-12?serpUid=&pt=1&ot=1&l=somerset&did=90_high1&t_sec=9&t_or=45&t_pvid=null&utm_source=api&utm_medium=external", "listing_type": "buy", "location_accuracy": 9, "longitude": -2.914027, "price": 179500, "price_currency": "\u00a3", "price_formatted": "\u00a3179,500", "price_high": 179500, "price_low": 179500, "price_type": "fixed", "property_type": "flat", "size": 0, "size_type": "net", "summary": "A well proportioned one bedroomed first floor apartment, forming pa...", "thumb_height": 60, "thumb_url": "https://imgs.nestimg.com/medium/1_bedroom_apartment_flat_111482736801372550.jpg", "thumb_width": 80, "title": "Ashcombe Court, Ilminster, Somerset, TA19", "updated_in_days": 40, "updated_in_days_formatted": "first seen over a month ago"}, {"bathroom_number": "", "bedroom_number": 5, "car_spaces": 0, "commission": 0, "construction_year": 0, "datasource_name": "Home.co.uk", "img_height": 300, "img_url": "https://imgs.nestimg.com/detached_house_111477656404190101.jpg", "img_width": 400, "keywords": "Detached, Garden, Double Garage, Conversion", "latitude": 50.868576, "lister_name": "Greenslade Taylor Hunt", "lister_url": "https://www.nestoria.co.uk/detail/0000000111477656404190101/title/5/76-13?serpUid=&pt=1&ot=1&l=somerset&did=85_default&t_sec=9&t_or=45&t_pvid=null&utm_source=api&utm_medium=external", "listing_type": "buy", "location_accuracy": 10, "longitude": -2.838812, "price": 595000, "price_currency": "\u00a3", "price_formatted": "\u00a3595,000", "price_high": 595000, "price_low": 595000, "price_type": "fixed", "property_type": "house", "size": 0, "size_type": "net", "summary": "Detached barn conversion 5 bedrooms countryside location set within...", "thumb_height": 60, "thumb_url": "https://imgs.nestimg.com/medium/detached_house_111477656404190101.jpg", "thumb_width": 80, "title": "Farm Lane, Woolminstone, Crewkerne, Somerset, TA18", "updated_in_days": 8, "updated_in_days_formatted": "first seen last week"}, {"bathroom_number": "", "bedroom_number": 1, "car_spaces": 0, "commission": 0, "construction_year": 0, "datasource_name": "NetHousePrices", "img_height": 300, "img_url": "https://imgs.nestimg.com/1_bedroom_apartment_flat_111482737476470844.jpg", "img_width": 400, "keywords": "Shared Garden, En suite, Kitchen, Parking, Georgian", "latitude": 50.92513, "lister_name": "Greenslade Taylor Hunt", "lister_url": "https://www.nestoria.co.uk/detail/0000000111482737476470844/title/5/76-14?serpUid=&pt=1&ot=1&l=somerset&did=90_high1&t_sec=9&t_or=45&t_pvid=null&utm_source=api&utm_medium=external", "listing_type": "buy", "location_accuracy": 9, "longitude": -2.9094312, "price": 175000, "price_currency": "\u00a3", "price_formatted": "\u00a3175,000", "price_high": 175000, "price_low": 175000, "price_type": "fixed", "property_type": "flat", "size": 0, "size_type": "net", "summary": "A one bedroom ground floor apartment, located in the favoured georg...", "thumb_height": 60, "thumb_url": "https://imgs.nestimg.com/medium/1_bedroom_apartment_flat_111482737476470844.jpg", "thumb_width": 80, "title": "Shudrick Lane, Ilminster, Somerset, TA19", "updated_in_days": 40, "updated_in_days_formatted": "first seen over a month ago"}, {"bathroom_number": "", "bedroom_number": 2, "car_spaces": 0, "commission": 0, "construction_year": 0, "datasource_name": "NetHousePrices", "img_height": 300, "img_url": "https://imgs.nestimg.com/2_bedroom_park_home_mobile_home_110134859966232160.jpg", "img_width": 400, "keywords": "Garden, No Chain, Kitchen, Parking, Gas Central Heating", "latitude": 51.23635, "lister_url": "https://www.nestoria.co.uk/detail/0000000110134859966232160/title/5/76-15?serpUid=&pt=1&ot=1&l=somerset&did=90_high1&t_sec=9&t_or=45&t_pvid=null&utm_source=api&utm_medium=external", "listing_type": "buy", "location_accuracy": 9, "longitude": -2.9517384, "price": 110000, "price_currency": "\u00a3", "price_formatted": "\u00a3110,000", "price_high": 110000, "price_low": 110000, "price_type": "fixed", "property_type": "property", "size": 0, "size_type": "net", "summary": "Park home situated on a site at edithmead which is close to m5, and...", "thumb_height": 60, "thumb_url": "https://imgs.nestimg.com/medium/2_bedroom_park_home_mobile_home_110134859966232160.jpg", "thumb_width": 80, "title": "Edithmead, Somerset, TA9 - Garden", "updated_in_days": 125, "updated_in_days_formatted": "first seen over a month ago"}], "locations": [{"center_lat": 51.080967, "center_long": -3.045432, "long_title": "Somerset, county", "place_name": "somerset", "title": "Somerset"}], "page": 76, "sort": "nestoria_rank", "status_code": "200", "status_text": "OK", "thanks": "For using the Nestoria API.", "total_pages": 410, "total_results": 6149, "_cu5t0mP434m_": "remove"}}