{"request": {"country": "uk", "language": "en", "location": "somerset", "num_res": "15", "offset": 1140, "output": "json_xs", "page": 77, "product_type": "realestate", "property_type": "property", "size_type": "net", "size_unit": "m2", "sort": "nestoria_rank", "listing_type": "buy"}, "response": {"application_response_code": "100", "application_response_text": "listings returned for one unambiguous location", "attribution": {"img_height": 22, "img_url": "https://resources.nestimg.com/nestoria/img/pbr_v1.png", "img_width": 183, "link_to_img": "http://www.nestoria.com"}, "created_http": "Tue, 18 Jun 2019 17:30:34 GMT", "created_unix": 1560879034, "link_to_url": "https://www.nestoria.co.uk/somerset/property/buy/77", "listings": [{"bathroom_number": "", "bedroom_number": 3, "car_spaces": 0, "commission": 0, "construction_year": 0, "datasource_name": "NetHousePrices", "img_height": 300, "img_url": "https://imgs.nestimg.com/3_bedroom_semi_detached_house_111457855334845056.jpg", "img_width": 400, "keywords": "Garden, Semi-Detached, Fireplace, Kitchen, Parking", "latitude": 50.953236, "lister_name": "Palmer Snell", "lister_url": "https://www.nestoria.co.uk/detail/0000000111457855334845056/title/5/77-1?serpUid=&pt=1&ot=1&l=somerset&did=90_high1&t_sec=9&t_or=45&t_pvid=null&utm_source=api&utm_medium=external", "listing_type": "buy", "location_accuracy": 9, "longitude": -2.84674, "price": 215000, "price_currency": "\u00a3", "price_formatted": "\u00a3215,000", "price_high": 215000, "price_low": 215000, "price_type": "fixed", "property_type": "house", "size": 0, "size_type": "net", "summary": "This semi-detached house is situated at the end of a no-through roa...", "thumb_height": 60, "thumb_url": "https://imgs.nestimg.com/medium/3_bedroom_semi_detached_house_111457855334845056.jpg", "thumb_width": 80, "title": "Piece Lane, Shepton Beauchamp, Ilminster, Somerset, TA19", "updated_in_days": 44, "updated_in_days_formatted": "first seen over a month ago"}, {"bathroom_number": "", "bedroom_number": 1, "car_spaces": 0, "commission": 0, "construction_year": 0, "datasource_name": "NetHousePrices", "img_height": 300, "img_url": "https://imgs.nestimg.com/1_bedroom_flat_111519928012085637.jpg", "img_width": 400, "keywords": "No Chain, Double Bedroom, Garage, Kitchen, Gas Central Heating", "latitude": 51.33234, "lister_name": "Palmer Snell", "lister_url": "https://www.nestoria.co.uk/detail/0000000111519928012085637/title/5/77-2?serpUid=&pt=1&ot=1&l=somerset&did=90_high1&t_sec=9&t_or=45&t_pvid=null&utm_source=api&utm_medium=external", "listing_type": "buy", "location_accuracy": 9, "longitude": -2.9811842, "price": 135000, "price_currency": "\u00a3", "price_formatted": "\u00a3135,000", "price_high": 135000, "price_low": 135000, "price_type": "fixed", "property_type": "flat", "size": 0, "size_type": "net", "summary": "This perfectly located one bedroom ground floor apartment is the pe...", "thumb_height": 60, "thumb_url": "https://imgs.nestimg.com/medium/1_bedroom_flat_111519928012085637.jpg", "thumb_width": 80, "title": "Uphill Road North, Weston-super-mare, Somerset, BS23", "updated_in_days": 8, "updated_in_days_formatted": "first seen last week"}, {"bathroom_number": "", "bedroom_number": 4, "car_spaces": 0, "commission": 0, "construction_year": 0, "datasource_name": "Home.co.uk", "img_height": 300, "img_url": "https://imgs.nestimg.com/detached_house_111411402507091851.jpg", "img_width": 400, "keywords": "Detached, Garden, Grade II, No Chain, Listed", "latitude": 51.152693, "lister_name": "Greenslade Taylor Hunt", "lister_url": "https://www.nestoria.co.uk/detail/0000000111411402507091851/title/5/77-3?serpUid=&pt=1&ot=1&l=somerset&did=85_default&t_sec=9&t_or=45&t_pvid=null&utm_source=api&utm_medium=external", "listing_type": "buy", "location_accuracy": 10, "longitude": -3.305885, "price": 695000, "price_currency": "\u00a3", "price_formatted": "\u00a3695,000", "price_high": 695000, "price_low": 695000, "price_type": "fixed", "property_type": "house", "size": 0, "size_type": "net", "summary": "A fine grade ii listed 4 bedroom period house with great potential ...", "thumb_height": 60, "thumb_url": "https://imgs.nestimg.com/medium/detached_house_111411402507091851.jpg", "thumb_width": 80, "title": "Sampford Brett, Taunton, Somerset, TA4", "updated_in_days": 51, "updated_in_days_formatted": "first seen over a month ago"}, {"bathroom_number": 3, "bedroom_number": 5, "car_spaces": 0, "commission": 0, "construction_year": 0, "datasource_name": "Home.co.uk", "img_height": 300, "img_url": "https://imgs.nestimg.com/detached_house_111631007390716764.jpg", "img_width": 400, "keywords": "Detached, Garden, En suite, Balcony, Conversion, Hot tub, Sauna, Kitchen, Parking", "latitude": 51.160908, "lister_name": "Webbers", "lister_url": "https://www.nestoria.co.uk/detail/0000000111631007390716764/title/5/77-4?serpUid=&pt=1&ot=1&l=somerset&did=85_default&t_sec=9&t_or=45&t_pvid=null&utm_source=api&utm_medium=external", "listing_type": "buy", "location_accuracy": 10, "longitude": -3.358388, "price": 550000, "price_currency": "\u00a3", "price_formatted": "\u00a3550,000", "price_high": 550000, "price_low": 550000, "price_type": "fixed", "property_type": "house", "size": 0, "size_type": "net", "summary": "Individual barn conversion country views sitting room with balcony ...", "thumb_height": 60, "thumb_url": "https://imgs.nestimg.com/medium/detached_house_111631007390716764.jpg", "thumb_width": 80, "title": "Washford, Watchet, Somerset - Sauna", "updated_in_days": 16, "updated_in_days_formatted": "first seen 2 weeks ago"}, {"bathroom_number": "", "bedroom_number": 3, "car_spaces": 0, "commission": 0, "construction_year": 0, "datasource_name": "OnTheMarket.com", "img_height": 300, "img_url": "https://imgs.nestimg.com/3_bedroom_detached_house_for_sale_111724139780949586.jpg", "img_width": 400, "keywords": "Detached, Garden, Double Bedroom, Garage, Kitchen", "latitude": 51.0434, "lister_name": "Webbers", "lister_url": "https://www.nestoria.co.uk/detail/0000000111724139780949586/title/5/77-5?serpUid=&pt=1&ot=1&l=somerset&did=105_high1&t_sec=9&t_or=45&t_pvid=null&utm_source=api&utm_medium=external", "listing_type": "buy", "location_accuracy": 9, "longitude": -3.31256, "price": 340000, "price_currency": "\u00a3", "price_formatted": "\u00a3340,000", "price_high": 340000, "price_low": 340000, "price_type": "fixed", "property_type": "house", "size": 0, "size_type": "net", "summary": "An extended and detached three double bedroom house, with gardens, ...", "thumb_height": 60, "thumb_url": "https://imgs.nestimg.com/medium/3_bedroom_detached_house_for_sale_111724139780949586.jpg", "thumb_width": 80, "title": "Market Place, Wiveliscombe - Garden", "updated_in_days": 1, "updated_in_days_formatted": "New"}, {"bathroom_number": "", "bedroom_number": 3, "car_spaces": 0, "commission": 0, "construction_year": 0, "datasource_name": "NetHousePrices", "img_height": 300, "img_url": "https://imgs.nestimg.com/3_bedroom_detached_house_111111782749305059.jpg", "img_width": 400, "keywords": "Detached, Garden, Fireplace, Wood Floor, Double Bedroom, Kitchen, Dishwasher, Parking, Cottage", "latitude": 50.98009, "lister_name": "Palmer Snell", "lister_url": "https://www.nestoria.co.uk/detail/0000000111111782749305059/title/5/77-6?serpUid=&pt=1&ot=1&l=somerset&did=90_high1&t_sec=9&t_or=45&t_pvid=null&utm_source=api&utm_medium=external", "listing_type": "buy", "location_accuracy": 9, "longitude": -2.8195505, "price": 300000, "price_currency": "\u00a3", "price_formatted": "\u00a3300,000", "price_high": 300000, "price_low": 300000, "price_type": "fixed", "property_type": "house", "size": 0, "size_type": "net", "summary": "Detached three bedroom cottage with a wealth of retained features, ...", "thumb_height": 60, "thumb_url": "https://imgs.nestimg.com/medium/3_bedroom_detached_house_111111782749305059.jpg", "thumb_width": 80, "title": "Stembridge, Martock, Somerset, TA12", "updated_in_days": 100, "updated_in_days_formatted": "first seen over a month ago"}, {"bathroom_number": "", "bedroom_number": 3, "car_spaces": 0, "commission": 0, "construction_year": 0, "datasource_name": "NetHousePrices", "img_height": 300, "img_url": "https://imgs.nestimg.com/3_bedroom_terraced_house_111111782749717001.jpg", "img_width": 400, "keywords": "Garden, En suite, Double Garage, Fireplace, High Ceilings, Terraced, Victorian, Double Bedroom, Kitchen, Cellar, Listed", "latitude": 50.96807, "lister_name": "Palmer Snell", "lister_url": "https://www.nestoria.co.uk/detail/0000000111111782749717001/title/5/77-7?serpUid=&pt=1&ot=1&l=somerset&did=90_high1&t_sec=9&t_or=45&t_pvid=null&utm_source=api&utm_medium=external", "listing_type": "buy", "location_accuracy": 9, "longitude": -2.8318, "price": 385000, "price_currency": "\u00a3", "price_formatted": "\u00a3385,000", "price_high": 385000, "price_low": 385000, "price_type": "fixed", "property_type": "house", "size": 0, "size_type": "net", "summary": "Grade 11 listed late georgian/early victorian property in a rural h...", "thumb_height": 60, "thumb_url": "https://imgs.nestimg.com/medium/3_bedroom_terraced_house_111111782749717001.jpg", "thumb_width": 80, "title": "New Cross, South Petherton, Somerset, TA13", "updated_in_days": 100, "updated_in_days_formatted": "first seen over a month ago"}, {"bathroom_number": "", "bedroom_number": 5, "car_spaces": 0, "commission": 0, "construction_year": 0, "datasource_name": "Home.co.uk", "img_height": 300, "img_url": "https://imgs.nestimg.com/detached_house_111186274507067211.jpg", "img_width": 400, "keywords": "Detached", "latitude": 51.242519, "lister_url": "https://www.nestoria.co.uk/detail/0000000111186274507067211/title/5/77-8?serpUid=&pt=1&ot=1&l=somerset&did=85_default&t_sec=9&t_or=45&t_pvid=null&utm_source=api&utm_medium=external", "listing_type": "buy", "location_accuracy": 10, "longitude": -2.930228, "price": 1200000, "price_currency": "\u00a3", "price_formatted": "\u00a31,200,000", "price_high": 1200000, "price_low": 1200000, "price_type": "fixed", "property_type": "house", "size": 0, "size_type": "net", "summary": "Family home with the added benefit of two buildings with full plann...", "thumb_height": 60, "thumb_url": "https://imgs.nestimg.com/medium/detached_house_111186274507067211.jpg", "thumb_width": 80, "title": "Willow Tree Farm, Vole Road, MARK, Somerset", "updated_in_days": 88, "updated_in_days_formatted": "first seen over a month ago"}, {"bathroom_number": "", "bedroom_number": 2, "car_spaces": 0, "commission": 0, "construction_year": 0, "datasource_name": "NetHousePrices", "img_height": 300, "img_url": "https://imgs.nestimg.com/2_bedroom_detached_house_111495007921180620.jpg", "img_width": 400, "keywords": "Detached, Garden, No Chain, Fireplace, Double Bedroom, Garage, Kitchen, Dishwasher", "latitude": 51.005554, "lister_name": "Palmer Snell", "lister_url": "https://www.nestoria.co.uk/detail/0000000111495007921180620/title/5/77-9?serpUid=&pt=1&ot=1&l=somerset&did=90_high1&t_sec=9&t_or=45&t_pvid=null&utm_source=api&utm_medium=external", "listing_type": "buy", "location_accuracy": 9, "longitude": -2.765611, "price": 85000, "price_currency": "\u00a3", "price_formatted": "\u00a385,000", "price_high": 85000, "price_low": 85000, "price_type": "fixed", "property_type": "property", "size": 0, "size_type": "net", "summary": "Detached, double unit, mobile home in a favoured position with far ...", "thumb_height": 60, "thumb_url": "https://imgs.nestimg.com/medium/2_bedroom_detached_house_111495007921180620.jpg", "thumb_width": 80, "title": "College Close, Long Load, Langport, Somerset, TA10", "updated_in_days": 38, "updated_in_days_formatted": "first seen over a month ago"}, {"bathroom_number": "", "bedroom_number": 4, "car_spaces": 0, "commission": 0, "construction_year": 0, "datasource_name": "OnTheMarket.com", "img_height": 300, "img_url": "https://imgs.nestimg.com/4_bedroom_detached_house_for_sale_111717697544680570.jpg", "img_width": 400, "keywords": "Detached, En suite, Double Garage, Kitchen, Gas Central Heating", "latitude": 51.0274, "lister_url": "https://www.nestoria.co.uk/detail/0000000111717697544680570/title/5/77-10?serpUid=&pt=1&ot=1&l=somerset&did=105_high1&t_sec=9&t_or=45&t_pvid=null&utm_source=api&utm_medium=external", "listing_type": "buy", "location_accuracy": 9, "longitude": -3.063853, "price": 440000, "price_currency": "\u00a3", "price_formatted": "\u00a3440,000", "price_high": 440000, "price_low": 440000, "price_type": "fixed", "property_type": "house", "size": 0, "size_type": "net", "summary": "A ly presented detached family home with planning permission to ext...", "thumb_height": 60, "thumb_url": "https://imgs.nestimg.com/medium/4_bedroom_detached_house_for_sale_111717697544680570.jpg", "thumb_width": 80, "title": "St Quintins Park, Bathpool - Detached", "updated_in_days": 2, "updated_in_days_formatted": "first seen 2 days ago"}, {"bathroom_number": "", "bedroom_number": 3, "car_spaces": 0, "commission": 0, "construction_year": 0, "datasource_name": "NetHousePrices", "img_height": 300, "img_url": "https://imgs.nestimg.com/3_bedroom_bungalow_111612971600688098.jpg", "img_width": 400, "keywords": "Detached, Garden, Conservatory, Fireplace, Garage, Kitchen, Bungalow, Reception", "latitude": 50.981106, "lister_name": "Palmer Snell", "lister_url": "https://www.nestoria.co.uk/detail/0000000111612971600688098/title/5/77-11?serpUid=&pt=1&ot=1&l=somerset&did=90_high1&t_sec=9&t_or=45&t_pvid=null&utm_source=api&utm_medium=external", "listing_type": "buy", "location_accuracy": 9, "longitude": -2.7444532, "price": 325000, "price_currency": "\u00a3", "price_formatted": "\u00a3325,000", "price_high": 325000, "price_low": 325000, "price_type": "fixed", "property_type": "house", "size": 0, "size_type": "net", "summary": "Detached 3 bedroom bungalow in the village of ash. The property has...", "thumb_height": 60, "thumb_url": "https://imgs.nestimg.com/medium/3_bedroom_bungalow_111612971600688098.jpg", "thumb_width": 80, "title": "Main Street, Ash, Martock, Somerset, TA12", "updated_in_days": 19, "updated_in_days_formatted": "first seen 2 weeks ago"}, {"bathroom_number": "", "bedroom_number": 2, "car_spaces": 0, "commission": 0, "construction_year": 0, "datasource_name": "NetHousePrices", "img_height": 300, "img_url": "https://imgs.nestimg.com/2_bedroom_bungalow_111587777562727221.jpg", "img_width": 400, "keywords": "Garden, Semi-Detached, No Chain, Conservatory, Fireplace, Garage, Kitchen, Bungalow, Patio", "latitude": 50.960438, "lister_name": "Palmer Snell", "lister_url": "https://www.nestoria.co.uk/detail/0000000111587777562727221/title/5/77-12?serpUid=&pt=1&ot=1&l=somerset&did=90_high1&t_sec=9&t_or=45&t_pvid=null&utm_source=api&utm_medium=external", "listing_type": "buy", "location_accuracy": 9, "longitude": -2.7781823, "price": 210000, "price_currency": "\u00a3", "price_formatted": "\u00a3210,000", "price_high": 210000, "price_low": 210000, "price_type": "fixed", "property_type": "house", "size": 0, "size_type": "net", "summary": "This semi-detached bungalow is offered with no onward chain and is ...", "thumb_height": 60, "thumb_url": "https://imgs.nestimg.com/medium/2_bedroom_bungalow_111587777562727221.jpg", "thumb_width": 80, "title": "Broadway, Bower Hinton, Martock, Somerset, TA12", "updated_in_days": 23, "updated_in_days_formatted": "first seen 3 weeks ago"}, {"bathroom_number": "", "bedroom_number": 3, "car_spaces": 0, "commission": 0, "construction_year": 0, "datasource_name": "NetHousePrices", "img_height": 300, "img_url": "https://imgs.nestimg.com/3_bedroom_detached_bungalow_110635562006928519.jpg", "img_width": 400, "keywords": "Detached, Garden, Conservatory, Detached Garage, Fireplace, Kitchen, Bungalow, Patio, Reception, Gas Central Heating", "latitude": 50.949844, "lister_name": "Express", "lister_url": "https://www.nestoria.co.uk/detail/0000000110635562006928519/title/5/77-13?serpUid=&pt=1&ot=1&l=somerset&did=90_high1&t_sec=9&t_or=45&t_pvid=null&utm_source=api&utm_medium=external", "listing_type": "buy", "location_accuracy": 9, "longitude": -2.816584, "price": 270000, "price_currency": "\u00a3", "price_formatted": "\u00a3270,000", "price_high": 270000, "price_low": 270000, "price_type": "fixed", "property_type": "house", "size": 0, "size_type": "net", "summary": "Three bedroom detached bungalow all interest and offers are invited...", "thumb_height": 60, "thumb_url": "https://imgs.nestimg.com/medium/3_bedroom_detached_bungalow_110635562006928519.jpg", "thumb_width": 80, "title": "Beaufort Gardens, South Petherton, Somerset, TA13", "updated_in_days": 37, "updated_in_days_formatted": "first seen over a month ago"}, {"bathroom_number": "", "bedroom_number": "", "car_spaces": 0, "commission": 0, "construction_year": 0, "datasource_name": "Home.co.uk", "img_height": 300, "img_url": "https://imgs.nestimg.com/detached_house_111600287214969982.jpg", "img_width": 400, "keywords": "Detached, Auction", "latitude": 50.977593, "lister_name": "Greenslade Taylor Hunt", "lister_url": "https://www.nestoria.co.uk/detail/0000000111600287214969982/title/5/77-14?serpUid=&pt=1&ot=1&l=somerset&did=85_default&t_sec=9&t_or=45&t_pvid=null&utm_source=api&utm_medium=external", "listing_type": "buy", "location_accuracy": 10, "longitude": -2.753103, "price": 25000, "price_currency": "\u00a3", "price_formatted": "\u00a325,000", "price_high": 25000, "price_low": 25000, "price_type": "fixed", "property_type": "house", "size": 0, "size_type": "net", "summary": "Lot 2: pasture land at stoke road, in total extending to 2.26 acres...", "thumb_height": 60, "thumb_url": "https://imgs.nestimg.com/medium/detached_house_111600287214969982.jpg", "thumb_width": 80, "title": "Land & Buildings Adjoining Stoke Rd, Martock, Somerset, TA12", "updated_in_days": 21, "updated_in_days_formatted": "first seen 3 weeks ago"}, {"bathroom_number": "", "bedroom_number": 2, "car_spaces": 0, "commission": 0, "construction_year": 0, "datasource_name": "NetHousePrices", "img_height": 300, "img_url": "https://imgs.nestimg.com/2_bedroom_flat_111365857980450820.jpg", "img_width": 400, "keywords": "No Chain, Wood Floor, Double Bedroom, Kitchen, Modern, Parking", "latitude": 50.88374, "lister_name": "Palmer Snell", "lister_url": "https://www.nestoria.co.uk/detail/0000000111365857980450820/title/5/77-15?serpUid=&pt=1&ot=1&l=somerset&did=90_high1&t_sec=9&t_or=45&t_pvid=null&utm_source=api&utm_medium=external", "listing_type": "buy", "location_accuracy": 9, "longitude": -2.7971036, "price": 115000, "price_currency": "\u00a3", "price_formatted": "\u00a3115,000", "price_high": 115000, "price_low": 115000, "price_type": "fixed", "property_type": "flat", "size": 0, "size_type": "net", "summary": "This well presented two bedroom apartment is centrally situated wit...", "thumb_height": 60, "thumb_url": "https://imgs.nestimg.com/medium/2_bedroom_flat_111365857980450820.jpg", "thumb_width": 80, "title": "Oxen Road, Crewkerne, Somerset, TA18", "updated_in_days": 10, "updated_in_days_formatted": "first seen last week"}], "locations": [{"center_lat": 51.080967, "center_long": -3.045432, "long_title": "Somerset, county", "place_name": "somerset", "title": "Somerset"}], "page": 77, "sort": "nestoria_rank", "status_code": "200", "status_text": "OK", "thanks": "For using the Nestoria API.", "total_pages": 410, "total_results": 6149, "_cu5t0mP434m_": "remove"}}