{"request": {"country": "uk", "language": "en", "location": "somerset", "num_res": "15", "offset": 1155, "output": "json_xs", "page": 78, "product_type": "realestate", "property_type": "property", "size_type": "net", "size_unit": "m2", "sort": "nestoria_rank", "listing_type": "buy"}, "response": {"application_response_code": "100", "application_response_text": "listings returned for one unambiguous location", "attribution": {"img_height": 22, "img_url": "https://resources.nestimg.com/nestoria/img/pbr_v1.png", "img_width": 183, "link_to_img": "http://www.nestoria.com"}, "created_http": "Tue, 18 Jun 2019 17:30:36 GMT", "created_unix": 1560879036, "link_to_url": "https://www.nestoria.co.uk/somerset/property/buy/78", "listings": [{"bathroom_number": "", "bedroom_number": 5, "car_spaces": 0, "commission": 0, "construction_year": 0, "datasource_name": "NetHousePrices", "img_height": 300, "img_url": "https://imgs.nestimg.com/5_bedroom_detached_house_110555413724871854.jpg", "img_width": 400, "keywords": "Detached, Garden, En suite, Double Garage, Fireplace, Modern, Reception", "latitude": 50.915688, "lister_url": "https://www.nestoria.co.uk/detail/0000000110555413724871854/title/5/78-1?serpUid=&pt=1&ot=1&l=somerset&did=90_high1&t_sec=9&t_or=45&t_pvid=null&utm_source=api&utm_medium=external", "listing_type": "buy", "location_accuracy": 9, "longitude": -3.1572258, "price": 500000, "price_currency": "\u00a3", "price_formatted": "\u00a3500,000", "price_high": 500000, "price_low": 500000, "price_type": "fixed", "property_type": "house", "size": 0, "size_type": "net", "summary": "A most individually built, detached modern home boasting three rece...", "thumb_height": 60, "thumb_url": "https://imgs.nestimg.com/medium/5_bedroom_detached_house_110555413724871854.jpg", "thumb_width": 80, "title": "Stapley, Taunton, Somerset, TA3", "updated_in_days": 190, "updated_in_days_formatted": "first seen over a month ago"}, {"bathroom_number": "", "bedroom_number": 2, "car_spaces": 0, "commission": 0, "construction_year": 0, "datasource_name": "Home.co.uk", "img_height": 300, "img_url": "https://imgs.nestimg.com/flatapartment_111693335060408757.jpg", "img_width": 400, "keywords": "", "latitude": 51.208799, "lister_name": "Greenslade Taylor Hunt", "lister_url": "https://www.nestoria.co.uk/detail/0000000111693335060408757/title/5/78-2?serpUid=&pt=1&ot=1&l=somerset&did=85_default&t_sec=9&t_or=45&t_pvid=null&utm_source=api&utm_medium=external", "listing_type": "buy", "location_accuracy": 10, "longitude": -3.473182, "price": 285000, "price_currency": "\u00a3", "price_formatted": "\u00a3285,000", "price_high": 285000, "price_low": 285000, "price_type": "fixed", "property_type": "flat", "size": 0, "size_type": "net", "summary": "Launch event saturday 1st june 10 -2pm book your appointment and be...", "thumb_height": 60, "thumb_url": "https://imgs.nestimg.com/medium/flatapartment_111693335060408757.jpg", "thumb_width": 80, "title": "Farley, The Waterfront, Esplanade, Minehead, Somerset, TA24", "updated_in_days": 6, "updated_in_days_formatted": "first seen 6 days ago"}, {"bathroom_number": "", "bedroom_number": 2, "car_spaces": 0, "commission": 0, "construction_year": 0, "datasource_name": "Home.co.uk", "img_height": 300, "img_url": "https://imgs.nestimg.com/terraced_house_111662367170272190.jpg", "img_width": 400, "keywords": "Garden, Grade II, Terraced, Cottage, Listed", "latitude": 50.889419, "lister_url": "https://www.nestoria.co.uk/detail/0000000111662367170272190/title/5/78-3?serpUid=&pt=1&ot=1&l=somerset&did=85_default&t_sec=9&t_or=45&t_pvid=null&utm_source=api&utm_medium=external", "listing_type": "buy", "location_accuracy": 10, "longitude": -2.795454, "price": 165000, "price_currency": "\u00a3", "price_formatted": "\u00a3165,000", "price_high": 165000, "price_low": 165000, "price_type": "fixed", "property_type": "house", "size": 0, "size_type": "net", "summary": "A grade ii listed end terrace cottage situated on the northern side...", "thumb_height": 60, "thumb_url": "https://imgs.nestimg.com/medium/terraced_house_111662367170272190.jpg", "thumb_width": 80, "title": "Crewkerne, Crewkerne North, Somerset", "updated_in_days": 11, "updated_in_days_formatted": "first seen last week"}, {"bathroom_number": "", "bedroom_number": 2, "car_spaces": 0, "commission": 0, "construction_year": 0, "datasource_name": "NetHousePrices", "img_height": 300, "img_url": "https://imgs.nestimg.com/2_bedroom_flat_111457856349021591.jpg", "img_width": 400, "keywords": "Garden, Fireplace, Kitchen, Patio, Gas Central Heating", "latitude": 50.948956, "lister_name": "Palmer Snell", "lister_url": "https://www.nestoria.co.uk/detail/0000000111457856349021591/title/5/78-4?serpUid=&pt=1&ot=1&l=somerset&did=90_high1&t_sec=9&t_or=45&t_pvid=null&utm_source=api&utm_medium=external", "listing_type": "buy", "location_accuracy": 9, "longitude": -2.8097782, "price": 189000, "price_currency": "\u00a3", "price_formatted": "\u00a3189,000", "price_high": 189000, "price_low": 189000, "price_type": "fixed", "property_type": "flat", "size": 0, "size_type": "net", "summary": "Individual and intriguing first floor apartment, centrally situated...", "thumb_height": 60, "thumb_url": "https://imgs.nestimg.com/medium/2_bedroom_flat_111457856349021591.jpg", "thumb_width": 80, "title": "Market Square, South Petherton, Somerset, TA13", "updated_in_days": 39, "updated_in_days_formatted": "first seen over a month ago"}, {"bathroom_number": "", "bedroom_number": 4, "car_spaces": 0, "commission": 0, "construction_year": 0, "datasource_name": "NetHousePrices", "img_height": 300, "img_url": "https://imgs.nestimg.com/4_bedroom_terraced_house_111111780659227943.jpg", "img_width": 400, "keywords": "Garden, Fireplace, Terraced, Victorian, Kitchen, Reception, Gas Central Heating", "latitude": 50.94732, "lister_name": "Palmer Snell", "lister_url": "https://www.nestoria.co.uk/detail/0000000111111780659227943/title/5/78-5?serpUid=&pt=1&ot=1&l=somerset&did=90_high1&t_sec=9&t_or=45&t_pvid=null&utm_source=api&utm_medium=external", "listing_type": "buy", "location_accuracy": 9, "longitude": -2.6187177, "price": 210000, "price_currency": "\u00a3", "price_formatted": "\u00a3210,000", "price_high": 210000, "price_low": 210000, "price_type": "fixed", "property_type": "house", "size": 0, "size_type": "net", "summary": "Victorian property, well situated within the ever st michaels road ...", "thumb_height": 60, "thumb_url": "https://imgs.nestimg.com/medium/4_bedroom_terraced_house_111111780659227943.jpg", "thumb_width": 80, "title": "St Michaels Road, Yeovil, Somerset, BA21", "updated_in_days": 6, "updated_in_days_formatted": "first seen 6 days ago"}, {"bathroom_number": 1, "bedroom_number": 2, "car_spaces": 0, "commission": 0, "construction_year": 0, "datasource_name": "NetHousePrices", "img_height": 300, "img_url": "https://imgs.nestimg.com/2_bedroom_bungalow_111457855628107051.jpg", "img_width": 400, "keywords": "Garden, Conservatory, Double Bedroom, Garage, Kitchen, Bungalow, Patio, Gas Central Heating", "latitude": 50.94791, "lister_name": "Palmer Snell", "lister_url": "https://www.nestoria.co.uk/detail/0000000111457855628107051/title/5/78-6?serpUid=&pt=1&ot=1&l=somerset&did=90_high1&t_sec=9&t_or=45&t_pvid=null&utm_source=api&utm_medium=external", "listing_type": "buy", "location_accuracy": 9, "longitude": -2.812721, "price": 190000, "price_currency": "\u00a3", "price_formatted": "\u00a3190,000", "price_high": 190000, "price_low": 190000, "price_type": "fixed", "property_type": "house", "size": 0, "size_type": "net", "summary": "This well presented bungalow offers good sized, flexible accommodat...", "thumb_height": 60, "thumb_url": "https://imgs.nestimg.com/medium/2_bedroom_bungalow_111457855628107051.jpg", "thumb_width": 80, "title": "Summer Shard, South Petherton, Somerset, TA13", "updated_in_days": 44, "updated_in_days_formatted": "first seen over a month ago"}, {"bathroom_number": "", "bedroom_number": 2, "car_spaces": 0, "commission": 0, "construction_year": 0, "datasource_name": "Home.co.uk", "img_height": 300, "img_url": "https://imgs.nestimg.com/detached_house_111662367055504986.jpg", "img_width": 400, "keywords": "Detached, Bungalow, Modern", "latitude": 50.890296, "lister_url": "https://www.nestoria.co.uk/detail/0000000111662367055504986/title/5/78-7?serpUid=&pt=1&ot=1&l=somerset&did=85_default&t_sec=9&t_or=45&t_pvid=null&utm_source=api&utm_medium=external", "listing_type": "buy", "location_accuracy": 10, "longitude": -2.78681, "price": 265000, "price_currency": "\u00a3", "price_formatted": "\u00a3265,000", "price_high": 265000, "price_low": 265000, "price_type": "fixed", "property_type": "house", "size": 0, "size_type": "net", "summary": "A modern two bedroom detached bungalow having gas fired central hea...", "thumb_height": 60, "thumb_url": "https://imgs.nestimg.com/medium/detached_house_111662367055504986.jpg", "thumb_width": 80, "title": "Crewkerne, Crewkerne North, Somerset", "updated_in_days": 11, "updated_in_days_formatted": "first seen last week"}, {"bathroom_number": "", "bedroom_number": 2, "car_spaces": 0, "commission": 0, "construction_year": 0, "datasource_name": "Home.co.uk", "img_height": 300, "img_url": "https://imgs.nestimg.com/terraced_house_111662364446510545.jpg", "img_width": 400, "keywords": "Detached, Garden, Detached Garage, Terraced, Cottage, Reception", "latitude": 50.883701, "lister_url": "https://www.nestoria.co.uk/detail/0000000111662364446510545/title/5/78-8?serpUid=&pt=1&ot=1&l=somerset&did=85_default&t_sec=9&t_or=45&t_pvid=null&utm_source=api&utm_medium=external", "listing_type": "buy", "location_accuracy": 10, "longitude": -2.797773, "price": 225000, "price_currency": "\u00a3", "price_formatted": "\u00a3225,000", "price_high": 225000, "price_low": 225000, "price_type": "fixed", "property_type": "house", "size": 0, "size_type": "net", "summary": "An extended end terrace two bedroom, two reception room cottage sit...", "thumb_height": 60, "thumb_url": "https://imgs.nestimg.com/medium/terraced_house_111662364446510545.jpg", "thumb_width": 80, "title": "Crewkerne, Crewkerne Town, Somerset", "updated_in_days": 11, "updated_in_days_formatted": "first seen last week"}, {"bathroom_number": "", "bedroom_number": 2, "car_spaces": 0, "commission": 0, "construction_year": 0, "datasource_name": "NetHousePrices", "img_height": 300, "img_url": "https://imgs.nestimg.com/2_bedroom_flat_111680965475047933.jpg", "img_width": 400, "keywords": "Shared Garden, No Chain, Kitchen, Lift, Parking", "latitude": 51.354313, "lister_url": "https://www.nestoria.co.uk/detail/0000000111680965475047933/title/5/78-9?serpUid=&pt=1&ot=1&l=somerset&did=90_high1&t_sec=9&t_or=45&t_pvid=null&utm_source=api&utm_medium=external", "listing_type": "buy", "location_accuracy": 9, "longitude": -2.991376, "price": 130000, "price_currency": "\u00a3", "price_formatted": "\u00a3130,000", "price_high": 130000, "price_low": 130000, "price_type": "fixed", "property_type": "flat", "size": 0, "size_type": "net", "summary": "Top floor flat with the most sea views. If you love a view and want...", "thumb_height": 60, "thumb_url": "https://imgs.nestimg.com/medium/2_bedroom_flat_111680965475047933.jpg", "thumb_width": 80, "title": "Madeira Road, Weston-super-mare, Somerset, BS23", "updated_in_days": 8, "updated_in_days_formatted": "first seen last week"}, {"bathroom_number": "", "bedroom_number": 8, "car_spaces": 0, "commission": 0, "construction_year": 0, "datasource_name": "NetHousePrices", "img_height": 300, "img_url": "https://imgs.nestimg.com/8_bedroom_semi_detached_house_111680975021550257.jpg", "img_width": 400, "keywords": "Garden, Needs Modernisation, Semi-Detached, Auction, Double Garage, Victorian", "latitude": 51.35364, "lister_url": "https://www.nestoria.co.uk/detail/0000000111680975021550257/title/5/78-10?serpUid=&pt=1&ot=1&l=somerset&did=90_high1&t_sec=9&t_or=45&t_pvid=null&utm_source=api&utm_medium=external", "listing_type": "buy", "location_accuracy": 9, "longitude": -2.9824436, "price": 290000, "price_currency": "\u00a3", "price_formatted": "\u00a3290,000", "price_high": 290000, "price_low": 290000, "price_type": "fixed", "property_type": "house", "size": 0, "size_type": "net", "summary": "For sale by auction on tuesday, 30 july 2019 at 19:00 venue: ashton...", "thumb_height": 60, "thumb_url": "https://imgs.nestimg.com/medium/8_bedroom_semi_detached_house_111680975021550257.jpg", "thumb_width": 80, "title": "Victoria Park, Weston-super-mare, Somerset, BS23", "updated_in_days": 8, "updated_in_days_formatted": "first seen last week"}, {"bathroom_number": "", "bedroom_number": 2, "car_spaces": 0, "commission": 0, "construction_year": 0, "datasource_name": "NetHousePrices", "img_height": 300, "img_url": "https://imgs.nestimg.com/2_bedroom_flat_111334421620303517.jpg", "img_width": 400, "keywords": "No Chain, Kitchen, Parking", "latitude": 51.275158, "lister_url": "https://www.nestoria.co.uk/detail/0000000111334421620303517/title/5/78-11?serpUid=&pt=1&ot=1&l=somerset&did=90_high1&t_sec=9&t_or=45&t_pvid=null&utm_source=api&utm_medium=external", "listing_type": "buy", "location_accuracy": 9, "longitude": -3.0110033, "price": 100000, "price_currency": "\u00a3", "price_formatted": "\u00a3100,000", "price_high": 100000, "price_low": 100000, "price_type": "fixed", "property_type": "flat", "size": 0, "size_type": "net", "summary": "Priced to sell first time buyer friendly ideal investment opportuni...", "thumb_height": 60, "thumb_url": "https://imgs.nestimg.com/medium/2_bedroom_flat_111334421620303517.jpg", "thumb_width": 80, "title": "Hurn Lane, Berrow, Burnham-on-sea, Somerset, TA8", "updated_in_days": 64, "updated_in_days_formatted": "first seen over a month ago"}, {"bathroom_number": "", "bedroom_number": 4, "car_spaces": 0, "commission": 0, "construction_year": 0, "datasource_name": "NetHousePrices", "img_height": 300, "img_url": "https://imgs.nestimg.com/4_bedroom_semi_detached_house_111111779174203324.jpg", "img_width": 400, "keywords": "Garden, Semi-Detached, No Chain, Kitchen, Parking, Gas Central Heating", "latitude": 51.05274, "lister_name": "Palmer Snell", "lister_url": "https://www.nestoria.co.uk/detail/0000000111111779174203324/title/5/78-12?serpUid=&pt=1&ot=1&l=somerset&did=90_high1&t_sec=9&t_or=45&t_pvid=null&utm_source=api&utm_medium=external", "listing_type": "buy", "location_accuracy": 9, "longitude": -2.743219, "price": 230000, "price_currency": "\u00a3", "price_formatted": "\u00a3230,000", "price_high": 230000, "price_low": 230000, "price_type": "fixed", "property_type": "house", "size": 0, "size_type": "net", "summary": "This extended semi detached property is well presented and offers a...", "thumb_height": 60, "thumb_url": "https://imgs.nestimg.com/medium/4_bedroom_semi_detached_house_111111779174203324.jpg", "thumb_width": 80, "title": "Sevenacres, Somerton, Somerset, TA11", "updated_in_days": 90, "updated_in_days_formatted": "first seen over a month ago"}, {"bathroom_number": "", "bedroom_number": 3, "car_spaces": 0, "commission": 0, "construction_year": 0, "datasource_name": "OnTheMarket.com", "img_height": 300, "img_url": "https://imgs.nestimg.com/3_bedroom_semi_detached_house_for_sale_111717699007835539.jpg", "img_width": 400, "keywords": "Semi-Detached, En suite, Double Bedroom, Garage, Modern", "latitude": 51.1134, "lister_url": "https://www.nestoria.co.uk/detail/0000000111717699007835539/title/5/78-13?serpUid=&pt=1&ot=1&l=somerset&did=105_high1&t_sec=9&t_or=45&t_pvid=null&utm_source=api&utm_medium=external", "listing_type": "buy", "location_accuracy": 9, "longitude": -3.01787, "price": 230000, "price_currency": "\u00a3", "price_formatted": "\u00a3230,000", "price_high": 230000, "price_low": 230000, "price_type": "fixed", "property_type": "house", "size": 0, "size_type": "net", "summary": "A 3 double bedroom semi detached modern townhouse with a whole host...", "thumb_height": 60, "thumb_url": "https://imgs.nestimg.com/medium/3_bedroom_semi_detached_house_for_sale_111717699007835539.jpg", "thumb_width": 80, "title": "Wilstock Village, North Petherton", "updated_in_days": 2, "updated_in_days_formatted": "first seen 2 days ago"}, {"bathroom_number": "", "bedroom_number": 3, "car_spaces": 0, "commission": 0, "construction_year": 0, "datasource_name": "OnTheMarket.com", "img_height": 300, "img_url": "https://imgs.nestimg.com/3_bedroom_end_of_terrace_house_for_sale_111717687855335728.jpg", "img_width": 400, "keywords": "No Chain, Terraced, Garage, Kitchen, Cul-de-Sac, Gas Central Heating", "latitude": 51.136, "lister_url": "https://www.nestoria.co.uk/detail/0000000111717687855335728/title/5/78-14?serpUid=&pt=1&ot=1&l=somerset&did=105_high1&t_sec=9&t_or=45&t_pvid=null&utm_source=api&utm_medium=external", "listing_type": "buy", "location_accuracy": 9, "longitude": -3.00954, "price": 205000, "price_currency": "\u00a3", "price_formatted": "\u00a3205,000", "price_high": 205000, "price_low": 205000, "price_type": "fixed", "property_type": "house", "size": 0, "size_type": "net", "summary": "A well presented three bedroom house with garage and driveway along...", "thumb_height": 60, "thumb_url": "https://imgs.nestimg.com/medium/3_bedroom_end_of_terrace_house_for_sale_111717687855335728.jpg", "thumb_width": 80, "title": "Moravia Close, Bridgwater - No Chain", "updated_in_days": 2, "updated_in_days_formatted": "first seen 2 days ago"}, {"bathroom_number": "", "bedroom_number": "", "car_spaces": 0, "commission": 0, "construction_year": 0, "datasource_name": "NetHousePrices", "img_height": 300, "img_url": "https://imgs.nestimg.com/land_commercial_111482733968577764.jpg", "img_width": 400, "keywords": "", "latitude": 50.882984, "lister_url": "https://www.nestoria.co.uk/detail/0000000111482733968577764/title/5/78-15?serpUid=&pt=1&ot=1&l=somerset&did=90_high1&t_sec=9&t_or=45&t_pvid=null&utm_source=api&utm_medium=external", "listing_type": "buy", "location_accuracy": 9, "longitude": -2.9531898, "price": 1000000, "price_currency": "\u00a3", "price_formatted": "\u00a31,000,000", "price_high": 1000000, "price_low": 1000000, "price_type": "fixed", "property_type": "land", "size": 0, "size_type": "net", "summary": "Residential development land abutting the built-up area of chard; l...", "thumb_height": 60, "thumb_url": "https://imgs.nestimg.com/medium/land_commercial_111482733968577764.jpg", "thumb_width": 80, "title": "Furnham Road, Chard, Somerset, TA20", "updated_in_days": 40, "updated_in_days_formatted": "first seen over a month ago"}], "locations": [{"center_lat": 51.080967, "center_long": -3.045432, "long_title": "Somerset, county", "place_name": "somerset", "title": "Somerset"}], "page": 78, "sort": "nestoria_rank", "status_code": "200", "status_text": "OK", "thanks": "For using the Nestoria API.", "total_pages": 410, "total_results": 6149, "_cu5t0mP434m_": "remove"}}