{"request": {"country": "uk", "language": "en", "location": "somerset", "num_res": "15", "offset": 1170, "output": "json_xs", "page": 79, "product_type": "realestate", "property_type": "property", "size_type": "net", "size_unit": "m2", "sort": "nestoria_rank", "listing_type": "buy"}, "response": {"application_response_code": "100", "application_response_text": "listings returned for one unambiguous location", "attribution": {"img_height": 22, "img_url": "https://resources.nestimg.com/nestoria/img/pbr_v1.png", "img_width": 183, "link_to_img": "http://www.nestoria.com"}, "created_http": "Tue, 18 Jun 2019 17:30:38 GMT", "created_unix": 1560879038, "link_to_url": "https://www.nestoria.co.uk/somerset/property/buy/79", "listings": [{"bathroom_number": "", "bedroom_number": 3, "car_spaces": 0, "commission": 0, "construction_year": 0, "datasource_name": "NetHousePrices", "img_height": 300, "img_url": "https://imgs.nestimg.com/3_bedroom_semi_detached_house_111111780396762774.jpg", "img_width": 400, "keywords": "Garden, Semi-Detached, Fireplace, Garage, Kitchen, Dishwasher, Cottage, Reception, Gas Central Heating", "latitude": 51.055077, "lister_name": "Palmer Snell", "lister_url": "https://www.nestoria.co.uk/detail/0000000111111780396762774/title/5/79-1?serpUid=&pt=1&ot=1&l=somerset&did=90_high1&t_sec=9&t_or=45&t_pvid=null&utm_source=api&utm_medium=external", "listing_type": "buy", "location_accuracy": 9, "longitude": -2.738919, "price": 250000, "price_currency": "\u00a3", "price_formatted": "\u00a3250,000", "price_high": 250000, "price_low": 250000, "price_type": "fixed", "property_type": "house", "size": 0, "size_type": "net", "summary": "Three bed semi detached cottage, situated on langport road in somer...", "thumb_height": 60, "thumb_url": "https://imgs.nestimg.com/medium/3_bedroom_semi_detached_house_111111780396762774.jpg", "thumb_width": 80, "title": "Langport Road, Somerton, Somerset, TA11", "updated_in_days": 100, "updated_in_days_formatted": "first seen over a month ago"}, {"bathroom_number": "", "bedroom_number": 3, "car_spaces": 0, "commission": 0, "construction_year": 0, "datasource_name": "NetHousePrices", "img_height": 300, "img_url": "https://imgs.nestimg.com/3_bedroom_terraced_house_111470389996893233.jpg", "img_width": 400, "keywords": "Garden, En suite, Grade II, No Chain, Fireplace, Refurbished, Terraced, Double Bedroom, Garage, Kitchen, Reception, Listed", "latitude": 50.969845, "lister_name": "Palmer Snell", "lister_url": "https://www.nestoria.co.uk/detail/0000000111470389996893233/title/5/79-2?serpUid=&pt=1&ot=1&l=somerset&did=90_high1&t_sec=9&t_or=45&t_pvid=null&utm_source=api&utm_medium=external", "listing_type": "buy", "location_accuracy": 9, "longitude": -2.7675016, "price": 450000, "price_currency": "\u00a3", "price_formatted": "\u00a3450,000", "price_high": 450000, "price_low": 450000, "price_type": "fixed", "property_type": "house", "size": 0, "size_type": "net", "summary": "Hamstone, grade ii listed, period house, having been recently, symp...", "thumb_height": 60, "thumb_url": "https://imgs.nestimg.com/medium/3_bedroom_terraced_house_111470389996893233.jpg", "thumb_width": 80, "title": "Church Street, Martock, Somerset, TA12", "updated_in_days": 42, "updated_in_days_formatted": "first seen over a month ago"}, {"bathroom_number": "", "bedroom_number": 3, "car_spaces": 0, "commission": 0, "construction_year": 0, "datasource_name": "NetHousePrices", "img_height": 300, "img_url": "https://imgs.nestimg.com/3_bedroom_detached_bungalow_111482733432186903.jpg", "img_width": 400, "keywords": "Detached, Bungalow", "latitude": 50.88067, "lister_url": "https://www.nestoria.co.uk/detail/0000000111482733432186903/title/5/79-3?serpUid=&pt=1&ot=1&l=somerset&did=90_high1&t_sec=9&t_or=45&t_pvid=null&utm_source=api&utm_medium=external", "listing_type": "buy", "location_accuracy": 9, "longitude": -2.9547772, "price": 650000, "price_currency": "\u00a3", "price_formatted": "\u00a3650,000", "price_high": 650000, "price_low": 650000, "price_type": "fixed", "property_type": "house", "size": 0, "size_type": "net", "summary": "Commercial site of 0.708 acres and adjacent bungalowsuitable as inv...", "thumb_height": 60, "thumb_url": "https://imgs.nestimg.com/medium/3_bedroom_detached_bungalow_111482733432186903.jpg", "thumb_width": 80, "title": "Furnham Road, Chard, Somerset, TA20", "updated_in_days": 40, "updated_in_days_formatted": "first seen over a month ago"}, {"bathroom_number": "", "bedroom_number": 5, "car_spaces": 0, "commission": 0, "construction_year": 0, "datasource_name": "NetHousePrices", "img_height": 300, "img_url": "https://imgs.nestimg.com/5_bedroom_terraced_house_111662415107039641.jpg", "img_width": 400, "keywords": "Terraced, Kitchen", "latitude": 51.210453, "lister_name": "Palmer Snell", "lister_url": "https://www.nestoria.co.uk/detail/0000000111662415107039641/title/5/79-4?serpUid=&pt=1&ot=1&l=somerset&did=90_high1&t_sec=9&t_or=45&t_pvid=null&utm_source=api&utm_medium=external", "listing_type": "buy", "location_accuracy": 9, "longitude": -2.6889505, "price": 275000, "price_currency": "\u00a3", "price_formatted": "\u00a3275,000", "price_high": 275000, "price_low": 275000, "price_type": "fixed", "property_type": "house", "size": 0, "size_type": "net", "summary": "Tremendous five bedroom extended home with countryside views situat...", "thumb_height": 60, "thumb_url": "https://imgs.nestimg.com/medium/5_bedroom_terraced_house_111662415107039641.jpg", "thumb_width": 80, "title": "Henley Lane, Wookey, Somerset, BA5", "updated_in_days": 11, "updated_in_days_formatted": "first seen last week"}, {"bathroom_number": "", "bedroom_number": 2, "car_spaces": 0, "commission": 0, "construction_year": 0, "datasource_name": "NetHousePrices", "img_height": 300, "img_url": "https://imgs.nestimg.com/2_bedroom_end_of_terrace_house_111457858262920815.jpg", "img_width": 400, "keywords": "Garden, Grade II, Conservatory, Fireplace, Terraced, Double Bedroom, Kitchen, Cottage, Reception, Gas Central Heating, Listed", "latitude": 50.97184, "lister_name": "Palmer Snell", "lister_url": "https://www.nestoria.co.uk/detail/0000000111457858262920815/title/5/79-5?serpUid=&pt=1&ot=1&l=somerset&did=90_high1&t_sec=9&t_or=45&t_pvid=null&utm_source=api&utm_medium=external", "listing_type": "buy", "location_accuracy": 9, "longitude": -2.766395, "price": 190000, "price_currency": "\u00a3", "price_formatted": "\u00a3190,000", "price_high": 190000, "price_low": 190000, "price_type": "fixed", "property_type": "house", "size": 0, "size_type": "net", "summary": "And light grade ii listed end of terrace cottage built of local sto...", "thumb_height": 60, "thumb_url": "https://imgs.nestimg.com/medium/2_bedroom_end_of_terrace_house_111457858262920815.jpg", "thumb_width": 80, "title": "North Street, Martock, Somerset, TA12", "updated_in_days": 44, "updated_in_days_formatted": "first seen over a month ago"}, {"bathroom_number": "", "bedroom_number": 4, "car_spaces": 0, "commission": 0, "construction_year": 0, "datasource_name": "NetHousePrices", "img_height": 300, "img_url": "https://imgs.nestimg.com/4_bedroom_detached_house_111111779983629530.jpg", "img_width": 400, "keywords": "Detached, Garden, Double Garage, No Chain, Conservatory, Kitchen, Reception, Gas Central Heating", "latitude": 51.055862, "lister_name": "Palmer Snell", "lister_url": "https://www.nestoria.co.uk/detail/0000000111111779983629530/title/5/79-6?serpUid=&pt=1&ot=1&l=somerset&did=90_high1&t_sec=9&t_or=45&t_pvid=null&utm_source=api&utm_medium=external", "listing_type": "buy", "location_accuracy": 9, "longitude": -2.7330673, "price": 420000, "price_currency": "\u00a3", "price_formatted": "\u00a3420,000", "price_high": 420000, "price_low": 420000, "price_type": "fixed", "property_type": "house", "size": 0, "size_type": "net", "summary": "Offers invited a detached period house built in 1928 offering good ...", "thumb_height": 60, "thumb_url": "https://imgs.nestimg.com/medium/4_bedroom_detached_house_111111779983629530.jpg", "thumb_width": 80, "title": "Behind Berry, Somerton, Somerset, TA11", "updated_in_days": 100, "updated_in_days_formatted": "first seen over a month ago"}, {"bathroom_number": "", "bedroom_number": 4, "car_spaces": 0, "commission": 0, "construction_year": 0, "datasource_name": "NetHousePrices", "img_height": 300, "img_url": "https://imgs.nestimg.com/4_bedroom_detached_house_111365859737492857.jpg", "img_width": 400, "keywords": "Detached, Garden, En suite, Conservatory, Garage, Kitchen, Dishwasher, Modern, Patio, Cul-de-Sac, Reception, Gas Central Heating", "latitude": 50.974953, "lister_name": "Palmer Snell", "lister_url": "https://www.nestoria.co.uk/detail/0000000111365859737492857/title/5/79-7?serpUid=&pt=1&ot=1&l=somerset&did=90_high1&t_sec=9&t_or=45&t_pvid=null&utm_source=api&utm_medium=external", "listing_type": "buy", "location_accuracy": 9, "longitude": -2.7689104, "price": 325000, "price_currency": "\u00a3", "price_formatted": "\u00a3325,000", "price_high": 325000, "price_low": 325000, "price_type": "fixed", "property_type": "house", "size": 0, "size_type": "net", "summary": "Detached four bedroom house with an enclosed garden and updated acc...", "thumb_height": 60, "thumb_url": "https://imgs.nestimg.com/medium/4_bedroom_detached_house_111365859737492857.jpg", "thumb_width": 80, "title": "Fairfield, Martock, Somerset, TA12", "updated_in_days": 59, "updated_in_days_formatted": "first seen over a month ago"}, {"bathroom_number": "", "bedroom_number": 0, "car_spaces": 0, "commission": 0, "construction_year": 0, "datasource_name": "NetHousePrices", "img_height": 300, "img_url": "https://imgs.nestimg.com/property_111315795756935064.jpg", "img_width": 400, "keywords": "Leasehold, No Chain, Purpose Built, Kitchen, Modern, Parking, Gas Central Heating", "latitude": 51.179977, "lister_url": "https://www.nestoria.co.uk/detail/0000000111315795756935064/title/5/79-8?serpUid=&pt=1&ot=1&l=somerset&did=90_high1&t_sec=9&t_or=45&t_pvid=null&utm_source=api&utm_medium=external", "listing_type": "buy", "location_accuracy": 9, "longitude": -3.3284478, "price": 98000, "price_currency": "\u00a3", "price_formatted": "\u00a398,000", "price_high": 98000, "price_low": 98000, "price_type": "fixed", "property_type": "flat", "size": 0, "size_type": "net", "summary": "No onward chain a modern and well presented 1 bedroom first floor p...", "thumb_height": 60, "thumb_url": "https://imgs.nestimg.com/medium/property_111315795756935064.jpg", "thumb_width": 80, "title": "South Road, Watchet, Somerset, TA23", "updated_in_days": 67, "updated_in_days_formatted": "first seen over a month ago"}, {"bathroom_number": "", "bedroom_number": 3, "car_spaces": 0, "commission": 0, "construction_year": 0, "datasource_name": "NetHousePrices", "img_height": 300, "img_url": "https://imgs.nestimg.com/3_bedroom_link_detached_house_111111782814427953.jpg", "img_width": 400, "keywords": "Detached, Garden, En suite, Grade II, Double Bedroom, Kitchen, Parking, Patio, Reception, Gas Central Heating, Listed", "latitude": 51.05523, "lister_name": "Palmer Snell", "lister_url": "https://www.nestoria.co.uk/detail/0000000111111782814427953/title/5/79-9?serpUid=&pt=1&ot=1&l=somerset&did=90_high1&t_sec=9&t_or=45&t_pvid=null&utm_source=api&utm_medium=external", "listing_type": "buy", "location_accuracy": 9, "longitude": -2.7259233, "price": 600000, "price_currency": "\u00a3", "price_formatted": "\u00a3600,000", "price_high": 600000, "price_low": 600000, "price_type": "fixed", "property_type": "house", "size": 0, "size_type": "net", "summary": "Grade ll listed property built to a high standard and completed in ...", "thumb_height": 60, "thumb_url": "https://imgs.nestimg.com/medium/3_bedroom_link_detached_house_111111782814427953.jpg", "thumb_width": 80, "title": "New Street, Somerton, Somerset, TA11", "updated_in_days": 100, "updated_in_days_formatted": "first seen over a month ago"}, {"bathroom_number": "", "bedroom_number": "", "car_spaces": 0, "commission": 0, "construction_year": 0, "datasource_name": "Home.co.uk", "img_height": 300, "img_url": "https://imgs.nestimg.com/detached_house_111087409553903981.jpg", "img_width": 400, "keywords": "Detached", "latitude": 51.267669, "lister_name": "Greenslade Taylor Hunt", "lister_url": "https://www.nestoria.co.uk/detail/0000000111087409553903981/title/5/79-10?serpUid=&pt=1&ot=1&l=somerset&did=85_default&t_sec=9&t_or=45&t_pvid=null&utm_source=api&utm_medium=external", "listing_type": "buy", "location_accuracy": 10, "longitude": -2.915498, "price": 35000, "price_currency": "\u00a3", "price_formatted": "\u00a335,000", "price_high": 35000, "price_low": 35000, "price_type": "fixed", "property_type": "house", "size": 0, "size_type": "net", "summary": "Lot 6 comprisins of a single parcel of agricultural pasture land ex...", "thumb_height": 60, "thumb_url": "https://imgs.nestimg.com/medium/detached_house_111087409553903981.jpg", "thumb_width": 80, "title": "Mendip Road, Rooksbridge, Nr Axbridge, Somerset, BS26", "updated_in_days": 104, "updated_in_days_formatted": "first seen over a month ago"}, {"bathroom_number": "", "bedroom_number": "", "car_spaces": 0, "commission": 0, "construction_year": 0, "datasource_name": "NetHousePrices", "img_height": 300, "img_url": "https://imgs.nestimg.com/land_commercial_111482734583164413.jpg", "img_width": 400, "keywords": "", "latitude": 50.87129, "lister_url": "https://www.nestoria.co.uk/detail/0000000111482734583164413/title/5/79-11?serpUid=&pt=1&ot=1&l=somerset&did=90_high1&t_sec=9&t_or=45&t_pvid=null&utm_source=api&utm_medium=external", "listing_type": "buy", "location_accuracy": 9, "longitude": -2.9614358, "price": 475000, "price_currency": "\u00a3", "price_formatted": "\u00a3475,000", "price_high": 475000, "price_low": 475000, "price_type": "fixed", "property_type": "land", "size": 0, "size_type": "net", "summary": "Town centre location; detailed planning consent for 22noartments; t...", "thumb_height": 60, "thumb_url": "https://imgs.nestimg.com/medium/land_commercial_111482734583164413.jpg", "thumb_width": 80, "title": "Coles Place, Chard, Somerset, TA20", "updated_in_days": 40, "updated_in_days_formatted": "first seen over a month ago"}, {"bathroom_number": "", "bedroom_number": 3, "car_spaces": 0, "commission": 0, "construction_year": 0, "datasource_name": "NetHousePrices", "img_height": 300, "img_url": "https://imgs.nestimg.com/3_bedroom_semi_detached_house_111111779629972392.jpg", "img_width": 400, "keywords": "Garden, Semi-Detached, Fireplace, Wood Floor, Kitchen, Parking, Cottage, Gas Central Heating, Listed", "latitude": 50.974827, "lister_name": "Palmer Snell", "lister_url": "https://www.nestoria.co.uk/detail/0000000111111779629972392/title/5/79-12?serpUid=&pt=1&ot=1&l=somerset&did=90_high1&t_sec=9&t_or=45&t_pvid=null&utm_source=api&utm_medium=external", "listing_type": "buy", "location_accuracy": 9, "longitude": -2.7671137, "price": 285000, "price_currency": "\u00a3", "price_formatted": "\u00a3285,000", "price_high": 285000, "price_low": 285000, "price_type": "fixed", "property_type": "house", "size": 0, "size_type": "net", "summary": "A 3 bedroom semi detached grade 2 listed cottage with an additional...", "thumb_height": 60, "thumb_url": "https://imgs.nestimg.com/medium/3_bedroom_semi_detached_house_111111779629972392.jpg", "thumb_width": 80, "title": "North Street, Martock, Somerset, TA12", "updated_in_days": 100, "updated_in_days_formatted": "first seen over a month ago"}, {"bathroom_number": 2, "bedroom_number": 2, "car_spaces": 0, "commission": 0, "construction_year": 0, "datasource_name": "NetHousePrices", "img_height": 300, "img_url": "https://imgs.nestimg.com/2_bedroom_flat_111235508920371186.jpg", "img_width": 400, "keywords": "Shared Garden, Double Bedroom, Kitchen, Loft, Parking, Shared Ownership", "latitude": 50.972576, "lister_name": "Palmer Snell", "lister_url": "https://www.nestoria.co.uk/detail/0000000111235508920371186/title/5/79-13?serpUid=&pt=1&ot=1&l=somerset&did=90_high1&t_sec=9&t_or=45&t_pvid=null&utm_source=api&utm_medium=external", "listing_type": "buy", "location_accuracy": 9, "longitude": -2.7651253, "price": 62500, "price_currency": "\u00a3", "price_formatted": "\u00a362,500", "price_high": 62500, "price_low": 62500, "price_type": "fixed", "property_type": "flat", "size": 0, "size_type": "net", "summary": "A rare opportunity to get on to the property ladder with this share...", "thumb_height": 60, "thumb_url": "https://imgs.nestimg.com/medium/2_bedroom_flat_111235508920371186.jpg", "thumb_width": 80, "title": "Vincent Way, Martock, Somerset, TA12", "updated_in_days": 80, "updated_in_days_formatted": "first seen over a month ago"}, {"bathroom_number": "", "bedroom_number": 3, "car_spaces": 0, "commission": 0, "construction_year": 0, "datasource_name": "OnTheMarket.com", "img_height": 300, "img_url": "https://imgs.nestimg.com/3_bedroom_terraced_house_for_sale_111717695937222245.jpg", "img_width": 400, "keywords": "Garden, Terraced, Kitchen, Modern", "latitude": 51.1155, "lister_url": "https://www.nestoria.co.uk/detail/0000000111717695937222245/title/5/79-14?serpUid=&pt=1&ot=1&l=somerset&did=105_high1&t_sec=9&t_or=45&t_pvid=null&utm_source=api&utm_medium=external", "listing_type": "buy", "location_accuracy": 9, "longitude": -3.01527, "price": 175000, "price_currency": "\u00a3", "price_formatted": "\u00a3175,000", "price_high": 175000, "price_low": 175000, "price_type": "fixed", "property_type": "house", "size": 0, "size_type": "net", "summary": "A modern three bedroom house with one of the finest, views in the e...", "thumb_height": 60, "thumb_url": "https://imgs.nestimg.com/medium/3_bedroom_terraced_house_for_sale_111717695937222245.jpg", "thumb_width": 80, "title": "Middle Stream Close, Bridgwater", "updated_in_days": 2, "updated_in_days_formatted": "first seen 2 days ago"}, {"bathroom_number": "", "bedroom_number": 4, "car_spaces": 0, "commission": 0, "construction_year": 0, "datasource_name": "NetHousePrices", "img_height": 300, "img_url": "https://imgs.nestimg.com/4_bedroom_terraced_house_111668239906831796.jpg", "img_width": 400, "keywords": "Garden, Terraced, Kitchen, Parking, Edwardian", "latitude": 51.203365, "lister_name": "Palmer Snell", "lister_url": "https://www.nestoria.co.uk/detail/0000000111668239906831796/title/5/79-15?serpUid=&pt=1&ot=1&l=somerset&did=90_high1&t_sec=9&t_or=45&t_pvid=null&utm_source=api&utm_medium=external", "listing_type": "buy", "location_accuracy": 9, "longitude": -2.6534326, "price": 400000, "price_currency": "\u00a3", "price_formatted": "\u00a3400,000", "price_high": 400000, "price_low": 400000, "price_type": "fixed", "property_type": "house", "size": 0, "size_type": "net", "summary": "Drenched in character and charm this extended edwardian four bedroo...", "thumb_height": 60, "thumb_url": "https://imgs.nestimg.com/medium/4_bedroom_terraced_house_111668239906831796.jpg", "thumb_width": 80, "title": "Glastonbury Road, Wells, Somerset, BA5", "updated_in_days": 10, "updated_in_days_formatted": "first seen last week"}], "locations": [{"center_lat": 51.080967, "center_long": -3.045432, "long_title": "Somerset, county", "place_name": "somerset", "title": "Somerset"}], "page": 79, "sort": "nestoria_rank", "status_code": "200", "status_text": "OK", "thanks": "For using the Nestoria API.", "total_pages": 410, "total_results": 6149, "_cu5t0mP434m_": "remove"}}