{"request": {"country": "uk", "language": "en", "location": "somerset", "num_res": "15", "offset": 90, "output": "json_xs", "page": 7, "product_type": "realestate", "property_type": "property", "size_type": "net", "size_unit": "m2", "sort": "nestoria_rank", "listing_type": "buy"}, "response": {"application_response_code": "100", "application_response_text": "listings returned for one unambiguous location", "attribution": {"img_height": 22, "img_url": "https://resources.nestimg.com/nestoria/img/pbr_v1.png", "img_width": 183, "link_to_img": "http://www.nestoria.com"}, "created_http": "Tue, 18 Jun 2019 17:28:43 GMT", "created_unix": 1560878923, "link_to_url": "https://www.nestoria.co.uk/somerset/property/buy/7", "listings": [{"bathroom_number": "", "bedroom_number": 4, "car_spaces": 0, "commission": 0, "construction_year": 0, "datasource_name": "OnTheMarket.com", "img_height": 300, "img_url": "https://imgs.nestimg.com/4_bedroom_house_for_sale_111581694508760788.jpg", "img_width": 400, "keywords": "Detached, Conservatory, Garage", "latitude": 51.0942, "lister_name": "Greenslade Taylor Hunt", "lister_url": "https://www.nestoria.co.uk/detail/0000000111581694508760788/title/5/7-1?serpUid=&pt=1&ot=1&l=somerset&did=105_high1&t_sec=9&t_or=45&t_pvid=null&utm_source=api&utm_medium=external", "listing_type": "buy", "location_accuracy": 9, "longitude": -3.00625, "price": 325000, "price_currency": "\u00a3", "price_formatted": "\u00a3325,000", "price_high": 325000, "price_low": 325000, "price_type": "fixed", "property_type": "house", "size": 0, "size_type": "net", "summary": "A well-presented and detached residence situated in the heart of no...", "thumb_height": 60, "thumb_url": "https://imgs.nestimg.com/medium/4_bedroom_house_for_sale_111581694508760788.jpg", "thumb_width": 80, "title": "Parkfield Close, North Petherton, Bridgwater, Somerset, TA6", "updated_in_days": 24, "updated_in_days_formatted": "first seen 3 weeks ago"}, {"bathroom_number": "", "bedroom_number": 2, "car_spaces": 0, "commission": 0, "construction_year": 0, "datasource_name": "OnTheMarket.com", "img_height": 300, "img_url": "https://imgs.nestimg.com/2_bedroom_semi_detached_house_for_sale_111575824366511631.jpg", "img_width": 400, "keywords": "Garden, Semi-Detached, Garage, Reception, Georgian", "latitude": 51.0611, "lister_name": "Stags", "lister_url": "https://www.nestoria.co.uk/detail/0000000111575824366511631/title/5/7-2?serpUid=&pt=1&ot=1&l=somerset&did=105_high1&t_sec=9&t_or=45&t_pvid=null&utm_source=api&utm_medium=external", "listing_type": "buy", "location_accuracy": 9, "longitude": -3.11393, "price": 335000, "price_currency": "\u00a3", "price_formatted": "\u00a3335,000", "price_high": 335000, "price_low": 335000, "price_type": "fixed", "property_type": "house", "size": 0, "size_type": "net", "summary": "A georgian house with a long south facing garden, extensive parking...", "thumb_height": 60, "thumb_url": "https://imgs.nestimg.com/medium/2_bedroom_semi_detached_house_for_sale_111575824366511631.jpg", "thumb_width": 80, "title": "Kingston St. Mary, Taunton, Somerset, TA2", "updated_in_days": 25, "updated_in_days_formatted": "first seen 3 weeks ago"}, {"bathroom_number": "", "bedroom_number": 4, "car_spaces": 0, "commission": 0, "construction_year": 0, "datasource_name": "OnTheMarket.com", "img_height": 300, "img_url": "https://imgs.nestimg.com/4_bedroom_detached_house_for_sale_111365740807212565.jpg", "img_width": 400, "keywords": "Detached, Garden, Garage", "latitude": 50.9541, "lister_name": "Stags", "lister_url": "https://www.nestoria.co.uk/detail/0000000111365740807212565/title/5/7-3?serpUid=&pt=1&ot=1&l=somerset&did=105_high1&t_sec=9&t_or=45&t_pvid=null&utm_source=api&utm_medium=external", "listing_type": "buy", "location_accuracy": 9, "longitude": -2.8439, "price": 400000, "price_currency": "\u00a3", "price_formatted": "\u00a3400,000", "price_high": 400000, "price_low": 400000, "price_type": "fixed", "property_type": "house", "size": 0, "size_type": "net", "summary": "A ly presented detached four bedroom home in a village location wit...", "thumb_height": 60, "thumb_url": "https://imgs.nestimg.com/medium/4_bedroom_detached_house_for_sale_111365740807212565.jpg", "thumb_width": 80, "title": "Brimgrove Lane, Shepton Beauchamp, Ilminster, Somerset, TA19", "updated_in_days": 6, "updated_in_days_formatted": "first seen 6 days ago"}, {"bathroom_number": 3, "bedroom_number": 3, "car_spaces": 0, "commission": 0, "construction_year": 0, "datasource_name": "OnTheMarket.com", "img_height": 300, "img_url": "https://imgs.nestimg.com/3_bedroom_detached_bungalow_for_sale_111217149903155286.jpg", "img_width": 400, "keywords": "Detached, No Chain, Double Bedroom, Kitchen, Bungalow", "latitude": 51.1482, "lister_url": "https://www.nestoria.co.uk/detail/0000000111217149903155286/title/5/7-4?serpUid=&pt=1&ot=1&l=somerset&did=105_high1&t_sec=9&t_or=45&t_pvid=null&utm_source=api&utm_medium=external", "listing_type": "buy", "location_accuracy": 9, "longitude": -3.05848, "price": 280000, "price_currency": "\u00a3", "price_formatted": "\u00a3280,000", "price_high": 280000, "price_low": 280000, "price_type": "fixed", "property_type": "house", "size": 0, "size_type": "net", "summary": "Located within the sought-after village of cannington is this detac...", "thumb_height": 60, "thumb_url": "https://imgs.nestimg.com/medium/3_bedroom_detached_bungalow_for_sale_111217149903155286.jpg", "thumb_width": 80, "title": "Lonsdale Road, Cannington, Somerset", "updated_in_days": 83, "updated_in_days_formatted": "first seen over a month ago"}, {"bathroom_number": "", "bedroom_number": 3, "car_spaces": 0, "commission": 0, "construction_year": 0, "datasource_name": "OnTheMarket.com", "img_height": 300, "img_url": "https://imgs.nestimg.com/3_bedroom_detached_house_for_sale_111699718606769458.jpg", "img_width": 400, "keywords": "Detached, No Chain, Garage", "latitude": 51.3237, "lister_url": "https://www.nestoria.co.uk/detail/0000000111699718606769458/title/5/7-5?serpUid=&pt=1&ot=1&l=somerset&did=105_high1&t_sec=9&t_or=45&t_pvid=null&utm_source=api&utm_medium=external", "listing_type": "buy", "location_accuracy": 9, "longitude": -2.93009, "price": 330000, "price_currency": "\u00a3", "price_formatted": "\u00a3330,000", "price_high": 330000, "price_low": 330000, "price_type": "fixed", "property_type": "house", "size": 0, "size_type": "net", "summary": "Detached house. Three/four beds. Two/three recse you looking for a ...", "thumb_height": 60, "thumb_url": "https://imgs.nestimg.com/medium/3_bedroom_detached_house_for_sale_111699718606769458.jpg", "thumb_width": 80, "title": "Church Lane, Hutton, Weston-super-Mare, North Somerset. BS24", "updated_in_days": 5, "updated_in_days_formatted": "first seen 5 days ago"}, {"bathroom_number": "", "bedroom_number": 4, "car_spaces": 0, "commission": 0, "construction_year": 0, "datasource_name": "OnTheMarket.com", "img_height": 300, "img_url": "https://imgs.nestimg.com/4_bedroom_detached_house_for_sale_111693439549755392.jpg", "img_width": 400, "keywords": "Detached, Garden, Reception", "latitude": 50.8992, "lister_name": "Stags", "lister_url": "https://www.nestoria.co.uk/detail/0000000111693439549755392/title/5/7-6?serpUid=&pt=1&ot=1&l=somerset&did=105_high1&t_sec=9&t_or=45&t_pvid=null&utm_source=api&utm_medium=external", "listing_type": "buy", "location_accuracy": 9, "longitude": -3.06356, "price": 749000, "price_currency": "\u00a3", "price_formatted": "\u00a3749,000", "price_high": 749000, "price_low": 749000, "price_type": "fixed", "property_type": "house", "size": 0, "size_type": "net", "summary": "A detached farmhouse situated in a rural location with approximatel...", "thumb_height": 60, "thumb_url": "https://imgs.nestimg.com/medium/4_bedroom_detached_house_for_sale_111693439549755392.jpg", "thumb_width": 80, "title": "Bishopswood, Chard, Somerset, TA20", "updated_in_days": 6, "updated_in_days_formatted": "first seen 6 days ago"}, {"bathroom_number": "", "bedroom_number": 3, "car_spaces": 0, "commission": 0, "construction_year": 0, "datasource_name": "OnTheMarket.com", "img_height": 300, "img_url": "https://imgs.nestimg.com/3_bedroom_semi_detached_house_for_sale_111643771782693850.jpg", "img_width": 400, "keywords": "Garden, Semi-Detached, No Chain, Terraced, Kitchen, Reception", "latitude": 51.0207, "lister_name": "Stags", "lister_url": "https://www.nestoria.co.uk/detail/0000000111643771782693850/title/5/7-7?serpUid=&pt=1&ot=1&l=somerset&did=105_high1&t_sec=9&t_or=45&t_pvid=null&utm_source=api&utm_medium=external", "listing_type": "buy", "location_accuracy": 9, "longitude": -2.97516, "price": 185000, "price_currency": "\u00a3", "price_formatted": "\u00a3185,000", "price_high": 185000, "price_low": 185000, "price_type": "fixed", "property_type": "house", "size": 0, "size_type": "net", "summary": "A mid-terraced house situated in a tucked away location, just off t...", "thumb_height": 60, "thumb_url": "https://imgs.nestimg.com/medium/3_bedroom_semi_detached_house_for_sale_111643771782693850.jpg", "thumb_width": 80, "title": "Town Close, North Curry, Taunton, Somerset, TA3", "updated_in_days": 14, "updated_in_days_formatted": "first seen 2 weeks ago"}, {"bathroom_number": "", "bedroom_number": 3, "car_spaces": 0, "commission": 0, "construction_year": 0, "datasource_name": "OnTheMarket.com", "img_height": 300, "img_url": "https://imgs.nestimg.com/3_bedroom_detached_house_for_sale_111427152291905449.jpg", "img_width": 400, "keywords": "Detached, Conservatory, Garage, Kitchen", "latitude": 51.0116, "lister_name": "Newton King", "lister_url": "https://www.nestoria.co.uk/detail/0000000111427152291905449/title/5/7-8?serpUid=&pt=1&ot=1&l=somerset&did=105_high1&t_sec=9&t_or=45&t_pvid=null&utm_source=api&utm_medium=external", "listing_type": "buy", "location_accuracy": 9, "longitude": -3.0718, "price": 249995, "price_currency": "\u00a3", "price_formatted": "\u00a3249,995", "price_high": 249995, "price_low": 249995, "price_type": "fixed", "property_type": "house", "size": 0, "size_type": "net", "summary": "3 bedroom link-detached home in marden grove taunton. Downstairs co...", "thumb_height": 60, "thumb_url": "https://imgs.nestimg.com/medium/3_bedroom_detached_house_for_sale_111427152291905449.jpg", "thumb_width": 80, "title": "Marden Grove, Taunton, Somerset", "updated_in_days": 13, "updated_in_days_formatted": "first seen last week"}, {"bathroom_number": "", "bedroom_number": 4, "car_spaces": 0, "commission": 0, "construction_year": 0, "datasource_name": "OnTheMarket.com", "img_height": 300, "img_url": "https://imgs.nestimg.com/4_bedroom_detached_house_for_sale_111402759940878712.jpg", "img_width": 400, "keywords": "Detached, Garden, En suite, Garage, Kitchen, Cottage", "latitude": 51.0322, "lister_name": "Stags", "lister_url": "https://www.nestoria.co.uk/detail/0000000111402759940878712/title/5/7-9?serpUid=&pt=1&ot=1&l=somerset&did=105_high1&t_sec=9&t_or=45&t_pvid=null&utm_source=api&utm_medium=external", "listing_type": "buy", "location_accuracy": 9, "longitude": -3.02838, "price": 625000, "price_currency": "\u00a3", "price_formatted": "\u00a3625,000", "price_high": 625000, "price_low": 625000, "price_type": "fixed", "property_type": "house", "size": 0, "size_type": "net", "summary": "A detached period cottage with self contained one bedroom annex, si...", "thumb_height": 60, "thumb_url": "https://imgs.nestimg.com/medium/4_bedroom_detached_house_for_sale_111402759940878712.jpg", "thumb_width": 80, "title": "Worthy Lane, Creech St Michael, Taunton, Somerset, TA3", "updated_in_days": 53, "updated_in_days_formatted": "first seen over a month ago"}, {"bathroom_number": "", "bedroom_number": 3, "car_spaces": 0, "commission": 0, "construction_year": 0, "datasource_name": "OnTheMarket.com", "img_height": 300, "img_url": "https://imgs.nestimg.com/3_bedroom_semi_detached_house_for_sale_111359015567522970.jpg", "img_width": 400, "keywords": "Freehold, Garden, Semi-Detached", "latitude": 51.0779, "lister_name": "Greenslade Taylor Hunt", "lister_url": "https://www.nestoria.co.uk/detail/0000000111359015567522970/title/5/7-10?serpUid=&pt=1&ot=1&l=somerset&did=105_high1&t_sec=9&t_or=45&t_pvid=null&utm_source=api&utm_medium=external", "listing_type": "buy", "location_accuracy": 9, "longitude": -3.0197, "price": 325000, "price_currency": "\u00a3", "price_formatted": "\u00a3325,000", "price_high": 325000, "price_low": 325000, "price_type": "fixed", "property_type": "house", "size": 0, "size_type": "net", "summary": "A ly presented semi-detached period house which occupies an elevate...", "thumb_height": 60, "thumb_url": "https://imgs.nestimg.com/medium/3_bedroom_semi_detached_house_for_sale_111359015567522970.jpg", "thumb_width": 80, "title": "Taunton Road, North Petherton, Bridgwater, Somerset, TA6", "updated_in_days": 60, "updated_in_days_formatted": "first seen over a month ago"}, {"bathroom_number": "", "bedroom_number": "", "car_spaces": 0, "commission": 0, "construction_year": 0, "datasource_name": "OnTheMarket.com", "img_height": 300, "img_url": "https://imgs.nestimg.com/land_for_sale_111699720479570750.jpg", "img_width": 400, "keywords": "", "latitude": 51.2297, "lister_name": "Greenslade Taylor Hunt", "lister_url": "https://www.nestoria.co.uk/detail/0000000111699720479570750/title/5/7-11?serpUid=&pt=1&ot=1&l=somerset&did=105_high1&t_sec=9&t_or=45&t_pvid=null&utm_source=api&utm_medium=external", "listing_type": "buy", "location_accuracy": 9, "longitude": -2.96984, "price": 65000, "price_currency": "\u00a3", "price_formatted": "\u00a365,000", "price_high": 65000, "price_low": 65000, "price_type": "fixed", "property_type": "land", "size": 0, "size_type": "net", "summary": "9.04 acres of agricultural pasture land on burnham level, burnham o...", "thumb_height": 60, "thumb_url": "https://imgs.nestimg.com/medium/land_for_sale_111699720479570750.jpg", "thumb_width": 80, "title": "Burnham Level, Burnham On Sea, Somerset, TA9", "updated_in_days": 5, "updated_in_days_formatted": "first seen 5 days ago"}, {"bathroom_number": "", "bedroom_number": "", "car_spaces": 0, "commission": 0, "construction_year": 0, "datasource_name": "OnTheMarket.com", "img_height": 300, "img_url": "https://imgs.nestimg.com/land_for_sale_111699715217551563.jpg", "img_width": 400, "keywords": "", "latitude": 51.2231, "lister_name": "Greenslade Taylor Hunt", "lister_url": "https://www.nestoria.co.uk/detail/0000000111699715217551563/title/5/7-12?serpUid=&pt=1&ot=1&l=somerset&did=105_high1&t_sec=9&t_or=45&t_pvid=null&utm_source=api&utm_medium=external", "listing_type": "buy", "location_accuracy": 9, "longitude": -2.9371, "price": 130000, "price_currency": "\u00a3", "price_formatted": "\u00a3130,000", "price_high": 130000, "price_low": 130000, "price_type": "fixed", "property_type": "land", "size": 0, "size_type": "net", "summary": "13.56 acres of agricultural pasture land strategically positioned o...", "thumb_height": 60, "thumb_url": "https://imgs.nestimg.com/medium/land_for_sale_111699715217551563.jpg", "thumb_width": 80, "title": "Agricultural Pasture Land, Pillmoor Lane, Isleport, HIGHBRIDGE, Somerset, TA9", "updated_in_days": 5, "updated_in_days_formatted": "first seen 5 days ago"}, {"bathroom_number": "", "bedroom_number": 6, "car_spaces": 0, "commission": 0, "construction_year": 0, "datasource_name": "OnTheMarket.com", "img_height": 300, "img_url": "https://imgs.nestimg.com/6_bedroom_detached_house_for_sale_111600425399539805.jpg", "img_width": 400, "keywords": "Detached, Kitchen, Reception", "latitude": 51.0365, "lister_name": "Stags", "lister_url": "https://www.nestoria.co.uk/detail/0000000111600425399539805/title/5/7-13?serpUid=&pt=1&ot=1&l=somerset&did=105_high1&t_sec=9&t_or=45&t_pvid=null&utm_source=api&utm_medium=external", "listing_type": "buy", "location_accuracy": 9, "longitude": -3.04582, "price": 835000, "price_currency": "\u00a3", "price_formatted": "\u00a3835,000", "price_high": 835000, "price_low": 835000, "price_type": "fixed", "property_type": "house", "size": 0, "size_type": "net", "summary": "A brand new house designed and built to a high specification, situa...", "thumb_height": 60, "thumb_url": "https://imgs.nestimg.com/medium/6_bedroom_detached_house_for_sale_111600425399539805.jpg", "thumb_width": 80, "title": "Langaller, Taunton, Somerset, TA2", "updated_in_days": 21, "updated_in_days_formatted": "first seen 3 weeks ago"}, {"bathroom_number": "", "bedroom_number": 3, "car_spaces": 0, "commission": 0, "construction_year": 0, "datasource_name": "OnTheMarket.com", "img_height": 300, "img_url": "https://imgs.nestimg.com/3_bedroom_end_of_terrace_house_for_sale_111699720414826472.jpg", "img_width": 400, "keywords": "No Chain, Terraced, Garage, Modern", "latitude": 51.2136, "lister_name": "Greenslade Taylor Hunt", "lister_url": "https://www.nestoria.co.uk/detail/0000000111699720414826472/title/5/7-14?serpUid=&pt=1&ot=1&l=somerset&did=105_high1&t_sec=9&t_or=45&t_pvid=null&utm_source=api&utm_medium=external", "listing_type": "buy", "location_accuracy": 9, "longitude": -2.63874, "price": 359950, "price_currency": "\u00a3", "price_formatted": "\u00a3359,950", "price_high": 359950, "price_low": 359950, "price_type": "fixed", "property_type": "house", "size": 0, "size_type": "net", "summary": "No onward chain. A modern and townhouse, conveniently located in a ...", "thumb_height": 60, "thumb_url": "https://imgs.nestimg.com/medium/3_bedroom_end_of_terrace_house_for_sale_111699720414826472.jpg", "thumb_width": 80, "title": "St. Thomas Mews, North Road, Wells, Somerset, BA5", "updated_in_days": 5, "updated_in_days_formatted": "first seen 5 days ago"}, {"bathroom_number": "", "bedroom_number": 5, "car_spaces": 0, "commission": 0, "construction_year": 0, "datasource_name": "OnTheMarket.com", "img_height": 300, "img_url": "https://imgs.nestimg.com/5_bedroom_detached_house_for_sale_111371187785600534.jpg", "img_width": 400, "keywords": "Detached, Freehold, Garden, Grade II, No Chain, Listed", "latitude": 51.136, "lister_name": "Greenslade Taylor Hunt", "lister_url": "https://www.nestoria.co.uk/detail/0000000111371187785600534/title/5/7-15?serpUid=&pt=1&ot=1&l=somerset&did=105_high1&t_sec=9&t_or=45&t_pvid=null&utm_source=api&utm_medium=external", "listing_type": "buy", "location_accuracy": 9, "longitude": -3.04318, "price": 750000, "price_currency": "\u00a3", "price_formatted": "\u00a3750,000", "price_high": 750000, "price_low": 750000, "price_type": "fixed", "property_type": "house", "size": 0, "size_type": "net", "summary": "A historic grade ii listed, detached period residence situated in a...", "thumb_height": 60, "thumb_url": "https://imgs.nestimg.com/medium/5_bedroom_detached_house_for_sale_111371187785600534.jpg", "thumb_width": 80, "title": "Sandford Hill, Wembdon, Bridgwater, Somerset, TA5", "updated_in_days": 58, "updated_in_days_formatted": "first seen over a month ago"}], "locations": [{"center_lat": 51.080967, "center_long": -3.045432, "long_title": "Somerset, county", "place_name": "somerset", "title": "Somerset"}], "page": 7, "sort": "nestoria_rank", "status_code": "200", "status_text": "OK", "thanks": "For using the Nestoria API.", "total_pages": 410, "total_results": 6149, "_cu5t0mP434m_": "remove"}}