{"request": {"country": "uk", "language": "en", "location": "somerset", "num_res": "15", "offset": 1185, "output": "json_xs", "page": 80, "product_type": "realestate", "property_type": "property", "size_type": "net", "size_unit": "m2", "sort": "nestoria_rank", "listing_type": "buy"}, "response": {"application_response_code": "100", "application_response_text": "listings returned for one unambiguous location", "attribution": {"img_height": 22, "img_url": "https://resources.nestimg.com/nestoria/img/pbr_v1.png", "img_width": 183, "link_to_img": "http://www.nestoria.com"}, "created_http": "Tue, 18 Jun 2019 17:30:40 GMT", "created_unix": 1560879040, "link_to_url": "https://www.nestoria.co.uk/somerset/property/buy/80", "listings": [{"bathroom_number": 5, "bedroom_number": 9, "car_spaces": 0, "commission": 0, "construction_year": 0, "datasource_name": "NetHousePrices", "img_height": 300, "img_url": "https://imgs.nestimg.com/9_bedroom_semi_detached_house_111111780123128686.jpg", "img_width": 400, "keywords": "Garden, Semi-Detached, En suite, Double Garage, Conservatory, Conversion, Fireplace, Wood Floor, Double Bedroom, Kitchen, Reception", "latitude": 50.96527, "lister_name": "Palmer Snell", "lister_url": "https://www.nestoria.co.uk/detail/0000000111111780123128686/title/5/80-1?serpUid=&pt=1&ot=1&l=somerset&did=90_high1&t_sec=9&t_or=45&t_pvid=null&utm_source=api&utm_medium=external", "listing_type": "buy", "location_accuracy": 9, "longitude": -2.77345, "price": 695000, "price_currency": "\u00a3", "price_formatted": "\u00a3695,000", "price_high": 695000, "price_low": 695000, "price_type": "fixed", "property_type": "house", "size": 0, "size_type": "net", "summary": ", highly adaptable and versatile 'hamstone' period property with es...", "thumb_height": 60, "thumb_url": "https://imgs.nestimg.com/medium/9_bedroom_semi_detached_house_111111780123128686.jpg", "thumb_width": 80, "title": "Hurst, Martock, Somerset, TA12", "updated_in_days": 100, "updated_in_days_formatted": "first seen over a month ago"}, {"bathroom_number": "", "bedroom_number": 3, "car_spaces": 0, "commission": 0, "construction_year": 0, "datasource_name": "NetHousePrices", "img_height": 300, "img_url": "https://imgs.nestimg.com/3_bedroom_semi_detached_house_111519927240080047.jpg", "img_width": 400, "keywords": "Garden, Semi-Detached, Conservatory, Fireplace, Wood Floor, Kitchen, Parking, Cul-de-Sac, Gas Central Heating", "latitude": 50.95689, "lister_name": "Palmer Snell", "lister_url": "https://www.nestoria.co.uk/detail/0000000111519927240080047/title/5/80-2?serpUid=&pt=1&ot=1&l=somerset&did=90_high1&t_sec=9&t_or=45&t_pvid=null&utm_source=api&utm_medium=external", "listing_type": "buy", "location_accuracy": 9, "longitude": -2.751598, "price": 245000, "price_currency": "\u00a3", "price_formatted": "\u00a3245,000", "price_high": 245000, "price_low": 245000, "price_type": "fixed", "property_type": "house", "size": 0, "size_type": "net", "summary": "A well presented 3 bedroom hamstone semi detached house with the be...", "thumb_height": 60, "thumb_url": "https://imgs.nestimg.com/medium/3_bedroom_semi_detached_house_111519927240080047.jpg", "thumb_width": 80, "title": "Becks Field, Stoke-sub-hamdon, Somerset, TA14", "updated_in_days": 34, "updated_in_days_formatted": "first seen over a month ago"}, {"bathroom_number": "", "bedroom_number": 3, "car_spaces": 0, "commission": 0, "construction_year": 0, "datasource_name": "NetHousePrices", "img_height": 300, "img_url": "https://imgs.nestimg.com/3_bedroom_terraced_house_111111779941513127.jpg", "img_width": 400, "keywords": "Garden, Grade II, Fireplace, Refurbished, Terraced, Kitchen, Dishwasher, Listed", "latitude": 50.9676, "lister_name": "Palmer Snell", "lister_url": "https://www.nestoria.co.uk/detail/0000000111111779941513127/title/5/80-3?serpUid=&pt=1&ot=1&l=somerset&did=90_high1&t_sec=9&t_or=45&t_pvid=null&utm_source=api&utm_medium=external", "listing_type": "buy", "location_accuracy": 9, "longitude": -2.7691164, "price": 330000, "price_currency": "\u00a3", "price_formatted": "\u00a3330,000", "price_high": 330000, "price_low": 330000, "price_type": "fixed", "property_type": "house", "size": 0, "size_type": "net", "summary": "Comprehensively refurbished grade ii listed period property with a ...", "thumb_height": 60, "thumb_url": "https://imgs.nestimg.com/medium/3_bedroom_terraced_house_111111779941513127.jpg", "thumb_width": 80, "title": "Water Street, Martock, Somerset, TA12", "updated_in_days": 100, "updated_in_days_formatted": "first seen over a month ago"}, {"bathroom_number": "", "bedroom_number": 3, "car_spaces": 0, "commission": 0, "construction_year": 0, "datasource_name": "NetHousePrices", "img_height": 300, "img_url": "https://imgs.nestimg.com/3_bedroom_semi_detached_house_111346627441639018.jpg", "img_width": 400, "keywords": "Garden, Semi-Detached, Balcony, Double Bedroom, Garage, Kitchen", "latitude": 51.153435, "lister_name": "Palmer Snell", "lister_url": "https://www.nestoria.co.uk/detail/0000000111346627441639018/title/5/80-4?serpUid=&pt=1&ot=1&l=somerset&did=90_high1&t_sec=9&t_or=45&t_pvid=null&utm_source=api&utm_medium=external", "listing_type": "buy", "location_accuracy": 9, "longitude": -2.7126079, "price": 270000, "price_currency": "\u00a3", "price_formatted": "\u00a3270,000", "price_high": 270000, "price_low": 270000, "price_type": "fixed", "property_type": "house", "size": 0, "size_type": "net", "summary": "A superb three bedroom home that has the benefit of an elevated pos...", "thumb_height": 60, "thumb_url": "https://imgs.nestimg.com/medium/3_bedroom_semi_detached_house_111346627441639018.jpg", "thumb_width": 80, "title": "Hamlyn Road, Glastonbury, Somerset, BA6", "updated_in_days": 38, "updated_in_days_formatted": "first seen over a month ago"}, {"bathroom_number": "", "bedroom_number": "", "car_spaces": 0, "commission": 0, "construction_year": 0, "datasource_name": "OnTheMarket.com", "img_height": 300, "img_url": "https://imgs.nestimg.com/land_for_sale_110407141253838896.jpg", "img_width": 400, "keywords": "", "latitude": 51.1761, "lister_url": "https://www.nestoria.co.uk/detail/0000000110407141253838896/title/5/80-5?serpUid=&pt=1&ot=1&l=somerset&did=105_high1&t_sec=9&t_or=45&t_pvid=null&utm_source=api&utm_medium=external", "listing_type": "buy", "location_accuracy": 9, "longitude": -2.43871, "price": 90000, "price_currency": "\u00a3", "price_formatted": "\u00a390,000", "price_high": 90000, "price_low": 90000, "price_type": "fixed", "property_type": "land", "size": 0, "size_type": "net", "summary": "A single arable enclosure extending to about 9.51 acres with access...", "thumb_height": 60, "thumb_url": "https://imgs.nestimg.com/medium/land_for_sale_110407141253838896.jpg", "thumb_width": 80, "title": "Lot 9: Land At Batcombe, Wanstrow, Shepton Mallet, Somerset, BA4", "updated_in_days": 214, "updated_in_days_formatted": "first seen over a month ago"}, {"bathroom_number": "", "bedroom_number": 2, "car_spaces": 0, "commission": 0, "construction_year": 0, "datasource_name": "NetHousePrices", "img_height": 300, "img_url": "https://imgs.nestimg.com/2_bedroom_flat_111668239429899407.jpg", "img_width": 400, "keywords": "Balcony, Double Bedroom, Garage, Kitchen, Lift", "latitude": 51.35557, "lister_name": "Palmer Snell", "lister_url": "https://www.nestoria.co.uk/detail/0000000111668239429899407/title/5/80-6?serpUid=&pt=1&ot=1&l=somerset&did=90_high1&t_sec=9&t_or=45&t_pvid=null&utm_source=api&utm_medium=external", "listing_type": "buy", "location_accuracy": 9, "longitude": -2.9860034, "price": 160000, "price_currency": "\u00a3", "price_formatted": "\u00a3160,000", "price_high": 160000, "price_low": 160000, "price_type": "fixed", "property_type": "flat", "size": 0, "size_type": "net", "summary": "This two double bedroom first floor apartment is located in a prime...", "thumb_height": 60, "thumb_url": "https://imgs.nestimg.com/medium/2_bedroom_flat_111668239429899407.jpg", "thumb_width": 80, "title": "Shrubbery Avenue, Weston-super-mare, Somerset, BS23", "updated_in_days": 10, "updated_in_days_formatted": "first seen last week"}, {"bathroom_number": "", "bedroom_number": 2, "car_spaces": 0, "commission": 0, "construction_year": 0, "datasource_name": "NetHousePrices", "img_height": 300, "img_url": "https://imgs.nestimg.com/2_bedroom_apartment_flat_111482737940405295.jpg", "img_width": 400, "keywords": "En suite, Maisonette, Conversion, Kitchen, Loft, Dishwasher, Reception", "latitude": 50.954853, "lister_name": "Greenslade Taylor Hunt", "lister_url": "https://www.nestoria.co.uk/detail/0000000111482737940405295/title/5/80-7?serpUid=&pt=1&ot=1&l=somerset&did=90_high1&t_sec=9&t_or=45&t_pvid=null&utm_source=api&utm_medium=external", "listing_type": "buy", "location_accuracy": 9, "longitude": -2.7521203, "price": 210000, "price_currency": "\u00a3", "price_formatted": "\u00a3210,000", "price_high": 210000, "price_low": 210000, "price_type": "fixed", "property_type": "flat", "size": 0, "size_type": "net", "summary": "First floor maisonette situated in the prestigious brocks mount dev...", "thumb_height": 60, "thumb_url": "https://imgs.nestimg.com/medium/2_bedroom_apartment_flat_111482737940405295.jpg", "thumb_width": 80, "title": "Brocks Mount, Stoke-sub-hamdon, Somerset, TA14", "updated_in_days": 40, "updated_in_days_formatted": "first seen over a month ago"}, {"bathroom_number": "", "bedroom_number": 3, "car_spaces": 0, "commission": 0, "construction_year": 0, "datasource_name": "NetHousePrices", "img_height": 300, "img_url": "https://imgs.nestimg.com/house_111229453244866158.jpg", "img_width": 400, "keywords": "Detached, Garden, En suite, No Chain, Conservatory, Garage, Kitchen, Bungalow, Cul-de-Sac", "latitude": 50.876415, "lister_name": "Palmer Snell", "lister_url": "https://www.nestoria.co.uk/detail/0000000111229453244866158/title/5/80-8?serpUid=&pt=1&ot=1&l=somerset&did=90_high1&t_sec=9&t_or=45&t_pvid=null&utm_source=api&utm_medium=external", "listing_type": "buy", "location_accuracy": 9, "longitude": -2.9468873, "price": 325000, "price_currency": "\u00a3", "price_formatted": "\u00a3325,000", "price_high": 325000, "price_low": 325000, "price_type": "fixed", "property_type": "house", "size": 0, "size_type": "net", "summary": "Offered to the market with no onward chain, this three bedroom deta...", "thumb_height": 60, "thumb_url": "https://imgs.nestimg.com/medium/house_111229453244866158.jpg", "thumb_width": 80, "title": "Old Orchards, Chard, Somerset, TA20", "updated_in_days": 81, "updated_in_days_formatted": "first seen over a month ago"}, {"bathroom_number": 6, "bedroom_number": 4, "car_spaces": 0, "commission": 0, "construction_year": 0, "datasource_name": "NetHousePrices", "img_height": 300, "img_url": "https://imgs.nestimg.com/4_bedroom_detached_house_111668254447006774.jpg", "img_width": 400, "keywords": "Detached, Garden, Kitchen, Dishwasher, Gas Central Heating", "latitude": 51.355865, "lister_url": "https://www.nestoria.co.uk/detail/0000000111668254447006774/title/5/80-9?serpUid=&pt=1&ot=1&l=somerset&did=90_high1&t_sec=9&t_or=45&t_pvid=null&utm_source=api&utm_medium=external", "listing_type": "buy", "location_accuracy": 9, "longitude": -2.9503505, "price": 285000, "price_currency": "\u00a3", "price_formatted": "\u00a3285,000", "price_high": 285000, "price_low": 285000, "price_type": "fixed", "property_type": "house", "size": 0, "size_type": "net", "summary": "Upside down detached house ideally situated on milton hillside clos...", "thumb_height": 60, "thumb_url": "https://imgs.nestimg.com/medium/4_bedroom_detached_house_111668254447006774.jpg", "thumb_width": 80, "title": "The Crescent, Milton, Weston-super-mare, Somerset, BS22", "updated_in_days": 10, "updated_in_days_formatted": "first seen last week"}, {"bathroom_number": "", "bedroom_number": 2, "car_spaces": 0, "commission": 0, "construction_year": 0, "datasource_name": "OnTheMarket.com", "img_height": 300, "img_url": "https://imgs.nestimg.com/2_bedroom_detached_bungalow_for_sale_111717692304410748.jpg", "img_width": 400, "keywords": "Detached, Garden, Refurbished, Garage, Bungalow", "latitude": 51.0232, "lister_name": "Webbers", "lister_url": "https://www.nestoria.co.uk/detail/0000000111717692304410748/title/5/80-10?serpUid=&pt=1&ot=1&l=somerset&did=105_high1&t_sec=9&t_or=45&t_pvid=null&utm_source=api&utm_medium=external", "listing_type": "buy", "location_accuracy": 9, "longitude": -3.07074, "price": 240000, "price_currency": "\u00a3", "price_formatted": "\u00a3240,000", "price_high": 240000, "price_low": 240000, "price_type": "fixed", "property_type": "house", "size": 0, "size_type": "net", "summary": "A recently modernised bungalow in highly convenient location with d...", "thumb_height": 60, "thumb_url": "https://imgs.nestimg.com/medium/2_bedroom_detached_bungalow_for_sale_111717692304410748.jpg", "thumb_width": 80, "title": "Laxton Close, Taunton - Garden", "updated_in_days": 2, "updated_in_days_formatted": "first seen 2 days ago"}, {"bathroom_number": "", "bedroom_number": 1, "car_spaces": 0, "commission": 0, "construction_year": 0, "datasource_name": "NetHousePrices", "img_height": 300, "img_url": "https://imgs.nestimg.com/1_bedroom_semi_detached_house_111309412066842393.jpg", "img_width": 400, "keywords": "Semi-Detached, Double Bedroom, Kitchen, Off Street Parking, Modern, Cottage", "latitude": 51.180626, "lister_name": "Palmer Snell", "lister_url": "https://www.nestoria.co.uk/detail/0000000111309412066842393/title/5/80-11?serpUid=&pt=1&ot=1&l=somerset&did=90_high1&t_sec=9&t_or=45&t_pvid=null&utm_source=api&utm_medium=external", "listing_type": "buy", "location_accuracy": 9, "longitude": -2.7334285, "price": 230000, "price_currency": "\u00a3", "price_formatted": "\u00a3230,000", "price_high": 230000, "price_low": 230000, "price_type": "fixed", "property_type": "house", "size": 0, "size_type": "net", "summary": "Great things come in small packages! And there is no finer example ...", "thumb_height": 60, "thumb_url": "https://imgs.nestimg.com/medium/1_bedroom_semi_detached_house_111309412066842393.jpg", "thumb_width": 80, "title": "Godney, Wells, Somerset, BA5 - Modern", "updated_in_days": 68, "updated_in_days_formatted": "first seen over a month ago"}, {"bathroom_number": "", "bedroom_number": 1, "car_spaces": 0, "commission": 0, "construction_year": 0, "datasource_name": "NetHousePrices", "img_height": 300, "img_url": "https://imgs.nestimg.com/1_bedroom_semi_detached_house_111309413652484648.jpg", "img_width": 400, "keywords": "Semi-Detached, No Chain, Double Bedroom, Kitchen, Off Street Parking, Cottage", "latitude": 51.180626, "lister_name": "Palmer Snell", "lister_url": "https://www.nestoria.co.uk/detail/0000000111309413652484648/title/5/80-12?serpUid=&pt=1&ot=1&l=somerset&did=90_high1&t_sec=9&t_or=45&t_pvid=null&utm_source=api&utm_medium=external", "listing_type": "buy", "location_accuracy": 9, "longitude": -2.7334285, "price": 250000, "price_currency": "\u00a3", "price_formatted": "\u00a3250,000", "price_high": 250000, "price_low": 250000, "price_type": "fixed", "property_type": "house", "size": 0, "size_type": "net", "summary": "Full of character, invention, love and tremendous appeal, this one ...", "thumb_height": 60, "thumb_url": "https://imgs.nestimg.com/medium/1_bedroom_semi_detached_house_111309413652484648.jpg", "thumb_width": 80, "title": "Godney, Wells, Somerset, BA5", "updated_in_days": 68, "updated_in_days_formatted": "first seen over a month ago"}, {"bathroom_number": "", "bedroom_number": 3, "car_spaces": 0, "commission": 0, "construction_year": 0, "datasource_name": "NetHousePrices", "img_height": 300, "img_url": "https://imgs.nestimg.com/house_111668243128132900.jpg", "img_width": 400, "keywords": "Garden, En suite, Conversion, Refurbished, Terraced, Double Bedroom, Kitchen, Patio", "latitude": 51.35873, "lister_name": "Palmer Snell", "lister_url": "https://www.nestoria.co.uk/detail/0000000111668243128132900/title/5/80-13?serpUid=&pt=1&ot=1&l=somerset&did=90_high1&t_sec=9&t_or=45&t_pvid=null&utm_source=api&utm_medium=external", "listing_type": "buy", "location_accuracy": 9, "longitude": -2.934281, "price": 199950, "price_currency": "\u00a3", "price_formatted": "\u00a3199,950", "price_high": 199950, "price_low": 199950, "price_type": "fixed", "property_type": "house", "size": 0, "size_type": "net", "summary": "Open house- saturday 15th june between 12:00pm-1:00pm- call now to ...", "thumb_height": 60, "thumb_url": "https://imgs.nestimg.com/medium/house_111668243128132900.jpg", "thumb_width": 80, "title": "The Weind, Weston-super-mare, Somerset, BS22", "updated_in_days": 10, "updated_in_days_formatted": "first seen last week"}, {"bathroom_number": "", "bedroom_number": 3, "car_spaces": 0, "commission": 0, "construction_year": 0, "datasource_name": "OnTheMarket.com", "img_height": 300, "img_url": "https://imgs.nestimg.com/3_bedroom_house_for_sale_111717690607451012.jpg", "img_width": 400, "keywords": "No Chain, Garage, Kitchen", "latitude": 51.1397, "lister_name": "Lees & Waters", "lister_url": "https://www.nestoria.co.uk/detail/0000000111717690607451012/title/5/80-14?serpUid=&pt=1&ot=1&l=somerset&did=105_high1&t_sec=9&t_or=45&t_pvid=null&utm_source=api&utm_medium=external", "listing_type": "buy", "location_accuracy": 9, "longitude": -3.00346, "price": 182500, "price_currency": "\u00a3", "price_formatted": "\u00a3182,500", "price_high": 182500, "price_low": 182500, "price_type": "fixed", "property_type": "house", "size": 0, "size_type": "net", "summary": "Positioned at the end of the road with little passing traffic, this...", "thumb_height": 60, "thumb_url": "https://imgs.nestimg.com/medium/3_bedroom_house_for_sale_111717690607451012.jpg", "thumb_width": 80, "title": "Standish Street, Bridgwater", "updated_in_days": 2, "updated_in_days_formatted": "first seen 2 days ago"}, {"bathroom_number": "", "bedroom_number": 2, "car_spaces": 0, "commission": 0, "construction_year": 0, "datasource_name": "NetHousePrices", "img_height": 300, "img_url": "https://imgs.nestimg.com/2_bedroom_terraced_house_111618886266059020.jpg", "img_width": 400, "keywords": "Garden, No Chain, Terraced, Double Bedroom, Kitchen, Cul-de-Sac", "latitude": 51.237335, "lister_name": "Palmer Snell", "lister_url": "https://www.nestoria.co.uk/detail/0000000111618886266059020/title/5/80-15?serpUid=&pt=1&ot=1&l=somerset&did=90_high1&t_sec=9&t_or=45&t_pvid=null&utm_source=api&utm_medium=external", "listing_type": "buy", "location_accuracy": 9, "longitude": -2.7224696, "price": 190000, "price_currency": "\u00a3", "price_formatted": "\u00a3190,000", "price_high": 190000, "price_low": 190000, "price_type": "fixed", "property_type": "house", "size": 0, "size_type": "net", "summary": "This property is currently undergoing a makeover more photos will b...", "thumb_height": 60, "thumb_url": "https://imgs.nestimg.com/medium/2_bedroom_terraced_house_111618886266059020.jpg", "thumb_width": 80, "title": "Stoneleigh, Westbury Sub Mendip, Somerset, BA5", "updated_in_days": 18, "updated_in_days_formatted": "first seen 2 weeks ago"}], "locations": [{"center_lat": 51.080967, "center_long": -3.045432, "long_title": "Somerset, county", "place_name": "somerset", "title": "Somerset"}], "page": 80, "sort": "nestoria_rank", "status_code": "200", "status_text": "OK", "thanks": "For using the Nestoria API.", "total_pages": 410, "total_results": 6149, "_cu5t0mP434m_": "remove"}}