{"request": {"country": "uk", "language": "en", "location": "somerset", "num_res": "15", "offset": 1200, "output": "json_xs", "page": 81, "product_type": "realestate", "property_type": "property", "size_type": "net", "size_unit": "m2", "sort": "nestoria_rank", "listing_type": "buy"}, "response": {"application_response_code": "100", "application_response_text": "listings returned for one unambiguous location", "attribution": {"img_height": 22, "img_url": "https://resources.nestimg.com/nestoria/img/pbr_v1.png", "img_width": 183, "link_to_img": "http://www.nestoria.com"}, "created_http": "Tue, 18 Jun 2019 17:30:42 GMT", "created_unix": 1560879042, "link_to_url": "https://www.nestoria.co.uk/somerset/property/buy/81", "listings": [{"bathroom_number": "", "bedroom_number": 3, "car_spaces": 0, "commission": 0, "construction_year": 0, "datasource_name": "NetHousePrices", "img_height": 300, "img_url": "https://imgs.nestimg.com/3_bedroom_detached_house_111111781410281635.jpg", "img_width": 400, "keywords": "Detached, Garden, Fireplace, Garage, Kitchen, Gas Central Heating", "latitude": 50.95215, "lister_name": "Palmer Snell", "lister_url": "https://www.nestoria.co.uk/detail/0000000111111781410281635/title/5/81-1?serpUid=&pt=1&ot=1&l=somerset&did=90_high1&t_sec=9&t_or=45&t_pvid=null&utm_source=api&utm_medium=external", "listing_type": "buy", "location_accuracy": 9, "longitude": -2.7518916, "price": 235000, "price_currency": "\u00a3", "price_formatted": "\u00a3235,000", "price_high": 235000, "price_low": 235000, "price_type": "fixed", "property_type": "house", "size": 0, "size_type": "net", "summary": "Detached three bedroom property situated on the edge of the village...", "thumb_height": 60, "thumb_url": "https://imgs.nestimg.com/medium/3_bedroom_detached_house_111111781410281635.jpg", "thumb_width": 80, "title": "Hamdon Close, Stoke-sub-hamdon, Somerset, TA14", "updated_in_days": 100, "updated_in_days_formatted": "first seen over a month ago"}, {"bathroom_number": "", "bedroom_number": 2, "car_spaces": 0, "commission": 0, "construction_year": 0, "datasource_name": "NetHousePrices", "img_height": 300, "img_url": "https://imgs.nestimg.com/2_bedroom_semi_detached_bungalow_111612983906102609.jpg", "img_width": 400, "keywords": "Garden, Semi-Detached, No Chain, Garage, Kitchen, Bungalow, Patio, Gas Central Heating", "latitude": 51.337013, "lister_url": "https://www.nestoria.co.uk/detail/0000000111612983906102609/title/5/81-2?serpUid=&pt=1&ot=1&l=somerset&did=90_high1&t_sec=9&t_or=45&t_pvid=null&utm_source=api&utm_medium=external", "listing_type": "buy", "location_accuracy": 9, "longitude": -2.9609854, "price": 150000, "price_currency": "\u00a3", "price_formatted": "\u00a3150,000", "price_high": 150000, "price_low": 150000, "price_type": "fixed", "property_type": "house", "size": 0, "size_type": "net", "summary": "Semi detached bungalow ideally situated on the south side of weston...", "thumb_height": 60, "thumb_url": "https://imgs.nestimg.com/medium/2_bedroom_semi_detached_bungalow_111612983906102609.jpg", "thumb_width": 80, "title": "Kenn Close, Weston-super-mare, Somerset, BS23", "updated_in_days": 18, "updated_in_days_formatted": "first seen 2 weeks ago"}, {"bathroom_number": "", "bedroom_number": 2, "car_spaces": 0, "commission": 0, "construction_year": 0, "datasource_name": "NetHousePrices", "img_height": 300, "img_url": "https://imgs.nestimg.com/2_bedroom_flat_111328695804953640.jpg", "img_width": 400, "keywords": "En suite, Kitchen, Parking, Reception, Gas Central Heating", "latitude": 50.954445, "lister_name": "Express", "lister_url": "https://www.nestoria.co.uk/detail/0000000111328695804953640/title/5/81-3?serpUid=&pt=1&ot=1&l=somerset&did=90_high1&t_sec=9&t_or=45&t_pvid=null&utm_source=api&utm_medium=external", "listing_type": "buy", "location_accuracy": 9, "longitude": -2.6703217, "price": 125000, "price_currency": "\u00a3", "price_formatted": "\u00a3125,000", "price_high": 125000, "price_low": 125000, "price_type": "fixed", "property_type": "flat", "size": 0, "size_type": "net", "summary": "Two bedroom flat all interest and offers are invited. Guide price 1...", "thumb_height": 60, "thumb_url": "https://imgs.nestimg.com/medium/2_bedroom_flat_111328695804953640.jpg", "thumb_width": 80, "title": "Shrewsbury Road, Yeovil, Somerset, BA21", "updated_in_days": 17, "updated_in_days_formatted": "first seen 2 weeks ago"}, {"bathroom_number": "", "bedroom_number": 3, "car_spaces": 0, "commission": 0, "construction_year": 0, "datasource_name": "NetHousePrices", "img_height": 300, "img_url": "https://imgs.nestimg.com/3_bedroom_end_of_terrace_house_111544472559810295.jpg", "img_width": 400, "keywords": "Garden, No Chain, Terraced, Garage, Kitchen, Gas Central Heating", "latitude": 51.32446, "lister_url": "https://www.nestoria.co.uk/detail/0000000111544472559810295/title/5/81-4?serpUid=&pt=1&ot=1&l=somerset&did=90_high1&t_sec=9&t_or=45&t_pvid=null&utm_source=api&utm_medium=external", "listing_type": "buy", "location_accuracy": 9, "longitude": -2.9613545, "price": 195000, "price_currency": "\u00a3", "price_formatted": "\u00a3195,000", "price_high": 195000, "price_low": 195000, "price_type": "fixed", "property_type": "house", "size": 0, "size_type": "net", "summary": "Well presented end terrace house ideally situated on the south side...", "thumb_height": 60, "thumb_url": "https://imgs.nestimg.com/medium/3_bedroom_end_of_terrace_house_111544472559810295.jpg", "thumb_width": 80, "title": "Dunster Crescent, Weston-super-mare, Somerset, BS24", "updated_in_days": 30, "updated_in_days_formatted": "first seen over a month ago"}, {"bathroom_number": "", "bedroom_number": 2, "car_spaces": 0, "commission": 0, "construction_year": 0, "datasource_name": "OnTheMarket.com", "img_height": 300, "img_url": "https://imgs.nestimg.com/2_bedroom_semi_detached_house_for_sale_111717699005751895.jpg", "img_width": 400, "keywords": "Garden, Semi-Detached, Double Bedroom", "latitude": 51.0328, "lister_url": "https://www.nestoria.co.uk/detail/0000000111717699005751895/title/5/81-5?serpUid=&pt=1&ot=1&l=somerset&did=105_high1&t_sec=9&t_or=45&t_pvid=null&utm_source=api&utm_medium=external", "listing_type": "buy", "location_accuracy": 9, "longitude": -3.08903, "price": 169950, "price_currency": "\u00a3", "price_formatted": "\u00a3169,950", "price_high": 169950, "price_low": 169950, "price_type": "fixed", "property_type": "house", "size": 0, "size_type": "net", "summary": "This two double bedroom semi-detached home is located the residenti...", "thumb_height": 60, "thumb_url": "https://imgs.nestimg.com/medium/2_bedroom_semi_detached_house_for_sale_111717699005751895.jpg", "thumb_width": 80, "title": "Buckland Road, Taunton - Garden", "updated_in_days": 2, "updated_in_days_formatted": "first seen 2 days ago"}, {"bathroom_number": "", "bedroom_number": 2, "car_spaces": 0, "commission": 0, "construction_year": 0, "datasource_name": "NetHousePrices", "img_height": 300, "img_url": "https://imgs.nestimg.com/2_bedroom_semi_detached_house_111211199292464499.jpg", "img_width": 400, "keywords": "Semi-Detached, Fireplace, Kitchen, Parking, Patio, Reception, Gas Central Heating", "latitude": 50.974987, "lister_name": "Palmer Snell", "lister_url": "https://www.nestoria.co.uk/detail/0000000111211199292464499/title/5/81-6?serpUid=&pt=1&ot=1&l=somerset&did=90_high1&t_sec=9&t_or=45&t_pvid=null&utm_source=api&utm_medium=external", "listing_type": "buy", "location_accuracy": 9, "longitude": -2.7152846, "price": 300000, "price_currency": "\u00a3", "price_formatted": "\u00a3300,000", "price_high": 300000, "price_low": 300000, "price_type": "fixed", "property_type": "house", "size": 0, "size_type": "net", "summary": "This , semi detached period property, offers well presented, good s...", "thumb_height": 60, "thumb_url": "https://imgs.nestimg.com/medium/2_bedroom_semi_detached_house_111211199292464499.jpg", "thumb_width": 80, "title": "Church Street, Tintinhull, Yeovil, Somerset, BA22", "updated_in_days": 84, "updated_in_days_formatted": "first seen over a month ago"}, {"bathroom_number": "", "bedroom_number": 4, "car_spaces": 0, "commission": 0, "construction_year": 0, "datasource_name": "NetHousePrices", "img_height": 300, "img_url": "https://imgs.nestimg.com/4_bedroom_semi_detached_house_111470387478744166.jpg", "img_width": 400, "keywords": "Garden, Semi-Detached, En suite, No Chain, Detached Garage, Fireplace, Victorian, Kitchen, Dishwasher, Patio, Cottage", "latitude": 51.086052, "lister_name": "Palmer Snell", "lister_url": "https://www.nestoria.co.uk/detail/0000000111470387478744166/title/5/81-7?serpUid=&pt=1&ot=1&l=somerset&did=90_high1&t_sec=9&t_or=45&t_pvid=null&utm_source=api&utm_medium=external", "listing_type": "buy", "location_accuracy": 9, "longitude": -2.6580455, "price": 425000, "price_currency": "\u00a3", "price_formatted": "\u00a3425,000", "price_high": 425000, "price_low": 425000, "price_type": "fixed", "property_type": "house", "size": 0, "size_type": "net", "summary": "This extended semi detached cottage offers size family accommodatio...", "thumb_height": 60, "thumb_url": "https://imgs.nestimg.com/medium/4_bedroom_semi_detached_house_111470387478744166.jpg", "thumb_width": 80, "title": "Brook Lane, Barton St. David, Somerton, Somerset, TA11", "updated_in_days": 42, "updated_in_days_formatted": "first seen over a month ago"}, {"bathroom_number": "", "bedroom_number": 2, "car_spaces": 0, "commission": 0, "construction_year": 0, "datasource_name": "NetHousePrices", "img_height": 300, "img_url": "https://imgs.nestimg.com/2_bedroom_flat_111662414295039211.jpg", "img_width": 400, "keywords": "Kitchen, Parking, Gas Central Heating", "latitude": 50.931503, "lister_name": "Palmer Snell", "lister_url": "https://www.nestoria.co.uk/detail/0000000111662414295039211/title/5/81-8?serpUid=&pt=1&ot=1&l=somerset&did=90_high1&t_sec=9&t_or=45&t_pvid=null&utm_source=api&utm_medium=external", "listing_type": "buy", "location_accuracy": 9, "longitude": -2.6418023, "price": 150000, "price_currency": "\u00a3", "price_formatted": "\u00a3150,000", "price_high": 150000, "price_low": 150000, "price_type": "fixed", "property_type": "flat", "size": 0, "size_type": "net", "summary": "A well presented, ground floor, executive apartment, situated off t...", "thumb_height": 60, "thumb_url": "https://imgs.nestimg.com/medium/2_bedroom_flat_111662414295039211.jpg", "thumb_width": 80, "title": "Dorchester Road, Yeovil, Somerset, BA20", "updated_in_days": 11, "updated_in_days_formatted": "first seen last week"}, {"bathroom_number": "", "bedroom_number": 3, "car_spaces": 0, "commission": 0, "construction_year": 0, "datasource_name": "OnTheMarket.com", "img_height": 300, "img_url": "https://imgs.nestimg.com/3_bedroom_semi_detached_house_for_sale_111717693562069204.jpg", "img_width": 400, "keywords": "Garden, Semi-Detached, Grade II, Listed", "latitude": 51.011, "lister_name": "Webbers", "lister_url": "https://www.nestoria.co.uk/detail/0000000111717693562069204/title/5/81-9?serpUid=&pt=1&ot=1&l=somerset&did=105_high1&t_sec=9&t_or=45&t_pvid=null&utm_source=api&utm_medium=external", "listing_type": "buy", "location_accuracy": 9, "longitude": -3.10095, "price": 325000, "price_currency": "\u00a3", "price_formatted": "\u00a3325,000", "price_high": 325000, "price_low": 325000, "price_type": "fixed", "property_type": "house", "size": 0, "size_type": "net", "summary": "A period home, grade ii listed, situated within the town centre in ...", "thumb_height": 60, "thumb_url": "https://imgs.nestimg.com/medium/3_bedroom_semi_detached_house_for_sale_111717693562069204.jpg", "thumb_width": 80, "title": "Mount Street, Taunton - Garden", "updated_in_days": 2, "updated_in_days_formatted": "first seen 2 days ago"}, {"bathroom_number": "", "bedroom_number": 5, "car_spaces": 0, "commission": 0, "construction_year": 0, "datasource_name": "Home.co.uk", "img_height": 300, "img_url": "https://imgs.nestimg.com/detached_house_111514216670571642.jpg", "img_width": 400, "keywords": "Detached, En suite, Double Garage, Conservatory, Kitchen, Reception", "latitude": 51.069004, "lister_name": "Greenslade Taylor Hunt", "lister_url": "https://www.nestoria.co.uk/detail/0000000111514216670571642/title/5/81-10?serpUid=&pt=1&ot=1&l=somerset&did=85_default&t_sec=9&t_or=45&t_pvid=null&utm_source=api&utm_medium=external", "listing_type": "buy", "location_accuracy": 10, "longitude": -2.647603, "price": 525000, "price_currency": "\u00a3", "price_formatted": "\u00a3525,000", "price_high": 525000, "price_low": 525000, "price_type": "fixed", "property_type": "house", "size": 0, "size_type": "net", "summary": "5 bedrooms 2 reception rooms conservatory kitchen/breakfast room ut...", "thumb_height": 60, "thumb_url": "https://imgs.nestimg.com/medium/detached_house_111514216670571642.jpg", "thumb_width": 80, "title": "Church Street, Keinton Mandeville, Somerton, Somerset, TA11", "updated_in_days": 35, "updated_in_days_formatted": "first seen over a month ago"}, {"bathroom_number": "", "bedroom_number": 3, "car_spaces": 0, "commission": 0, "construction_year": 0, "datasource_name": "NetHousePrices", "img_height": 300, "img_url": "https://imgs.nestimg.com/3_bedroom_detached_house_111118162941065514.jpg", "img_width": 400, "keywords": "Detached, Garden, Fireplace, Kitchen, Patio", "latitude": 50.94649, "lister_name": "Palmer Snell", "lister_url": "https://www.nestoria.co.uk/detail/0000000111118162941065514/title/5/81-11?serpUid=&pt=1&ot=1&l=somerset&did=90_high1&t_sec=9&t_or=45&t_pvid=null&utm_source=api&utm_medium=external", "listing_type": "buy", "location_accuracy": 9, "longitude": -2.6337242, "price": 230000, "price_currency": "\u00a3", "price_formatted": "\u00a3230,000", "price_high": 230000, "price_low": 230000, "price_type": "fixed", "property_type": "house", "size": 0, "size_type": "net", "summary": "Well proportioned three bedroom property located in a sought after ...", "thumb_height": 60, "thumb_url": "https://imgs.nestimg.com/medium/3_bedroom_detached_house_111118162941065514.jpg", "thumb_width": 80, "title": "Roping Road, Yeovil, Somerset, BA21", "updated_in_days": 12, "updated_in_days_formatted": "first seen last week"}, {"bathroom_number": "", "bedroom_number": 4, "car_spaces": 0, "commission": 0, "construction_year": 0, "datasource_name": "NetHousePrices", "img_height": 300, "img_url": "https://imgs.nestimg.com/4_bedroom_detached_house_111587777642239250.jpg", "img_width": 400, "keywords": "Detached, Garden, En suite, Fireplace, Victorian, Double Bedroom, Garage, Kitchen, Modern, Reception", "latitude": 51.33978, "lister_name": "Palmer Snell", "lister_url": "https://www.nestoria.co.uk/detail/0000000111587777642239250/title/5/81-12?serpUid=&pt=1&ot=1&l=somerset&did=90_high1&t_sec=9&t_or=45&t_pvid=null&utm_source=api&utm_medium=external", "listing_type": "buy", "location_accuracy": 9, "longitude": -2.9797497, "price": 475000, "price_currency": "\u00a3", "price_formatted": "\u00a3475,000", "price_high": 475000, "price_low": 475000, "price_type": "fixed", "property_type": "house", "size": 0, "size_type": "net", "summary": "This four bedroom detached victorian house would make the perfect f...", "thumb_height": 60, "thumb_url": "https://imgs.nestimg.com/medium/4_bedroom_detached_house_111587777642239250.jpg", "thumb_width": 80, "title": "Clifton Road, Weston-super-mare, Somerset, BS23", "updated_in_days": 23, "updated_in_days_formatted": "first seen 3 weeks ago"}, {"bathroom_number": "", "bedroom_number": 2, "car_spaces": 0, "commission": 0, "construction_year": 0, "datasource_name": "OnTheMarket.com", "img_height": 300, "img_url": "https://imgs.nestimg.com/2_bedroom_terraced_house_for_sale_111717688133210716.jpg", "img_width": 400, "keywords": "Terraced, Double Bedroom", "latitude": 51.0358, "lister_name": "Haart", "lister_url": "https://www.nestoria.co.uk/detail/0000000111717688133210716/title/5/81-13?serpUid=&pt=1&ot=1&l=somerset&did=105_high1&t_sec=9&t_or=45&t_pvid=null&utm_source=api&utm_medium=external", "listing_type": "buy", "location_accuracy": 9, "longitude": -3.08802, "price": 180000, "price_currency": "\u00a3", "price_formatted": "\u00a3180,000", "price_high": 180000, "price_low": 180000, "price_type": "fixed", "property_type": "house", "size": 0, "size_type": "net", "summary": "Ly presented this mid terrace house is a perfect first time buy and...", "thumb_height": 60, "thumb_url": "https://imgs.nestimg.com/medium/2_bedroom_terraced_house_for_sale_111717688133210716.jpg", "thumb_width": 80, "title": "Bossington Drive, Priorswood", "updated_in_days": 2, "updated_in_days_formatted": "first seen 2 days ago"}, {"bathroom_number": "", "bedroom_number": 3, "car_spaces": 0, "commission": 0, "construction_year": 0, "datasource_name": "NetHousePrices", "img_height": 300, "img_url": "https://imgs.nestimg.com/3_bedroom_detached_house_111111779580683640.jpg", "img_width": 400, "keywords": "Detached, Garden, Fireplace, Refurbished, Double Bedroom, Garage, Kitchen, Modern", "latitude": 51.360916, "lister_name": "Palmer Snell", "lister_url": "https://www.nestoria.co.uk/detail/0000000111111779580683640/title/5/81-14?serpUid=&pt=1&ot=1&l=somerset&did=90_high1&t_sec=9&t_or=45&t_pvid=null&utm_source=api&utm_medium=external", "listing_type": "buy", "location_accuracy": 9, "longitude": -2.924932, "price": 290000, "price_currency": "\u00a3", "price_formatted": "\u00a3290,000", "price_high": 290000, "price_low": 290000, "price_type": "fixed", "property_type": "house", "size": 0, "size_type": "net", "summary": "This ly presented three bedroom family home has been refurbished to...", "thumb_height": 60, "thumb_url": "https://imgs.nestimg.com/medium/3_bedroom_detached_house_111111779580683640.jpg", "thumb_width": 80, "title": "High Street, Worle, Weston-super-mare, Somerset, BS22", "updated_in_days": 13, "updated_in_days_formatted": "first seen last week"}, {"bathroom_number": "", "bedroom_number": 5, "car_spaces": 0, "commission": 0, "construction_year": 0, "datasource_name": "NetHousePrices", "img_height": 300, "img_url": "https://imgs.nestimg.com/5_bedroom_detached_house_110159104286029506.jpg", "img_width": 400, "keywords": "Detached, Garden, En suite, Fireplace, Double Bedroom, Garage, Kitchen, Patio, Reception", "latitude": 51.306427, "lister_name": "Express", "lister_url": "https://www.nestoria.co.uk/detail/0000000110159104286029506/title/5/81-15?serpUid=&pt=1&ot=1&l=somerset&did=90_high1&t_sec=9&t_or=45&t_pvid=null&utm_source=api&utm_medium=external", "listing_type": "buy", "location_accuracy": 9, "longitude": -2.9350688, "price": 425000, "price_currency": "\u00a3", "price_formatted": "\u00a3425,000", "price_high": 425000, "price_low": 425000, "price_type": "fixed", "property_type": "house", "size": 0, "size_type": "net", "summary": "Five bedroom detached housel interest and offers are invited. Full ...", "thumb_height": 60, "thumb_url": "https://imgs.nestimg.com/medium/5_bedroom_detached_house_110159104286029506.jpg", "thumb_width": 80, "title": "Shiplate Road, Bleadon, Weston-super-mare, Somerset, BS24", "updated_in_days": 254, "updated_in_days_formatted": "first seen over a month ago"}], "locations": [{"center_lat": 51.080967, "center_long": -3.045432, "long_title": "Somerset, county", "place_name": "somerset", "title": "Somerset"}], "page": 81, "sort": "nestoria_rank", "status_code": "200", "status_text": "OK", "thanks": "For using the Nestoria API.", "total_pages": 410, "total_results": 6149, "_cu5t0mP434m_": "remove"}}