{"request": {"country": "uk", "language": "en", "location": "somerset", "num_res": "15", "offset": 1215, "output": "json_xs", "page": 82, "product_type": "realestate", "property_type": "property", "size_type": "net", "size_unit": "m2", "sort": "nestoria_rank", "listing_type": "buy"}, "response": {"application_response_code": "100", "application_response_text": "listings returned for one unambiguous location", "attribution": {"img_height": 22, "img_url": "https://resources.nestimg.com/nestoria/img/pbr_v1.png", "img_width": 183, "link_to_img": "http://www.nestoria.com"}, "created_http": "Tue, 18 Jun 2019 17:30:43 GMT", "created_unix": 1560879043, "link_to_url": "https://www.nestoria.co.uk/somerset/property/buy/82", "listings": [{"bathroom_number": "", "bedroom_number": 2, "car_spaces": 0, "commission": 0, "construction_year": 0, "datasource_name": "NetHousePrices", "img_height": 300, "img_url": "https://imgs.nestimg.com/2_bedroom_end_of_terrace_house_111111782839818059.jpg", "img_width": 400, "keywords": "Garden, New Build, Terraced, Kitchen, Parking, Shared Equity", "latitude": 51.213768, "lister_name": "Palmer Snell", "lister_url": "https://www.nestoria.co.uk/detail/0000000111111782839818059/title/5/82-1?serpUid=&pt=1&ot=1&l=somerset&did=90_high1&t_sec=9&t_or=45&t_pvid=null&utm_source=api&utm_medium=external", "listing_type": "buy", "location_accuracy": 9, "longitude": -2.6483116, "price": 184000, "price_currency": "\u00a3", "price_formatted": "\u00a3184,000", "price_high": 184000, "price_low": 184000, "price_type": "fixed", "property_type": "house", "size": 0, "size_type": "net", "summary": "This new new home is available to purchase using a shared equity sc...", "thumb_height": 60, "thumb_url": "https://imgs.nestimg.com/medium/2_bedroom_end_of_terrace_house_111111782839818059.jpg", "thumb_width": 80, "title": "Ash Close, Wells, Somerset, BA5", "updated_in_days": 16, "updated_in_days_formatted": "first seen 2 weeks ago"}, {"bathroom_number": "", "bedroom_number": 2, "car_spaces": 0, "commission": 0, "construction_year": 0, "datasource_name": "NetHousePrices", "img_height": 300, "img_url": "https://imgs.nestimg.com/2_bedroom_mobile_home_111569462502164016.jpg", "img_width": 400, "keywords": "Garden, No Chain, Kitchen", "latitude": 51.335785, "lister_name": "Palmer Snell", "lister_url": "https://www.nestoria.co.uk/detail/0000000111569462502164016/title/5/82-2?serpUid=&pt=1&ot=1&l=somerset&did=90_high1&t_sec=9&t_or=45&t_pvid=null&utm_source=api&utm_medium=external", "listing_type": "buy", "location_accuracy": 9, "longitude": -2.928259, "price": 75000, "price_currency": "\u00a3", "price_formatted": "\u00a375,000", "price_high": 75000, "price_low": 75000, "price_type": "fixed", "property_type": "property", "size": 0, "size_type": "net", "summary": "This twin unit park home is offered to the market with no onward ch...", "thumb_height": 60, "thumb_url": "https://imgs.nestimg.com/medium/2_bedroom_mobile_home_111569462502164016.jpg", "thumb_width": 80, "title": "Oaktree Park, Locking, Weston-super-mare, Somerset, BS24", "updated_in_days": 26, "updated_in_days_formatted": "first seen 3 weeks ago"}, {"bathroom_number": "", "bedroom_number": 2, "car_spaces": 0, "commission": 0, "construction_year": 0, "datasource_name": "NetHousePrices", "img_height": 300, "img_url": "https://imgs.nestimg.com/2_bedroom_end_of_terrace_house_111612975563412907.jpg", "img_width": 400, "keywords": "No Chain, Terraced, Kitchen, Parking, Cottage", "latitude": 51.20938, "lister_name": "Palmer Snell", "lister_url": "https://www.nestoria.co.uk/detail/0000000111612975563412907/title/5/82-3?serpUid=&pt=1&ot=1&l=somerset&did=90_high1&t_sec=9&t_or=45&t_pvid=null&utm_source=api&utm_medium=external", "listing_type": "buy", "location_accuracy": 9, "longitude": -2.6548207, "price": 220000, "price_currency": "\u00a3", "price_formatted": "\u00a3220,000", "price_high": 220000, "price_low": 220000, "price_type": "fixed", "property_type": "house", "size": 0, "size_type": "net", "summary": "Super two bedroom end of terrace cottage offered to the market with...", "thumb_height": 60, "thumb_url": "https://imgs.nestimg.com/medium/2_bedroom_end_of_terrace_house_111612975563412907.jpg", "thumb_width": 80, "title": "Portway, Wells, Somerset, BA5", "updated_in_days": 19, "updated_in_days_formatted": "first seen 2 weeks ago"}, {"bathroom_number": 2, "bedroom_number": 4, "car_spaces": 0, "commission": 0, "construction_year": 0, "datasource_name": "NetHousePrices", "img_height": 300, "img_url": "https://imgs.nestimg.com/4_bedroom_detached_house_111130767588500592.jpg", "img_width": 400, "keywords": "Detached, Garden, En suite, Conversion, Fireplace, Double Bedroom, Garage, Kitchen, Modern, Patio, Reception", "latitude": 51.32006, "lister_name": "Palmer Snell", "lister_url": "https://www.nestoria.co.uk/detail/0000000111130767588500592/title/5/82-4?serpUid=&pt=1&ot=1&l=somerset&did=90_high1&t_sec=9&t_or=45&t_pvid=null&utm_source=api&utm_medium=external", "listing_type": "buy", "location_accuracy": 9, "longitude": -2.9752681, "price": 575000, "price_currency": "\u00a3", "price_formatted": "\u00a3575,000", "price_high": 575000, "price_low": 575000, "price_type": "fixed", "property_type": "house", "size": 0, "size_type": "net", "summary": "Own a part of uphill history with lower grange lodge. This ly prese...", "thumb_height": 60, "thumb_url": "https://imgs.nestimg.com/medium/4_bedroom_detached_house_111130767588500592.jpg", "thumb_width": 80, "title": "Uphill Road South, Weston-super-mare, Somerset, BS23", "updated_in_days": 97, "updated_in_days_formatted": "first seen over a month ago"}, {"bathroom_number": "", "bedroom_number": 3, "car_spaces": 0, "commission": 0, "construction_year": 0, "datasource_name": "Home.co.uk", "img_height": 300, "img_url": "https://imgs.nestimg.com/detached_house_111173759969402600.jpg", "img_width": 400, "keywords": "Detached, Garden, Garage, Bungalow, Cul-de-Sac", "latitude": 50.915932, "lister_name": "Stags", "lister_url": "https://www.nestoria.co.uk/detail/0000000111173759969402600/title/5/82-5?serpUid=&pt=1&ot=1&l=somerset&did=85_default&t_sec=9&t_or=45&t_pvid=null&utm_source=api&utm_medium=external", "listing_type": "buy", "location_accuracy": 10, "longitude": -2.759845, "price": 289950, "price_currency": "\u00a3", "price_formatted": "\u00a3289,950", "price_high": 289950, "price_low": 289950, "price_type": "fixed", "property_type": "house", "size": 0, "size_type": "net", "summary": "A and recently improved 3 bedroom bungalow located at the end of a ...", "thumb_height": 60, "thumb_url": "https://imgs.nestimg.com/medium/detached_house_111173759969402600.jpg", "thumb_width": 80, "title": "Hill View Close, West Chinnock, Crewkerne, Somerset, TA18", "updated_in_days": 90, "updated_in_days_formatted": "first seen over a month ago"}, {"bathroom_number": "", "bedroom_number": 3, "car_spaces": 0, "commission": 0, "construction_year": 0, "datasource_name": "NetHousePrices", "img_height": 300, "img_url": "https://imgs.nestimg.com/3_bedroom_end_of_terrace_house_111519947429380988.jpg", "img_width": 400, "keywords": "Garden, En suite, Balcony, Fireplace, Terraced, Kitchen, Parking, Reception, Gas Central Heating", "latitude": 51.01879, "lister_name": "Express", "lister_url": "https://www.nestoria.co.uk/detail/0000000111519947429380988/title/5/82-6?serpUid=&pt=1&ot=1&l=somerset&did=90_high1&t_sec=9&t_or=45&t_pvid=null&utm_source=api&utm_medium=external", "listing_type": "buy", "location_accuracy": 9, "longitude": -2.576699, "price": 245000, "price_currency": "\u00a3", "price_formatted": "\u00a3245,000", "price_high": 245000, "price_low": 245000, "price_type": "fixed", "property_type": "house", "size": 0, "size_type": "net", "summary": "Three bedroom end terrace property all interest and offers are invi...", "thumb_height": 60, "thumb_url": "https://imgs.nestimg.com/medium/3_bedroom_end_of_terrace_house_111519947429380988.jpg", "thumb_width": 80, "title": "High Street, Queen Camel, Yeovil, Somerset, BA22", "updated_in_days": 12, "updated_in_days_formatted": "first seen last week"}, {"bathroom_number": 2, "bedroom_number": 2, "car_spaces": 0, "commission": 0, "construction_year": 0, "datasource_name": "NetHousePrices", "img_height": 300, "img_url": "https://imgs.nestimg.com/2_bedroom_terraced_house_111111779046413523.jpg", "img_width": 400, "keywords": "Garden, Terraced, Victorian, Kitchen", "latitude": 50.886395, "lister_name": "Palmer Snell", "lister_url": "https://www.nestoria.co.uk/detail/0000000111111779046413523/title/5/82-7?serpUid=&pt=1&ot=1&l=somerset&did=90_high1&t_sec=9&t_or=45&t_pvid=null&utm_source=api&utm_medium=external", "listing_type": "buy", "location_accuracy": 9, "longitude": -2.787425, "price": 125000, "price_currency": "\u00a3", "price_formatted": "\u00a3125,000", "price_high": 125000, "price_low": 125000, "price_type": "fixed", "property_type": "house", "size": 0, "size_type": "net", "summary": "A mid terrace two bedroom victorian property requiring modernisatio...", "thumb_height": 60, "thumb_url": "https://imgs.nestimg.com/medium/2_bedroom_terraced_house_111111779046413523.jpg", "thumb_width": 80, "title": "Mount Pleasant, Crewkerne, Somerset, TA18", "updated_in_days": 49, "updated_in_days_formatted": "first seen over a month ago"}, {"bathroom_number": "", "bedroom_number": 3, "car_spaces": 0, "commission": 0, "construction_year": 0, "datasource_name": "NetHousePrices", "img_height": 300, "img_url": "https://imgs.nestimg.com/3_bedroom_bungalow_111111782481733345.jpg", "img_width": 400, "keywords": "Detached, Garden, Garage, Kitchen, Bungalow, Cul-de-Sac, Gas Central Heating", "latitude": 51.320053, "lister_name": "Palmer Snell", "lister_url": "https://www.nestoria.co.uk/detail/0000000111111782481733345/title/5/82-8?serpUid=&pt=1&ot=1&l=somerset&did=90_high1&t_sec=9&t_or=45&t_pvid=null&utm_source=api&utm_medium=external", "listing_type": "buy", "location_accuracy": 9, "longitude": -2.959985, "price": 360000, "price_currency": "\u00a3", "price_formatted": "\u00a3360,000", "price_high": 360000, "price_low": 360000, "price_type": "fixed", "property_type": "house", "size": 0, "size_type": "net", "summary": "This three bedroom detached bungalow is offered to the market in co...", "thumb_height": 60, "thumb_url": "https://imgs.nestimg.com/medium/3_bedroom_bungalow_111111782481733345.jpg", "thumb_width": 80, "title": "Rochester Close, Weston-super-mare, Somerset, BS24", "updated_in_days": 100, "updated_in_days_formatted": "first seen over a month ago"}, {"bathroom_number": "", "bedroom_number": 1, "car_spaces": 0, "commission": 0, "construction_year": 0, "datasource_name": "NetHousePrices", "img_height": 300, "img_url": "https://imgs.nestimg.com/1_bedroom_flat_111427264557377998.jpg", "img_width": 400, "keywords": "Purpose Built, Kitchen", "latitude": 51.348637, "lister_name": "Cooke", "lister_url": "https://www.nestoria.co.uk/detail/0000000111427264557377998/title/5/82-9?serpUid=&pt=1&ot=1&l=somerset&did=90_high1&t_sec=9&t_or=45&t_pvid=null&utm_source=api&utm_medium=external", "listing_type": "buy", "location_accuracy": 9, "longitude": -2.9745395, "price": 90000, "price_currency": "\u00a3", "price_formatted": "\u00a390,000", "price_high": 90000, "price_low": 90000, "price_type": "fixed", "property_type": "flat", "size": 0, "size_type": "net", "summary": "1 bedroom ground floor bespoke apartments set in the heart of the t...", "thumb_height": 60, "thumb_url": "https://imgs.nestimg.com/medium/1_bedroom_flat_111427264557377998.jpg", "thumb_width": 80, "title": "Meadow Street, Somerset, BS23", "updated_in_days": 24, "updated_in_days_formatted": "first seen 3 weeks ago"}, {"bathroom_number": "", "bedroom_number": 1, "car_spaces": 0, "commission": 0, "construction_year": 0, "datasource_name": "NetHousePrices", "img_height": 300, "img_url": "https://imgs.nestimg.com/1_bedroom_flat_111581662004279113.jpg", "img_width": 400, "keywords": "Wood Floor, Kitchen", "latitude": 51.350636, "lister_name": "Cooke", "lister_url": "https://www.nestoria.co.uk/detail/0000000111581662004279113/title/5/82-10?serpUid=&pt=1&ot=1&l=somerset&did=90_high1&t_sec=9&t_or=45&t_pvid=null&utm_source=api&utm_medium=external", "listing_type": "buy", "location_accuracy": 9, "longitude": -2.9804406, "price": 56950, "price_currency": "\u00a3", "price_formatted": "\u00a356,950", "price_high": 56950, "price_low": 56950, "price_type": "fixed", "property_type": "flat", "size": 0, "size_type": "net", "summary": "Investors only first floor flat with open plan kitchen sitting room...", "thumb_height": 60, "thumb_url": "https://imgs.nestimg.com/medium/1_bedroom_flat_111581662004279113.jpg", "thumb_width": 80, "title": "West Street, Somerset, BS23", "updated_in_days": 24, "updated_in_days_formatted": "first seen 3 weeks ago"}, {"bathroom_number": "", "bedroom_number": 2, "car_spaces": 0, "commission": 0, "construction_year": 0, "datasource_name": "NetHousePrices", "img_height": 300, "img_url": "https://imgs.nestimg.com/2_bedroom_apartment_flat_111482736882238889.jpg", "img_width": 400, "keywords": "Shared Garden, No Chain, Kitchen, Modern", "latitude": 51.280323, "lister_name": "Greenslade Taylor Hunt", "lister_url": "https://www.nestoria.co.uk/detail/0000000111482736882238889/title/5/82-11?serpUid=&pt=1&ot=1&l=somerset&did=90_high1&t_sec=9&t_or=45&t_pvid=null&utm_source=api&utm_medium=external", "listing_type": "buy", "location_accuracy": 9, "longitude": -2.7791324, "price": 235000, "price_currency": "\u00a3", "price_formatted": "\u00a3235,000", "price_high": 235000, "price_low": 235000, "price_type": "fixed", "property_type": "flat", "size": 0, "size_type": "net", "summary": "No onward chain. A super and modern 2 bedroom 1st floor apartment w...", "thumb_height": 60, "thumb_url": "https://imgs.nestimg.com/medium/2_bedroom_apartment_flat_111482736882238889.jpg", "thumb_width": 80, "title": "Tweentown, Cheddar, Somerset, BS27", "updated_in_days": 40, "updated_in_days_formatted": "first seen over a month ago"}, {"bathroom_number": 3, "bedroom_number": 4, "car_spaces": 0, "commission": 0, "construction_year": 0, "datasource_name": "NetHousePrices", "img_height": 300, "img_url": "https://imgs.nestimg.com/4_bedroom_end_of_terrace_house_111631068308000582.jpg", "img_width": 400, "keywords": "Garden, En suite, Fireplace, Terraced, Victorian, Wood Floor, Kitchen, Parking, Patio, Cellar, Reception", "latitude": 50.943844, "lister_name": "Palmer Snell", "lister_url": "https://www.nestoria.co.uk/detail/0000000111631068308000582/title/5/82-12?serpUid=&pt=1&ot=1&l=somerset&did=90_high1&t_sec=9&t_or=45&t_pvid=null&utm_source=api&utm_medium=external", "listing_type": "buy", "location_accuracy": 9, "longitude": -2.6393247, "price": 350000, "price_currency": "\u00a3", "price_formatted": "\u00a3350,000", "price_high": 350000, "price_low": 350000, "price_type": "fixed", "property_type": "house", "size": 0, "size_type": "net", "summary": "This victorian property is uniquely positioned offering a juxtaposi...", "thumb_height": 60, "thumb_url": "https://imgs.nestimg.com/medium/4_bedroom_end_of_terrace_house_111631068308000582.jpg", "thumb_width": 80, "title": "The Park, Yeovil, Somerset, BA20", "updated_in_days": 16, "updated_in_days_formatted": "first seen 2 weeks ago"}, {"bathroom_number": "", "bedroom_number": "", "car_spaces": 0, "commission": 0, "construction_year": 0, "datasource_name": "NetHousePrices", "img_height": 300, "img_url": "https://imgs.nestimg.com/land_commercial_111482732608537086.jpg", "img_width": 400, "keywords": "", "latitude": 50.965736, "lister_url": "https://www.nestoria.co.uk/detail/0000000111482732608537086/title/5/82-13?serpUid=&pt=1&ot=1&l=somerset&did=90_high1&t_sec=9&t_or=45&t_pvid=null&utm_source=api&utm_medium=external", "listing_type": "buy", "location_accuracy": 9, "longitude": -2.6719654, "price": 1500000, "price_currency": "\u00a3", "price_formatted": "\u00a31,500,000", "price_high": 1500000, "price_low": 1500000, "price_type": "fixed", "property_type": "land", "size": 0, "size_type": "net", "summary": "Residential development land with outline planning permission for t...", "thumb_height": 60, "thumb_url": "https://imgs.nestimg.com/medium/land_commercial_111482732608537086.jpg", "thumb_width": 80, "title": "Vagg Lane, Chilthorne Domer, Yeovil, Somerset, BA21", "updated_in_days": 40, "updated_in_days_formatted": "first seen over a month ago"}, {"bathroom_number": "", "bedroom_number": 2, "car_spaces": 0, "commission": 0, "construction_year": 0, "datasource_name": "NetHousePrices", "img_height": 300, "img_url": "https://imgs.nestimg.com/2_bedroom_flat_111587777696119621.jpg", "img_width": 400, "keywords": "Grade II, Double Bedroom, Kitchen, Dishwasher, Modern, Parking, Listed", "latitude": 51.35513, "lister_name": "Palmer Snell", "lister_url": "https://www.nestoria.co.uk/detail/0000000111587777696119621/title/5/82-14?serpUid=&pt=1&ot=1&l=somerset&did=90_high1&t_sec=9&t_or=45&t_pvid=null&utm_source=api&utm_medium=external", "listing_type": "buy", "location_accuracy": 9, "longitude": -2.9895122, "price": 249995, "price_currency": "\u00a3", "price_formatted": "\u00a3249,995", "price_high": 249995, "price_low": 249995, "price_type": "fixed", "property_type": "flat", "size": 0, "size_type": "net", "summary": "This two bedroom second floor apartment is set within a grade ii li...", "thumb_height": 60, "thumb_url": "https://imgs.nestimg.com/medium/2_bedroom_flat_111587777696119621.jpg", "thumb_width": 80, "title": "Atlantic Road, Weston-super-mare, Somerset, BS23", "updated_in_days": 23, "updated_in_days_formatted": "first seen 3 weeks ago"}, {"bathroom_number": "", "bedroom_number": 2, "car_spaces": 0, "commission": 0, "construction_year": 0, "datasource_name": "NetHousePrices", "img_height": 300, "img_url": "https://imgs.nestimg.com/2_bedroom_bungalow_111198374365431418.jpg", "img_width": 400, "keywords": "Detached, Garden, No Chain, Double Bedroom, Kitchen, Bungalow", "latitude": 51.210083, "lister_name": "Palmer Snell", "lister_url": "https://www.nestoria.co.uk/detail/0000000111198374365431418/title/5/82-15?serpUid=&pt=1&ot=1&l=somerset&did=90_high1&t_sec=9&t_or=45&t_pvid=null&utm_source=api&utm_medium=external", "listing_type": "buy", "location_accuracy": 9, "longitude": -2.695473, "price": 225000, "price_currency": "\u00a3", "price_formatted": "\u00a3225,000", "price_high": 225000, "price_low": 225000, "price_type": "fixed", "property_type": "house", "size": 0, "size_type": "net", "summary": "A contemporarily finished, two bedroom bungalow that benefits from ...", "thumb_height": 60, "thumb_url": "https://imgs.nestimg.com/medium/2_bedroom_bungalow_111198374365431418.jpg", "thumb_width": 80, "title": "Knowle Lane, Wookey, Wells, Somerset, BA5", "updated_in_days": 65, "updated_in_days_formatted": "first seen over a month ago"}], "locations": [{"center_lat": 51.080967, "center_long": -3.045432, "long_title": "Somerset, county", "place_name": "somerset", "title": "Somerset"}], "page": 82, "sort": "nestoria_rank", "status_code": "200", "status_text": "OK", "thanks": "For using the Nestoria API.", "total_pages": 410, "total_results": 6149, "_cu5t0mP434m_": "remove"}}