{"request": {"country": "uk", "language": "en", "location": "somerset", "num_res": "15", "offset": 1230, "output": "json_xs", "page": 83, "product_type": "realestate", "property_type": "property", "size_type": "net", "size_unit": "m2", "sort": "nestoria_rank", "listing_type": "buy"}, "response": {"application_response_code": "100", "application_response_text": "listings returned for one unambiguous location", "attribution": {"img_height": 22, "img_url": "https://resources.nestimg.com/nestoria/img/pbr_v1.png", "img_width": 183, "link_to_img": "http://www.nestoria.com"}, "created_http": "Tue, 18 Jun 2019 17:30:45 GMT", "created_unix": 1560879045, "link_to_url": "https://www.nestoria.co.uk/somerset/property/buy/83", "listings": [{"bathroom_number": "", "bedroom_number": 1, "car_spaces": 0, "commission": 0, "construction_year": 0, "datasource_name": "NetHousePrices", "img_height": 300, "img_url": "https://imgs.nestimg.com/1_bedroom_flat_111563351789533938.jpg", "img_width": 400, "keywords": "No Chain, Balcony, Fireplace, Wood Floor, Kitchen, Parking", "latitude": 51.35142, "lister_name": "Cooke", "lister_url": "https://www.nestoria.co.uk/detail/0000000111563351789533938/title/5/83-1?serpUid=&pt=1&ot=1&l=somerset&did=90_high1&t_sec=9&t_or=45&t_pvid=null&utm_source=api&utm_medium=external", "listing_type": "buy", "location_accuracy": 9, "longitude": -2.9898345, "price": 189000, "price_currency": "\u00a3", "price_formatted": "\u00a3189,000", "price_high": 189000, "price_low": 189000, "price_type": "fixed", "property_type": "flat", "size": 0, "size_type": "net", "summary": "Unique one bedroom property on knightstone island in good decorativ...", "thumb_height": 60, "thumb_url": "https://imgs.nestimg.com/medium/1_bedroom_flat_111563351789533938.jpg", "thumb_width": 80, "title": "Knightstone Causeway, Somerset, BS23", "updated_in_days": 27, "updated_in_days_formatted": "first seen 3 weeks ago"}, {"bathroom_number": "", "bedroom_number": 1, "car_spaces": 0, "commission": 0, "construction_year": 0, "datasource_name": "NetHousePrices", "img_height": 300, "img_url": "https://imgs.nestimg.com/1_bedroom_bungalow_111111781558706157.jpg", "img_width": 400, "keywords": "Garden, No Chain, Garage, Bungalow", "latitude": 51.21297, "lister_name": "Palmer Snell", "lister_url": "https://www.nestoria.co.uk/detail/0000000111111781558706157/title/5/83-2?serpUid=&pt=1&ot=1&l=somerset&did=90_high1&t_sec=9&t_or=45&t_pvid=null&utm_source=api&utm_medium=external", "listing_type": "buy", "location_accuracy": 9, "longitude": -2.659281, "price": 168000, "price_currency": "\u00a3", "price_formatted": "\u00a3168,000", "price_high": 168000, "price_low": 168000, "price_type": "fixed", "property_type": "house", "size": 0, "size_type": "net", "summary": "A well maintained and improved one bedroom bungalow, situated in a ...", "thumb_height": 60, "thumb_url": "https://imgs.nestimg.com/medium/1_bedroom_bungalow_111111781558706157.jpg", "thumb_width": 80, "title": "Welsford Avenue, Wells, Somerset, BA5", "updated_in_days": 25, "updated_in_days_formatted": "first seen 3 weeks ago"}, {"bathroom_number": "", "bedroom_number": 4, "car_spaces": 0, "commission": 0, "construction_year": 0, "datasource_name": "NetHousePrices", "img_height": 300, "img_url": "https://imgs.nestimg.com/4_bedroom_detached_house_111223262538457508.jpg", "img_width": 400, "keywords": "Detached, Garden, En suite, Double Garage, Double Bedroom, Kitchen, Reception, Gas Central Heating", "latitude": 51.07875, "lister_name": "Palmer Snell", "lister_url": "https://www.nestoria.co.uk/detail/0000000111223262538457508/title/5/83-3?serpUid=&pt=1&ot=1&l=somerset&did=90_high1&t_sec=9&t_or=45&t_pvid=null&utm_source=api&utm_medium=external", "listing_type": "buy", "location_accuracy": 9, "longitude": -2.6403835, "price": 750000, "price_currency": "\u00a3", "price_formatted": "\u00a3750,000", "price_high": 750000, "price_low": 750000, "price_type": "fixed", "property_type": "house", "size": 0, "size_type": "net", "summary": "Great gane house is a detached property built in 1989 and has been ...", "thumb_height": 60, "thumb_url": "https://imgs.nestimg.com/medium/4_bedroom_detached_house_111223262538457508.jpg", "thumb_width": 80, "title": "Cottons Lane, Keinton Mandeville, Somerton, Somerset, TA11", "updated_in_days": 82, "updated_in_days_formatted": "first seen over a month ago"}, {"bathroom_number": "", "bedroom_number": 3, "car_spaces": 0, "commission": 0, "construction_year": 0, "datasource_name": "NetHousePrices", "img_height": 300, "img_url": "https://imgs.nestimg.com/3_bedroom_semi_detached_house_111309416049898076.jpg", "img_width": 400, "keywords": "Semi-Detached, New Build, Terraced, Modern", "latitude": 51.210453, "lister_name": "Palmer Snell", "lister_url": "https://www.nestoria.co.uk/detail/0000000111309416049898076/title/5/83-4?serpUid=&pt=1&ot=1&l=somerset&did=90_high1&t_sec=9&t_or=45&t_pvid=null&utm_source=api&utm_medium=external", "listing_type": "buy", "location_accuracy": 9, "longitude": -2.6889505, "price": 355000, "price_currency": "\u00a3", "price_formatted": "\u00a3355,000", "price_high": 355000, "price_low": 355000, "price_type": "fixed", "property_type": "house", "size": 0, "size_type": "net", "summary": "A , modern development on the edge of the desirable village of wook...", "thumb_height": 60, "thumb_url": "https://imgs.nestimg.com/medium/3_bedroom_semi_detached_house_111309416049898076.jpg", "thumb_width": 80, "title": "Henley Lane, Wookey, Wells, Somerset, BA5", "updated_in_days": 68, "updated_in_days_formatted": "first seen over a month ago"}, {"bathroom_number": "", "bedroom_number": 3, "car_spaces": 0, "commission": 0, "construction_year": 0, "datasource_name": "NetHousePrices", "img_height": 300, "img_url": "https://imgs.nestimg.com/3_bedroom_bungalow_111111783078768140.jpg", "img_width": 400, "keywords": "Detached, Garden, En suite, Accessibility, Conservatory, Wood Floor, Double Bedroom, Garage, Kitchen, Bungalow, Dishwasher", "latitude": 51.210083, "lister_name": "Palmer Snell", "lister_url": "https://www.nestoria.co.uk/detail/0000000111111783078768140/title/5/83-5?serpUid=&pt=1&ot=1&l=somerset&did=90_high1&t_sec=9&t_or=45&t_pvid=null&utm_source=api&utm_medium=external", "listing_type": "buy", "location_accuracy": 9, "longitude": -2.695473, "price": 365000, "price_currency": "\u00a3", "price_formatted": "\u00a3365,000", "price_high": 365000, "price_low": 365000, "price_type": "fixed", "property_type": "house", "size": 0, "size_type": "net", "summary": "This three bedroom detached bungalow briefly comprises; wheelchair ...", "thumb_height": 60, "thumb_url": "https://imgs.nestimg.com/medium/3_bedroom_bungalow_111111783078768140.jpg", "thumb_width": 80, "title": "Knowle Lane, Wookey, Wells, Somerset, BA5", "updated_in_days": 100, "updated_in_days_formatted": "first seen over a month ago"}, {"bathroom_number": "", "bedroom_number": 2, "car_spaces": 0, "commission": 0, "construction_year": 0, "datasource_name": "NetHousePrices", "img_height": 300, "img_url": "https://imgs.nestimg.com/2_bedroom_terraced_house_111111782325087194.jpg", "img_width": 400, "keywords": "Garden, Refurbished, Terraced, Kitchen, Modern, Parking", "latitude": 51.364925, "lister_name": "Palmer Snell", "lister_url": "https://www.nestoria.co.uk/detail/0000000111111782325087194/title/5/83-6?serpUid=&pt=1&ot=1&l=somerset&did=90_high1&t_sec=9&t_or=45&t_pvid=null&utm_source=api&utm_medium=external", "listing_type": "buy", "location_accuracy": 9, "longitude": -2.9113812, "price": 160000, "price_currency": "\u00a3", "price_formatted": "\u00a3160,000", "price_high": 160000, "price_low": 160000, "price_type": "fixed", "property_type": "house", "size": 0, "size_type": "net", "summary": "This two bedroom terraced house is situated within a area and is wi...", "thumb_height": 60, "thumb_url": "https://imgs.nestimg.com/medium/2_bedroom_terraced_house_111111782325087194.jpg", "thumb_width": 80, "title": "Bilbie Road, Weston-super-mare, Somerset, BS22", "updated_in_days": 16, "updated_in_days_formatted": "first seen 2 weeks ago"}, {"bathroom_number": "", "bedroom_number": 3, "car_spaces": 0, "commission": 0, "construction_year": 0, "datasource_name": "NetHousePrices", "img_height": 300, "img_url": "https://imgs.nestimg.com/3_bedroom_terraced_house_111575765038803412.jpg", "img_width": 400, "keywords": "Garden, En suite, No Chain, Conservatory, Terraced, Wood Floor, Double Bedroom, Dishwasher, Modern, Cottage", "latitude": 51.20677, "lister_name": "Palmer Snell", "lister_url": "https://www.nestoria.co.uk/detail/0000000111575765038803412/title/5/83-7?serpUid=&pt=1&ot=1&l=somerset&did=90_high1&t_sec=9&t_or=45&t_pvid=null&utm_source=api&utm_medium=external", "listing_type": "buy", "location_accuracy": 9, "longitude": -2.6471968, "price": 300000, "price_currency": "\u00a3", "price_formatted": "\u00a3300,000", "price_high": 300000, "price_low": 300000, "price_type": "fixed", "property_type": "house", "size": 0, "size_type": "net", "summary": "This gorgeous three bedroom cottage boasts a mixture of character f...", "thumb_height": 60, "thumb_url": "https://imgs.nestimg.com/medium/3_bedroom_terraced_house_111575765038803412.jpg", "thumb_width": 80, "title": "South Street, Wells, Somerset, BA5", "updated_in_days": 25, "updated_in_days_formatted": "first seen 3 weeks ago"}, {"bathroom_number": 2, "bedroom_number": 3, "car_spaces": 0, "commission": 0, "construction_year": 0, "datasource_name": "NetHousePrices", "img_height": 300, "img_url": "https://imgs.nestimg.com/3_bedroom_barn_conversion_character_property_111427244637649418.jpg", "img_width": 400, "keywords": "Garden, Balcony, Conservatory, Conversion, Fireplace, High Ceilings, Wood Floor, Garage, Kitchen, Dishwasher", "latitude": 50.914543, "lister_name": "Palmer Snell", "lister_url": "https://www.nestoria.co.uk/detail/0000000111427244637649418/title/5/83-8?serpUid=&pt=1&ot=1&l=somerset&did=90_high1&t_sec=9&t_or=45&t_pvid=null&utm_source=api&utm_medium=external", "listing_type": "buy", "location_accuracy": 9, "longitude": -2.7190373, "price": 340000, "price_currency": "\u00a3", "price_formatted": "\u00a3340,000", "price_high": 340000, "price_low": 340000, "price_type": "fixed", "property_type": "house", "size": 0, "size_type": "net", "summary": "Unique four bedroom barn conversion, ly tucked away on the outskirt...", "thumb_height": 60, "thumb_url": "https://imgs.nestimg.com/medium/3_bedroom_barn_conversion_character_property_111427244637649418.jpg", "thumb_width": 80, "title": "Fordhay, East Chinnock, Yeovil, Somerset, BA22", "updated_in_days": 49, "updated_in_days_formatted": "first seen over a month ago"}, {"bathroom_number": "", "bedroom_number": 2, "car_spaces": 0, "commission": 0, "construction_year": 0, "datasource_name": "NetHousePrices", "img_height": 300, "img_url": "https://imgs.nestimg.com/2_bedroom_flat_111435267583004270.jpg", "img_width": 400, "keywords": "No Chain, Balcony, Purpose Built, Double Bedroom, Garage, Kitchen, Lift", "latitude": 51.342987, "lister_name": "Palmer Snell", "lister_url": "https://www.nestoria.co.uk/detail/0000000111435267583004270/title/5/83-9?serpUid=&pt=1&ot=1&l=somerset&did=90_high1&t_sec=9&t_or=45&t_pvid=null&utm_source=api&utm_medium=external", "listing_type": "buy", "location_accuracy": 9, "longitude": -2.9800477, "price": 199950, "price_currency": "\u00a3", "price_formatted": "\u00a3199,950", "price_high": 199950, "price_low": 199950, "price_type": "fixed", "property_type": "flat", "size": 0, "size_type": "net", "summary": "This two bedroom sixth floor apartment is offered to the market wit...", "thumb_height": 60, "thumb_url": "https://imgs.nestimg.com/medium/2_bedroom_flat_111435267583004270.jpg", "thumb_width": 80, "title": "Beach Road, Weston-super-mare, Somerset, BS23", "updated_in_days": 47, "updated_in_days_formatted": "first seen over a month ago"}, {"bathroom_number": "", "bedroom_number": 4, "car_spaces": 0, "commission": 0, "construction_year": 0, "datasource_name": "NetHousePrices", "img_height": 300, "img_url": "https://imgs.nestimg.com/4_bedroom_semi_detached_house_111538285384178673.jpg", "img_width": 400, "keywords": "Garden, Semi-Detached, Double Bedroom, Kitchen, Reception, Gas Central Heating", "latitude": 51.349674, "lister_name": "Palmer Snell", "lister_url": "https://www.nestoria.co.uk/detail/0000000111538285384178673/title/5/83-10?serpUid=&pt=1&ot=1&l=somerset&did=90_high1&t_sec=9&t_or=45&t_pvid=null&utm_source=api&utm_medium=external", "listing_type": "buy", "location_accuracy": 9, "longitude": -2.9501219, "price": 299950, "price_currency": "\u00a3", "price_formatted": "\u00a3299,950", "price_high": 299950, "price_low": 299950, "price_type": "fixed", "property_type": "house", "size": 0, "size_type": "net", "summary": "This four bedroom semi detached family home has been undergone exte...", "thumb_height": 60, "thumb_url": "https://imgs.nestimg.com/medium/4_bedroom_semi_detached_house_111538285384178673.jpg", "thumb_width": 80, "title": "Charter Road, Weston-super-mare, Somerset, BS22", "updated_in_days": 31, "updated_in_days_formatted": "first seen over a month ago"}, {"bathroom_number": "", "bedroom_number": 2, "car_spaces": 0, "commission": 0, "construction_year": 0, "datasource_name": "NetHousePrices", "img_height": 300, "img_url": "https://imgs.nestimg.com/2_bedroom_bungalow_111111779185226394.jpg", "img_width": 400, "keywords": "Garden, Semi-Detached, Conservatory, Kitchen, Bungalow, Parking, Patio", "latitude": 51.32914, "lister_name": "Palmer Snell", "lister_url": "https://www.nestoria.co.uk/detail/0000000111111779185226394/title/5/83-11?serpUid=&pt=1&ot=1&l=somerset&did=90_high1&t_sec=9&t_or=45&t_pvid=null&utm_source=api&utm_medium=external", "listing_type": "buy", "location_accuracy": 9, "longitude": -2.8744733, "price": 205000, "price_currency": "\u00a3", "price_formatted": "\u00a3205,000", "price_high": 205000, "price_low": 205000, "price_type": "fixed", "property_type": "house", "size": 0, "size_type": "net", "summary": "This two bedroom semi detached bungalow is offered to the market in...", "thumb_height": 60, "thumb_url": "https://imgs.nestimg.com/medium/2_bedroom_bungalow_111111779185226394.jpg", "thumb_width": 80, "title": "West Garston, Banwell, Somerset, BS29", "updated_in_days": 39, "updated_in_days_formatted": "first seen over a month ago"}, {"bathroom_number": "", "bedroom_number": 2, "car_spaces": 0, "commission": 0, "construction_year": 0, "datasource_name": "Home.co.uk", "img_height": 300, "img_url": "https://imgs.nestimg.com/flatapartment_111631008306131060.jpg", "img_width": 400, "keywords": "Penthouse, Purpose Built, Kitchen, Lift", "latitude": 51.207585, "lister_name": "Webbers", "lister_url": "https://www.nestoria.co.uk/detail/0000000111631008306131060/title/5/83-12?serpUid=&pt=1&ot=1&l=somerset&did=85_default&t_sec=9&t_or=45&t_pvid=null&utm_source=api&utm_medium=external", "listing_type": "buy", "location_accuracy": 10, "longitude": -3.476722, "price": 230000, "price_currency": "\u00a3", "price_formatted": "\u00a3230,000", "price_high": 230000, "price_low": 230000, "price_type": "fixed", "property_type": "flat", "size": 0, "size_type": "net", "summary": "Super penthouse apartment with private lift purpose built gated dev...", "thumb_height": 60, "thumb_url": "https://imgs.nestimg.com/medium/flatapartment_111631008306131060.jpg", "thumb_width": 80, "title": "Martlett Road, Minehead, Somerset", "updated_in_days": 16, "updated_in_days_formatted": "first seen 2 weeks ago"}, {"bathroom_number": "", "bedroom_number": 2, "car_spaces": 0, "commission": 0, "construction_year": 0, "datasource_name": "OnTheMarket.com", "img_height": 300, "img_url": "https://imgs.nestimg.com/2_bedroom_flat_for_sale_111717689270987340.jpg", "img_width": 400, "keywords": "Garden, Purpose Built, Parking", "latitude": 51.0189, "lister_name": "Gibbins Richards", "lister_url": "https://www.nestoria.co.uk/detail/0000000111717689270987340/title/5/83-13?serpUid=&pt=1&ot=1&l=somerset&did=105_high1&t_sec=9&t_or=45&t_pvid=null&utm_source=api&utm_medium=external", "listing_type": "buy", "location_accuracy": 9, "longitude": -3.10948, "price": 115000, "price_currency": "\u00a3", "price_formatted": "\u00a3115,000", "price_high": 115000, "price_low": 115000, "price_type": "fixed", "property_type": "flat", "size": 0, "size_type": "net", "summary": "A self-contained purpose built ground floor retirement flat located...", "thumb_height": 60, "thumb_url": "https://imgs.nestimg.com/medium/2_bedroom_flat_for_sale_111717689270987340.jpg", "thumb_width": 80, "title": "Flat for sale, FRENCH WEIR - Garden", "updated_in_days": 2, "updated_in_days_formatted": "first seen 2 days ago"}, {"bathroom_number": "", "bedroom_number": 2, "car_spaces": 0, "commission": 0, "construction_year": 0, "datasource_name": "NetHousePrices", "img_height": 300, "img_url": "https://imgs.nestimg.com/2_bedroom_flat_111538284434093717.jpg", "img_width": 400, "keywords": "Garden, Lower Ground, Double Bedroom, Kitchen, Gas Central Heating", "latitude": 51.355236, "lister_name": "Palmer Snell", "lister_url": "https://www.nestoria.co.uk/detail/0000000111538284434093717/title/5/83-14?serpUid=&pt=1&ot=1&l=somerset&did=90_high1&t_sec=9&t_or=45&t_pvid=null&utm_source=api&utm_medium=external", "listing_type": "buy", "location_accuracy": 9, "longitude": -2.9850914, "price": 149995, "price_currency": "\u00a3", "price_formatted": "\u00a3149,995", "price_high": 149995, "price_low": 149995, "price_type": "fixed", "property_type": "flat", "size": 0, "size_type": "net", "summary": "This two bedroom lower ground floor apartment has its own entrance ...", "thumb_height": 60, "thumb_url": "https://imgs.nestimg.com/medium/2_bedroom_flat_111538284434093717.jpg", "thumb_width": 80, "title": "Shrubbery Avenue, Weston-super-mare, Somerset, BS23", "updated_in_days": 31, "updated_in_days_formatted": "first seen over a month ago"}, {"bathroom_number": "", "bedroom_number": 3, "car_spaces": 0, "commission": 0, "construction_year": 0, "datasource_name": "OnTheMarket.com", "img_height": 300, "img_url": "https://imgs.nestimg.com/3_bedroom_cottage_for_sale_111724140314592085.jpg", "img_width": 400, "keywords": "Garden, No Chain, Off Street Parking, Cottage", "latitude": 51.2744, "lister_url": "https://www.nestoria.co.uk/detail/0000000111724140314592085/title/5/83-15?serpUid=&pt=1&ot=1&l=somerset&did=105_high1&t_sec=9&t_or=45&t_pvid=null&utm_source=api&utm_medium=external", "listing_type": "buy", "location_accuracy": 9, "longitude": -2.77623, "price": 285000, "price_currency": "\u00a3", "price_formatted": "\u00a3285,000", "price_high": 285000, "price_low": 285000, "price_type": "fixed", "property_type": "house", "size": 0, "size_type": "net", "summary": "A characterful chain free cottage located in the centre of cheddar....", "thumb_height": 60, "thumb_url": "https://imgs.nestimg.com/medium/3_bedroom_cottage_for_sale_111724140314592085.jpg", "thumb_width": 80, "title": "Church Street, Cheddar - Garden", "updated_in_days": 1, "updated_in_days_formatted": "New"}], "locations": [{"center_lat": 51.080967, "center_long": -3.045432, "long_title": "Somerset, county", "place_name": "somerset", "title": "Somerset"}], "page": 83, "sort": "nestoria_rank", "status_code": "200", "status_text": "OK", "thanks": "For using the Nestoria API.", "total_pages": 410, "total_results": 6149, "_cu5t0mP434m_": "remove"}}