{"request": {"country": "uk", "language": "en", "location": "somerset", "num_res": "15", "offset": 1245, "output": "json_xs", "page": 84, "product_type": "realestate", "property_type": "property", "size_type": "net", "size_unit": "m2", "sort": "nestoria_rank", "listing_type": "buy"}, "response": {"application_response_code": "100", "application_response_text": "listings returned for one unambiguous location", "attribution": {"img_height": 22, "img_url": "https://resources.nestimg.com/nestoria/img/pbr_v1.png", "img_width": 183, "link_to_img": "http://www.nestoria.com"}, "created_http": "Tue, 18 Jun 2019 17:30:47 GMT", "created_unix": 1560879047, "link_to_url": "https://www.nestoria.co.uk/somerset/property/buy/84", "listings": [{"bathroom_number": "", "bedroom_number": 1, "car_spaces": 0, "commission": 0, "construction_year": 0, "datasource_name": "NetHousePrices", "img_height": 300, "img_url": "https://imgs.nestimg.com/1_bedroom_flat_111495020974837762.jpg", "img_width": 400, "keywords": "En suite, Balcony, High Ceilings, Kitchen", "latitude": 51.35142, "lister_name": "Cooke", "lister_url": "https://www.nestoria.co.uk/detail/0000000111495020974837762/title/5/84-1?serpUid=&pt=1&ot=1&l=somerset&did=90_high1&t_sec=9&t_or=45&t_pvid=null&utm_source=api&utm_medium=external", "listing_type": "buy", "location_accuracy": 9, "longitude": -2.9898345, "price": 175000, "price_currency": "\u00a3", "price_formatted": "\u00a3175,000", "price_high": 175000, "price_low": 175000, "price_type": "fixed", "property_type": "flat", "size": 0, "size_type": "net", "summary": "An ideal investment property located within the knighstone theatre ...", "thumb_height": 60, "thumb_url": "https://imgs.nestimg.com/medium/1_bedroom_flat_111495020974837762.jpg", "thumb_width": 80, "title": "Knightstone Causeway, Somerset, BS23", "updated_in_days": 38, "updated_in_days_formatted": "first seen over a month ago"}, {"bathroom_number": "", "bedroom_number": 4, "car_spaces": 0, "commission": 0, "construction_year": 0, "datasource_name": "NetHousePrices", "img_height": 300, "img_url": "https://imgs.nestimg.com/4_bedroom_detached_house_111631066600249996.jpg", "img_width": 400, "keywords": "Detached, Garden, En suite, No Chain, Wood Floor, Garage, Kitchen, Cul-de-Sac", "latitude": 51.213768, "lister_name": "Palmer Snell", "lister_url": "https://www.nestoria.co.uk/detail/0000000111631066600249996/title/5/84-2?serpUid=&pt=1&ot=1&l=somerset&did=90_high1&t_sec=9&t_or=45&t_pvid=null&utm_source=api&utm_medium=external", "listing_type": "buy", "location_accuracy": 9, "longitude": -2.615168, "price": 410000, "price_currency": "\u00a3", "price_formatted": "\u00a3410,000", "price_high": 410000, "price_low": 410000, "price_type": "fixed", "property_type": "house", "size": 0, "size_type": "net", "summary": "Four bedroom detached home set in a sought after cul-de-sac, a few ...", "thumb_height": 60, "thumb_url": "https://imgs.nestimg.com/medium/4_bedroom_detached_house_111631066600249996.jpg", "thumb_width": 80, "title": "South Meadow, South Horrington Village, Wells, Somerset, BA5", "updated_in_days": 16, "updated_in_days_formatted": "first seen 2 weeks ago"}, {"bathroom_number": "", "bedroom_number": 4, "car_spaces": 0, "commission": 0, "construction_year": 0, "datasource_name": "OnTheMarket.com", "img_height": 300, "img_url": "https://imgs.nestimg.com/4_bedroom_detached_house_for_sale_111724139538469396.jpg", "img_width": 400, "keywords": "Detached, Cul-de-Sac", "latitude": 50.9444, "lister_name": "Gibbins Richards", "lister_url": "https://www.nestoria.co.uk/detail/0000000111724139538469396/title/5/84-3?serpUid=&pt=1&ot=1&l=somerset&did=105_high1&t_sec=9&t_or=45&t_pvid=null&utm_source=api&utm_medium=external", "listing_type": "buy", "location_accuracy": 9, "longitude": -3.33639, "price": 334950, "price_currency": "\u00a3", "price_formatted": "\u00a3334,950", "price_high": 334950, "price_low": 334950, "price_type": "fixed", "property_type": "house", "size": 0, "size_type": "net", "summary": "A four bedroomed family home located at the end of a quiet cul de s...", "thumb_height": 60, "thumb_url": "https://imgs.nestimg.com/medium/4_bedroom_detached_house_for_sale_111724139538469396.jpg", "thumb_width": 80, "title": "Family home in Uffculme catchment!", "updated_in_days": 1, "updated_in_days_formatted": "New"}, {"bathroom_number": "", "bedroom_number": 2, "car_spaces": 0, "commission": 0, "construction_year": 0, "datasource_name": "NetHousePrices", "img_height": 300, "img_url": "https://imgs.nestimg.com/2_bedroom_bungalow_111111780963866996.jpg", "img_width": 400, "keywords": "Garden, Semi-Detached, Detached Garage, Double Bedroom, Kitchen, Bungalow", "latitude": 51.20399, "lister_name": "Palmer Snell", "lister_url": "https://www.nestoria.co.uk/detail/0000000111111780963866996/title/5/84-4?serpUid=&pt=1&ot=1&l=somerset&did=90_high1&t_sec=9&t_or=45&t_pvid=null&utm_source=api&utm_medium=external", "listing_type": "buy", "location_accuracy": 9, "longitude": -2.6632466, "price": 210000, "price_currency": "\u00a3", "price_formatted": "\u00a3210,000", "price_high": 210000, "price_low": 210000, "price_type": "fixed", "property_type": "house", "size": 0, "size_type": "net", "summary": "This two bedroom semi detached bungalow briefly comprises; entrance...", "thumb_height": 60, "thumb_url": "https://imgs.nestimg.com/medium/2_bedroom_bungalow_111111780963866996.jpg", "thumb_width": 80, "title": "Harewell Walk, Wells, Somerset, BA5", "updated_in_days": 49, "updated_in_days_formatted": "first seen over a month ago"}, {"bathroom_number": "", "bedroom_number": 3, "car_spaces": 0, "commission": 0, "construction_year": 0, "datasource_name": "NetHousePrices", "img_height": 300, "img_url": "https://imgs.nestimg.com/3_bedroom_semi_detached_house_111563348413193494.jpg", "img_width": 400, "keywords": "Garden, Semi-Detached, No Chain, Conservatory, Garage, Kitchen, Dishwasher, Patio, Gas Central Heating", "latitude": 51.35444, "lister_url": "https://www.nestoria.co.uk/detail/0000000111563348413193494/title/5/84-5?serpUid=&pt=1&ot=1&l=somerset&did=90_high1&t_sec=9&t_or=45&t_pvid=null&utm_source=api&utm_medium=external", "listing_type": "buy", "location_accuracy": 9, "longitude": -2.9255626, "price": 230000, "price_currency": "\u00a3", "price_formatted": "\u00a3230,000", "price_high": 230000, "price_low": 230000, "price_type": "fixed", "property_type": "house", "size": 0, "size_type": "net", "summary": "Well presented semi detached house ideally situated in south worle ...", "thumb_height": 60, "thumb_url": "https://imgs.nestimg.com/medium/3_bedroom_semi_detached_house_111563348413193494.jpg", "thumb_width": 80, "title": "Plover Close, Weston-super-mare, Somerset, BS22", "updated_in_days": 27, "updated_in_days_formatted": "first seen 3 weeks ago"}, {"bathroom_number": "", "bedroom_number": 4, "car_spaces": 0, "commission": 0, "construction_year": 0, "datasource_name": "OnTheMarket.com", "img_height": 300, "img_url": "https://imgs.nestimg.com/4_bedroom_detached_house_for_sale_111711535601531108.jpg", "img_width": 400, "keywords": "Detached, Double Bedroom, Garage, Kitchen", "latitude": 51.1118, "lister_name": "Wilkie May & Tuckwood", "lister_url": "https://www.nestoria.co.uk/detail/0000000111711535601531108/title/5/84-6?serpUid=&pt=1&ot=1&l=somerset&did=105_high1&t_sec=9&t_or=45&t_pvid=null&utm_source=api&utm_medium=external", "listing_type": "buy", "location_accuracy": 9, "longitude": -3.01387, "price": 290000, "price_currency": "\u00a3", "price_formatted": "\u00a3290,000", "price_high": 290000, "price_low": 290000, "price_type": "fixed", "property_type": "house", "size": 0, "size_type": "net", "summary": "This four double bedroom detached family is ly presented with a kit...", "thumb_height": 60, "thumb_url": "https://imgs.nestimg.com/medium/4_bedroom_detached_house_for_sale_111711535601531108.jpg", "thumb_width": 80, "title": "Teasel Path, Bridgwater - Detached", "updated_in_days": 3, "updated_in_days_formatted": "first seen 3 days ago"}, {"bathroom_number": "", "bedroom_number": 2, "car_spaces": 0, "commission": 0, "construction_year": 0, "datasource_name": "NetHousePrices", "img_height": 300, "img_url": "https://imgs.nestimg.com/2_bedroom_flat_111111781697336510.jpg", "img_width": 400, "keywords": "Kitchen, Lift, Parking, Gas Central Heating", "latitude": 51.340668, "lister_name": "Palmer Snell", "lister_url": "https://www.nestoria.co.uk/detail/0000000111111781697336510/title/5/84-7?serpUid=&pt=1&ot=1&l=somerset&did=90_high1&t_sec=9&t_or=45&t_pvid=null&utm_source=api&utm_medium=external", "listing_type": "buy", "location_accuracy": 9, "longitude": -2.976854, "price": 135000, "price_currency": "\u00a3", "price_formatted": "\u00a3135,000", "price_high": 135000, "price_low": 135000, "price_type": "fixed", "property_type": "flat", "size": 0, "size_type": "net", "summary": "This two bedroom top floor apartment is the perfect 'turn-key' prop...", "thumb_height": 60, "thumb_url": "https://imgs.nestimg.com/medium/2_bedroom_flat_111111781697336510.jpg", "thumb_width": 80, "title": "Albert Road, Weston-super-mare, Somerset, BS23", "updated_in_days": 89, "updated_in_days_formatted": "first seen over a month ago"}, {"bathroom_number": "", "bedroom_number": 7, "car_spaces": 0, "commission": 0, "construction_year": 0, "datasource_name": "Home.co.uk", "img_height": 300, "img_url": "https://imgs.nestimg.com/detached_house_111482683195373767.jpg", "img_width": 400, "keywords": "Detached", "latitude": 50.838731, "lister_url": "https://www.nestoria.co.uk/detail/0000000111482683195373767/title/5/84-8?serpUid=&pt=1&ot=1&l=somerset&did=85_default&t_sec=9&t_or=45&t_pvid=null&utm_source=api&utm_medium=external", "listing_type": "buy", "location_accuracy": 10, "longitude": -2.839768, "price": 1850000, "price_currency": "\u00a3", "price_formatted": "\u00a31,850,000", "price_high": 1850000, "price_low": 1850000, "price_type": "fixed", "property_type": "house", "size": 0, "size_type": "net", "summary": "An regency house in an elevated position on the somerset dorset bor...", "thumb_height": 60, "thumb_url": "https://imgs.nestimg.com/medium/detached_house_111482683195373767.jpg", "thumb_width": 80, "title": "Greenham, Crewkerne, Somerset, TA18", "updated_in_days": 40, "updated_in_days_formatted": "first seen over a month ago"}, {"bathroom_number": "", "bedroom_number": 6, "car_spaces": 0, "commission": 0, "construction_year": 0, "datasource_name": "NetHousePrices", "img_height": 300, "img_url": "https://imgs.nestimg.com/6_bedroom_apartment_flat_111482737852771925.jpg", "img_width": 400, "keywords": "En suite, Conversion, Double Bedroom, Kitchen", "latitude": 51.021606, "lister_name": "Greenslade Taylor Hunt", "lister_url": "https://www.nestoria.co.uk/detail/0000000111482737852771925/title/5/84-9?serpUid=&pt=1&ot=1&l=somerset&did=90_high1&t_sec=9&t_or=45&t_pvid=null&utm_source=api&utm_medium=external", "listing_type": "buy", "location_accuracy": 9, "longitude": -2.6185658, "price": 635000, "price_currency": "\u00a3", "price_formatted": "\u00a3635,000", "price_high": 635000, "price_low": 635000, "price_type": "fixed", "property_type": "flat", "size": 0, "size_type": "net", "summary": "This owner/occupier business/investment opportunity is well located...", "thumb_height": 60, "thumb_url": "https://imgs.nestimg.com/medium/6_bedroom_apartment_flat_111482737852771925.jpg", "thumb_width": 80, "title": "West Camel, Yeovil, Somerset, BA22", "updated_in_days": 40, "updated_in_days_formatted": "first seen over a month ago"}, {"bathroom_number": "", "bedroom_number": 1, "car_spaces": 0, "commission": 0, "construction_year": 0, "datasource_name": "NetHousePrices", "img_height": 300, "img_url": "https://imgs.nestimg.com/1_bedroom_property_111322390240421371.jpg", "img_width": 400, "keywords": "Shared Garden, No Chain, Kitchen, Parking", "latitude": 51.2054, "lister_url": "https://www.nestoria.co.uk/detail/0000000111322390240421371/title/5/84-10?serpUid=&pt=1&ot=1&l=somerset&did=90_high1&t_sec=9&t_or=45&t_pvid=null&utm_source=api&utm_medium=external", "listing_type": "buy", "location_accuracy": 9, "longitude": -2.6515005, "price": 149950, "price_currency": "\u00a3", "price_formatted": "\u00a3149,950", "price_high": 149950, "price_low": 149950, "price_type": "fixed", "property_type": "property", "size": 0, "size_type": "net", "summary": "Description a one bedroom second floor apartment, ly renovated with...", "thumb_height": 60, "thumb_url": "https://imgs.nestimg.com/medium/1_bedroom_property_111322390240421371.jpg", "thumb_width": 80, "title": "Priory Road, Wells, Somerset, BA5", "updated_in_days": 37, "updated_in_days_formatted": "first seen over a month ago"}, {"bathroom_number": 2, "bedroom_number": 2, "car_spaces": 0, "commission": 0, "construction_year": 0, "datasource_name": "NetHousePrices", "img_height": 300, "img_url": "https://imgs.nestimg.com/2_bedroom_flat_111519928932528136.jpg", "img_width": 400, "keywords": "Garden, Balcony, Double Bedroom, Kitchen, Dishwasher, Modern", "latitude": 50.95073, "lister_name": "Palmer Snell", "lister_url": "https://www.nestoria.co.uk/detail/0000000111519928932528136/title/5/84-11?serpUid=&pt=1&ot=1&l=somerset&did=90_high1&t_sec=9&t_or=45&t_pvid=null&utm_source=api&utm_medium=external", "listing_type": "buy", "location_accuracy": 9, "longitude": -2.6529717, "price": 100000, "price_currency": "\u00a3", "price_formatted": "\u00a3100,000", "price_high": 100000, "price_low": 100000, "price_type": "fixed", "property_type": "flat", "size": 0, "size_type": "net", "summary": "Well presented apartment with rooms and an enclosed garden. The int...", "thumb_height": 60, "thumb_url": "https://imgs.nestimg.com/medium/2_bedroom_flat_111519928932528136.jpg", "thumb_width": 80, "title": "Stiby Road, Yeovil, Somerset, BA21", "updated_in_days": 34, "updated_in_days_formatted": "first seen over a month ago"}, {"bathroom_number": "", "bedroom_number": 2, "car_spaces": 0, "commission": 0, "construction_year": 0, "datasource_name": "NetHousePrices", "img_height": 300, "img_url": "https://imgs.nestimg.com/2_bedroom_flat_111470405762484005.jpg", "img_width": 400, "keywords": "No Chain, Fireplace, Garage, Kitchen", "latitude": 51.34623, "lister_name": "Cooke", "lister_url": "https://www.nestoria.co.uk/detail/0000000111470405762484005/title/5/84-12?serpUid=&pt=1&ot=1&l=somerset&did=90_high1&t_sec=9&t_or=45&t_pvid=null&utm_source=api&utm_medium=external", "listing_type": "buy", "location_accuracy": 9, "longitude": -2.928628, "price": 129950, "price_currency": "\u00a3", "price_formatted": "\u00a3129,950", "price_high": 129950, "price_low": 129950, "price_type": "fixed", "property_type": "flat", "size": 0, "size_type": "net", "summary": "Ground floor apartment located in weston village which would be a g...", "thumb_height": 60, "thumb_url": "https://imgs.nestimg.com/medium/2_bedroom_flat_111470405762484005.jpg", "thumb_width": 80, "title": "Stroud Way, Somerset, BS24 - No Chain", "updated_in_days": 42, "updated_in_days_formatted": "first seen over a month ago"}, {"bathroom_number": "", "bedroom_number": 1, "car_spaces": 0, "commission": 0, "construction_year": 0, "datasource_name": "NetHousePrices", "img_height": 300, "img_url": "https://imgs.nestimg.com/1_bedroom_flat_111445684616454686.jpg", "img_width": 400, "keywords": "En suite, No Chain, Double Bedroom, Kitchen", "latitude": 51.353527, "lister_name": "Palmer Snell", "lister_url": "https://www.nestoria.co.uk/detail/0000000111445684616454686/title/5/84-13?serpUid=&pt=1&ot=1&l=somerset&did=90_high1&t_sec=9&t_or=45&t_pvid=null&utm_source=api&utm_medium=external", "listing_type": "buy", "location_accuracy": 9, "longitude": -2.987568, "price": 79950, "price_currency": "\u00a3", "price_formatted": "\u00a379,950", "price_high": 79950, "price_low": 79950, "price_type": "fixed", "property_type": "flat", "size": 0, "size_type": "net", "summary": "This one bedroom ground floor flat is just of the sea front and ben...", "thumb_height": 60, "thumb_url": "https://imgs.nestimg.com/medium/1_bedroom_flat_111445684616454686.jpg", "thumb_width": 80, "title": "Manilla Crescent, Weston-super-mare, Somerset, BS23", "updated_in_days": 46, "updated_in_days_formatted": "first seen over a month ago"}, {"bathroom_number": "", "bedroom_number": 5, "car_spaces": 0, "commission": 0, "construction_year": 0, "datasource_name": "NetHousePrices", "img_height": 300, "img_url": "https://imgs.nestimg.com/5_bedroom_terraced_house_111457856076223286.jpg", "img_width": 400, "keywords": "Garden, En suite, Terraced, Garage, Kitchen", "latitude": 51.34716, "lister_name": "Palmer Snell", "lister_url": "https://www.nestoria.co.uk/detail/0000000111457856076223286/title/5/84-14?serpUid=&pt=1&ot=1&l=somerset&did=90_high1&t_sec=9&t_or=45&t_pvid=null&utm_source=api&utm_medium=external", "listing_type": "buy", "location_accuracy": 9, "longitude": -2.9246552, "price": 249950, "price_currency": "\u00a3", "price_formatted": "\u00a3249,950", "price_high": 249950, "price_low": 249950, "price_type": "fixed", "property_type": "house", "size": 0, "size_type": "net", "summary": "A five/six bedroom terraced town house located on weston village wh...", "thumb_height": 60, "thumb_url": "https://imgs.nestimg.com/medium/5_bedroom_terraced_house_111457856076223286.jpg", "thumb_width": 80, "title": "Longridge Way, Weston-super-mare, Somerset, BS24", "updated_in_days": 44, "updated_in_days_formatted": "first seen over a month ago"}, {"bathroom_number": "", "bedroom_number": 4, "car_spaces": 0, "commission": 0, "construction_year": 0, "datasource_name": "NetHousePrices", "img_height": 300, "img_url": "https://imgs.nestimg.com/4_bedroom_semi_detached_house_111365858634069387.jpg", "img_width": 400, "keywords": "Garden, Semi-Detached, En suite, Garage, Kitchen, Cul-de-Sac", "latitude": 51.213654, "lister_name": "Palmer Snell", "lister_url": "https://www.nestoria.co.uk/detail/0000000111365858634069387/title/5/84-15?serpUid=&pt=1&ot=1&l=somerset&did=90_high1&t_sec=9&t_or=45&t_pvid=null&utm_source=api&utm_medium=external", "listing_type": "buy", "location_accuracy": 9, "longitude": -2.6655903, "price": 385000, "price_currency": "\u00a3", "price_formatted": "\u00a3385,000", "price_high": 385000, "price_low": 385000, "price_type": "fixed", "property_type": "house", "size": 0, "size_type": "net", "summary": "Large open plan spaces, flooded with light through the southerly as...", "thumb_height": 60, "thumb_url": "https://imgs.nestimg.com/medium/4_bedroom_semi_detached_house_111365858634069387.jpg", "thumb_width": 80, "title": "St Cuthbert Avenue, Wells, Somerset, BA5", "updated_in_days": 59, "updated_in_days_formatted": "first seen over a month ago"}], "locations": [{"center_lat": 51.080967, "center_long": -3.045432, "long_title": "Somerset, county", "place_name": "somerset", "title": "Somerset"}], "page": 84, "sort": "nestoria_rank", "status_code": "200", "status_text": "OK", "thanks": "For using the Nestoria API.", "total_pages": 410, "total_results": 6149, "_cu5t0mP434m_": "remove"}}