{"request": {"country": "uk", "language": "en", "location": "somerset", "num_res": "15", "offset": 1260, "output": "json_xs", "page": 85, "product_type": "realestate", "property_type": "property", "size_type": "net", "size_unit": "m2", "sort": "nestoria_rank", "listing_type": "buy"}, "response": {"application_response_code": "100", "application_response_text": "listings returned for one unambiguous location", "attribution": {"img_height": 22, "img_url": "https://resources.nestimg.com/nestoria/img/pbr_v1.png", "img_width": 183, "link_to_img": "http://www.nestoria.com"}, "created_http": "Tue, 18 Jun 2019 17:30:48 GMT", "created_unix": 1560879048, "link_to_url": "https://www.nestoria.co.uk/somerset/property/buy/85", "listings": [{"bathroom_number": "", "bedroom_number": 2, "car_spaces": 0, "commission": 0, "construction_year": 0, "datasource_name": "NetHousePrices", "img_height": 300, "img_url": "https://imgs.nestimg.com/2_bedroom_flat_111435271524366681.jpg", "img_width": 400, "keywords": "Balcony, Double Bedroom, Kitchen, Parking", "latitude": 51.353935, "lister_name": "Palmer Snell", "lister_url": "https://www.nestoria.co.uk/detail/0000000111435271524366681/title/5/85-1?serpUid=&pt=1&ot=1&l=somerset&did=90_high1&t_sec=9&t_or=45&t_pvid=null&utm_source=api&utm_medium=external", "listing_type": "buy", "location_accuracy": 9, "longitude": -2.9794629, "price": 129950, "price_currency": "\u00a3", "price_formatted": "\u00a3129,950", "price_high": 129950, "price_low": 129950, "price_type": "fixed", "property_type": "flat", "size": 0, "size_type": "net", "summary": "This light and airy two bedroom apartment would make the perfect fi...", "thumb_height": 60, "thumb_url": "https://imgs.nestimg.com/medium/2_bedroom_flat_111435271524366681.jpg", "thumb_width": 80, "title": "Upper Church Road, Weston-super-mare, Somerset, BS23", "updated_in_days": 47, "updated_in_days_formatted": "first seen over a month ago"}, {"bathroom_number": 2, "bedroom_number": 2, "car_spaces": 0, "commission": 0, "construction_year": 0, "datasource_name": "NetHousePrices", "img_height": 300, "img_url": "https://imgs.nestimg.com/2_bedroom_barn_conversion_character_property_111309414106445949.jpg", "img_width": 400, "keywords": "Detached, Garden, En suite, No Chain, Conversion, Double Bedroom, Kitchen, Parking", "latitude": 51.328888, "lister_name": "Palmer Snell", "lister_url": "https://www.nestoria.co.uk/detail/0000000111309414106445949/title/5/85-2?serpUid=&pt=1&ot=1&l=somerset&did=90_high1&t_sec=9&t_or=45&t_pvid=null&utm_source=api&utm_medium=external", "listing_type": "buy", "location_accuracy": 9, "longitude": -2.8697896, "price": 299950, "price_currency": "\u00a3", "price_formatted": "\u00a3299,950", "price_high": 299950, "price_low": 299950, "price_type": "fixed", "property_type": "house", "size": 0, "size_type": "net", "summary": "This two bedroom detached barn conversion is offered to the market ...", "thumb_height": 60, "thumb_url": "https://imgs.nestimg.com/medium/2_bedroom_barn_conversion_character_property_111309414106445949.jpg", "thumb_width": 80, "title": "West Street, Banwell, Somerset, BS29", "updated_in_days": 68, "updated_in_days_formatted": "first seen over a month ago"}, {"bathroom_number": "", "bedroom_number": 4, "car_spaces": 0, "commission": 0, "construction_year": 0, "datasource_name": "NetHousePrices", "img_height": 300, "img_url": "https://imgs.nestimg.com/4_bedroom_semi_detached_house_111142917451731224.jpg", "img_width": 400, "keywords": "Garden, Semi-Detached, Garage, Kitchen, Reception", "latitude": 51.34938, "lister_name": "Palmer Snell", "lister_url": "https://www.nestoria.co.uk/detail/0000000111142917451731224/title/5/85-3?serpUid=&pt=1&ot=1&l=somerset&did=90_high1&t_sec=9&t_or=45&t_pvid=null&utm_source=api&utm_medium=external", "listing_type": "buy", "location_accuracy": 9, "longitude": -2.9640298, "price": 290000, "price_currency": "\u00a3", "price_formatted": "\u00a3290,000", "price_high": 290000, "price_low": 290000, "price_type": "fixed", "property_type": "house", "size": 0, "size_type": "net", "summary": "This characterful four bedroom semi detached house is located in a ...", "thumb_height": 60, "thumb_url": "https://imgs.nestimg.com/medium/4_bedroom_semi_detached_house_111142917451731224.jpg", "thumb_width": 80, "title": "Oakford Avenue, Weston-super-mare, Somerset, BS23", "updated_in_days": 62, "updated_in_days_formatted": "first seen over a month ago"}, {"bathroom_number": "", "bedroom_number": 9, "car_spaces": 0, "commission": 0, "construction_year": 0, "datasource_name": "NetHousePrices", "img_height": 300, "img_url": "https://imgs.nestimg.com/9_bedroom_semi_detached_house_110914640386073312.jpg", "img_width": 400, "keywords": "Garden, Semi-Detached, En suite, Wood Floor, Kitchen, Reception", "latitude": 51.346066, "lister_name": "Express", "lister_url": "https://www.nestoria.co.uk/detail/0000000110914640386073312/title/5/85-4?serpUid=&pt=1&ot=1&l=somerset&did=90_high1&t_sec=9&t_or=45&t_pvid=null&utm_source=api&utm_medium=external", "listing_type": "buy", "location_accuracy": 9, "longitude": -2.9655254, "price": 380000, "price_currency": "\u00a3", "price_formatted": "\u00a3380,000", "price_high": 380000, "price_low": 380000, "price_type": "fixed", "property_type": "house", "size": 0, "size_type": "net", "summary": "Nine bedroom semi detached house all interest and offers are invite...", "thumb_height": 60, "thumb_url": "https://imgs.nestimg.com/medium/9_bedroom_semi_detached_house_110914640386073312.jpg", "thumb_width": 80, "title": "Locking Road, Weston-super-mare, Somerset, BS23", "updated_in_days": 87, "updated_in_days_formatted": "first seen over a month ago"}, {"bathroom_number": "", "bedroom_number": 2, "car_spaces": 0, "commission": 0, "construction_year": 0, "datasource_name": "NetHousePrices", "img_height": 300, "img_url": "https://imgs.nestimg.com/2_bedroom_bungalow_111457856397359934.jpg", "img_width": 400, "keywords": "Garden, Semi-Detached, Conservatory, Kitchen, Bungalow, Parking", "latitude": 51.356476, "lister_name": "Palmer Snell", "lister_url": "https://www.nestoria.co.uk/detail/0000000111457856397359934/title/5/85-5?serpUid=&pt=1&ot=1&l=somerset&did=90_high1&t_sec=9&t_or=45&t_pvid=null&utm_source=api&utm_medium=external", "listing_type": "buy", "location_accuracy": 9, "longitude": -2.918021, "price": 200000, "price_currency": "\u00a3", "price_formatted": "\u00a3200,000", "price_high": 200000, "price_low": 200000, "price_type": "fixed", "property_type": "house", "size": 0, "size_type": "net", "summary": "This two bedroom semi detached bungalow is situated in a quiet posi...", "thumb_height": 60, "thumb_url": "https://imgs.nestimg.com/medium/2_bedroom_bungalow_111457856397359934.jpg", "thumb_width": 80, "title": "Lime Close, Weston-super-mare, Somerset, BS22", "updated_in_days": 31, "updated_in_days_formatted": "first seen over a month ago"}, {"bathroom_number": "", "bedroom_number": 4, "car_spaces": 0, "commission": 0, "construction_year": 0, "datasource_name": "NetHousePrices", "img_height": 300, "img_url": "https://imgs.nestimg.com/4_bedroom_detached_house_111427248011775632.jpg", "img_width": 400, "keywords": "Detached, Garden, En suite, Double Garage, Kitchen, Modern", "latitude": 51.348335, "lister_name": "Palmer Snell", "lister_url": "https://www.nestoria.co.uk/detail/0000000111427248011775632/title/5/85-6?serpUid=&pt=1&ot=1&l=somerset&did=90_high1&t_sec=9&t_or=45&t_pvid=null&utm_source=api&utm_medium=external", "listing_type": "buy", "location_accuracy": 9, "longitude": -2.923975, "price": 330000, "price_currency": "\u00a3", "price_formatted": "\u00a3330,000", "price_high": 330000, "price_low": 330000, "price_type": "fixed", "property_type": "house", "size": 0, "size_type": "net", "summary": "This four bedroom executive style detached family home is located i...", "thumb_height": 60, "thumb_url": "https://imgs.nestimg.com/medium/4_bedroom_detached_house_111427248011775632.jpg", "thumb_width": 80, "title": "Laws Drive, Weston-super-mare, Somerset, BS24", "updated_in_days": 49, "updated_in_days_formatted": "first seen over a month ago"}, {"bathroom_number": "", "bedroom_number": 5, "car_spaces": 0, "commission": 0, "construction_year": 0, "datasource_name": "OnTheMarket.com", "img_height": 300, "img_url": "https://imgs.nestimg.com/5_bedroom_barn_for_sale_111717698877600079.jpg", "img_width": 400, "keywords": "", "latitude": 51.136, "lister_name": "Lees & Waters", "lister_url": "https://www.nestoria.co.uk/detail/0000000111717698877600079/title/5/85-7?serpUid=&pt=1&ot=1&l=somerset&did=105_high1&t_sec=9&t_or=45&t_pvid=null&utm_source=api&utm_medium=external", "listing_type": "buy", "location_accuracy": 9, "longitude": -3.04318, "price": 500000, "price_currency": "\u00a3", "price_formatted": "\u00a3500,000", "price_high": 500000, "price_low": 500000, "price_type": "fixed", "property_type": "property", "size": 0, "size_type": "net", "summary": "Situated at the top of a tree lined drive with views, sits wagon wh...", "thumb_height": 60, "thumb_url": "https://imgs.nestimg.com/medium/5_bedroom_barn_for_sale_111717698877600079.jpg", "thumb_width": 80, "title": "Sandford Hill, Wembdon", "updated_in_days": 2, "updated_in_days_formatted": "first seen 2 days ago"}, {"bathroom_number": "", "bedroom_number": 3, "car_spaces": 0, "commission": 0, "construction_year": 0, "datasource_name": "NetHousePrices", "img_height": 300, "img_url": "https://imgs.nestimg.com/3_bedroom_detached_house_111291747504022330.jpg", "img_width": 400, "keywords": "Detached, Garden, Conservatory, Fireplace, Garage, Kitchen, Basement, Cul-de-Sac, Gas Central Heating", "latitude": 51.352146, "lister_url": "https://www.nestoria.co.uk/detail/0000000111291747504022330/title/5/85-8?serpUid=&pt=1&ot=1&l=somerset&did=90_high1&t_sec=9&t_or=45&t_pvid=null&utm_source=api&utm_medium=external", "listing_type": "buy", "location_accuracy": 9, "longitude": -2.9643896, "price": 350000, "price_currency": "\u00a3", "price_formatted": "\u00a3350,000", "price_high": 350000, "price_low": 350000, "price_type": "fixed", "property_type": "house", "size": 0, "size_type": "net", "summary": "Ly presented detached house located on weston hillside tucked away ...", "thumb_height": 60, "thumb_url": "https://imgs.nestimg.com/medium/3_bedroom_detached_house_111291747504022330.jpg", "thumb_width": 80, "title": "Polden Road, Weston-super-mare, Somerset, BS23", "updated_in_days": 71, "updated_in_days_formatted": "first seen over a month ago"}, {"bathroom_number": "", "bedroom_number": 3, "car_spaces": 0, "commission": 0, "construction_year": 0, "datasource_name": "NetHousePrices", "img_height": 300, "img_url": "https://imgs.nestimg.com/3_bedroom_terraced_house_111346625862284114.jpg", "img_width": 400, "keywords": "Garden, Fireplace, Terraced, Kitchen, Dishwasher, Patio, Cottage, Reception", "latitude": 50.919422, "lister_name": "Palmer Snell", "lister_url": "https://www.nestoria.co.uk/detail/0000000111346625862284114/title/5/85-9?serpUid=&pt=1&ot=1&l=somerset&did=90_high1&t_sec=9&t_or=45&t_pvid=null&utm_source=api&utm_medium=external", "listing_type": "buy", "location_accuracy": 9, "longitude": -2.6864772, "price": 295000, "price_currency": "\u00a3", "price_formatted": "\u00a3295,000", "price_high": 295000, "price_low": 295000, "price_type": "fixed", "property_type": "house", "size": 0, "size_type": "net", "summary": "This quintessential character cottage is situated within the villag...", "thumb_height": 60, "thumb_url": "https://imgs.nestimg.com/medium/3_bedroom_terraced_house_111346625862284114.jpg", "thumb_width": 80, "title": "High Street, West Coker, Yeovil, Somerset, BA22", "updated_in_days": 62, "updated_in_days_formatted": "first seen over a month ago"}, {"bathroom_number": "", "bedroom_number": 2, "car_spaces": 0, "commission": 0, "construction_year": 0, "datasource_name": "OnTheMarket.com", "img_height": 300, "img_url": "https://imgs.nestimg.com/2_bedroom_flat_for_sale_111724141593992167.jpg", "img_width": 400, "keywords": "No Chain, Double Bedroom, Parking", "latitude": 51.3369, "lister_name": "Haart", "lister_url": "https://www.nestoria.co.uk/detail/0000000111724141593992167/title/5/85-10?serpUid=&pt=1&ot=1&l=somerset&did=105_high1&t_sec=9&t_or=45&t_pvid=null&utm_source=api&utm_medium=external", "listing_type": "buy", "location_accuracy": 9, "longitude": -2.95826, "price": 135000, "price_currency": "\u00a3", "price_formatted": "\u00a3135,000", "price_high": 135000, "price_low": 135000, "price_type": "fixed", "property_type": "flat", "size": 0, "size_type": "net", "summary": "Ideal first time buy and/or buy to let a well presented, two double...", "thumb_height": 60, "thumb_url": "https://imgs.nestimg.com/medium/2_bedroom_flat_for_sale_111724141593992167.jpg", "thumb_width": 80, "title": "Weston-super-Mare - No Chain", "updated_in_days": 1, "updated_in_days_formatted": "New"}, {"bathroom_number": "", "bedroom_number": 4, "car_spaces": 0, "commission": 0, "construction_year": 0, "datasource_name": "NetHousePrices", "img_height": 300, "img_url": "https://imgs.nestimg.com/4_bedroom_semi_detached_house_111569461823468340.jpg", "img_width": 400, "keywords": "Garden, Semi-Detached, Conservatory, Garage, Kitchen, Patio, Gas Central Heating", "latitude": 51.366905, "lister_name": "Palmer Snell", "lister_url": "https://www.nestoria.co.uk/detail/0000000111569461823468340/title/5/85-11?serpUid=&pt=1&ot=1&l=somerset&did=90_high1&t_sec=9&t_or=45&t_pvid=null&utm_source=api&utm_medium=external", "listing_type": "buy", "location_accuracy": 9, "longitude": -2.9237313, "price": 275000, "price_currency": "\u00a3", "price_formatted": "\u00a3275,000", "price_high": 275000, "price_low": 275000, "price_type": "fixed", "property_type": "house", "size": 0, "size_type": "net", "summary": "This four bedroom semi detached home is located close to amenities ...", "thumb_height": 60, "thumb_url": "https://imgs.nestimg.com/medium/4_bedroom_semi_detached_house_111569461823468340.jpg", "thumb_width": 80, "title": "Ebdon Road, Weston-super-mare, Somerset, BS22", "updated_in_days": 26, "updated_in_days_formatted": "first seen 3 weeks ago"}, {"bathroom_number": "", "bedroom_number": 3, "car_spaces": 0, "commission": 0, "construction_year": 0, "datasource_name": "OnTheMarket.com", "img_height": 300, "img_url": "https://imgs.nestimg.com/3_bedroom_semi_detached_house_for_sale_111724140753455856.jpg", "img_width": 400, "keywords": "Garden, Semi-Detached, Parking", "latitude": 51.2515, "lister_url": "https://www.nestoria.co.uk/detail/0000000111724140753455856/title/5/85-12?serpUid=&pt=1&ot=1&l=somerset&did=105_high1&t_sec=9&t_or=45&t_pvid=null&utm_source=api&utm_medium=external", "listing_type": "buy", "location_accuracy": 9, "longitude": -2.75136, "price": 315000, "price_currency": "\u00a3", "price_formatted": "\u00a3315,000", "price_high": 315000, "price_low": 315000, "price_type": "fixed", "property_type": "house", "size": 0, "size_type": "net", "summary": "A sizeable three bedroom semi-detached property set in the heart of...", "thumb_height": 60, "thumb_url": "https://imgs.nestimg.com/medium/3_bedroom_semi_detached_house_for_sale_111724140753455856.jpg", "thumb_width": 80, "title": "Barnetts Well, Draycott, Cheddar", "updated_in_days": 1, "updated_in_days_formatted": "New"}, {"bathroom_number": "", "bedroom_number": 2, "car_spaces": 0, "commission": 0, "construction_year": 0, "datasource_name": "NetHousePrices", "img_height": 300, "img_url": "https://imgs.nestimg.com/2_bedroom_end_of_terrace_house_111111783145326797.jpg", "img_width": 400, "keywords": "Garden, Terraced, Double Bedroom, Garage, Kitchen, Patio, Cottage", "latitude": 51.226467, "lister_name": "Palmer Snell", "lister_url": "https://www.nestoria.co.uk/detail/0000000111111783145326797/title/5/85-13?serpUid=&pt=1&ot=1&l=somerset&did=90_high1&t_sec=9&t_or=45&t_pvid=null&utm_source=api&utm_medium=external", "listing_type": "buy", "location_accuracy": 9, "longitude": -2.6723628, "price": 285000, "price_currency": "\u00a3", "price_formatted": "\u00a3285,000", "price_high": 285000, "price_low": 285000, "price_type": "fixed", "property_type": "house", "size": 0, "size_type": "net", "summary": "A 17th century cottage located in the heart of the village of wooke...", "thumb_height": 60, "thumb_url": "https://imgs.nestimg.com/medium/2_bedroom_end_of_terrace_house_111111783145326797.jpg", "thumb_width": 80, "title": "Wookey Hole, Wells, Somerset, BA5", "updated_in_days": 100, "updated_in_days_formatted": "first seen over a month ago"}, {"bathroom_number": "", "bedroom_number": 2, "car_spaces": 0, "commission": 0, "construction_year": 0, "datasource_name": "NetHousePrices", "img_height": 300, "img_url": "https://imgs.nestimg.com/2_bedroom_end_of_terrace_house_111662411181707096.jpg", "img_width": 400, "keywords": "Garden, Terraced, Double Bedroom, Kitchen, Parking", "latitude": 51.09091, "lister_name": "Palmer Snell", "lister_url": "https://www.nestoria.co.uk/detail/0000000111662411181707096/title/5/85-14?serpUid=&pt=1&ot=1&l=somerset&did=90_high1&t_sec=9&t_or=45&t_pvid=null&utm_source=api&utm_medium=external", "listing_type": "buy", "location_accuracy": 9, "longitude": -2.5077155, "price": 150000, "price_currency": "\u00a3", "price_formatted": "\u00a3150,000", "price_high": 150000, "price_low": 150000, "price_type": "fixed", "property_type": "house", "size": 0, "size_type": "net", "summary": "Two bedroom property situated within the ever town of castle cary. ...", "thumb_height": 60, "thumb_url": "https://imgs.nestimg.com/medium/2_bedroom_end_of_terrace_house_111662411181707096.jpg", "thumb_width": 80, "title": "Fourways Close, Castle Cary, Somerset, BA7", "updated_in_days": 11, "updated_in_days_formatted": "first seen last week"}, {"bathroom_number": 3, "bedroom_number": 5, "car_spaces": 0, "commission": 0, "construction_year": 0, "datasource_name": "Home.co.uk", "img_height": 300, "img_url": "https://imgs.nestimg.com/detached_house_111514213492214974.jpg", "img_width": 400, "keywords": "Detached, Garden, Parking, Reception", "latitude": 51.081386, "lister_name": "Roderick Thomas", "lister_url": "https://www.nestoria.co.uk/detail/0000000111514213492214974/title/5/85-15?serpUid=&pt=1&ot=1&l=somerset&did=85_default&t_sec=9&t_or=45&t_pvid=null&utm_source=api&utm_medium=external", "listing_type": "buy", "location_accuracy": 10, "longitude": -2.58115, "price": 695000, "price_currency": "\u00a3", "price_formatted": "\u00a3695,000", "price_high": 695000, "price_low": 695000, "price_type": "fixed", "property_type": "house", "size": 0, "size_type": "net", "summary": "Village house accommodation five bedrooms three reception rooms thr...", "thumb_height": 60, "thumb_url": "https://imgs.nestimg.com/medium/detached_house_111514213492214974.jpg", "thumb_width": 80, "title": "Castle Cary, Castle Cary Villages, Somerset", "updated_in_days": 35, "updated_in_days_formatted": "first seen over a month ago"}], "locations": [{"center_lat": 51.080967, "center_long": -3.045432, "long_title": "Somerset, county", "place_name": "somerset", "title": "Somerset"}], "page": 85, "sort": "nestoria_rank", "status_code": "200", "status_text": "OK", "thanks": "For using the Nestoria API.", "total_pages": 410, "total_results": 6149, "_cu5t0mP434m_": "remove"}}