{"request": {"country": "uk", "language": "en", "location": "somerset", "num_res": "15", "offset": 1275, "output": "json_xs", "page": 86, "product_type": "realestate", "property_type": "property", "size_type": "net", "size_unit": "m2", "sort": "nestoria_rank", "listing_type": "buy"}, "response": {"application_response_code": "100", "application_response_text": "listings returned for one unambiguous location", "attribution": {"img_height": 22, "img_url": "https://resources.nestimg.com/nestoria/img/pbr_v1.png", "img_width": 183, "link_to_img": "http://www.nestoria.com"}, "created_http": "Tue, 18 Jun 2019 17:30:50 GMT", "created_unix": 1560879050, "link_to_url": "https://www.nestoria.co.uk/somerset/property/buy/86", "listings": [{"bathroom_number": "", "bedroom_number": 3, "car_spaces": 0, "commission": 0, "construction_year": 0, "datasource_name": "NetHousePrices", "img_height": 300, "img_url": "https://imgs.nestimg.com/2_bedroom_flat_111260242413783122.jpg", "img_width": 400, "keywords": "Garden, Balcony, High Ceilings, Double Bedroom, Kitchen, Parking, Reception", "latitude": 51.216305, "lister_name": "Palmer Snell", "lister_url": "https://www.nestoria.co.uk/detail/0000000111260242413783122/title/5/86-1?serpUid=&pt=1&ot=1&l=somerset&did=90_high1&t_sec=9&t_or=45&t_pvid=null&utm_source=api&utm_medium=external", "listing_type": "buy", "location_accuracy": 9, "longitude": -2.6546469, "price": 250000, "price_currency": "\u00a3", "price_formatted": "\u00a3250,000", "price_high": 250000, "price_low": 250000, "price_type": "fixed", "property_type": "house", "size": 0, "size_type": "net", "summary": "An three bedroom first floor maisonette that boasts a south facing ...", "thumb_height": 60, "thumb_url": "https://imgs.nestimg.com/medium/2_bedroom_flat_111260242413783122.jpg", "thumb_width": 80, "title": "Milton Lane, Wells, Somerset, BA5", "updated_in_days": 76, "updated_in_days_formatted": "first seen over a month ago"}, {"bathroom_number": "", "bedroom_number": 3, "car_spaces": 0, "commission": 0, "construction_year": 0, "datasource_name": "NetHousePrices", "img_height": 300, "img_url": "https://imgs.nestimg.com/house_111154985900290330.jpg", "img_width": 400, "keywords": "Shared Garden, En suite, Penthouse, Double Bedroom, Garage, Kitchen", "latitude": 51.356197, "lister_name": "Palmer Snell", "lister_url": "https://www.nestoria.co.uk/detail/0000000111154985900290330/title/5/86-2?serpUid=&pt=1&ot=1&l=somerset&did=90_high1&t_sec=9&t_or=45&t_pvid=null&utm_source=api&utm_medium=external", "listing_type": "buy", "location_accuracy": 9, "longitude": -2.9822686, "price": 275000, "price_currency": "\u00a3", "price_formatted": "\u00a3275,000", "price_high": 275000, "price_low": 275000, "price_type": "fixed", "property_type": "flat", "size": 0, "size_type": "net", "summary": "This three bedroom penthouse apartment offers some of the best view...", "thumb_height": 60, "thumb_url": "https://imgs.nestimg.com/medium/house_111154985900290330.jpg", "thumb_width": 80, "title": "South Road, Weston-super-mare, Somerset, BS23", "updated_in_days": 93, "updated_in_days_formatted": "first seen over a month ago"}, {"bathroom_number": "", "bedroom_number": 8, "car_spaces": 0, "commission": 0, "construction_year": 0, "datasource_name": "Home.co.uk", "img_height": 300, "img_url": "https://imgs.nestimg.com/detached_house_111377655235860903.jpg", "img_width": 400, "keywords": "Detached", "latitude": 51.201666, "lister_name": "Webbers", "lister_url": "https://www.nestoria.co.uk/detail/0000000111377655235860903/title/5/86-3?serpUid=&pt=1&ot=1&l=somerset&did=85_default&t_sec=9&t_or=45&t_pvid=null&utm_source=api&utm_medium=external", "listing_type": "buy", "location_accuracy": 10, "longitude": -3.47045, "price": 550000, "price_currency": "\u00a3", "price_formatted": "\u00a3550,000", "price_high": 550000, "price_low": 550000, "price_type": "fixed", "property_type": "house", "size": 0, "size_type": "net", "summary": "Architect designed and traditionally built in 1927, this most detac...", "thumb_height": 60, "thumb_url": "https://imgs.nestimg.com/medium/detached_house_111377655235860903.jpg", "thumb_width": 80, "title": "Ponsford Road, Minehead, Somerset", "updated_in_days": 35, "updated_in_days_formatted": "first seen over a month ago"}, {"bathroom_number": "", "bedroom_number": 2, "car_spaces": 0, "commission": 0, "construction_year": 0, "datasource_name": "NetHousePrices", "img_height": 300, "img_url": "https://imgs.nestimg.com/2_bedroom_terraced_house_111111782981852670.jpg", "img_width": 400, "keywords": "Garden, Grade II, Fireplace, Terraced, Kitchen, Patio, Cottage, Listed", "latitude": 50.919422, "lister_name": "Palmer Snell", "lister_url": "https://www.nestoria.co.uk/detail/0000000111111782981852670/title/5/86-4?serpUid=&pt=1&ot=1&l=somerset&did=90_high1&t_sec=9&t_or=45&t_pvid=null&utm_source=api&utm_medium=external", "listing_type": "buy", "location_accuracy": 9, "longitude": -2.6864772, "price": 240000, "price_currency": "\u00a3", "price_formatted": "\u00a3240,000", "price_high": 240000, "price_low": 240000, "price_type": "fixed", "property_type": "house", "size": 0, "size_type": "net", "summary": "Ly presented, two bedroom, grade ii listed and thatched cottage in ...", "thumb_height": 60, "thumb_url": "https://imgs.nestimg.com/medium/2_bedroom_terraced_house_111111782981852670.jpg", "thumb_width": 80, "title": "High Street, West Coker, Yeovil, Somerset, BA22", "updated_in_days": 100, "updated_in_days_formatted": "first seen over a month ago"}, {"bathroom_number": "", "bedroom_number": 4, "car_spaces": 0, "commission": 0, "construction_year": 0, "datasource_name": "NetHousePrices", "img_height": 300, "img_url": "https://imgs.nestimg.com/4_bedroom_detached_bungalow_110833818372210893.jpg", "img_width": 400, "keywords": "Detached, Garden, Detached Garage, Fireplace, Kitchen, Bungalow, Patio, Reception", "latitude": 50.95605, "lister_name": "Express", "lister_url": "https://www.nestoria.co.uk/detail/0000000110833818372210893/title/5/86-5?serpUid=&pt=1&ot=1&l=somerset&did=90_high1&t_sec=9&t_or=45&t_pvid=null&utm_source=api&utm_medium=external", "listing_type": "buy", "location_accuracy": 9, "longitude": -2.653402, "price": 315000, "price_currency": "\u00a3", "price_formatted": "\u00a3315,000", "price_high": 315000, "price_low": 315000, "price_type": "fixed", "property_type": "house", "size": 0, "size_type": "net", "summary": "Four bedroom detached bungalow all interest and offers are invited....", "thumb_height": 60, "thumb_url": "https://imgs.nestimg.com/medium/4_bedroom_detached_bungalow_110833818372210893.jpg", "thumb_width": 80, "title": "Court Gardens, Yeovil, Somerset, BA21", "updated_in_days": 145, "updated_in_days_formatted": "first seen over a month ago"}, {"bathroom_number": "", "bedroom_number": 4, "car_spaces": 0, "commission": 0, "construction_year": 0, "datasource_name": "NetHousePrices", "img_height": 300, "img_url": "https://imgs.nestimg.com/4_bedroom_semi_detached_house_111111781480448769.jpg", "img_width": 400, "keywords": "Garden, Semi-Detached, Detached Garage, Kitchen, Gas Central Heating", "latitude": 51.354855, "lister_name": "Palmer Snell", "lister_url": "https://www.nestoria.co.uk/detail/0000000111111781480448769/title/5/86-6?serpUid=&pt=1&ot=1&l=somerset&did=90_high1&t_sec=9&t_or=45&t_pvid=null&utm_source=api&utm_medium=external", "listing_type": "buy", "location_accuracy": 9, "longitude": -2.924135, "price": 240000, "price_currency": "\u00a3", "price_formatted": "\u00a3240,000", "price_high": 240000, "price_low": 240000, "price_type": "fixed", "property_type": "house", "size": 0, "size_type": "net", "summary": "This four bedroom semi detached house has been extended over two st...", "thumb_height": 60, "thumb_url": "https://imgs.nestimg.com/medium/4_bedroom_semi_detached_house_111111781480448769.jpg", "thumb_width": 80, "title": "Cormorant Close, Weston-super-mare, Somerset, BS22", "updated_in_days": 68, "updated_in_days_formatted": "first seen over a month ago"}, {"bathroom_number": "", "bedroom_number": 5, "car_spaces": 0, "commission": 0, "construction_year": 0, "datasource_name": "OnTheMarket.com", "img_height": 300, "img_url": "https://imgs.nestimg.com/5_bedroom_detached_house_for_sale_110778424340398829.jpg", "img_width": 400, "keywords": "Detached, Garden, Conservatory, Kitchen, Reception", "latitude": 51.0182, "lister_name": "Webbers", "lister_url": "https://www.nestoria.co.uk/detail/0000000110778424340398829/title/5/86-7?serpUid=&pt=1&ot=1&l=somerset&did=105_high1&t_sec=9&t_or=45&t_pvid=null&utm_source=api&utm_medium=external", "listing_type": "buy", "location_accuracy": 9, "longitude": -3.08219, "price": 350000, "price_currency": "\u00a3", "price_formatted": "\u00a3350,000", "price_high": 350000, "price_low": 350000, "price_type": "fixed", "property_type": "house", "size": 0, "size_type": "net", "summary": "Ly presented four/five bedroom detached period home within highly c...", "thumb_height": 60, "thumb_url": "https://imgs.nestimg.com/medium/5_bedroom_detached_house_for_sale_110778424340398829.jpg", "thumb_width": 80, "title": "Hamilton Road, Taunton - Detached", "updated_in_days": 3, "updated_in_days_formatted": "first seen 3 days ago"}, {"bathroom_number": "", "bedroom_number": 2, "car_spaces": 0, "commission": 0, "construction_year": 0, "datasource_name": "NetHousePrices", "img_height": 300, "img_url": "https://imgs.nestimg.com/2_bedroom_detached_house_111538283602348916.jpg", "img_width": 400, "keywords": "Detached, Double Bedroom, Kitchen", "latitude": 51.089825, "lister_name": "Palmer Snell", "lister_url": "https://www.nestoria.co.uk/detail/0000000111538283602348916/title/5/86-8?serpUid=&pt=1&ot=1&l=somerset&did=90_high1&t_sec=9&t_or=45&t_pvid=null&utm_source=api&utm_medium=external", "listing_type": "buy", "location_accuracy": 9, "longitude": -2.5161421, "price": 330000, "price_currency": "\u00a3", "price_formatted": "\u00a3330,000", "price_high": 330000, "price_low": 330000, "price_type": "fixed", "property_type": "house", "size": 0, "size_type": "net", "summary": "This gem of a property is situated at the forefront of the bespoke,...", "thumb_height": 60, "thumb_url": "https://imgs.nestimg.com/medium/2_bedroom_detached_house_111538283602348916.jpg", "thumb_width": 80, "title": "Priory Close, Castle Cary, Somerset, BA7", "updated_in_days": 13, "updated_in_days_formatted": "first seen last week"}, {"bathroom_number": "", "bedroom_number": 4, "car_spaces": 0, "commission": 0, "construction_year": 0, "datasource_name": "OnTheMarket.com", "img_height": 300, "img_url": "https://imgs.nestimg.com/4_bedroom_detached_house_for_sale_111550950470475393.jpg", "img_width": 400, "keywords": "Detached, Kitchen", "latitude": 51.0939, "lister_name": "Gibbins Richards", "lister_url": "https://www.nestoria.co.uk/detail/0000000111550950470475393/title/5/86-9?serpUid=&pt=1&ot=1&l=somerset&did=105_high1&t_sec=9&t_or=45&t_pvid=null&utm_source=api&utm_medium=external", "listing_type": "buy", "location_accuracy": 9, "longitude": -3.01173, "price": 350000, "price_currency": "\u00a3", "price_formatted": "\u00a3350,000", "price_high": 350000, "price_low": 350000, "price_type": "fixed", "property_type": "house", "size": 0, "size_type": "net", "summary": "A prestigious four bedroom detached house situated in a pleasant po...", "thumb_height": 60, "thumb_url": "https://imgs.nestimg.com/medium/4_bedroom_detached_house_for_sale_111550950470475393.jpg", "thumb_width": 80, "title": "North Petherton, Nr. Bridgwater", "updated_in_days": 3, "updated_in_days_formatted": "first seen 3 days ago"}, {"bathroom_number": 2, "bedroom_number": 4, "car_spaces": 0, "commission": 0, "construction_year": 0, "datasource_name": "Home.co.uk", "img_height": 300, "img_url": "https://imgs.nestimg.com/semi_detached_house_110938559163828428.jpg", "img_width": 400, "keywords": "Freehold, Garden, Semi-Detached, Conversion, Kitchen, Parking, Reception", "latitude": 51.16723, "lister_name": "Greenslade Taylor Hunt", "lister_url": "https://www.nestoria.co.uk/detail/0000000110938559163828428/title/5/86-10?serpUid=&pt=1&ot=1&l=somerset&did=85_default&t_sec=9&t_or=45&t_pvid=null&utm_source=api&utm_medium=external", "listing_type": "buy", "location_accuracy": 10, "longitude": -2.618527, "price": 500000, "price_currency": "\u00a3", "price_formatted": "\u00a3500,000", "price_high": 500000, "price_low": 500000, "price_type": "fixed", "property_type": "house", "size": 0, "size_type": "net", "summary": "A large attached barn conversion offering large 4 bedroom, 2 bathro...", "thumb_height": 60, "thumb_url": "https://imgs.nestimg.com/medium/semi_detached_house_110938559163828428.jpg", "thumb_width": 80, "title": "Lower Westholme, Pilton, Shepton Mallet, Somerset, BA4", "updated_in_days": 95, "updated_in_days_formatted": "first seen over a month ago"}, {"bathroom_number": "", "bedroom_number": 3, "car_spaces": 0, "commission": 0, "construction_year": 0, "datasource_name": "NetHousePrices", "img_height": 300, "img_url": "https://imgs.nestimg.com/3_bedroom_semi_detached_house_111186313945554974.jpg", "img_width": 400, "keywords": "Garden, Semi-Detached, Detached Garage, Refurbished, Double Bedroom, Kitchen, Modern", "latitude": 51.35329, "lister_name": "Palmer Snell", "lister_url": "https://www.nestoria.co.uk/detail/0000000111186313945554974/title/5/86-11?serpUid=&pt=1&ot=1&l=somerset&did=90_high1&t_sec=9&t_or=45&t_pvid=null&utm_source=api&utm_medium=external", "listing_type": "buy", "location_accuracy": 9, "longitude": -2.9273202, "price": 210000, "price_currency": "\u00a3", "price_formatted": "\u00a3210,000", "price_high": 210000, "price_low": 210000, "price_type": "fixed", "property_type": "house", "size": 0, "size_type": "net", "summary": "This ly presented three bedroom semi detached house has been refurb...", "thumb_height": 60, "thumb_url": "https://imgs.nestimg.com/medium/3_bedroom_semi_detached_house_111186313945554974.jpg", "thumb_width": 80, "title": "Mead Vale, Weston-super-mare, Somerset, BS22", "updated_in_days": 88, "updated_in_days_formatted": "first seen over a month ago"}, {"bathroom_number": "", "bedroom_number": 3, "car_spaces": 0, "commission": 0, "construction_year": 0, "datasource_name": "Home.co.uk", "img_height": 300, "img_url": "https://imgs.nestimg.com/flatapartment_111514219415613934.jpg", "img_width": 400, "keywords": "Shared Garden, Kitchen, Parking", "latitude": 51.208184, "lister_name": "Webbers", "lister_url": "https://www.nestoria.co.uk/detail/0000000111514219415613934/title/5/86-12?serpUid=&pt=1&ot=1&l=somerset&did=85_default&t_sec=9&t_or=45&t_pvid=null&utm_source=api&utm_medium=external", "listing_type": "buy", "location_accuracy": 10, "longitude": -3.472032, "price": 295000, "price_currency": "\u00a3", "price_formatted": "\u00a3295,000", "price_high": 295000, "price_low": 295000, "price_type": "fixed", "property_type": "flat", "size": 0, "size_type": "net", "summary": "Superb seafront apartment accommodation breathtaking sea views oak ...", "thumb_height": 60, "thumb_url": "https://imgs.nestimg.com/medium/flatapartment_111514219415613934.jpg", "thumb_width": 80, "title": "Metropole Court, Minehead, Somerset", "updated_in_days": 35, "updated_in_days_formatted": "first seen over a month ago"}, {"bathroom_number": "", "bedroom_number": 1, "car_spaces": 0, "commission": 0, "construction_year": 0, "datasource_name": "NetHousePrices", "img_height": 300, "img_url": "https://imgs.nestimg.com/1_bedroom_park_home_mobile_home_111451689924126483.jpg", "img_width": 400, "keywords": "Garden, Needs Modernisation, No Chain, Double Bedroom, Kitchen", "latitude": 51.359383, "lister_url": "https://www.nestoria.co.uk/detail/0000000111451689924126483/title/5/86-13?serpUid=&pt=1&ot=1&l=somerset&did=90_high1&t_sec=9&t_or=45&t_pvid=null&utm_source=api&utm_medium=external", "listing_type": "buy", "location_accuracy": 9, "longitude": -2.9093182, "price": 60000, "price_currency": "\u00a3", "price_formatted": "\u00a360,000", "price_high": 60000, "price_low": 60000, "price_type": "fixed", "property_type": "property", "size": 0, "size_type": "net", "summary": "Park home which is ideally situated on the level and close to shops...", "thumb_height": 60, "thumb_url": "https://imgs.nestimg.com/medium/1_bedroom_park_home_mobile_home_111451689924126483.jpg", "thumb_width": 80, "title": "New Bristol Road, Weston-super-mare, Somerset, BS22", "updated_in_days": 45, "updated_in_days_formatted": "first seen over a month ago"}, {"bathroom_number": "", "bedroom_number": 2, "car_spaces": 0, "commission": 0, "construction_year": 0, "datasource_name": "Home.co.uk", "img_height": 300, "img_url": "https://imgs.nestimg.com/flatapartment_110926258864608207.jpg", "img_width": 400, "keywords": "", "latitude": 51.204887, "lister_name": "Webbers", "lister_url": "https://www.nestoria.co.uk/detail/0000000110926258864608207/title/5/86-14?serpUid=&pt=1&ot=1&l=somerset&did=85_default&t_sec=9&t_or=45&t_pvid=null&utm_source=api&utm_medium=external", "listing_type": "buy", "location_accuracy": 10, "longitude": -3.478154, "price": 96000, "price_currency": "\u00a3", "price_formatted": "\u00a396,000", "price_high": 96000, "price_low": 96000, "price_type": "fixed", "property_type": "flat", "size": 0, "size_type": "net", "summary": "An opportunity to purchase this well presented two/three bedroom to...", "thumb_height": 60, "thumb_url": "https://imgs.nestimg.com/medium/flatapartment_110926258864608207.jpg", "thumb_width": 80, "title": "Friday Street, Minehead, Somerset", "updated_in_days": 35, "updated_in_days_formatted": "first seen over a month ago"}, {"bathroom_number": "", "bedroom_number": 4, "car_spaces": 0, "commission": 0, "construction_year": 0, "datasource_name": "Home.co.uk", "img_height": 300, "img_url": "https://imgs.nestimg.com/detached_house_111477654613809879.jpg", "img_width": 400, "keywords": "Detached, Garden, Double Garage, Double Bedroom", "latitude": 50.961057, "lister_name": "Greenslade Taylor Hunt", "lister_url": "https://www.nestoria.co.uk/detail/0000000111477654613809879/title/5/86-15?serpUid=&pt=1&ot=1&l=somerset&did=85_default&t_sec=9&t_or=45&t_pvid=null&utm_source=api&utm_medium=external", "listing_type": "buy", "location_accuracy": 10, "longitude": -2.616523, "price": 500000, "price_currency": "\u00a3", "price_formatted": "\u00a3500,000", "price_high": 500000, "price_low": 500000, "price_type": "fixed", "property_type": "house", "size": 0, "size_type": "net", "summary": "Luxury family residence four double bedrooms countyside views gated...", "thumb_height": 60, "thumb_url": "https://imgs.nestimg.com/medium/detached_house_111477654613809879.jpg", "thumb_width": 80, "title": "Tor View Close, Yeovil, Somerset, BA21", "updated_in_days": 41, "updated_in_days_formatted": "first seen over a month ago"}], "locations": [{"center_lat": 51.080967, "center_long": -3.045432, "long_title": "Somerset, county", "place_name": "somerset", "title": "Somerset"}], "page": 86, "sort": "nestoria_rank", "status_code": "200", "status_text": "OK", "thanks": "For using the Nestoria API.", "total_pages": 410, "total_results": 6149, "_cu5t0mP434m_": "remove"}}