{"request": {"country": "uk", "language": "en", "location": "somerset", "num_res": "15", "offset": 1290, "output": "json_xs", "page": 87, "product_type": "realestate", "property_type": "property", "size_type": "net", "size_unit": "m2", "sort": "nestoria_rank", "listing_type": "buy"}, "response": {"application_response_code": "100", "application_response_text": "listings returned for one unambiguous location", "attribution": {"img_height": 22, "img_url": "https://resources.nestimg.com/nestoria/img/pbr_v1.png", "img_width": 183, "link_to_img": "http://www.nestoria.com"}, "created_http": "Tue, 18 Jun 2019 17:30:52 GMT", "created_unix": 1560879052, "link_to_url": "https://www.nestoria.co.uk/somerset/property/buy/87", "listings": [{"bathroom_number": "", "bedroom_number": 3, "car_spaces": 0, "commission": 0, "construction_year": 0, "datasource_name": "OnTheMarket.com", "img_height": 300, "img_url": "https://imgs.nestimg.com/3_bedroom_detached_bungalow_for_sale_111668302682228812.jpg", "img_width": 400, "keywords": "Detached, Garden, Conversion, Double Bedroom, Kitchen, Bungalow, Reception", "latitude": 51.1319, "lister_name": "Tamlyns", "lister_url": "https://www.nestoria.co.uk/detail/0000000111668302682228812/title/5/87-1?serpUid=&pt=1&ot=1&l=somerset&did=105_high1&t_sec=9&t_or=45&t_pvid=null&utm_source=api&utm_medium=external", "listing_type": "buy", "location_accuracy": 9, "longitude": -2.94676, "price": 340000, "price_currency": "\u00a3", "price_formatted": "\u00a3340,000", "price_high": 340000, "price_low": 340000, "price_type": "fixed", "property_type": "house", "size": 0, "size_type": "net", "summary": "This well-presented, characterful and sympathetic barn conversion i...", "thumb_height": 60, "thumb_url": "https://imgs.nestimg.com/medium/3_bedroom_detached_bungalow_for_sale_111668302682228812.jpg", "thumb_width": 80, "title": "Front Street, Chedzoy, Bridgwater", "updated_in_days": 3, "updated_in_days_formatted": "first seen 3 days ago"}, {"bathroom_number": "", "bedroom_number": 1, "car_spaces": 0, "commission": 0, "construction_year": 0, "datasource_name": "NetHousePrices", "img_height": 300, "img_url": "https://imgs.nestimg.com/1_bedroom_apartment_flat_111093388499550668.jpg", "img_width": 400, "keywords": "Shared Garden, Double Bedroom, Kitchen, Lift, Parking", "latitude": 51.358875, "lister_url": "https://www.nestoria.co.uk/detail/0000000111093388499550668/title/5/87-2?serpUid=&pt=1&ot=1&l=somerset&did=90_high1&t_sec=9&t_or=45&t_pvid=null&utm_source=api&utm_medium=external", "listing_type": "buy", "location_accuracy": 9, "longitude": -2.9237132, "price": 145000, "price_currency": "\u00a3", "price_formatted": "\u00a3145,000", "price_high": 145000, "price_low": 145000, "price_type": "fixed", "property_type": "flat", "size": 0, "size_type": "net", "summary": "Well presented first floor retirement apartment, built in 2011, and...", "thumb_height": 60, "thumb_url": "https://imgs.nestimg.com/medium/1_bedroom_apartment_flat_111093388499550668.jpg", "thumb_width": 80, "title": "Station Road, Worle, Weston-super-mare, Somerset, BS22", "updated_in_days": 74, "updated_in_days_formatted": "first seen over a month ago"}, {"bathroom_number": "", "bedroom_number": 2, "car_spaces": 0, "commission": 0, "construction_year": 0, "datasource_name": "Home.co.uk", "img_height": 300, "img_url": "https://imgs.nestimg.com/semi_detached_house_111136654973460754.jpg", "img_width": 400, "keywords": "Semi-Detached, No Chain, Bungalow", "latitude": 51.19363, "lister_name": "Greenslade Taylor Hunt", "lister_url": "https://www.nestoria.co.uk/detail/0000000111136654973460754/title/5/87-3?serpUid=&pt=1&ot=1&l=somerset&did=85_default&t_sec=9&t_or=45&t_pvid=null&utm_source=api&utm_medium=external", "listing_type": "buy", "location_accuracy": 10, "longitude": -3.46872, "price": 275000, "price_currency": "\u00a3", "price_formatted": "\u00a3275,000", "price_high": 275000, "price_low": 275000, "price_type": "fixed", "property_type": "house", "size": 0, "size_type": "net", "summary": "No onward chain a double fronted semi detached bungalow situated in...", "thumb_height": 60, "thumb_url": "https://imgs.nestimg.com/medium/semi_detached_house_111136654973460754.jpg", "thumb_width": 80, "title": "Manor Road, Minehead, Somerset, TA24", "updated_in_days": 96, "updated_in_days_formatted": "first seen over a month ago"}, {"bathroom_number": "", "bedroom_number": 4, "car_spaces": 0, "commission": 0, "construction_year": 0, "datasource_name": "OnTheMarket.com", "img_height": 300, "img_url": "https://imgs.nestimg.com/4_bedroom_detached_bungalow_for_sale_111711533108893990.jpg", "img_width": 400, "keywords": "Detached, Garden, Bungalow", "latitude": 51.0747, "lister_url": "https://www.nestoria.co.uk/detail/0000000111711533108893990/title/5/87-4?serpUid=&pt=1&ot=1&l=somerset&did=105_high1&t_sec=9&t_or=45&t_pvid=null&utm_source=api&utm_medium=external", "listing_type": "buy", "location_accuracy": 9, "longitude": -2.9999, "price": 250000, "price_currency": "\u00a3", "price_formatted": "\u00a3250,000", "price_high": 250000, "price_low": 250000, "price_type": "fixed", "property_type": "house", "size": 0, "size_type": "net", "summary": "A fascinating scandinavian style cedar wood bungalow set in mature,...", "thumb_height": 60, "thumb_url": "https://imgs.nestimg.com/medium/4_bedroom_detached_bungalow_for_sale_111711533108893990.jpg", "thumb_width": 80, "title": "House for sale, North Newton - Garden", "updated_in_days": 3, "updated_in_days_formatted": "first seen 3 days ago"}, {"bathroom_number": "", "bedroom_number": 2, "car_spaces": 0, "commission": 0, "construction_year": 0, "datasource_name": "NetHousePrices", "img_height": 300, "img_url": "https://imgs.nestimg.com/2_bedroom_retirement_property_111111782573129569.jpg", "img_width": 400, "keywords": "Shared Garden, No Chain, Kitchen, Lift, Modern, Parking", "latitude": 51.35879, "lister_name": "Palmer Snell", "lister_url": "https://www.nestoria.co.uk/detail/0000000111111782573129569/title/5/87-5?serpUid=&pt=1&ot=1&l=somerset&did=90_high1&t_sec=9&t_or=45&t_pvid=null&utm_source=api&utm_medium=external", "listing_type": "buy", "location_accuracy": 9, "longitude": -2.9197044, "price": 128000, "price_currency": "\u00a3", "price_formatted": "\u00a3128,000", "price_high": 128000, "price_low": 128000, "price_type": "fixed", "property_type": "house", "size": 0, "size_type": "net", "summary": "This two bedroom retirement apartment is offered to the market in g...", "thumb_height": 60, "thumb_url": "https://imgs.nestimg.com/medium/2_bedroom_retirement_property_111111782573129569.jpg", "thumb_width": 80, "title": "High Street, Worle, Weston-super-mare, Somerset, BS22", "updated_in_days": 100, "updated_in_days_formatted": "first seen over a month ago"}, {"bathroom_number": "", "bedroom_number": 4, "car_spaces": 0, "commission": 0, "construction_year": 0, "datasource_name": "OnTheMarket.com", "img_height": 300, "img_url": "https://imgs.nestimg.com/4_bedroom_semi_detached_house_for_sale_111445536944425702.jpg", "img_width": 400, "keywords": "Garden, Semi-Detached, En suite, Garage, Kitchen", "latitude": 51.0291, "lister_name": "Gibbins Richards", "lister_url": "https://www.nestoria.co.uk/detail/0000000111445536944425702/title/5/87-6?serpUid=&pt=1&ot=1&l=somerset&did=105_high1&t_sec=9&t_or=45&t_pvid=null&utm_source=api&utm_medium=external", "listing_type": "buy", "location_accuracy": 9, "longitude": -3.13218, "price": 269950, "price_currency": "\u00a3", "price_formatted": "\u00a3269,950", "price_high": 269950, "price_low": 269950, "price_type": "fixed", "property_type": "house", "size": 0, "size_type": "net", "summary": "A well presented 4 bedroom semi-detached home occupying a pleasant ...", "thumb_height": 60, "thumb_url": "https://imgs.nestimg.com/medium/4_bedroom_semi_detached_house_for_sale_111445536944425702.jpg", "thumb_width": 80, "title": "STAPLEGROVE PARISH - Semi-Detached", "updated_in_days": 3, "updated_in_days_formatted": "first seen 3 days ago"}, {"bathroom_number": "", "bedroom_number": 3, "car_spaces": 0, "commission": 0, "construction_year": 0, "datasource_name": "NetHousePrices", "img_height": 300, "img_url": "https://imgs.nestimg.com/3_bedroom_detached_house_111411464192498329.jpg", "img_width": 400, "keywords": "Detached, Garden, En suite, Conservatory, Garage, Kitchen, Dishwasher, Gas Central Heating", "latitude": 51.362507, "lister_url": "https://www.nestoria.co.uk/detail/0000000111411464192498329/title/5/87-7?serpUid=&pt=1&ot=1&l=somerset&did=90_high1&t_sec=9&t_or=45&t_pvid=null&utm_source=api&utm_medium=external", "listing_type": "buy", "location_accuracy": 9, "longitude": -2.895117, "price": 275000, "price_currency": "\u00a3", "price_formatted": "\u00a3275,000", "price_high": 275000, "price_low": 275000, "price_type": "fixed", "property_type": "house", "size": 0, "size_type": "net", "summary": "Ly presented detached house ideally situated in st georges and givi...", "thumb_height": 60, "thumb_url": "https://imgs.nestimg.com/medium/3_bedroom_detached_house_111411464192498329.jpg", "thumb_width": 80, "title": "The Fields, St. Georges, Weston-super-mare, Somerset, BS22", "updated_in_days": 51, "updated_in_days_formatted": "first seen over a month ago"}, {"bathroom_number": "", "bedroom_number": 4, "car_spaces": 0, "commission": 0, "construction_year": 0, "datasource_name": "NetHousePrices", "img_height": 300, "img_url": "https://imgs.nestimg.com/4_bedroom_property_111594111085758425.jpg", "img_width": 400, "keywords": "Garden, Fireplace, Kitchen", "latitude": 51.09572, "lister_url": "https://www.nestoria.co.uk/detail/0000000111594111085758425/title/5/87-8?serpUid=&pt=1&ot=1&l=somerset&did=90_high1&t_sec=9&t_or=45&t_pvid=null&utm_source=api&utm_medium=external", "listing_type": "buy", "location_accuracy": 9, "longitude": -2.5352435, "price": 640000, "price_currency": "\u00a3", "price_formatted": "\u00a3640,000", "price_high": 640000, "price_low": 640000, "price_type": "fixed", "property_type": "house", "size": 0, "size_type": "net", "summary": "Location: castle cary is a south somerset town with many of its bui...", "thumb_height": 60, "thumb_url": "https://imgs.nestimg.com/medium/4_bedroom_property_111594111085758425.jpg", "thumb_width": 80, "title": "Clanville, Castle Cary, Somerset, BA7", "updated_in_days": 22, "updated_in_days_formatted": "first seen 3 weeks ago"}, {"bathroom_number": "", "bedroom_number": 2, "car_spaces": 0, "commission": 0, "construction_year": 0, "datasource_name": "NetHousePrices", "img_height": 300, "img_url": "https://imgs.nestimg.com/2_bedroom_apartment_flat_111482738480533804.jpg", "img_width": 400, "keywords": "Balcony, Conversion, Wood Floor, Kitchen, Dishwasher, Modern", "latitude": 50.94297, "lister_name": "Greenslade Taylor Hunt", "lister_url": "https://www.nestoria.co.uk/detail/0000000111482738480533804/title/5/87-9?serpUid=&pt=1&ot=1&l=somerset&did=90_high1&t_sec=9&t_or=45&t_pvid=null&utm_source=api&utm_medium=external", "listing_type": "buy", "location_accuracy": 9, "longitude": -2.6131942, "price": 325000, "price_currency": "\u00a3", "price_formatted": "\u00a3325,000", "price_high": 325000, "price_low": 325000, "price_type": "fixed", "property_type": "flat", "size": 0, "size_type": "net", "summary": "A duplex apartment in a mill conversion benefitting from views in a...", "thumb_height": 60, "thumb_url": "https://imgs.nestimg.com/medium/2_bedroom_apartment_flat_111482738480533804.jpg", "thumb_width": 80, "title": "Sherborne Road, Yeovil, Somerset, BA21", "updated_in_days": 40, "updated_in_days_formatted": "first seen over a month ago"}, {"bathroom_number": "", "bedroom_number": 3, "car_spaces": 0, "commission": 0, "construction_year": 0, "datasource_name": "OnTheMarket.com", "img_height": 300, "img_url": "https://imgs.nestimg.com/3_bedroom_detached_house_for_sale_111717697551512483.jpg", "img_width": 400, "keywords": "Detached", "latitude": 50.9984, "lister_name": "Wilkie May & Tuckwood", "lister_url": "https://www.nestoria.co.uk/detail/0000000111717697551512483/title/5/87-10?serpUid=&pt=1&ot=1&l=somerset&did=105_high1&t_sec=9&t_or=45&t_pvid=null&utm_source=api&utm_medium=external", "listing_type": "buy", "location_accuracy": 9, "longitude": -3.08707, "price": 287500, "price_currency": "\u00a3", "price_formatted": "\u00a3287,500", "price_high": 287500, "price_low": 287500, "price_type": "fixed", "property_type": "house", "size": 0, "size_type": "net", "summary": "Plot 129 is a three bedroom detached 'pedwell' design. The property...", "thumb_height": 60, "thumb_url": "https://imgs.nestimg.com/medium/3_bedroom_detached_house_for_sale_111717697551512483.jpg", "thumb_width": 80, "title": "Killams Park, Taunton TA1 - Detached", "updated_in_days": 2, "updated_in_days_formatted": "first seen 2 days ago"}, {"bathroom_number": "", "bedroom_number": 3, "car_spaces": 0, "commission": 0, "construction_year": 0, "datasource_name": "NetHousePrices", "img_height": 300, "img_url": "https://imgs.nestimg.com/3_bedroom_semi_detached_house_111192235577322819.jpg", "img_width": 400, "keywords": "Garden, Semi-Detached, No Chain, Garage, Kitchen", "latitude": 51.210754, "lister_name": "Palmer Snell", "lister_url": "https://www.nestoria.co.uk/detail/0000000111192235577322819/title/5/87-11?serpUid=&pt=1&ot=1&l=somerset&did=90_high1&t_sec=9&t_or=45&t_pvid=null&utm_source=api&utm_medium=external", "listing_type": "buy", "location_accuracy": 9, "longitude": -2.624161, "price": 275000, "price_currency": "\u00a3", "price_formatted": "\u00a3275,000", "price_high": 275000, "price_low": 275000, "price_type": "fixed", "property_type": "house", "size": 0, "size_type": "net", "summary": "Well presented three bedroom semi-detached home with lapsed plannin...", "thumb_height": 60, "thumb_url": "https://imgs.nestimg.com/medium/3_bedroom_semi_detached_house_111192235577322819.jpg", "thumb_width": 80, "title": "Kings Castle Road, Wells, Somerset, BA5", "updated_in_days": 87, "updated_in_days_formatted": "first seen over a month ago"}, {"bathroom_number": "", "bedroom_number": 3, "car_spaces": 0, "commission": 0, "construction_year": 0, "datasource_name": "OnTheMarket.com", "img_height": 300, "img_url": "https://imgs.nestimg.com/3_bedroom_detached_house_for_sale_111544383805810881.jpg", "img_width": 400, "keywords": "Detached, Garden, Double Garage, Reception", "latitude": 51.146, "lister_name": "Wilkie May & Tuckwood", "lister_url": "https://www.nestoria.co.uk/detail/0000000111544383805810881/title/5/87-12?serpUid=&pt=1&ot=1&l=somerset&did=105_high1&t_sec=9&t_or=45&t_pvid=null&utm_source=api&utm_medium=external", "listing_type": "buy", "location_accuracy": 9, "longitude": -2.97185, "price": 319950, "price_currency": "\u00a3", "price_formatted": "\u00a3319,950", "price_high": 319950, "price_low": 319950, "price_type": "fixed", "property_type": "house", "size": 0, "size_type": "net", "summary": "This three bedroom detached home with two attic rooms offers flexib...", "thumb_height": 60, "thumb_url": "https://imgs.nestimg.com/medium/3_bedroom_detached_house_for_sale_111544383805810881.jpg", "thumb_width": 80, "title": "Horsey Road, Bawdrip, Bridgwater", "updated_in_days": 3, "updated_in_days_formatted": "first seen 3 days ago"}, {"bathroom_number": "", "bedroom_number": 2, "car_spaces": 0, "commission": 0, "construction_year": 0, "datasource_name": "NetHousePrices", "img_height": 300, "img_url": "https://imgs.nestimg.com/2_bedroom_semi_detached_house_111514264107059326.jpg", "img_width": 400, "keywords": "Garden, Semi-Detached, Fireplace, Double Bedroom, Kitchen, Parking, Reception", "latitude": 51.030342, "lister_name": "Palmer Snell", "lister_url": "https://www.nestoria.co.uk/detail/0000000111514264107059326/title/5/87-13?serpUid=&pt=1&ot=1&l=somerset&did=90_high1&t_sec=9&t_or=45&t_pvid=null&utm_source=api&utm_medium=external", "listing_type": "buy", "location_accuracy": 9, "longitude": -2.5607, "price": 200000, "price_currency": "\u00a3", "price_formatted": "\u00a3200,000", "price_high": 200000, "price_low": 200000, "price_type": "fixed", "property_type": "house", "size": 0, "size_type": "net", "summary": "This two bedroom, semi detached house positioned along a road in th...", "thumb_height": 60, "thumb_url": "https://imgs.nestimg.com/medium/2_bedroom_semi_detached_house_111514264107059326.jpg", "thumb_width": 80, "title": "Church Road, Sparkford, Somerset, BA22", "updated_in_days": 35, "updated_in_days_formatted": "first seen over a month ago"}, {"bathroom_number": "", "bedroom_number": 1, "car_spaces": 0, "commission": 0, "construction_year": 0, "datasource_name": "NetHousePrices", "img_height": 300, "img_url": "https://imgs.nestimg.com/1_bedroom_flat_111111781402761927.jpg", "img_width": 400, "keywords": "Double Bedroom, Kitchen", "latitude": 50.938995, "lister_name": "Palmer Snell", "lister_url": "https://www.nestoria.co.uk/detail/0000000111111781402761927/title/5/87-14?serpUid=&pt=1&ot=1&l=somerset&did=90_high1&t_sec=9&t_or=45&t_pvid=null&utm_source=api&utm_medium=external", "listing_type": "buy", "location_accuracy": 9, "longitude": -2.6364117, "price": 89000, "price_currency": "\u00a3", "price_formatted": "\u00a389,000", "price_high": 89000, "price_low": 89000, "price_type": "fixed", "property_type": "flat", "size": 0, "size_type": "net", "summary": "A well presented, one bedroom, retirement apartment in atown centre...", "thumb_height": 60, "thumb_url": "https://imgs.nestimg.com/medium/1_bedroom_flat_111111781402761927.jpg", "thumb_width": 80, "title": "Hendford, Yeovil, Somerset, BA20", "updated_in_days": 100, "updated_in_days_formatted": "first seen over a month ago"}, {"bathroom_number": "", "bedroom_number": 1, "car_spaces": 0, "commission": 0, "construction_year": 0, "datasource_name": "NetHousePrices", "img_height": 300, "img_url": "https://imgs.nestimg.com/1_bedroom_flat_111111781963036824.jpg", "img_width": 400, "keywords": "Leasehold, Shared Garden, No Chain, Kitchen", "latitude": 50.940903, "lister_name": "Palmer Snell", "lister_url": "https://www.nestoria.co.uk/detail/0000000111111781963036824/title/5/87-15?serpUid=&pt=1&ot=1&l=somerset&did=90_high1&t_sec=9&t_or=45&t_pvid=null&utm_source=api&utm_medium=external", "listing_type": "buy", "location_accuracy": 9, "longitude": -2.6347013, "price": 70000, "price_currency": "\u00a3", "price_formatted": "\u00a370,000", "price_high": 70000, "price_low": 70000, "price_type": "fixed", "property_type": "flat", "size": 0, "size_type": "net", "summary": "This well presented, ground floor, retirement flat is offered to th...", "thumb_height": 60, "thumb_url": "https://imgs.nestimg.com/medium/1_bedroom_flat_111111781963036824.jpg", "thumb_width": 80, "title": "The Arena, Hendford, Yeovil, Somerset, BA20", "updated_in_days": 100, "updated_in_days_formatted": "first seen over a month ago"}], "locations": [{"center_lat": 51.080967, "center_long": -3.045432, "long_title": "Somerset, county", "place_name": "somerset", "title": "Somerset"}], "page": 87, "sort": "nestoria_rank", "status_code": "200", "status_text": "OK", "thanks": "For using the Nestoria API.", "total_pages": 410, "total_results": 6149, "_cu5t0mP434m_": "remove"}}