{"request": {"country": "uk", "language": "en", "location": "somerset", "num_res": "15", "offset": 1305, "output": "json_xs", "page": 88, "product_type": "realestate", "property_type": "property", "size_type": "net", "size_unit": "m2", "sort": "nestoria_rank", "listing_type": "buy"}, "response": {"application_response_code": "100", "application_response_text": "listings returned for one unambiguous location", "attribution": {"img_height": 22, "img_url": "https://resources.nestimg.com/nestoria/img/pbr_v1.png", "img_width": 183, "link_to_img": "http://www.nestoria.com"}, "created_http": "Tue, 18 Jun 2019 17:30:53 GMT", "created_unix": 1560879053, "link_to_url": "https://www.nestoria.co.uk/somerset/property/buy/88", "listings": [{"bathroom_number": "", "bedroom_number": 1, "car_spaces": 0, "commission": 0, "construction_year": 0, "datasource_name": "NetHousePrices", "img_height": 300, "img_url": "https://imgs.nestimg.com/1_bedroom_park_home_mobile_home_110394659523404014.jpg", "img_width": 400, "keywords": "Garden, Conservatory, Double Bedroom, Kitchen, Parking, Gas Central Heating", "latitude": 51.359383, "lister_url": "https://www.nestoria.co.uk/detail/0000000110394659523404014/title/5/88-1?serpUid=&pt=1&ot=1&l=somerset&did=90_high1&t_sec=9&t_or=45&t_pvid=null&utm_source=api&utm_medium=external", "listing_type": "buy", "location_accuracy": 9, "longitude": -2.9093182, "price": 100000, "price_currency": "\u00a3", "price_formatted": "\u00a3100,000", "price_high": 100000, "price_low": 100000, "price_type": "fixed", "property_type": "property", "size": 0, "size_type": "net", "summary": "Park home, which enjoys a corner plot and is ideally situated on th...", "thumb_height": 60, "thumb_url": "https://imgs.nestimg.com/medium/1_bedroom_park_home_mobile_home_110394659523404014.jpg", "thumb_width": 80, "title": "New Bristol Road, Weston-super-mare, Somerset, BS22", "updated_in_days": 152, "updated_in_days_formatted": "first seen over a month ago"}, {"bathroom_number": "", "bedroom_number": 5, "car_spaces": 0, "commission": 0, "construction_year": 0, "datasource_name": "NetHousePrices", "img_height": 300, "img_url": "https://imgs.nestimg.com/3_bedroom_barn_conversion_character_property_111600373576570462.jpg", "img_width": 400, "keywords": "Detached, Garden, Conversion, Parking", "latitude": 51.210033, "lister_name": "Greenslade Taylor Hunt", "lister_url": "https://www.nestoria.co.uk/detail/0000000111600373576570462/title/5/88-2?serpUid=&pt=1&ot=1&l=somerset&did=90_high1&t_sec=9&t_or=45&t_pvid=null&utm_source=api&utm_medium=external", "listing_type": "buy", "location_accuracy": 9, "longitude": -2.5693796, "price": 500000, "price_currency": "\u00a3", "price_formatted": "\u00a3500,000", "price_high": 500000, "price_low": 500000, "price_type": "fixed", "property_type": "house", "size": 0, "size_type": "net", "summary": "Coming soon viewings from saturday 22nd of june. A chance to acquir...", "thumb_height": 60, "thumb_url": "https://imgs.nestimg.com/medium/3_bedroom_barn_conversion_character_property_111600373576570462.jpg", "thumb_width": 80, "title": "Thrupe Lane, Masbury, Wells, Somerset, BA5", "updated_in_days": 21, "updated_in_days_formatted": "first seen 3 weeks ago"}, {"bathroom_number": "", "bedroom_number": "", "car_spaces": 0, "commission": 0, "construction_year": 0, "datasource_name": "NetHousePrices", "img_height": 300, "img_url": "https://imgs.nestimg.com/land_commercial_111482731690822715.jpg", "img_width": 400, "keywords": "Double Garage", "latitude": 51.207535, "lister_url": "https://www.nestoria.co.uk/detail/0000000111482731690822715/title/5/88-3?serpUid=&pt=1&ot=1&l=somerset&did=90_high1&t_sec=9&t_or=45&t_pvid=null&utm_source=api&utm_medium=external", "listing_type": "buy", "location_accuracy": 9, "longitude": -3.4949443, "price": 190000, "price_currency": "\u00a3", "price_formatted": "\u00a3190,000", "price_high": 190000, "price_low": 190000, "price_type": "fixed", "property_type": "land", "size": 0, "size_type": "net", "summary": "A superior single building plot; detailed plans for the constructio...", "thumb_height": 60, "thumb_url": "https://imgs.nestimg.com/medium/land_commercial_111482731690822715.jpg", "thumb_width": 80, "title": "Porlock Road, Woodcombe, Minehead, Somerset, TA24", "updated_in_days": 40, "updated_in_days_formatted": "first seen over a month ago"}, {"bathroom_number": "", "bedroom_number": 2, "car_spaces": 0, "commission": 0, "construction_year": 0, "datasource_name": "OnTheMarket.com", "img_height": 300, "img_url": "https://imgs.nestimg.com/2_bedroom_flat_for_sale_111594151699238027.jpg", "img_width": 400, "keywords": "Balcony, Kitchen", "latitude": 51.1299, "lister_name": "Lees & Waters", "lister_url": "https://www.nestoria.co.uk/detail/0000000111594151699238027/title/5/88-4?serpUid=&pt=1&ot=1&l=somerset&did=105_high1&t_sec=9&t_or=45&t_pvid=null&utm_source=api&utm_medium=external", "listing_type": "buy", "location_accuracy": 9, "longitude": -3.0175, "price": 132000, "price_currency": "\u00a3", "price_formatted": "\u00a3132,000", "price_high": 132000, "price_low": 132000, "price_type": "fixed", "property_type": "flat", "size": 0, "size_type": "net", "summary": "One of few apartments of this model on the development. This superb...", "thumb_height": 60, "thumb_url": "https://imgs.nestimg.com/medium/2_bedroom_flat_for_sale_111594151699238027.jpg", "thumb_width": 80, "title": "Lavinia Way, Bridgwater - Balcony", "updated_in_days": 3, "updated_in_days_formatted": "first seen 3 days ago"}, {"bathroom_number": "", "bedroom_number": 4, "car_spaces": 0, "commission": 0, "construction_year": 0, "datasource_name": "OnTheMarket.com", "img_height": 300, "img_url": "https://imgs.nestimg.com/4_bedroom_detached_house_for_sale_111526291518813895.jpg", "img_width": 400, "keywords": "Detached, No Chain, Gas Central Heating", "latitude": 51.1386, "lister_name": "Wilkie May & Tuckwood", "lister_url": "https://www.nestoria.co.uk/detail/0000000111526291518813895/title/5/88-5?serpUid=&pt=1&ot=1&l=somerset&did=105_high1&t_sec=9&t_or=45&t_pvid=null&utm_source=api&utm_medium=external", "listing_type": "buy", "location_accuracy": 9, "longitude": -3.0069, "price": 269000, "price_currency": "\u00a3", "price_formatted": "\u00a3269,000", "price_high": 269000, "price_low": 269000, "price_type": "fixed", "property_type": "house", "size": 0, "size_type": "net", "summary": "With a ground floor extension, this four five bedroom detached fami...", "thumb_height": 60, "thumb_url": "https://imgs.nestimg.com/medium/4_bedroom_detached_house_for_sale_111526291518813895.jpg", "thumb_width": 80, "title": "Crestfield Avenue, Bridgwater", "updated_in_days": 3, "updated_in_days_formatted": "first seen 3 days ago"}, {"bathroom_number": "", "bedroom_number": 2, "car_spaces": 0, "commission": 0, "construction_year": 0, "datasource_name": "NetHousePrices", "img_height": 300, "img_url": "https://imgs.nestimg.com/2_bedroom_flat_111111780310857556.jpg", "img_width": 400, "keywords": "En suite, Grade II, High Ceilings, Kitchen, Loft, Parking, Listed", "latitude": 51.215805, "lister_name": "Palmer Snell", "lister_url": "https://www.nestoria.co.uk/detail/0000000111111780310857556/title/5/88-6?serpUid=&pt=1&ot=1&l=somerset&did=90_high1&t_sec=9&t_or=45&t_pvid=null&utm_source=api&utm_medium=external", "listing_type": "buy", "location_accuracy": 9, "longitude": -2.6142359, "price": 200000, "price_currency": "\u00a3", "price_formatted": "\u00a3200,000", "price_high": 200000, "price_low": 200000, "price_type": "fixed", "property_type": "flat", "size": 0, "size_type": "net", "summary": "Two bedroom duplex apartment set within this grade ii listed develo...", "thumb_height": 60, "thumb_url": "https://imgs.nestimg.com/medium/2_bedroom_flat_111111780310857556.jpg", "thumb_width": 80, "title": "East Court, South Horrington Village, Wells, Somerset, BA5", "updated_in_days": 67, "updated_in_days_formatted": "first seen over a month ago"}, {"bathroom_number": "", "bedroom_number": 3, "car_spaces": 0, "commission": 0, "construction_year": 0, "datasource_name": "OnTheMarket.com", "img_height": 300, "img_url": "https://imgs.nestimg.com/3_bedroom_semi_detached_house_for_sale_111711519821937102.jpg", "img_width": 400, "keywords": "Garden, Semi-Detached, No Chain, Modern", "latitude": 51.0324, "lister_name": "Gibbins Richards", "lister_url": "https://www.nestoria.co.uk/detail/0000000111711519821937102/title/5/88-7?serpUid=&pt=1&ot=1&l=somerset&did=105_high1&t_sec=9&t_or=45&t_pvid=null&utm_source=api&utm_medium=external", "listing_type": "buy", "location_accuracy": 9, "longitude": -3.08343, "price": 205000, "price_currency": "\u00a3", "price_formatted": "\u00a3205,000", "price_high": 205000, "price_low": 205000, "price_type": "fixed", "property_type": "house", "size": 0, "size_type": "net", "summary": "A modern semi detached three bedroom house in a location. Enclosed ...", "thumb_height": 60, "thumb_url": "https://imgs.nestimg.com/medium/3_bedroom_semi_detached_house_for_sale_111711519821937102.jpg", "thumb_width": 80, "title": "House for sale, NERROLS FARM - Modern", "updated_in_days": 3, "updated_in_days_formatted": "first seen 3 days ago"}, {"bathroom_number": "", "bedroom_number": 5, "car_spaces": 0, "commission": 0, "construction_year": 0, "datasource_name": "NetHousePrices", "img_height": 300, "img_url": "https://imgs.nestimg.com/5_bedroom_flat_111111781719313668.jpg", "img_width": 400, "keywords": "Shared Garden, Conversion, Victorian, Kitchen, Parking", "latitude": 50.944473, "lister_name": "Palmer Snell", "lister_url": "https://www.nestoria.co.uk/detail/0000000111111781719313668/title/5/88-8?serpUid=&pt=1&ot=1&l=somerset&did=90_high1&t_sec=9&t_or=45&t_pvid=null&utm_source=api&utm_medium=external", "listing_type": "buy", "location_accuracy": 9, "longitude": -2.6209288, "price": 475000, "price_currency": "\u00a3", "price_formatted": "\u00a3475,000", "price_high": 475000, "price_low": 475000, "price_type": "fixed", "property_type": "flat", "size": 0, "size_type": "net", "summary": "This character property has been sympathetically converted to creat...", "thumb_height": 60, "thumb_url": "https://imgs.nestimg.com/medium/5_bedroom_flat_111111781719313668.jpg", "thumb_width": 80, "title": "Sherborne Road, Yeovil, Somerset, BA21", "updated_in_days": 100, "updated_in_days_formatted": "first seen over a month ago"}, {"bathroom_number": "", "bedroom_number": 5, "car_spaces": 0, "commission": 0, "construction_year": 0, "datasource_name": "NetHousePrices", "img_height": 300, "img_url": "https://imgs.nestimg.com/5_bedroom_house_111111779606632500.jpg", "img_width": 400, "keywords": "Shared Garden, Conversion, Fireplace, High Ceilings, Victorian, Kitchen, Parking", "latitude": 50.944473, "lister_name": "Palmer Snell", "lister_url": "https://www.nestoria.co.uk/detail/0000000111111779606632500/title/5/88-9?serpUid=&pt=1&ot=1&l=somerset&did=90_high1&t_sec=9&t_or=45&t_pvid=null&utm_source=api&utm_medium=external", "listing_type": "buy", "location_accuracy": 9, "longitude": -2.6209288, "price": 475000, "price_currency": "\u00a3", "price_formatted": "\u00a3475,000", "price_high": 475000, "price_low": 475000, "price_type": "fixed", "property_type": "house", "size": 0, "size_type": "net", "summary": "This rare to the market investment opportunity is positioned along ...", "thumb_height": 60, "thumb_url": "https://imgs.nestimg.com/medium/5_bedroom_house_111111779606632500.jpg", "thumb_width": 80, "title": "Sherborne Road, Yeovil, Somerset, BA21", "updated_in_days": 100, "updated_in_days_formatted": "first seen over a month ago"}, {"bathroom_number": 2, "bedroom_number": 4, "car_spaces": 0, "commission": 0, "construction_year": 0, "datasource_name": "Home.co.uk", "img_height": 300, "img_url": "https://imgs.nestimg.com/detached_house_111260167273296648.jpg", "img_width": 400, "keywords": "Detached, Garden, Double Bedroom, Garage, Kitchen, Modern", "latitude": 51.045988, "lister_name": "Roderick Thomas", "lister_url": "https://www.nestoria.co.uk/detail/0000000111260167273296648/title/5/88-10?serpUid=&pt=1&ot=1&l=somerset&did=85_default&t_sec=9&t_or=45&t_pvid=null&utm_source=api&utm_medium=external", "listing_type": "buy", "location_accuracy": 10, "longitude": -2.523032, "price": 535000, "price_currency": "\u00a3", "price_formatted": "\u00a3535,000", "price_high": 535000, "price_low": 535000, "price_type": "fixed", "property_type": "house", "size": 0, "size_type": "net", "summary": "An modern detached property hadspen stone and oak timberwork open p...", "thumb_height": 60, "thumb_url": "https://imgs.nestimg.com/medium/detached_house_111260167273296648.jpg", "thumb_width": 80, "title": "Yeovil, Castle Cary Villages, Somerset", "updated_in_days": 21, "updated_in_days_formatted": "first seen 3 weeks ago"}, {"bathroom_number": "", "bedroom_number": 4, "car_spaces": 0, "commission": 0, "construction_year": 0, "datasource_name": "OnTheMarket.com", "img_height": 300, "img_url": "https://imgs.nestimg.com/4_bedroom_detached_house_for_sale_111402754622408344.jpg", "img_width": 400, "keywords": "Detached, No Chain, Garage, Gas Central Heating", "latitude": 51.1343, "lister_name": "Tamlyns", "lister_url": "https://www.nestoria.co.uk/detail/0000000111402754622408344/title/5/88-11?serpUid=&pt=1&ot=1&l=somerset&did=105_high1&t_sec=9&t_or=45&t_pvid=null&utm_source=api&utm_medium=external", "listing_type": "buy", "location_accuracy": 9, "longitude": -3.02506, "price": 375000, "price_currency": "\u00a3", "price_formatted": "\u00a3375,000", "price_high": 375000, "price_low": 375000, "price_type": "fixed", "property_type": "house", "size": 0, "size_type": "net", "summary": "And four bedroom detached home in the village of wembdon, offered t...", "thumb_height": 60, "thumb_url": "https://imgs.nestimg.com/medium/4_bedroom_detached_house_for_sale_111402754622408344.jpg", "thumb_width": 80, "title": "Wembdon Hill, Bridgwater - Detached", "updated_in_days": 3, "updated_in_days_formatted": "first seen 3 days ago"}, {"bathroom_number": "", "bedroom_number": 1, "car_spaces": 0, "commission": 0, "construction_year": 0, "datasource_name": "Home.co.uk", "img_height": 300, "img_url": "https://imgs.nestimg.com/flatapartment_111600289922834588.jpg", "img_width": 400, "keywords": "Freehold", "latitude": 51.2088, "lister_name": "Greenslade Taylor Hunt", "lister_url": "https://www.nestoria.co.uk/detail/0000000111600289922834588/title/5/88-12?serpUid=&pt=1&ot=1&l=somerset&did=85_default&t_sec=9&t_or=45&t_pvid=null&utm_source=api&utm_medium=external", "listing_type": "buy", "location_accuracy": 10, "longitude": -3.597117, "price": 145000, "price_currency": "\u00a3", "price_formatted": "\u00a3145,000", "price_high": 145000, "price_low": 145000, "price_type": "fixed", "property_type": "flat", "size": 0, "size_type": "net", "summary": "An opportunity to acquire freehold investment premises comprising a...", "thumb_height": 60, "thumb_url": "https://imgs.nestimg.com/medium/flatapartment_111600289922834588.jpg", "thumb_width": 80, "title": "The Bagatelle, High Street, Porlock, Somerset, TA24", "updated_in_days": 10, "updated_in_days_formatted": "first seen last week"}, {"bathroom_number": "", "bedroom_number": 1, "car_spaces": 0, "commission": 0, "construction_year": 0, "datasource_name": "OnTheMarket.com", "img_height": 300, "img_url": "https://imgs.nestimg.com/1_bedroom_apartment_for_sale_111457718914531023.jpg", "img_width": 400, "keywords": "Refurbished, Kitchen, Reception", "latitude": 51.0264, "lister_name": "Webbers", "lister_url": "https://www.nestoria.co.uk/detail/0000000111457718914531023/title/5/88-13?serpUid=&pt=1&ot=1&l=somerset&did=105_high1&t_sec=9&t_or=45&t_pvid=null&utm_source=api&utm_medium=external", "listing_type": "buy", "location_accuracy": 9, "longitude": -3.10454, "price": 96000, "price_currency": "\u00a3", "price_formatted": "\u00a396,000", "price_high": 96000, "price_low": 96000, "price_type": "fixed", "property_type": "flat", "size": 0, "size_type": "net", "summary": "Recently refurbisheda versatile one/two bedroom ground floor apartm...", "thumb_height": 60, "thumb_url": "https://imgs.nestimg.com/medium/1_bedroom_apartment_for_sale_111457718914531023.jpg", "thumb_width": 80, "title": "Belgrave Court, Belgrave Place", "updated_in_days": 3, "updated_in_days_formatted": "first seen 3 days ago"}, {"bathroom_number": "", "bedroom_number": 3, "car_spaces": 0, "commission": 0, "construction_year": 0, "datasource_name": "OnTheMarket.com", "img_height": 300, "img_url": "https://imgs.nestimg.com/3_bedroom_terraced_house_for_sale_111711532978915203.jpg", "img_width": 400, "keywords": "Garden, Terraced, Garage, Gas Central Heating", "latitude": 51.1471, "lister_name": "Wilkie May & Tuckwood", "lister_url": "https://www.nestoria.co.uk/detail/0000000111711532978915203/title/5/88-14?serpUid=&pt=1&ot=1&l=somerset&did=105_high1&t_sec=9&t_or=45&t_pvid=null&utm_source=api&utm_medium=external", "listing_type": "buy", "location_accuracy": 9, "longitude": -3.05735, "price": 215000, "price_currency": "\u00a3", "price_formatted": "\u00a3215,000", "price_high": 215000, "price_low": 215000, "price_type": "fixed", "property_type": "house", "size": 0, "size_type": "net", "summary": "A superb three bedroom home featuring and ly upgraded accommodation...", "thumb_height": 60, "thumb_url": "https://imgs.nestimg.com/medium/3_bedroom_terraced_house_for_sale_111711532978915203.jpg", "thumb_width": 80, "title": "Lonsdale Road, Cannington, Bridgwater", "updated_in_days": 3, "updated_in_days_formatted": "first seen 3 days ago"}, {"bathroom_number": "", "bedroom_number": 3, "car_spaces": 0, "commission": 0, "construction_year": 0, "datasource_name": "Home.co.uk", "img_height": 300, "img_url": "https://imgs.nestimg.com/semi_detached_house_111241406883627814.jpg", "img_width": 400, "keywords": "Semi-Detached, No Chain", "latitude": 50.926163, "lister_name": "Greenslade Taylor Hunt", "lister_url": "https://www.nestoria.co.uk/detail/0000000111241406883627814/title/5/88-15?serpUid=&pt=1&ot=1&l=somerset&did=85_default&t_sec=9&t_or=45&t_pvid=null&utm_source=api&utm_medium=external", "listing_type": "buy", "location_accuracy": 10, "longitude": -2.627088, "price": 349000, "price_currency": "\u00a3", "price_formatted": "\u00a3349,000", "price_high": 349000, "price_low": 349000, "price_type": "fixed", "property_type": "house", "size": 0, "size_type": "net", "summary": "This superb three bedroom home is set within the grounds of the bar...", "thumb_height": 60, "thumb_url": "https://imgs.nestimg.com/medium/semi_detached_house_111241406883627814.jpg", "thumb_width": 80, "title": "Lake Mews, Barwick, Yeovil, Somerset, BA22", "updated_in_days": 79, "updated_in_days_formatted": "first seen over a month ago"}], "locations": [{"center_lat": 51.080967, "center_long": -3.045432, "long_title": "Somerset, county", "place_name": "somerset", "title": "Somerset"}], "page": 88, "sort": "nestoria_rank", "status_code": "200", "status_text": "OK", "thanks": "For using the Nestoria API.", "total_pages": 410, "total_results": 6149, "_cu5t0mP434m_": "remove"}}