{"request": {"country": "uk", "language": "en", "location": "somerset", "num_res": "15", "offset": 1320, "output": "json_xs", "page": 89, "product_type": "realestate", "property_type": "property", "size_type": "net", "size_unit": "m2", "sort": "nestoria_rank", "listing_type": "buy"}, "response": {"application_response_code": "100", "application_response_text": "listings returned for one unambiguous location", "attribution": {"img_height": 22, "img_url": "https://resources.nestimg.com/nestoria/img/pbr_v1.png", "img_width": 183, "link_to_img": "http://www.nestoria.com"}, "created_http": "Tue, 18 Jun 2019 17:30:55 GMT", "created_unix": 1560879055, "link_to_url": "https://www.nestoria.co.uk/somerset/property/buy/89", "listings": [{"bathroom_number": "", "bedroom_number": 3, "car_spaces": 0, "commission": 0, "construction_year": 0, "datasource_name": "OnTheMarket.com", "img_height": 300, "img_url": "https://imgs.nestimg.com/3_bedroom_end_of_terrace_house_for_sale_111711519953579690.jpg", "img_width": 400, "keywords": "No Chain, Terraced, Garage, Kitchen", "latitude": 51.1491, "lister_name": "Lees & Waters", "lister_url": "https://www.nestoria.co.uk/detail/0000000111711519953579690/title/5/89-1?serpUid=&pt=1&ot=1&l=somerset&did=105_high1&t_sec=9&t_or=45&t_pvid=null&utm_source=api&utm_medium=external", "listing_type": "buy", "location_accuracy": 9, "longitude": -2.98129, "price": 184950, "price_currency": "\u00a3", "price_formatted": "\u00a3184,950", "price_high": 184950, "price_low": 184950, "price_type": "fixed", "property_type": "house", "size": 0, "size_type": "net", "summary": "This super end of terrace home comes with a garage and parking spac...", "thumb_height": 60, "thumb_url": "https://imgs.nestimg.com/medium/3_bedroom_end_of_terrace_house_for_sale_111711519953579690.jpg", "thumb_width": 80, "title": "Belgravia Drive, Bridgwater", "updated_in_days": 3, "updated_in_days_formatted": "first seen 3 days ago"}, {"bathroom_number": "", "bedroom_number": 3, "car_spaces": 0, "commission": 0, "construction_year": 0, "datasource_name": "NetHousePrices", "img_height": 300, "img_url": "https://imgs.nestimg.com/3_bedroom_flat_109454461195536906.jpg", "img_width": 400, "keywords": "En suite, Grade II, Penthouse, Fireplace, Kitchen, Reception, Listed", "latitude": 50.92617, "lister_name": "Express", "lister_url": "https://www.nestoria.co.uk/detail/0000000109454461195536906/title/5/89-2?serpUid=&pt=1&ot=1&l=somerset&did=90_high1&t_sec=9&t_or=45&t_pvid=null&utm_source=api&utm_medium=external", "listing_type": "buy", "location_accuracy": 9, "longitude": -2.6270876, "price": 300000, "price_currency": "\u00a3", "price_formatted": "\u00a3300,000", "price_high": 300000, "price_low": 300000, "price_type": "fixed", "property_type": "flat", "size": 0, "size_type": "net", "summary": "Realistically priced opportunity all interest and offers are invite...", "thumb_height": 60, "thumb_url": "https://imgs.nestimg.com/medium/3_bedroom_flat_109454461195536906.jpg", "thumb_width": 80, "title": "Barwick, Yeovil, Somerset, BA22", "updated_in_days": 151, "updated_in_days_formatted": "first seen over a month ago"}, {"bathroom_number": "", "bedroom_number": 3, "car_spaces": 0, "commission": 0, "construction_year": 0, "datasource_name": "NetHousePrices", "img_height": 300, "img_url": "https://imgs.nestimg.com/3_bedroom_cottage_house_111563354344299193.jpg", "img_width": 400, "keywords": "Garden, Fireplace, Kitchen, Cottage", "latitude": 51.08837, "lister_url": "https://www.nestoria.co.uk/detail/0000000111563354344299193/title/5/89-3?serpUid=&pt=1&ot=1&l=somerset&did=90_high1&t_sec=9&t_or=45&t_pvid=null&utm_source=api&utm_medium=external", "listing_type": "buy", "location_accuracy": 9, "longitude": -2.5151408, "price": 210000, "price_currency": "\u00a3", "price_formatted": "\u00a3210,000", "price_high": 210000, "price_low": 210000, "price_type": "fixed", "property_type": "house", "size": 0, "size_type": "net", "summary": "Location: castle cary is a south somerset town with many of its bui...", "thumb_height": 60, "thumb_url": "https://imgs.nestimg.com/medium/3_bedroom_cottage_house_111563354344299193.jpg", "thumb_width": 80, "title": "Ashby Place, Castle Cary, Somerset, BA7", "updated_in_days": 27, "updated_in_days_formatted": "first seen 3 weeks ago"}, {"bathroom_number": "", "bedroom_number": 3, "car_spaces": 0, "commission": 0, "construction_year": 0, "datasource_name": "NetHousePrices", "img_height": 300, "img_url": "https://imgs.nestimg.com/3_bedroom_cottage_house_111705363982015029.jpg", "img_width": 400, "keywords": "Detached, Garden, En suite, Fireplace, Wood Floor, Kitchen, Off Street Parking, Dishwasher, Patio, Cottage", "latitude": 51.334515, "lister_url": "https://www.nestoria.co.uk/detail/0000000111705363982015029/title/5/89-4?serpUid=&pt=1&ot=1&l=somerset&did=90_high1&t_sec=9&t_or=45&t_pvid=null&utm_source=api&utm_medium=external", "listing_type": "buy", "location_accuracy": 9, "longitude": -2.408688, "price": 325000, "price_currency": "\u00a3", "price_formatted": "\u00a3325,000", "price_high": 325000, "price_low": 325000, "price_type": "fixed", "property_type": "house", "size": 0, "size_type": "net", "summary": "A detached period cottage with views over the cam valley to the fro...", "thumb_height": 60, "thumb_url": "https://imgs.nestimg.com/medium/3_bedroom_cottage_house_111705363982015029.jpg", "thumb_width": 80, "title": "Dunkerton, Bath, Somerset, BA2", "updated_in_days": 4, "updated_in_days_formatted": "first seen 4 days ago"}, {"bathroom_number": "", "bedroom_number": 0, "car_spaces": 0, "commission": 0, "construction_year": 0, "datasource_name": "NetHousePrices", "img_height": 300, "img_url": "https://imgs.nestimg.com/studio_flat_111575785344319759.jpg", "img_width": 400, "keywords": "Kitchen", "latitude": 51.05599, "lister_url": "https://www.nestoria.co.uk/detail/0000000111575785344319759/title/5/89-5?serpUid=&pt=1&ot=1&l=somerset&did=90_high1&t_sec=9&t_or=45&t_pvid=null&utm_source=api&utm_medium=external", "listing_type": "buy", "location_accuracy": 9, "longitude": -2.41198, "price": 60000, "price_currency": "\u00a3", "price_formatted": "\u00a360,000", "price_high": 60000, "price_low": 60000, "price_type": "fixed", "property_type": "flat", "size": 0, "size_type": "net", "summary": "Location: wincanton is a small somerset town lying just north of th...", "thumb_height": 60, "thumb_url": "https://imgs.nestimg.com/medium/studio_flat_111575785344319759.jpg", "thumb_width": 80, "title": "Mill Street, Wincanton, Somerset, BA9", "updated_in_days": 8, "updated_in_days_formatted": "first seen last week"}, {"bathroom_number": "", "bedroom_number": 2, "car_spaces": 0, "commission": 0, "construction_year": 0, "datasource_name": "NetHousePrices", "img_height": 300, "img_url": "https://imgs.nestimg.com/2_bedroom_town_house_111013088825229149.jpg", "img_width": 400, "keywords": "Detached, Fireplace, Kitchen, Basement, Parking, Reception, Gas Central Heating", "latitude": 51.19276, "lister_name": "Express", "lister_url": "https://www.nestoria.co.uk/detail/0000000111013088825229149/title/5/89-6?serpUid=&pt=1&ot=1&l=somerset&did=90_high1&t_sec=9&t_or=45&t_pvid=null&utm_source=api&utm_medium=external", "listing_type": "buy", "location_accuracy": 9, "longitude": -2.5507922, "price": 125000, "price_currency": "\u00a3", "price_formatted": "\u00a3125,000", "price_high": 125000, "price_low": 125000, "price_type": "fixed", "property_type": "house", "size": 0, "size_type": "net", "summary": "Two bedroom semi detached period townhouse in the historic market t...", "thumb_height": 60, "thumb_url": "https://imgs.nestimg.com/medium/2_bedroom_town_house_111013088825229149.jpg", "thumb_width": 80, "title": "Commercial Road, Shepton Mallet, Somerset, BA4", "updated_in_days": 33, "updated_in_days_formatted": "first seen over a month ago"}, {"bathroom_number": "", "bedroom_number": 3, "car_spaces": 0, "commission": 0, "construction_year": 0, "datasource_name": "OnTheMarket.com", "img_height": 300, "img_url": "https://imgs.nestimg.com/3_bedroom_semi_detached_house_for_sale_111717697505290332.jpg", "img_width": 400, "keywords": "Semi-Detached, Garage", "latitude": 50.9844, "lister_name": "Wilkie May & Tuckwood", "lister_url": "https://www.nestoria.co.uk/detail/0000000111717697505290332/title/5/89-7?serpUid=&pt=1&ot=1&l=somerset&did=105_high1&t_sec=9&t_or=45&t_pvid=null&utm_source=api&utm_medium=external", "listing_type": "buy", "location_accuracy": 9, "longitude": -3.22752, "price": 249950, "price_currency": "\u00a3", "price_formatted": "\u00a3249,950", "price_high": 249950, "price_low": 249950, "price_type": "fixed", "property_type": "house", "size": 0, "size_type": "net", "summary": "A nearly new 3 bedroom semi detached family home set on the longfor...", "thumb_height": 60, "thumb_url": "https://imgs.nestimg.com/medium/3_bedroom_semi_detached_house_for_sale_111717697505290332.jpg", "thumb_width": 80, "title": "Thomas Place, Wellington", "updated_in_days": 2, "updated_in_days_formatted": "first seen 2 days ago"}, {"bathroom_number": "", "bedroom_number": 3, "car_spaces": 0, "commission": 0, "construction_year": 0, "datasource_name": "OnTheMarket.com", "img_height": 300, "img_url": "https://imgs.nestimg.com/3_bedroom_house_for_sale_111711524062323290.jpg", "img_width": 400, "keywords": "Double Garage", "latitude": 51.1237, "lister_name": "Lees & Waters", "lister_url": "https://www.nestoria.co.uk/detail/0000000111711524062323290/title/5/89-8?serpUid=&pt=1&ot=1&l=somerset&did=105_high1&t_sec=9&t_or=45&t_pvid=null&utm_source=api&utm_medium=external", "listing_type": "buy", "location_accuracy": 9, "longitude": -3.11062, "price": 360000, "price_currency": "\u00a3", "price_formatted": "\u00a3360,000", "price_high": 360000, "price_low": 360000, "price_type": "fixed", "property_type": "house", "size": 0, "size_type": "net", "summary": "Extended and much improved by the current owners, this property sit...", "thumb_height": 60, "thumb_url": "https://imgs.nestimg.com/medium/3_bedroom_house_for_sale_111711524062323290.jpg", "thumb_width": 80, "title": "High Street, Spaxton", "updated_in_days": 3, "updated_in_days_formatted": "first seen 3 days ago"}, {"bathroom_number": "", "bedroom_number": 5, "car_spaces": 0, "commission": 0, "construction_year": 0, "datasource_name": "OnTheMarket.com", "img_height": 300, "img_url": "https://imgs.nestimg.com/5_bedroom_detached_house_for_sale_111711524242811805.jpg", "img_width": 400, "keywords": "Detached, En suite, Kitchen, Cul-de-Sac", "latitude": 50.993248, "lister_url": "https://www.nestoria.co.uk/detail/0000000111711524242811805/title/5/89-9?serpUid=&pt=1&ot=1&l=somerset&did=105_high1&t_sec=9&t_or=45&t_pvid=null&utm_source=api&utm_medium=external", "listing_type": "buy", "location_accuracy": 9, "longitude": -3.120567, "price": 500000, "price_currency": "\u00a3", "price_formatted": "\u00a3500,000", "price_high": 500000, "price_low": 500000, "price_type": "fixed", "property_type": "house", "size": 0, "size_type": "net", "summary": "A extended 4 bedroom 1 being en-suite detached family home, with a ...", "thumb_height": 60, "thumb_url": "https://imgs.nestimg.com/medium/5_bedroom_detached_house_for_sale_111711524242811805.jpg", "thumb_width": 80, "title": "Gatchell Green, Trull - Cul-de-Sac", "updated_in_days": 3, "updated_in_days_formatted": "first seen 3 days ago"}, {"bathroom_number": "", "bedroom_number": 3, "car_spaces": 0, "commission": 0, "construction_year": 0, "datasource_name": "NetHousePrices", "img_height": 300, "img_url": "https://imgs.nestimg.com/3_bedroom_property_111680973241859473.jpg", "img_width": 400, "keywords": "Conservatory, Fireplace, Kitchen", "latitude": 51.003017, "lister_url": "https://www.nestoria.co.uk/detail/0000000111680973241859473/title/5/89-10?serpUid=&pt=1&ot=1&l=somerset&did=90_high1&t_sec=9&t_or=45&t_pvid=null&utm_source=api&utm_medium=external", "listing_type": "buy", "location_accuracy": 9, "longitude": -2.4179237, "price": 320000, "price_currency": "\u00a3", "price_formatted": "\u00a3320,000", "price_high": 320000, "price_low": 320000, "price_type": "fixed", "property_type": "property", "size": 0, "size_type": "net", "summary": "Templecombe is situated in the somerset countryside. It has its own...", "thumb_height": 60, "thumb_url": "https://imgs.nestimg.com/medium/3_bedroom_property_111680973241859473.jpg", "thumb_width": 80, "title": "Church Hill, Templecombe, Somerset, BA8", "updated_in_days": 8, "updated_in_days_formatted": "first seen last week"}, {"bathroom_number": "", "bedroom_number": 6, "car_spaces": 0, "commission": 0, "construction_year": 0, "datasource_name": "NetHousePrices", "img_height": 300, "img_url": "https://imgs.nestimg.com/6_bedroom_farm_commercial_111482735925683469.jpg", "img_width": 400, "keywords": "Detached, Grade II, Modern, Cottage, Listed", "latitude": 51.11568, "lister_name": "Greenslade Taylor Hunt", "lister_url": "https://www.nestoria.co.uk/detail/0000000111482735925683469/title/5/89-11?serpUid=&pt=1&ot=1&l=somerset&did=90_high1&t_sec=9&t_or=45&t_pvid=null&utm_source=api&utm_medium=external", "listing_type": "buy", "location_accuracy": 9, "longitude": -3.5665863, "price": 2975000, "price_currency": "\u00a3", "price_formatted": "\u00a32,975,000", "price_high": 2975000, "price_low": 2975000, "price_type": "fixed", "property_type": "property", "size": 0, "size_type": "net", "summary": "An and well situated residential and commercial livestock holding w...", "thumb_height": 60, "thumb_url": "https://imgs.nestimg.com/medium/6_bedroom_farm_commercial_111482735925683469.jpg", "thumb_width": 80, "title": "Winsford, Minehead, Somerset, TA24", "updated_in_days": 40, "updated_in_days_formatted": "first seen over a month ago"}, {"bathroom_number": "", "bedroom_number": "", "car_spaces": 0, "commission": 0, "construction_year": 0, "datasource_name": "NetHousePrices", "img_height": 300, "img_url": "https://imgs.nestimg.com/land_commercial_111482736854068095.jpg", "img_width": 400, "keywords": "Grade II, Modern, Listed", "latitude": 51.11568, "lister_name": "Greenslade Taylor Hunt", "lister_url": "https://www.nestoria.co.uk/detail/0000000111482736854068095/title/5/89-12?serpUid=&pt=1&ot=1&l=somerset&did=90_high1&t_sec=9&t_or=45&t_pvid=null&utm_source=api&utm_medium=external", "listing_type": "buy", "location_accuracy": 9, "longitude": -3.5665863, "price": 425000, "price_currency": "\u00a3", "price_formatted": "\u00a3425,000", "price_high": 425000, "price_low": 425000, "price_type": "fixed", "property_type": "land", "size": 0, "size_type": "net", "summary": "An block of productive pasture land enjoying extensive road frontag...", "thumb_height": 60, "thumb_url": "https://imgs.nestimg.com/medium/land_commercial_111482736854068095.jpg", "thumb_width": 80, "title": "Winsford, Minehead, Somerset, TA24", "updated_in_days": 40, "updated_in_days_formatted": "first seen over a month ago"}, {"bathroom_number": "", "bedroom_number": "", "car_spaces": 0, "commission": 0, "construction_year": 0, "datasource_name": "NetHousePrices", "img_height": 300, "img_url": "https://imgs.nestimg.com/land_commercial_111482738976737592.jpg", "img_width": 400, "keywords": "Grade II, Modern, Listed", "latitude": 51.11568, "lister_name": "Greenslade Taylor Hunt", "lister_url": "https://www.nestoria.co.uk/detail/0000000111482738976737592/title/5/89-13?serpUid=&pt=1&ot=1&l=somerset&did=90_high1&t_sec=9&t_or=45&t_pvid=null&utm_source=api&utm_medium=external", "listing_type": "buy", "location_accuracy": 9, "longitude": -3.5665863, "price": 550000, "price_currency": "\u00a3", "price_formatted": "\u00a3550,000", "price_high": 550000, "price_low": 550000, "price_type": "fixed", "property_type": "land", "size": 0, "size_type": "net", "summary": "An block of productive agricultural land enjoying good road frontag...", "thumb_height": 60, "thumb_url": "https://imgs.nestimg.com/medium/land_commercial_111482738976737592.jpg", "thumb_width": 80, "title": "Winsford, Minehead, Somerset, TA24", "updated_in_days": 40, "updated_in_days_formatted": "first seen over a month ago"}, {"bathroom_number": "", "bedroom_number": "", "car_spaces": 0, "commission": 0, "construction_year": 0, "datasource_name": "NetHousePrices", "img_height": 300, "img_url": "https://imgs.nestimg.com/land_commercial_111482739127552745.jpg", "img_width": 400, "keywords": "Grade II, Modern, Listed", "latitude": 51.11568, "lister_name": "Greenslade Taylor Hunt", "lister_url": "https://www.nestoria.co.uk/detail/0000000111482739127552745/title/5/89-14?serpUid=&pt=1&ot=1&l=somerset&did=90_high1&t_sec=9&t_or=45&t_pvid=null&utm_source=api&utm_medium=external", "listing_type": "buy", "location_accuracy": 9, "longitude": -3.5665863, "price": 300000, "price_currency": "\u00a3", "price_formatted": "\u00a3300,000", "price_high": 300000, "price_low": 300000, "price_type": "fixed", "property_type": "land", "size": 0, "size_type": "net", "summary": "An block of versatile land bisected by the river exe , comprising a...", "thumb_height": 60, "thumb_url": "https://imgs.nestimg.com/medium/land_commercial_111482739127552745.jpg", "thumb_width": 80, "title": "Winsford, Minehead, Somerset, TA24", "updated_in_days": 40, "updated_in_days_formatted": "first seen over a month ago"}, {"bathroom_number": "", "bedroom_number": 6, "car_spaces": 0, "commission": 0, "construction_year": 0, "datasource_name": "NetHousePrices", "img_height": 300, "img_url": "https://imgs.nestimg.com/6_bedroom_farm_commercial_111482737189287976.jpg", "img_width": 400, "keywords": "Detached, Grade II, Modern, Cottage, Listed", "latitude": 51.11568, "lister_name": "Greenslade Taylor Hunt", "lister_url": "https://www.nestoria.co.uk/detail/0000000111482737189287976/title/5/89-15?serpUid=&pt=1&ot=1&l=somerset&did=90_high1&t_sec=9&t_or=45&t_pvid=null&utm_source=api&utm_medium=external", "listing_type": "buy", "location_accuracy": 9, "longitude": -3.5665863, "price": 1700000, "price_currency": "\u00a3", "price_formatted": "\u00a31,700,000", "price_high": 1700000, "price_low": 1700000, "price_type": "fixed", "property_type": "property", "size": 0, "size_type": "net", "summary": "An and well situated residential and commercial livestock holding w...", "thumb_height": 60, "thumb_url": "https://imgs.nestimg.com/medium/6_bedroom_farm_commercial_111482737189287976.jpg", "thumb_width": 80, "title": "Winsford, Minehead, Somerset, TA24", "updated_in_days": 40, "updated_in_days_formatted": "first seen over a month ago"}], "locations": [{"center_lat": 51.080967, "center_long": -3.045432, "long_title": "Somerset, county", "place_name": "somerset", "title": "Somerset"}], "page": 89, "sort": "nestoria_rank", "status_code": "200", "status_text": "OK", "thanks": "For using the Nestoria API.", "total_pages": 410, "total_results": 6149, "_cu5t0mP434m_": "remove"}}