{"request": {"country": "uk", "language": "en", "location": "somerset", "num_res": "15", "offset": 105, "output": "json_xs", "page": 8, "product_type": "realestate", "property_type": "property", "size_type": "net", "size_unit": "m2", "sort": "nestoria_rank", "listing_type": "buy"}, "response": {"application_response_code": "100", "application_response_text": "listings returned for one unambiguous location", "attribution": {"img_height": 22, "img_url": "https://resources.nestimg.com/nestoria/img/pbr_v1.png", "img_width": 183, "link_to_img": "http://www.nestoria.com"}, "created_http": "Tue, 18 Jun 2019 17:28:44 GMT", "created_unix": 1560878924, "link_to_url": "https://www.nestoria.co.uk/somerset/property/buy/8", "listings": [{"bathroom_number": "", "bedroom_number": 3, "car_spaces": 0, "commission": 0, "construction_year": 0, "datasource_name": "OnTheMarket.com", "img_height": 300, "img_url": "https://imgs.nestimg.com/3_bedroom_semi_detached_house_for_sale_111080745007525681.jpg", "img_width": 400, "keywords": "Freehold, Garden, Semi-Detached, Garage", "latitude": 51.2069, "lister_url": "https://www.nestoria.co.uk/detail/0000000111080745007525681/title/5/8-1?serpUid=&pt=1&ot=1&l=somerset&did=105_high1&t_sec=9&t_or=45&t_pvid=null&utm_source=api&utm_medium=external", "listing_type": "buy", "location_accuracy": 9, "longitude": -3.59352, "price": 212500, "price_currency": "\u00a3", "price_formatted": "\u00a3212,500", "price_high": 212500, "price_low": 212500, "price_type": "fixed", "property_type": "house", "size": 0, "size_type": "net", "summary": "A well maintained three bedroom semi detached house along with gard...", "thumb_height": 60, "thumb_url": "https://imgs.nestimg.com/medium/3_bedroom_semi_detached_house_for_sale_111080745007525681.jpg", "thumb_width": 80, "title": "Crawter Drive, Porlock, Minehead, Somerset, TA24", "updated_in_days": 4, "updated_in_days_formatted": "first seen 4 days ago"}, {"bathroom_number": "", "bedroom_number": 4, "car_spaces": 0, "commission": 0, "construction_year": 0, "datasource_name": "OnTheMarket.com", "img_height": 300, "img_url": "https://imgs.nestimg.com/4_bedroom_detached_house_for_sale_111631123897820934.jpg", "img_width": 400, "keywords": "Detached, Freehold, Garden, Garage", "latitude": 51.027485, "lister_name": "Greenslade Taylor Hunt", "lister_url": "https://www.nestoria.co.uk/detail/0000000111631123897820934/title/5/8-2?serpUid=&pt=1&ot=1&l=somerset&did=105_high1&t_sec=9&t_or=45&t_pvid=null&utm_source=api&utm_medium=external", "listing_type": "buy", "location_accuracy": 9, "longitude": -3.1378453, "price": 359950, "price_currency": "\u00a3", "price_formatted": "\u00a3359,950", "price_high": 359950, "price_low": 359950, "price_type": "fixed", "property_type": "house", "size": 0, "size_type": "net", "summary": "An ly presented four bedroomed detached house with a number of rece...", "thumb_height": 60, "thumb_url": "https://imgs.nestimg.com/medium/4_bedroom_detached_house_for_sale_111631123897820934.jpg", "thumb_width": 80, "title": "Port Stanley Close, Norton Fitzwarren, Taunton, Somerset, TA2", "updated_in_days": 16, "updated_in_days_formatted": "first seen 2 weeks ago"}, {"bathroom_number": "", "bedroom_number": 3, "car_spaces": 0, "commission": 0, "construction_year": 0, "datasource_name": "OnTheMarket.com", "img_height": 300, "img_url": "https://imgs.nestimg.com/3_bedroom_detached_house_for_sale_110604783132858566.jpg", "img_width": 400, "keywords": "Detached", "latitude": 50.9095, "lister_name": "Greenslade Taylor Hunt", "lister_url": "https://www.nestoria.co.uk/detail/0000000110604783132858566/title/5/8-3?serpUid=&pt=1&ot=1&l=somerset&did=105_high1&t_sec=9&t_or=45&t_pvid=null&utm_source=api&utm_medium=external", "listing_type": "buy", "location_accuracy": 9, "longitude": -3.05893, "price": 375000, "price_currency": "\u00a3", "price_formatted": "\u00a3375,000", "price_high": 375000, "price_low": 375000, "price_type": "fixed", "property_type": "house", "size": 0, "size_type": "net", "summary": "A 3 bedroom detached house with glorious views in a desirable villa...", "thumb_height": 60, "thumb_url": "https://imgs.nestimg.com/medium/3_bedroom_detached_house_for_sale_110604783132858566.jpg", "thumb_width": 80, "title": "Bishopswood, Chard, Somerset, TA20", "updated_in_days": 6, "updated_in_days_formatted": "first seen 6 days ago"}, {"bathroom_number": "", "bedroom_number": 4, "car_spaces": 0, "commission": 0, "construction_year": 0, "datasource_name": "OnTheMarket.com", "img_height": 300, "img_url": "https://imgs.nestimg.com/4_bedroom_detached_house_for_sale_111631118930180358.jpg", "img_width": 400, "keywords": "Detached, Garden", "latitude": 51.0621, "lister_url": "https://www.nestoria.co.uk/detail/0000000111631118930180358/title/5/8-4?serpUid=&pt=1&ot=1&l=somerset&did=105_high1&t_sec=9&t_or=45&t_pvid=null&utm_source=api&utm_medium=external", "listing_type": "buy", "location_accuracy": 9, "longitude": -3.11282, "price": 950000, "price_currency": "\u00a3", "price_formatted": "\u00a3950,000", "price_high": 950000, "price_low": 950000, "price_type": "fixed", "property_type": "house", "size": 0, "size_type": "net", "summary": "A ly presented contemporary house, with guest annexe in show standa...", "thumb_height": 60, "thumb_url": "https://imgs.nestimg.com/medium/4_bedroom_detached_house_for_sale_111631118930180358.jpg", "thumb_width": 80, "title": "Lodes Lane, Kingston St. Mary, Taunton, Somerset, TA2", "updated_in_days": 16, "updated_in_days_formatted": "first seen 2 weeks ago"}, {"bathroom_number": "", "bedroom_number": 4, "car_spaces": 0, "commission": 0, "construction_year": 0, "datasource_name": "OnTheMarket.com", "img_height": 300, "img_url": "https://imgs.nestimg.com/4_bedroom_bungalow_for_sale_111093425457039869.jpg", "img_width": 400, "keywords": "Detached, Garden, En suite, Kitchen, Bungalow", "latitude": 51.0482, "lister_name": "Stags", "lister_url": "https://www.nestoria.co.uk/detail/0000000111093425457039869/title/5/8-5?serpUid=&pt=1&ot=1&l=somerset&did=105_high1&t_sec=9&t_or=45&t_pvid=null&utm_source=api&utm_medium=external", "listing_type": "buy", "location_accuracy": 9, "longitude": -3.05595, "price": 525000, "price_currency": "\u00a3", "price_formatted": "\u00a3525,000", "price_high": 525000, "price_low": 525000, "price_type": "fixed", "property_type": "house", "size": 0, "size_type": "net", "summary": "A unique and well-proportioned detached bungalow offering versatile...", "thumb_height": 60, "thumb_url": "https://imgs.nestimg.com/medium/4_bedroom_bungalow_for_sale_111093425457039869.jpg", "thumb_width": 80, "title": "West Monkton, Taunton, Somerset, TA2", "updated_in_days": 69, "updated_in_days_formatted": "first seen over a month ago"}, {"bathroom_number": "", "bedroom_number": 3, "car_spaces": 0, "commission": 0, "construction_year": 0, "datasource_name": "OnTheMarket.com", "img_height": 300, "img_url": "https://imgs.nestimg.com/3_bedroom_detached_house_for_sale_111056502841723782.jpg", "img_width": 400, "keywords": "Detached, Freehold, Garden, Detached Garage", "latitude": 51.036934, "lister_name": "Greenslade Taylor Hunt", "lister_url": "https://www.nestoria.co.uk/detail/0000000111056502841723782/title/5/8-6?serpUid=&pt=1&ot=1&l=somerset&did=105_high1&t_sec=9&t_or=45&t_pvid=null&utm_source=api&utm_medium=external", "listing_type": "buy", "location_accuracy": 9, "longitude": -3.051121, "price": 289950, "price_currency": "\u00a3", "price_formatted": "\u00a3289,950", "price_high": 289950, "price_low": 289950, "price_type": "fixed", "property_type": "house", "size": 0, "size_type": "net", "summary": "A 3 bedroom detached house with garden room, detached garage and of...", "thumb_height": 60, "thumb_url": "https://imgs.nestimg.com/medium/3_bedroom_detached_house_for_sale_111056502841723782.jpg", "thumb_width": 80, "title": "Hardys Close, Bathpool, Taunton, Somerset, TA2", "updated_in_days": 77, "updated_in_days_formatted": "first seen over a month ago"}, {"bathroom_number": "", "bedroom_number": 7, "car_spaces": 0, "commission": 0, "construction_year": 0, "datasource_name": "OnTheMarket.com", "img_height": 300, "img_url": "https://imgs.nestimg.com/7_bedroom_detached_house_for_sale_111575828525070484.jpg", "img_width": 400, "keywords": "Detached, Garden, Grade II, Listed", "latitude": 51.06322, "lister_name": "Strutt & Parker", "lister_url": "https://www.nestoria.co.uk/detail/0000000111575828525070484/title/5/8-7?serpUid=&pt=1&ot=1&l=somerset&did=105_high1&t_sec=9&t_or=45&t_pvid=null&utm_source=api&utm_medium=external", "listing_type": "buy", "location_accuracy": 9, "longitude": -3.1157, "price": 995000, "price_currency": "\u00a3", "price_formatted": "\u00a3995,000", "price_high": 995000, "price_low": 995000, "price_type": "fixed", "property_type": "house", "size": 0, "size_type": "net", "summary": "View our virtual tour. A grade ii listed detached property with ove...", "thumb_height": 60, "thumb_url": "https://imgs.nestimg.com/medium/7_bedroom_detached_house_for_sale_111575828525070484.jpg", "thumb_width": 80, "title": "Kingston St. Mary, Taunton, Somerset", "updated_in_days": 25, "updated_in_days_formatted": "first seen 3 weeks ago"}, {"bathroom_number": "", "bedroom_number": 3, "car_spaces": 0, "commission": 0, "construction_year": 0, "datasource_name": "OnTheMarket.com", "img_height": 300, "img_url": "https://imgs.nestimg.com/3_bedroom_detached_house_for_sale_111043905835695052.jpg", "img_width": 400, "keywords": "Detached, Garden, En suite, Grade II, Detached Garage, Kitchen, Listed", "latitude": 51.0444, "lister_name": "Stags", "lister_url": "https://www.nestoria.co.uk/detail/0000000111043905835695052/title/5/8-8?serpUid=&pt=1&ot=1&l=somerset&did=105_high1&t_sec=9&t_or=45&t_pvid=null&utm_source=api&utm_medium=external", "listing_type": "buy", "location_accuracy": 9, "longitude": -3.22929, "price": 390000, "price_currency": "\u00a3", "price_formatted": "\u00a3390,000", "price_high": 390000, "price_low": 390000, "price_type": "fixed", "property_type": "house", "size": 0, "size_type": "net", "summary": "An grade ii listed former lodge situated in the centre of this vill...", "thumb_height": 60, "thumb_url": "https://imgs.nestimg.com/medium/3_bedroom_detached_house_for_sale_111043905835695052.jpg", "thumb_width": 80, "title": "Halse, Taunton, Somerset, TA4", "updated_in_days": 27, "updated_in_days_formatted": "first seen 3 weeks ago"}, {"bathroom_number": "", "bedroom_number": 2, "car_spaces": 0, "commission": 0, "construction_year": 0, "datasource_name": "OnTheMarket.com", "img_height": 300, "img_url": "https://imgs.nestimg.com/2_bedroom_apartment_for_sale_111656084779517241.jpg", "img_width": 400, "keywords": "Leasehold, Parking", "latitude": 51.0169, "lister_name": "Greenslade Taylor Hunt", "lister_url": "https://www.nestoria.co.uk/detail/0000000111656084779517241/title/5/8-9?serpUid=&pt=1&ot=1&l=somerset&did=105_high1&t_sec=9&t_or=45&t_pvid=null&utm_source=api&utm_medium=external", "listing_type": "buy", "location_accuracy": 9, "longitude": -3.10032, "price": 139950, "price_currency": "\u00a3", "price_formatted": "\u00a3139,950", "price_high": 139950, "price_low": 139950, "price_type": "fixed", "property_type": "flat", "size": 0, "size_type": "net", "summary": "A first floor 2 bedroomed apartment with parking space, located in ...", "thumb_height": 60, "thumb_url": "https://imgs.nestimg.com/medium/2_bedroom_apartment_for_sale_111656084779517241.jpg", "thumb_width": 80, "title": "The Octagon, Taunton, Somerset, TA1", "updated_in_days": 12, "updated_in_days_formatted": "first seen last week"}, {"bathroom_number": "", "bedroom_number": 3, "car_spaces": 0, "commission": 0, "construction_year": 0, "datasource_name": "OnTheMarket.com", "img_height": 300, "img_url": "https://imgs.nestimg.com/3_bedroom_cottage_for_sale_111643774590136196.jpg", "img_width": 400, "keywords": "Detached, No Chain, Cottage", "latitude": 51.0204, "lister_name": "Newton King", "lister_url": "https://www.nestoria.co.uk/detail/0000000111643774590136196/title/5/8-10?serpUid=&pt=1&ot=1&l=somerset&did=105_high1&t_sec=9&t_or=45&t_pvid=null&utm_source=api&utm_medium=external", "listing_type": "buy", "location_accuracy": 9, "longitude": -2.97407, "price": 220000, "price_currency": "\u00a3", "price_formatted": "\u00a3220,000", "price_high": 220000, "price_low": 220000, "price_type": "fixed", "property_type": "house", "size": 0, "size_type": "net", "summary": "3 bedroom period detached cottage situated in the village of north ...", "thumb_height": 60, "thumb_url": "https://imgs.nestimg.com/medium/3_bedroom_cottage_for_sale_111643774590136196.jpg", "thumb_width": 80, "title": "Windmill Hill, North Curry, Somerset", "updated_in_days": 14, "updated_in_days_formatted": "first seen 2 weeks ago"}, {"bathroom_number": "", "bedroom_number": 5, "car_spaces": 0, "commission": 0, "construction_year": 0, "datasource_name": "OnTheMarket.com", "img_height": 300, "img_url": "https://imgs.nestimg.com/5_bedroom_detached_house_for_sale_111001018316472774.jpg", "img_width": 400, "keywords": "Detached, Garden, Garage, Reception", "latitude": 51.0607, "lister_name": "Stags", "lister_url": "https://www.nestoria.co.uk/detail/0000000111001018316472774/title/5/8-11?serpUid=&pt=1&ot=1&l=somerset&did=105_high1&t_sec=9&t_or=45&t_pvid=null&utm_source=api&utm_medium=external", "listing_type": "buy", "location_accuracy": 9, "longitude": -3.01692, "price": 599950, "price_currency": "\u00a3", "price_formatted": "\u00a3599,950", "price_high": 599950, "price_low": 599950, "price_type": "fixed", "property_type": "house", "size": 0, "size_type": "net", "summary": "A detached farmhouse set in a private rural location with an extens...", "thumb_height": 60, "thumb_url": "https://imgs.nestimg.com/medium/5_bedroom_detached_house_for_sale_111001018316472774.jpg", "thumb_width": 80, "title": "West Newton, Bridgwater, Somerset, TA7", "updated_in_days": 118, "updated_in_days_formatted": "first seen over a month ago"}, {"bathroom_number": "", "bedroom_number": 3, "car_spaces": 0, "commission": 0, "construction_year": 0, "datasource_name": "OnTheMarket.com", "img_height": 300, "img_url": "https://imgs.nestimg.com/3_bedroom_detached_house_for_sale_111111699567827139.jpg", "img_width": 400, "keywords": "Detached, Freehold, Garden, Garage", "latitude": 51.128, "lister_name": "Greenslade Taylor Hunt", "lister_url": "https://www.nestoria.co.uk/detail/0000000111111699567827139/title/5/8-12?serpUid=&pt=1&ot=1&l=somerset&did=105_high1&t_sec=9&t_or=45&t_pvid=null&utm_source=api&utm_medium=external", "listing_type": "buy", "location_accuracy": 9, "longitude": -3.0262, "price": 295000, "price_currency": "\u00a3", "price_formatted": "\u00a3295,000", "price_high": 295000, "price_low": 295000, "price_type": "fixed", "property_type": "house", "size": 0, "size_type": "net", "summary": "An well presented three bedroom 1930's detached house with private ...", "thumb_height": 60, "thumb_url": "https://imgs.nestimg.com/medium/3_bedroom_detached_house_for_sale_111111699567827139.jpg", "thumb_width": 80, "title": "Quantock Road, Bridgwater, Somerset, TA6", "updated_in_days": 46, "updated_in_days_formatted": "first seen over a month ago"}, {"bathroom_number": "", "bedroom_number": 3, "car_spaces": 0, "commission": 0, "construction_year": 0, "datasource_name": "OnTheMarket.com", "img_height": 300, "img_url": "https://imgs.nestimg.com/3_bedroom_terraced_house_for_sale_111587829299815483.jpg", "img_width": 400, "keywords": "Freehold, Garden, Terraced, Garage, Cottage", "latitude": 51.0607, "lister_name": "Greenslade Taylor Hunt", "lister_url": "https://www.nestoria.co.uk/detail/0000000111587829299815483/title/5/8-13?serpUid=&pt=1&ot=1&l=somerset&did=105_high1&t_sec=9&t_or=45&t_pvid=null&utm_source=api&utm_medium=external", "listing_type": "buy", "location_accuracy": 9, "longitude": -2.92779, "price": 220000, "price_currency": "\u00a3", "price_formatted": "\u00a3220,000", "price_high": 220000, "price_low": 220000, "price_type": "fixed", "property_type": "house", "size": 0, "size_type": "net", "summary": "Nestled in a terrace, dovedale is a three bedroom extended cottage ...", "thumb_height": 60, "thumb_url": "https://imgs.nestimg.com/medium/3_bedroom_terraced_house_for_sale_111587829299815483.jpg", "thumb_width": 80, "title": "Stanmoor Road, Burrowbridge, Bridgwater, Somerset, TA7", "updated_in_days": 23, "updated_in_days_formatted": "first seen 3 weeks ago"}, {"bathroom_number": 2, "bedroom_number": 2, "car_spaces": 0, "commission": 0, "construction_year": 0, "datasource_name": "OnTheMarket.com", "img_height": 300, "img_url": "https://imgs.nestimg.com/2_bedroom_apartment_for_sale_111662470912781855.jpg", "img_width": 400, "keywords": "Leasehold, Purpose Built, Modern, Parking", "latitude": 51.2187, "lister_name": "Greenslade Taylor Hunt", "lister_url": "https://www.nestoria.co.uk/detail/0000000111662470912781855/title/5/8-14?serpUid=&pt=1&ot=1&l=somerset&did=105_high1&t_sec=9&t_or=45&t_pvid=null&utm_source=api&utm_medium=external", "listing_type": "buy", "location_accuracy": 9, "longitude": -2.97674, "price": 92500, "price_currency": "\u00a3", "price_formatted": "\u00a392,500", "price_high": 92500, "price_low": 92500, "price_type": "fixed", "property_type": "flat", "size": 0, "size_type": "net", "summary": "A purpose-built 2 bed, 2 bath ground floor apartment, forming part ...", "thumb_height": 60, "thumb_url": "https://imgs.nestimg.com/medium/2_bedroom_apartment_for_sale_111662470912781855.jpg", "thumb_width": 80, "title": "Charlotte Court, Highbridge Quay, Highbridge, Somerset, TA9", "updated_in_days": 11, "updated_in_days_formatted": "first seen last week"}, {"bathroom_number": 2, "bedroom_number": 6, "car_spaces": 0, "commission": 0, "construction_year": 0, "datasource_name": "OnTheMarket.com", "img_height": 300, "img_url": "https://imgs.nestimg.com/6_bedroom_semi_detached_house_for_sale_111624987470006614.jpg", "img_width": 400, "keywords": "Garden, Semi-Detached, Grade II, Cottage, Reception, Georgian, Listed", "latitude": 51.0245, "lister_name": "Stags", "lister_url": "https://www.nestoria.co.uk/detail/0000000111624987470006614/title/5/8-15?serpUid=&pt=1&ot=1&l=somerset&did=105_high1&t_sec=9&t_or=45&t_pvid=null&utm_source=api&utm_medium=external", "listing_type": "buy", "location_accuracy": 9, "longitude": -3.25403, "price": 795000, "price_currency": "\u00a3", "price_formatted": "\u00a3795,000", "price_high": 795000, "price_low": 795000, "price_type": "fixed", "property_type": "house", "size": 0, "size_type": "net", "summary": "A ly presented grade ii listed georgian home in the centre of a vil...", "thumb_height": 60, "thumb_url": "https://imgs.nestimg.com/medium/6_bedroom_semi_detached_house_for_sale_111624987470006614.jpg", "thumb_width": 80, "title": "Fore Street, Milverton, Taunton, Somerset, TA4", "updated_in_days": 17, "updated_in_days_formatted": "first seen 2 weeks ago"}], "locations": [{"center_lat": 51.080967, "center_long": -3.045432, "long_title": "Somerset, county", "place_name": "somerset", "title": "Somerset"}], "page": 8, "sort": "nestoria_rank", "status_code": "200", "status_text": "OK", "thanks": "For using the Nestoria API.", "total_pages": 410, "total_results": 6149, "_cu5t0mP434m_": "remove"}}