{"request": {"country": "uk", "language": "en", "location": "somerset", "num_res": "15", "offset": 1335, "output": "json_xs", "page": 90, "product_type": "realestate", "property_type": "property", "size_type": "net", "size_unit": "m2", "sort": "nestoria_rank", "listing_type": "buy"}, "response": {"application_response_code": "100", "application_response_text": "listings returned for one unambiguous location", "attribution": {"img_height": 22, "img_url": "https://resources.nestimg.com/nestoria/img/pbr_v1.png", "img_width": 183, "link_to_img": "http://www.nestoria.com"}, "created_http": "Tue, 18 Jun 2019 17:30:56 GMT", "created_unix": 1560879056, "link_to_url": "https://www.nestoria.co.uk/somerset/property/buy/90", "listings": [{"bathroom_number": "", "bedroom_number": 4, "car_spaces": 0, "commission": 0, "construction_year": 0, "datasource_name": "NetHousePrices", "img_height": 300, "img_url": "https://imgs.nestimg.com/4_bedroom_detached_house_111680953253050230.jpg", "img_width": 400, "keywords": "Detached, Garden, Fireplace, Wood Floor, Garage, Kitchen, Dishwasher, Gas Central Heating", "latitude": 51.055588, "lister_name": "Palmer Snell", "lister_url": "https://www.nestoria.co.uk/detail/0000000111680953253050230/title/5/90-1?serpUid=&pt=1&ot=1&l=somerset&did=90_high1&t_sec=9&t_or=45&t_pvid=null&utm_source=api&utm_medium=external", "listing_type": "buy", "location_accuracy": 9, "longitude": -2.4023883, "price": 325000, "price_currency": "\u00a3", "price_formatted": "\u00a3325,000", "price_high": 325000, "price_low": 325000, "price_type": "fixed", "property_type": "house", "size": 0, "size_type": "net", "summary": "This four bedroom detached house has been extended to incorporate a...", "thumb_height": 60, "thumb_url": "https://imgs.nestimg.com/medium/4_bedroom_detached_house_111680953253050230.jpg", "thumb_width": 80, "title": "Greenway Close, Wincanton, Somerset, BA9", "updated_in_days": 8, "updated_in_days_formatted": "first seen last week"}, {"bathroom_number": "", "bedroom_number": "", "car_spaces": 0, "commission": 0, "construction_year": 0, "datasource_name": "NetHousePrices", "img_height": 300, "img_url": "https://imgs.nestimg.com/land_commercial_111482738502164644.jpg", "img_width": 400, "keywords": "", "latitude": 51.12811, "lister_name": "Greenslade Taylor Hunt", "lister_url": "https://www.nestoria.co.uk/detail/0000000111482738502164644/title/5/90-2?serpUid=&pt=1&ot=1&l=somerset&did=90_high1&t_sec=9&t_or=45&t_pvid=null&utm_source=api&utm_medium=external", "listing_type": "buy", "location_accuracy": 9, "longitude": -3.571294, "price": 275000, "price_currency": "\u00a3", "price_formatted": "\u00a3275,000", "price_high": 275000, "price_low": 275000, "price_type": "fixed", "property_type": "land", "size": 0, "size_type": "net", "summary": "A picturesque block of pasture and amenity land enjoying far reachi...", "thumb_height": 60, "thumb_url": "https://imgs.nestimg.com/medium/land_commercial_111482738502164644.jpg", "thumb_width": 80, "title": "Winsford, Minehead, Somerset, TA24", "updated_in_days": 40, "updated_in_days_formatted": "first seen over a month ago"}, {"bathroom_number": "", "bedroom_number": 4, "car_spaces": 0, "commission": 0, "construction_year": 0, "datasource_name": "Home.co.uk", "img_height": 300, "img_url": "https://imgs.nestimg.com/semi_detached_house_110988531552382585.jpg", "img_width": 400, "keywords": "Freehold, Garden, Semi-Detached, Grade II, Double Garage, No Chain, Terraced, Double Bedroom, Listed", "latitude": 51.194535, "lister_name": "Greenslade Taylor Hunt", "lister_url": "https://www.nestoria.co.uk/detail/0000000110988531552382585/title/5/90-3?serpUid=&pt=1&ot=1&l=somerset&did=85_default&t_sec=9&t_or=45&t_pvid=null&utm_source=api&utm_medium=external", "listing_type": "buy", "location_accuracy": 10, "longitude": -2.55671, "price": 325000, "price_currency": "\u00a3", "price_formatted": "\u00a3325,000", "price_high": 325000, "price_low": 325000, "price_type": "fixed", "property_type": "house", "size": 0, "size_type": "net", "summary": "No onward chain elevated and welcoming grade ii listed end of terra...", "thumb_height": 60, "thumb_url": "https://imgs.nestimg.com/medium/semi_detached_house_110988531552382585.jpg", "thumb_width": 80, "title": "Forum Terrace, Bowlish, Shepton Mallet, Somerset, BA4", "updated_in_days": 72, "updated_in_days_formatted": "first seen over a month ago"}, {"bathroom_number": "", "bedroom_number": 4, "car_spaces": 0, "commission": 0, "construction_year": 0, "datasource_name": "OnTheMarket.com", "img_height": 300, "img_url": "https://imgs.nestimg.com/4_bedroom_house_for_sale_111457721389136904.jpg", "img_width": 400, "keywords": "Detached, Garden, En suite, Grade II, Double Garage, Cottage", "latitude": 50.981674, "lister_url": "https://www.nestoria.co.uk/detail/0000000111457721389136904/title/5/90-4?serpUid=&pt=1&ot=1&l=somerset&did=105_high1&t_sec=9&t_or=45&t_pvid=null&utm_source=api&utm_medium=external", "listing_type": "buy", "location_accuracy": 9, "longitude": -2.500297, "price": 385000, "price_currency": "\u00a3", "price_formatted": "\u00a3385,000", "price_high": 385000, "price_low": 385000, "price_type": "fixed", "property_type": "house", "size": 0, "size_type": "net", "summary": "Situated in a top semi-rural position near corton denham, sandford ...", "thumb_height": 60, "thumb_url": "https://imgs.nestimg.com/medium/4_bedroom_house_for_sale_111457721389136904.jpg", "thumb_width": 80, "title": "Poyntington, SHERBORNE, Dorset, DT9", "updated_in_days": 1, "updated_in_days_formatted": "New"}, {"bathroom_number": "", "bedroom_number": 3, "car_spaces": 0, "commission": 0, "construction_year": 0, "datasource_name": "OnTheMarket.com", "img_height": 300, "img_url": "https://imgs.nestimg.com/3_bedroom_detached_bungalow_for_sale_111711526335961032.jpg", "img_width": 400, "keywords": "Detached, Accessibility, Garage, Bungalow, Reception", "latitude": 51.0816, "lister_name": "Cooper & Tanner", "lister_url": "https://www.nestoria.co.uk/detail/0000000111711526335961032/title/5/90-5?serpUid=&pt=1&ot=1&l=somerset&did=105_high1&t_sec=9&t_or=45&t_pvid=null&utm_source=api&utm_medium=external", "listing_type": "buy", "location_accuracy": 9, "longitude": -2.88193, "price": 339950, "price_currency": "\u00a3", "price_formatted": "\u00a3339,950", "price_high": 339950, "price_low": 339950, "price_type": "fixed", "property_type": "house", "size": 0, "size_type": "net", "summary": "Here is the , light and three/four bedroom detached chalet bungalow...", "thumb_height": 60, "thumb_url": "https://imgs.nestimg.com/medium/3_bedroom_detached_bungalow_for_sale_111711526335961032.jpg", "thumb_width": 80, "title": "Elm Tree Close, Othery - Reception", "updated_in_days": 3, "updated_in_days_formatted": "first seen 3 days ago"}, {"bathroom_number": "", "bedroom_number": 2, "car_spaces": 0, "commission": 0, "construction_year": 0, "datasource_name": "OnTheMarket.com", "img_height": 300, "img_url": "https://imgs.nestimg.com/2_bedroom_end_of_terrace_house_for_sale_111668295717178394.jpg", "img_width": 400, "keywords": "Leasehold, Garden, Terraced, Off Street Parking, Shared Equity", "latitude": 50.9926, "lister_name": "Greenslade Taylor Hunt", "lister_url": "https://www.nestoria.co.uk/detail/0000000111668295717178394/title/5/90-6?serpUid=&pt=1&ot=1&l=somerset&did=105_high1&t_sec=9&t_or=45&t_pvid=null&utm_source=api&utm_medium=external", "listing_type": "buy", "location_accuracy": 9, "longitude": -2.96183, "price": 87750, "price_currency": "\u00a3", "price_formatted": "\u00a387,750", "price_high": 87750, "price_low": 87750, "price_type": "fixed", "property_type": "house", "size": 0, "size_type": "net", "summary": "A well presented two bedroom, end of terrace house with front and r...", "thumb_height": 60, "thumb_url": "https://imgs.nestimg.com/medium/2_bedroom_end_of_terrace_house_for_sale_111668295717178394.jpg", "thumb_width": 80, "title": "Doble Close, Higher Street, Curry Mallet, Taunton, TA3", "updated_in_days": 3, "updated_in_days_formatted": "first seen 3 days ago"}, {"bathroom_number": "", "bedroom_number": 2, "car_spaces": 0, "commission": 0, "construction_year": 0, "datasource_name": "OnTheMarket.com", "img_height": 300, "img_url": "https://imgs.nestimg.com/2_bedroom_apartment_for_sale_111724142182768265.jpg", "img_width": 400, "keywords": "En suite, Kitchen, Gas Central Heating", "latitude": 51.1876, "lister_name": "Stonebridge", "lister_url": "https://www.nestoria.co.uk/detail/0000000111724142182768265/title/5/90-7?serpUid=&pt=1&ot=1&l=somerset&did=105_high1&t_sec=9&t_or=45&t_pvid=null&utm_source=api&utm_medium=external", "listing_type": "buy", "location_accuracy": 9, "longitude": -2.55239, "price": 129950, "price_currency": "\u00a3", "price_formatted": "\u00a3129,950", "price_high": 129950, "price_low": 129950, "price_type": "fixed", "property_type": "flat", "size": 0, "size_type": "net", "summary": "Set within walking distance of the local amenities of shepton malle...", "thumb_height": 60, "thumb_url": "https://imgs.nestimg.com/medium/2_bedroom_apartment_for_sale_111724142182768265.jpg", "thumb_width": 80, "title": "Summerleaze Park, Shepton Mallet", "updated_in_days": 1, "updated_in_days_formatted": "New"}, {"bathroom_number": "", "bedroom_number": 6, "car_spaces": 0, "commission": 0, "construction_year": 0, "datasource_name": "Home.co.uk", "img_height": 300, "img_url": "https://imgs.nestimg.com/detached_house_111142878090765729.jpg", "img_width": 400, "keywords": "Detached, Grade II, Listed", "latitude": 51.115679, "lister_name": "Greenslade Taylor Hunt", "lister_url": "https://www.nestoria.co.uk/detail/0000000111142878090765729/title/5/90-8?serpUid=&pt=1&ot=1&l=somerset&did=85_default&t_sec=9&t_or=45&t_pvid=null&utm_source=api&utm_medium=external", "listing_type": "buy", "location_accuracy": 10, "longitude": -3.566601, "price": 1700000, "price_currency": "\u00a3", "price_formatted": "\u00a31,700,000", "price_high": 1700000, "price_low": 1700000, "price_type": "fixed", "property_type": "house", "size": 0, "size_type": "net", "summary": "An and well situated residential and commercial livestock holding w...", "thumb_height": 60, "thumb_url": "https://imgs.nestimg.com/medium/detached_house_111142878090765729.jpg", "thumb_width": 80, "title": "Winsford, Minehead, Somerset, TA24", "updated_in_days": 95, "updated_in_days_formatted": "first seen over a month ago"}, {"bathroom_number": "", "bedroom_number": 5, "car_spaces": 0, "commission": 0, "construction_year": 0, "datasource_name": "NetHousePrices", "img_height": 300, "img_url": "https://imgs.nestimg.com/5_bedroom_detached_house_111303224860649275.jpg", "img_width": 400, "keywords": "Detached", "latitude": 51.181564, "lister_name": "Charles Barnard", "lister_url": "https://www.nestoria.co.uk/detail/0000000111303224860649275/title/5/90-9?serpUid=&pt=1&ot=1&l=somerset&did=90_high1&t_sec=9&t_or=45&t_pvid=null&utm_source=api&utm_medium=external", "listing_type": "buy", "location_accuracy": 9, "longitude": -2.5397284, "price": 300000, "price_currency": "\u00a3", "price_formatted": "\u00a3300,000", "price_high": 300000, "price_low": 300000, "price_type": "fixed", "property_type": "house", "size": 0, "size_type": "net", "summary": "Key features: five bedroomsmaster en-suitecarport and garagesunny r...", "thumb_height": 60, "thumb_url": "https://imgs.nestimg.com/medium/5_bedroom_detached_house_111303224860649275.jpg", "thumb_width": 80, "title": "Little Brooks Lane, Shepton Mallet, Somerset, BA4", "updated_in_days": 69, "updated_in_days_formatted": "first seen over a month ago"}, {"bathroom_number": "", "bedroom_number": 3, "car_spaces": 0, "commission": 0, "construction_year": 0, "datasource_name": "Home.co.uk", "img_height": 300, "img_url": "https://imgs.nestimg.com/detached_house_111340397504757927.jpg", "img_width": 400, "keywords": "Detached, Modern", "latitude": 51.179893, "lister_url": "https://www.nestoria.co.uk/detail/0000000111340397504757927/title/5/90-10?serpUid=&pt=1&ot=1&l=somerset&did=85_default&t_sec=9&t_or=45&t_pvid=null&utm_source=api&utm_medium=external", "listing_type": "buy", "location_accuracy": 10, "longitude": -2.536233, "price": 209950, "price_currency": "\u00a3", "price_formatted": "\u00a3209,950", "price_high": 209950, "price_low": 209950, "price_type": "fixed", "property_type": "house", "size": 0, "size_type": "net", "summary": "An ly presented three bedroom semi detached modern family home loca...", "thumb_height": 60, "thumb_url": "https://imgs.nestimg.com/medium/detached_house_111340397504757927.jpg", "thumb_width": 80, "title": "SHEPTON MALLET, Somerset - Detached", "updated_in_days": 63, "updated_in_days_formatted": "first seen over a month ago"}, {"bathroom_number": "", "bedroom_number": 2, "car_spaces": 0, "commission": 0, "construction_year": 0, "datasource_name": "OnTheMarket.com", "img_height": 300, "img_url": "https://imgs.nestimg.com/2_bedroom_bungalow_for_sale_111717699793124276.jpg", "img_width": 400, "keywords": "Garden, Kitchen, Off Street Parking, Bungalow, Cul-de-Sac, Gas Central Heating", "latitude": 50.8811, "lister_url": "https://www.nestoria.co.uk/detail/0000000111717699793124276/title/5/90-11?serpUid=&pt=1&ot=1&l=somerset&did=105_high1&t_sec=9&t_or=45&t_pvid=null&utm_source=api&utm_medium=external", "listing_type": "buy", "location_accuracy": 9, "longitude": -2.95959, "price": 175000, "price_currency": "\u00a3", "price_formatted": "\u00a3175,000", "price_high": 175000, "price_low": 175000, "price_type": "fixed", "property_type": "house", "size": 0, "size_type": "net", "summary": "A well presented two bedroom bungalow located in a quiet cul-de-sac...", "thumb_height": 60, "thumb_url": "https://imgs.nestimg.com/medium/2_bedroom_bungalow_for_sale_111717699793124276.jpg", "thumb_width": 80, "title": "Langdon Close, Chard - Cul-de-Sac", "updated_in_days": 2, "updated_in_days_formatted": "first seen 2 days ago"}, {"bathroom_number": "", "bedroom_number": 4, "car_spaces": 0, "commission": 0, "construction_year": 0, "datasource_name": "NetHousePrices", "img_height": 300, "img_url": "https://imgs.nestimg.com/4_bedroom_semi_detached_house_111427248201394151.jpg", "img_width": 400, "keywords": "Garden, Semi-Detached, No Chain, Double Bedroom, Garage, Kitchen, Gas Central Heating", "latitude": 51.18371, "lister_name": "Palmer Snell", "lister_url": "https://www.nestoria.co.uk/detail/0000000111427248201394151/title/5/90-12?serpUid=&pt=1&ot=1&l=somerset&did=90_high1&t_sec=9&t_or=45&t_pvid=null&utm_source=api&utm_medium=external", "listing_type": "buy", "location_accuracy": 9, "longitude": -2.5284362, "price": 260000, "price_currency": "\u00a3", "price_formatted": "\u00a3260,000", "price_high": 260000, "price_low": 260000, "price_type": "fixed", "property_type": "house", "size": 0, "size_type": "net", "summary": "This four bedroom semi detached property is situated within the tow...", "thumb_height": 60, "thumb_url": "https://imgs.nestimg.com/medium/4_bedroom_semi_detached_house_111427248201394151.jpg", "thumb_width": 80, "title": "Constantine Court, Shepton Mallet, Somerset, BA4", "updated_in_days": 49, "updated_in_days_formatted": "first seen over a month ago"}, {"bathroom_number": "", "bedroom_number": 4, "car_spaces": 0, "commission": 0, "construction_year": 0, "datasource_name": "OnTheMarket.com", "img_height": 300, "img_url": "https://imgs.nestimg.com/4_bedroom_detached_house_for_sale_111717685414518018.jpg", "img_width": 400, "keywords": "Detached, Conversion", "latitude": 50.9655, "lister_name": "Webbers", "lister_url": "https://www.nestoria.co.uk/detail/0000000111717685414518018/title/5/90-13?serpUid=&pt=1&ot=1&l=somerset&did=105_high1&t_sec=9&t_or=45&t_pvid=null&utm_source=api&utm_medium=external", "listing_type": "buy", "location_accuracy": 9, "longitude": -3.15799, "price": 525000, "price_currency": "\u00a3", "price_formatted": "\u00a3525,000", "price_high": 525000, "price_low": 525000, "price_type": "fixed", "property_type": "house", "size": 0, "size_type": "net", "summary": "A most unique 4 bedroom converted chapel nestled in unspoilt countr...", "thumb_height": 60, "thumb_url": "https://imgs.nestimg.com/medium/4_bedroom_detached_house_for_sale_111717685414518018.jpg", "thumb_width": 80, "title": "West Buckland, Wellington - Detached", "updated_in_days": 2, "updated_in_days_formatted": "first seen 2 days ago"}, {"bathroom_number": "", "bedroom_number": 1, "car_spaces": 0, "commission": 0, "construction_year": 0, "datasource_name": "NetHousePrices", "img_height": 300, "img_url": "https://imgs.nestimg.com/1_bedroom_flat_111173671346311569.jpg", "img_width": 400, "keywords": "Shared Garden, Double Bedroom, Kitchen, Lift", "latitude": 51.05725, "lister_name": "Palmer Snell", "lister_url": "https://www.nestoria.co.uk/detail/0000000111173671346311569/title/5/90-14?serpUid=&pt=1&ot=1&l=somerset&did=90_high1&t_sec=9&t_or=45&t_pvid=null&utm_source=api&utm_medium=external", "listing_type": "buy", "location_accuracy": 9, "longitude": -2.4082384, "price": 65000, "price_currency": "\u00a3", "price_formatted": "\u00a365,000", "price_high": 65000, "price_low": 65000, "price_type": "fixed", "property_type": "flat", "size": 0, "size_type": "net", "summary": "A well proportioned one bedroom second floor apartment. The apartme...", "thumb_height": 60, "thumb_url": "https://imgs.nestimg.com/medium/1_bedroom_flat_111173671346311569.jpg", "thumb_width": 80, "title": "Carrington Way, Wincanton, Somerset, BA9", "updated_in_days": 10, "updated_in_days_formatted": "first seen last week"}, {"bathroom_number": "", "bedroom_number": 2, "car_spaces": 0, "commission": 0, "construction_year": 0, "datasource_name": "NetHousePrices", "img_height": 300, "img_url": "https://imgs.nestimg.com/2_bedroom_flat_110957342427938184.jpg", "img_width": 400, "keywords": "Off Street Parking", "latitude": 51.180855, "lister_name": "Charles Barnard", "lister_url": "https://www.nestoria.co.uk/detail/0000000110957342427938184/title/5/90-15?serpUid=&pt=1&ot=1&l=somerset&did=90_high1&t_sec=9&t_or=45&t_pvid=null&utm_source=api&utm_medium=external", "listing_type": "buy", "location_accuracy": 9, "longitude": -2.5375597, "price": 139999, "price_currency": "\u00a3", "price_formatted": "\u00a3139,999", "price_high": 139999, "price_low": 139999, "price_type": "fixed", "property_type": "flat", "size": 0, "size_type": "net", "summary": "Key features: two bedroom apartment. Newly decorated throughout. Ne...", "thumb_height": 60, "thumb_url": "https://imgs.nestimg.com/medium/2_bedroom_flat_110957342427938184.jpg", "thumb_width": 80, "title": "Sherring Road, Shepton Mallet, Somerset, BA4", "updated_in_days": 104, "updated_in_days_formatted": "first seen over a month ago"}], "locations": [{"center_lat": 51.080967, "center_long": -3.045432, "long_title": "Somerset, county", "place_name": "somerset", "title": "Somerset"}], "page": 90, "sort": "nestoria_rank", "status_code": "200", "status_text": "OK", "thanks": "For using the Nestoria API.", "total_pages": 410, "total_results": 6149, "_cu5t0mP434m_": "remove"}}