{"request": {"country": "uk", "language": "en", "location": "somerset", "num_res": "15", "offset": 1350, "output": "json_xs", "page": 91, "product_type": "realestate", "property_type": "property", "size_type": "net", "size_unit": "m2", "sort": "nestoria_rank", "listing_type": "buy"}, "response": {"application_response_code": "100", "application_response_text": "listings returned for one unambiguous location", "attribution": {"img_height": 22, "img_url": "https://resources.nestimg.com/nestoria/img/pbr_v1.png", "img_width": 183, "link_to_img": "http://www.nestoria.com"}, "created_http": "Tue, 18 Jun 2019 17:30:58 GMT", "created_unix": 1560879058, "link_to_url": "https://www.nestoria.co.uk/somerset/property/buy/91", "listings": [{"bathroom_number": "", "bedroom_number": 2, "car_spaces": 0, "commission": 0, "construction_year": 0, "datasource_name": "NetHousePrices", "img_height": 300, "img_url": "https://imgs.nestimg.com/2_bedroom_flat_111662411707436391.jpg", "img_width": 400, "keywords": "Kitchen, Parking", "latitude": 51.054447, "lister_name": "Palmer Snell", "lister_url": "https://www.nestoria.co.uk/detail/0000000111662411707436391/title/5/91-1?serpUid=&pt=1&ot=1&l=somerset&did=90_high1&t_sec=9&t_or=45&t_pvid=null&utm_source=api&utm_medium=external", "listing_type": "buy", "location_accuracy": 9, "longitude": -2.414934, "price": 100000, "price_currency": "\u00a3", "price_formatted": "\u00a3100,000", "price_high": 100000, "price_low": 100000, "price_type": "fixed", "property_type": "flat", "size": 0, "size_type": "net", "summary": "A two bedroom, ground floor flat situated within close proximity of...", "thumb_height": 60, "thumb_url": "https://imgs.nestimg.com/medium/2_bedroom_flat_111662411707436391.jpg", "thumb_width": 80, "title": "Cavalier Way, Wincanton, Somerset, BA9", "updated_in_days": 11, "updated_in_days_formatted": "first seen last week"}, {"bathroom_number": "", "bedroom_number": 4, "car_spaces": 0, "commission": 0, "construction_year": 0, "datasource_name": "OnTheMarket.com", "img_height": 300, "img_url": "https://imgs.nestimg.com/4_bedroom_detached_house_for_sale_111717697246306930.jpg", "img_width": 400, "keywords": "Detached, Garden, Double Garage, Kitchen", "latitude": 50.8773, "lister_url": "https://www.nestoria.co.uk/detail/0000000111717697246306930/title/5/91-2?serpUid=&pt=1&ot=1&l=somerset&did=105_high1&t_sec=9&t_or=45&t_pvid=null&utm_source=api&utm_medium=external", "listing_type": "buy", "location_accuracy": 9, "longitude": -2.94597, "price": 350000, "price_currency": "\u00a3", "price_formatted": "\u00a3350,000", "price_high": 350000, "price_low": 350000, "price_type": "fixed", "property_type": "house", "size": 0, "size_type": "net", "summary": "An well presented detached 4 bedroom property with double garage, o...", "thumb_height": 60, "thumb_url": "https://imgs.nestimg.com/medium/4_bedroom_detached_house_for_sale_111717697246306930.jpg", "thumb_width": 80, "title": "Caraway Close, Chard - Garden", "updated_in_days": 2, "updated_in_days_formatted": "first seen 2 days ago"}, {"bathroom_number": "", "bedroom_number": 3, "car_spaces": 0, "commission": 0, "construction_year": 0, "datasource_name": "OnTheMarket.com", "img_height": 300, "img_url": "https://imgs.nestimg.com/3_bedroom_house_for_sale_111724140363875813.jpg", "img_width": 400, "keywords": "Detached, Garden, New Build, Terraced, Kitchen, Parking", "latitude": 50.953724, "lister_url": "https://www.nestoria.co.uk/detail/0000000111724140363875813/title/5/91-3?serpUid=&pt=1&ot=1&l=somerset&did=105_high1&t_sec=9&t_or=45&t_pvid=null&utm_source=api&utm_medium=external", "listing_type": "buy", "location_accuracy": 9, "longitude": -2.513024, "price": 279950, "price_currency": "\u00a3", "price_formatted": "\u00a3279,950", "price_high": 279950, "price_low": 279950, "price_type": "fixed", "property_type": "house", "size": 0, "size_type": "net", "summary": "From \u00a3275,000 to \u00a3325,000 a selection of brand new, high quality ch...", "thumb_height": 60, "thumb_url": "https://imgs.nestimg.com/medium/3_bedroom_house_for_sale_111724140363875813.jpg", "thumb_width": 80, "title": "Harbour Court, Harbour Way, SHERBORNE, Dorset, DT9", "updated_in_days": 1, "updated_in_days_formatted": "New"}, {"bathroom_number": "", "bedroom_number": 1, "car_spaces": 0, "commission": 0, "construction_year": 0, "datasource_name": "NetHousePrices", "img_height": 300, "img_url": "https://imgs.nestimg.com/1_bedroom_flat_111612986198664510.jpg", "img_width": 400, "keywords": "Kitchen", "latitude": 51.113132, "lister_url": "https://www.nestoria.co.uk/detail/0000000111612986198664510/title/5/91-4?serpUid=&pt=1&ot=1&l=somerset&did=90_high1&t_sec=9&t_or=45&t_pvid=null&utm_source=api&utm_medium=external", "listing_type": "buy", "location_accuracy": 9, "longitude": -2.4508593, "price": 79500, "price_currency": "\u00a3", "price_formatted": "\u00a379,500", "price_high": 79500, "price_low": 79500, "price_type": "fixed", "property_type": "flat", "size": 0, "size_type": "net", "summary": "Location: bruton is a small ancient south somerset town nestling in...", "thumb_height": 60, "thumb_url": "https://imgs.nestimg.com/medium/1_bedroom_flat_111612986198664510.jpg", "thumb_width": 80, "title": "Vineys Yard, Bruton, Somerset, BA10", "updated_in_days": 19, "updated_in_days_formatted": "first seen 2 weeks ago"}, {"bathroom_number": "", "bedroom_number": 4, "car_spaces": 0, "commission": 0, "construction_year": 0, "datasource_name": "OnTheMarket.com", "img_height": 300, "img_url": "https://imgs.nestimg.com/4_bedroom_detached_house_for_sale_111717684246699654.jpg", "img_width": 400, "keywords": "Detached, Garden, Conservatory, Kitchen, Reception", "latitude": 51.0541, "lister_name": "Webbers", "lister_url": "https://www.nestoria.co.uk/detail/0000000111717684246699654/title/5/91-5?serpUid=&pt=1&ot=1&l=somerset&did=105_high1&t_sec=9&t_or=45&t_pvid=null&utm_source=api&utm_medium=external", "listing_type": "buy", "location_accuracy": 9, "longitude": -3.32396, "price": 425000, "price_currency": "\u00a3", "price_formatted": "\u00a3425,000", "price_high": 425000, "price_low": 425000, "price_type": "fixed", "property_type": "house", "size": 0, "size_type": "net", "summary": "Individual architect designed versatile detached house in a village...", "thumb_height": 60, "thumb_url": "https://imgs.nestimg.com/medium/4_bedroom_detached_house_for_sale_111717684246699654.jpg", "thumb_width": 80, "title": "Langley Marsh, Wiveliscombe - Garden", "updated_in_days": 2, "updated_in_days_formatted": "first seen 2 days ago"}, {"bathroom_number": "", "bedroom_number": 3, "car_spaces": 0, "commission": 0, "construction_year": 0, "datasource_name": "OnTheMarket.com", "img_height": 300, "img_url": "https://imgs.nestimg.com/3_bedroom_detached_house_for_sale_111711526367045027.jpg", "img_width": 400, "keywords": "Detached, Garden, Kitchen", "latitude": 50.9788, "lister_name": "Gibbins Richards", "lister_url": "https://www.nestoria.co.uk/detail/0000000111711526367045027/title/5/91-6?serpUid=&pt=1&ot=1&l=somerset&did=105_high1&t_sec=9&t_or=45&t_pvid=null&utm_source=api&utm_medium=external", "listing_type": "buy", "location_accuracy": 9, "longitude": -2.99263, "price": 317000, "price_currency": "\u00a3", "price_formatted": "\u00a3317,000", "price_high": 317000, "price_low": 317000, "price_type": "fixed", "property_type": "house", "size": 0, "size_type": "net", "summary": "Located in this village to the east of taunton. This is a 3 bedroom...", "thumb_height": 60, "thumb_url": "https://imgs.nestimg.com/medium/3_bedroom_detached_house_for_sale_111711526367045027.jpg", "thumb_width": 80, "title": "Hatch Beauchamp - Garden, Detached", "updated_in_days": 3, "updated_in_days_formatted": "first seen 3 days ago"}, {"bathroom_number": "", "bedroom_number": 2, "car_spaces": 0, "commission": 0, "construction_year": 0, "datasource_name": "NetHousePrices", "img_height": 300, "img_url": "https://imgs.nestimg.com/2_bedroom_apartment_flat_111217097905650871.jpg", "img_width": 400, "keywords": "Wood Floor, Kitchen", "latitude": 51.11192, "lister_url": "https://www.nestoria.co.uk/detail/0000000111217097905650871/title/5/91-7?serpUid=&pt=1&ot=1&l=somerset&did=90_high1&t_sec=9&t_or=45&t_pvid=null&utm_source=api&utm_medium=external", "listing_type": "buy", "location_accuracy": 9, "longitude": -2.4572759, "price": 230000, "price_currency": "\u00a3", "price_formatted": "\u00a3230,000", "price_high": 230000, "price_low": 230000, "price_type": "fixed", "property_type": "flat", "size": 0, "size_type": "net", "summary": "Location: bruton is a small ancient south somerset town nestling in...", "thumb_height": 60, "thumb_url": "https://imgs.nestimg.com/medium/2_bedroom_apartment_flat_111217097905650871.jpg", "thumb_width": 80, "title": "St Catherines Hill, Bruton, Somerset, BA10", "updated_in_days": 25, "updated_in_days_formatted": "first seen 3 weeks ago"}, {"bathroom_number": "", "bedroom_number": 3, "car_spaces": 0, "commission": 0, "construction_year": 0, "datasource_name": "OnTheMarket.com", "img_height": 300, "img_url": "https://imgs.nestimg.com/3_bedroom_semi_detached_house_for_sale_111359019158887975.jpg", "img_width": 400, "keywords": "Garden, Semi-Detached, Garage, Gas Central Heating", "latitude": 51.1524, "lister_name": "Wilkie May & Tuckwood", "lister_url": "https://www.nestoria.co.uk/detail/0000000111359019158887975/title/5/91-8?serpUid=&pt=1&ot=1&l=somerset&did=105_high1&t_sec=9&t_or=45&t_pvid=null&utm_source=api&utm_medium=external", "listing_type": "buy", "location_accuracy": 9, "longitude": -3.15966, "price": 210000, "price_currency": "\u00a3", "price_formatted": "\u00a3210,000", "price_high": 210000, "price_low": 210000, "price_type": "fixed", "property_type": "house", "size": 0, "size_type": "net", "summary": "A gas centrally heated and upvc glazed three bedroom semi-detached ...", "thumb_height": 60, "thumb_url": "https://imgs.nestimg.com/medium/3_bedroom_semi_detached_house_for_sale_111359019158887975.jpg", "thumb_width": 80, "title": "Coleridge Road, Nether Stowey, Bridgwater", "updated_in_days": 3, "updated_in_days_formatted": "first seen 3 days ago"}, {"bathroom_number": "", "bedroom_number": 3, "car_spaces": 0, "commission": 0, "construction_year": 0, "datasource_name": "OnTheMarket.com", "img_height": 300, "img_url": "https://imgs.nestimg.com/3_bedroom_townhouse_for_sale_111711532931190815.jpg", "img_width": 400, "keywords": "Garden", "latitude": 51.0117, "lister_name": "Wilkie May & Tuckwood", "lister_url": "https://www.nestoria.co.uk/detail/0000000111711532931190815/title/5/91-9?serpUid=&pt=1&ot=1&l=somerset&did=105_high1&t_sec=9&t_or=45&t_pvid=null&utm_source=api&utm_medium=external", "listing_type": "buy", "location_accuracy": 9, "longitude": -3.10855, "price": 220000, "price_currency": "\u00a3", "price_formatted": "\u00a3220,000", "price_high": 220000, "price_low": 220000, "price_type": "fixed", "property_type": "house", "size": 0, "size_type": "net", "summary": "A ly presented, three bedroom home with an enclosed rear garden. Si...", "thumb_height": 60, "thumb_url": "https://imgs.nestimg.com/medium/3_bedroom_townhouse_for_sale_111711532931190815.jpg", "thumb_width": 80, "title": "Westgate Street, Taunton TA1 - Garden", "updated_in_days": 3, "updated_in_days_formatted": "first seen 3 days ago"}, {"bathroom_number": "", "bedroom_number": 6, "car_spaces": 0, "commission": 0, "construction_year": 0, "datasource_name": "OnTheMarket.com", "img_height": 300, "img_url": "https://imgs.nestimg.com/6_bedroom_house_for_sale_111186368819984556.jpg", "img_width": 400, "keywords": "Detached, Conservatory, Garage, Kitchen, Reception", "latitude": 50.94633, "lister_url": "https://www.nestoria.co.uk/detail/0000000111186368819984556/title/5/91-10?serpUid=&pt=1&ot=1&l=somerset&did=105_high1&t_sec=9&t_or=45&t_pvid=null&utm_source=api&utm_medium=external", "listing_type": "buy", "location_accuracy": 9, "longitude": -2.533127, "price": 685000, "price_currency": "\u00a3", "price_formatted": "\u00a3685,000", "price_high": 685000, "price_low": 685000, "price_type": "fixed", "property_type": "house", "size": 0, "size_type": "net", "summary": "Situated in 'millionaires row' on the south side of bradford road! ...", "thumb_height": 60, "thumb_url": "https://imgs.nestimg.com/medium/6_bedroom_house_for_sale_111186368819984556.jpg", "thumb_width": 80, "title": "Bradford Road, SHERBORNE, Dorset, DT9", "updated_in_days": 1, "updated_in_days_formatted": "New"}, {"bathroom_number": "", "bedroom_number": 3, "car_spaces": 0, "commission": 0, "construction_year": 0, "datasource_name": "OnTheMarket.com", "img_height": 300, "img_url": "https://imgs.nestimg.com/3_bedroom_link_detached_house_for_sale_111711533814977806.jpg", "img_width": 400, "keywords": "Detached", "latitude": 51.0288, "lister_name": "Wilkie May & Tuckwood", "lister_url": "https://www.nestoria.co.uk/detail/0000000111711533814977806/title/5/91-11?serpUid=&pt=1&ot=1&l=somerset&did=105_high1&t_sec=9&t_or=45&t_pvid=null&utm_source=api&utm_medium=external", "listing_type": "buy", "location_accuracy": 9, "longitude": -3.13643, "price": 270000, "price_currency": "\u00a3", "price_formatted": "\u00a3270,000", "price_high": 270000, "price_low": 270000, "price_type": "fixed", "property_type": "house", "size": 0, "size_type": "net", "summary": "A ly presented three bedroom link-detached home, offered to the mar...", "thumb_height": 60, "thumb_url": "https://imgs.nestimg.com/medium/3_bedroom_link_detached_house_for_sale_111711533814977806.jpg", "thumb_width": 80, "title": "Collett Road, Norton Fitzwarren, Taunton TA2", "updated_in_days": 3, "updated_in_days_formatted": "first seen 3 days ago"}, {"bathroom_number": 3, "bedroom_number": 3, "car_spaces": 0, "commission": 0, "construction_year": 0, "datasource_name": "OnTheMarket.com", "img_height": 300, "img_url": "https://imgs.nestimg.com/3_bedroom_terraced_house_for_sale_111705538389606034.jpg", "img_width": 400, "keywords": "Terraced, Victorian, Kitchen, Reception", "latitude": 51.1285, "lister_name": "Gibbins Richards", "lister_url": "https://www.nestoria.co.uk/detail/0000000111705538389606034/title/5/91-12?serpUid=&pt=1&ot=1&l=somerset&did=105_high1&t_sec=9&t_or=45&t_pvid=null&utm_source=api&utm_medium=external", "listing_type": "buy", "location_accuracy": 9, "longitude": -2.9916, "price": 137000, "price_currency": "\u00a3", "price_formatted": "\u00a3137,000", "price_high": 137000, "price_low": 137000, "price_type": "fixed", "property_type": "house", "size": 0, "size_type": "net", "summary": "A well presented three bedroom victorian terrace located within wal...", "thumb_height": 60, "thumb_url": "https://imgs.nestimg.com/medium/3_bedroom_terraced_house_for_sale_111705538389606034.jpg", "thumb_width": 80, "title": "Wellington Road, Bridgwater", "updated_in_days": 4, "updated_in_days_formatted": "first seen 4 days ago"}, {"bathroom_number": "", "bedroom_number": 1, "car_spaces": 0, "commission": 0, "construction_year": 0, "datasource_name": "NetHousePrices", "img_height": 300, "img_url": "https://imgs.nestimg.com/1_bedroom_flat_111624933567194388.jpg", "img_width": 400, "keywords": "Double Bedroom, Kitchen", "latitude": 51.054447, "lister_name": "Palmer Snell", "lister_url": "https://www.nestoria.co.uk/detail/0000000111624933567194388/title/5/91-13?serpUid=&pt=1&ot=1&l=somerset&did=90_high1&t_sec=9&t_or=45&t_pvid=null&utm_source=api&utm_medium=external", "listing_type": "buy", "location_accuracy": 9, "longitude": -2.414934, "price": 70000, "price_currency": "\u00a3", "price_formatted": "\u00a370,000", "price_high": 70000, "price_low": 70000, "price_type": "fixed", "property_type": "flat", "size": 0, "size_type": "net", "summary": "A one bedroom, ground floor flat situated within close proximity to...", "thumb_height": 60, "thumb_url": "https://imgs.nestimg.com/medium/1_bedroom_flat_111624933567194388.jpg", "thumb_width": 80, "title": "Cavalier Way, Wincanton, Somerset, BA9", "updated_in_days": 17, "updated_in_days_formatted": "first seen 2 weeks ago"}, {"bathroom_number": "", "bedroom_number": 3, "car_spaces": 0, "commission": 0, "construction_year": 0, "datasource_name": "OnTheMarket.com", "img_height": 300, "img_url": "https://imgs.nestimg.com/3_bedroom_semi_detached_house_for_sale_111711527436167317.jpg", "img_width": 400, "keywords": "Garden, Semi-Detached, Parking", "latitude": 51.1291, "lister_name": "Gibbins Richards", "lister_url": "https://www.nestoria.co.uk/detail/0000000111711527436167317/title/5/91-14?serpUid=&pt=1&ot=1&l=somerset&did=105_high1&t_sec=9&t_or=45&t_pvid=null&utm_source=api&utm_medium=external", "listing_type": "buy", "location_accuracy": 9, "longitude": -2.86242, "price": 239950, "price_currency": "\u00a3", "price_formatted": "\u00a3239,950", "price_high": 239950, "price_low": 239950, "price_type": "fixed", "property_type": "house", "size": 0, "size_type": "net", "summary": "A three bedroom semi detached house with large rear garden and mult...", "thumb_height": 60, "thumb_url": "https://imgs.nestimg.com/medium/3_bedroom_semi_detached_house_for_sale_111711527436167317.jpg", "thumb_width": 80, "title": "Moor Road, Moorlinch - Garden", "updated_in_days": 3, "updated_in_days_formatted": "first seen 3 days ago"}, {"bathroom_number": "", "bedroom_number": 5, "car_spaces": 0, "commission": 0, "construction_year": 0, "datasource_name": "NetHousePrices", "img_height": 300, "img_url": "https://imgs.nestimg.com/5_bedroom_town_house_110964024277095141.jpg", "img_width": 400, "keywords": "Fireplace, Gym, Kitchen, Cellar", "latitude": 51.111378, "lister_url": "https://www.nestoria.co.uk/detail/0000000110964024277095141/title/5/91-15?serpUid=&pt=1&ot=1&l=somerset&did=90_high1&t_sec=9&t_or=45&t_pvid=null&utm_source=api&utm_medium=external", "listing_type": "buy", "location_accuracy": 9, "longitude": -2.4559276, "price": 735000, "price_currency": "\u00a3", "price_formatted": "\u00a3735,000", "price_high": 735000, "price_low": 735000, "price_type": "fixed", "property_type": "house", "size": 0, "size_type": "net", "summary": "Location: bruton is a small historic somerset town with schools, go...", "thumb_height": 60, "thumb_url": "https://imgs.nestimg.com/medium/5_bedroom_town_house_110964024277095141.jpg", "thumb_width": 80, "title": "High Street, Bruton, Somerset, BA10", "updated_in_days": 44, "updated_in_days_formatted": "first seen over a month ago"}], "locations": [{"center_lat": 51.080967, "center_long": -3.045432, "long_title": "Somerset, county", "place_name": "somerset", "title": "Somerset"}], "page": 91, "sort": "nestoria_rank", "status_code": "200", "status_text": "OK", "thanks": "For using the Nestoria API.", "total_pages": 410, "total_results": 6149, "_cu5t0mP434m_": "remove"}}