{"request": {"country": "uk", "language": "en", "location": "somerset", "num_res": "15", "offset": 1365, "output": "json_xs", "page": 92, "product_type": "realestate", "property_type": "property", "size_type": "net", "size_unit": "m2", "sort": "nestoria_rank", "listing_type": "buy"}, "response": {"application_response_code": "100", "application_response_text": "listings returned for one unambiguous location", "attribution": {"img_height": 22, "img_url": "https://resources.nestimg.com/nestoria/img/pbr_v1.png", "img_width": 183, "link_to_img": "http://www.nestoria.com"}, "created_http": "Tue, 18 Jun 2019 17:30:59 GMT", "created_unix": 1560879059, "link_to_url": "https://www.nestoria.co.uk/somerset/property/buy/92", "listings": [{"bathroom_number": "", "bedroom_number": 2, "car_spaces": 0, "commission": 0, "construction_year": 0, "datasource_name": "OnTheMarket.com", "img_height": 300, "img_url": "https://imgs.nestimg.com/2_bedroom_cottage_for_sale_111724140641121324.jpg", "img_width": 400, "keywords": "Cottage", "latitude": 51.1982, "lister_name": "Cooper & Tanner", "lister_url": "https://www.nestoria.co.uk/detail/0000000111724140641121324/title/5/92-1?serpUid=&pt=1&ot=1&l=somerset&did=105_high1&t_sec=9&t_or=45&t_pvid=null&utm_source=api&utm_medium=external", "listing_type": "buy", "location_accuracy": 9, "longitude": -2.58753, "price": 279950, "price_currency": "\u00a3", "price_formatted": "\u00a3279,950", "price_high": 279950, "price_low": 279950, "price_type": "fixed", "property_type": "house", "size": 0, "size_type": "net", "summary": "Property located in west lane, croscombe, wells", "thumb_height": 60, "thumb_url": "https://imgs.nestimg.com/medium/2_bedroom_cottage_for_sale_111724140641121324.jpg", "thumb_width": 80, "title": "West Lane, Croscombe, Wells - Cottage", "updated_in_days": 1, "updated_in_days_formatted": "New"}, {"bathroom_number": "", "bedroom_number": 3, "car_spaces": 0, "commission": 0, "construction_year": 0, "datasource_name": "OnTheMarket.com", "img_height": 300, "img_url": "https://imgs.nestimg.com/3_bedroom_detached_house_for_sale_111711524893319638.jpg", "img_width": 400, "keywords": "Detached", "latitude": 50.9984, "lister_name": "Wilkie May & Tuckwood", "lister_url": "https://www.nestoria.co.uk/detail/0000000111711524893319638/title/5/92-2?serpUid=&pt=1&ot=1&l=somerset&did=105_high1&t_sec=9&t_or=45&t_pvid=null&utm_source=api&utm_medium=external", "listing_type": "buy", "location_accuracy": 9, "longitude": -3.08707, "price": 320000, "price_currency": "\u00a3", "price_formatted": "\u00a3320,000", "price_high": 320000, "price_low": 320000, "price_type": "fixed", "property_type": "house", "size": 0, "size_type": "net", "summary": "Due for completion in aug/sept 2019 is this , brand new three bedro...", "thumb_height": 60, "thumb_url": "https://imgs.nestimg.com/medium/3_bedroom_detached_house_for_sale_111711524893319638.jpg", "thumb_width": 80, "title": "Killams Park, Taunton TA1 - Detached", "updated_in_days": 3, "updated_in_days_formatted": "first seen 3 days ago"}, {"bathroom_number": "", "bedroom_number": 4, "car_spaces": 0, "commission": 0, "construction_year": 0, "datasource_name": "OnTheMarket.com", "img_height": 300, "img_url": "https://imgs.nestimg.com/4_bedroom_house_for_sale_111717684961047389.jpg", "img_width": 400, "keywords": "Garden, Grade II, Parking, Cottage, Reception, Listed", "latitude": 50.961838, "lister_name": "Knight Frank", "lister_url": "https://www.nestoria.co.uk/detail/0000000111717684961047389/title/5/92-3?serpUid=&pt=1&ot=1&l=somerset&did=105_high1&t_sec=9&t_or=45&t_pvid=null&utm_source=api&utm_medium=external", "listing_type": "buy", "location_accuracy": 9, "longitude": -3.343505, "price": 550000, "price_currency": "\u00a3", "price_formatted": "\u00a3550,000", "price_high": 550000, "price_low": 550000, "price_type": "fixed", "property_type": "house", "size": 0, "size_type": "net", "summary": "4 bed period property with gardens, parking and annexe, ta21 a char...", "thumb_height": 60, "thumb_url": "https://imgs.nestimg.com/medium/4_bedroom_house_for_sale_111717684961047389.jpg", "thumb_width": 80, "title": "Fore Street, Holcombe Rogus, Wellington, Devon, TA21", "updated_in_days": 2, "updated_in_days_formatted": "first seen 2 days ago"}, {"bathroom_number": "", "bedroom_number": 2, "car_spaces": 0, "commission": 0, "construction_year": 0, "datasource_name": "OnTheMarket.com", "img_height": 300, "img_url": "https://imgs.nestimg.com/2_bedroom_semi_detached_bungalow_for_sale_111717687224516519.jpg", "img_width": 400, "keywords": "Garden, Semi-Detached, No Chain, Double Bedroom, Garage, Kitchen, Bungalow, Reception", "latitude": 51.3175, "lister_url": "https://www.nestoria.co.uk/detail/0000000111717687224516519/title/5/92-4?serpUid=&pt=1&ot=1&l=somerset&did=105_high1&t_sec=9&t_or=45&t_pvid=null&utm_source=api&utm_medium=external", "listing_type": "buy", "location_accuracy": 9, "longitude": -2.96258, "price": 220000, "price_currency": "\u00a3", "price_formatted": "\u00a3220,000", "price_high": 220000, "price_low": 220000, "price_type": "fixed", "property_type": "house", "size": 0, "size_type": "net", "summary": "This up to date semi-detached bungalow is offered with no onward ch...", "thumb_height": 60, "thumb_url": "https://imgs.nestimg.com/medium/2_bedroom_semi_detached_bungalow_for_sale_111717687224516519.jpg", "thumb_width": 80, "title": "House for sale, BLEADON HILL - Garden", "updated_in_days": 2, "updated_in_days_formatted": "first seen 2 days ago"}, {"bathroom_number": "", "bedroom_number": 4, "car_spaces": 0, "commission": 0, "construction_year": 0, "datasource_name": "NetHousePrices", "img_height": 300, "img_url": "https://imgs.nestimg.com/4_bedroom_terraced_house_111111780740427610.jpg", "img_width": 400, "keywords": "Garden, En suite, No Chain, Terraced, Garage, Kitchen, Dishwasher, Cul-de-Sac, Gas Central Heating", "latitude": 51.106995, "lister_name": "Palmer Snell", "lister_url": "https://www.nestoria.co.uk/detail/0000000111111780740427610/title/5/92-5?serpUid=&pt=1&ot=1&l=somerset&did=90_high1&t_sec=9&t_or=45&t_pvid=null&utm_source=api&utm_medium=external", "listing_type": "buy", "location_accuracy": 9, "longitude": -2.4594126, "price": 200000, "price_currency": "\u00a3", "price_formatted": "\u00a3200,000", "price_high": 200000, "price_low": 200000, "price_type": "fixed", "property_type": "house", "size": 0, "size_type": "net", "summary": "A four bedroom terraced house which is located in a cul-de-sac in t...", "thumb_height": 60, "thumb_url": "https://imgs.nestimg.com/medium/4_bedroom_terraced_house_111111780740427610.jpg", "thumb_width": 80, "title": "Westfield, Bruton, Somerset, BA10", "updated_in_days": 100, "updated_in_days_formatted": "first seen over a month ago"}, {"bathroom_number": "", "bedroom_number": 4, "car_spaces": 0, "commission": 0, "construction_year": 0, "datasource_name": "OnTheMarket.com", "img_height": 300, "img_url": "https://imgs.nestimg.com/4_bedroom_semi_detached_house_for_sale_111717696941448511.jpg", "img_width": 400, "keywords": "Semi-Detached, Garage", "latitude": 51.0577, "lister_name": "Cooper & Tanner", "lister_url": "https://www.nestoria.co.uk/detail/0000000111717696941448511/title/5/92-6?serpUid=&pt=1&ot=1&l=somerset&did=105_high1&t_sec=9&t_or=45&t_pvid=null&utm_source=api&utm_medium=external", "listing_type": "buy", "location_accuracy": 9, "longitude": -2.73745, "price": 260000, "price_currency": "\u00a3", "price_formatted": "\u00a3260,000", "price_high": 260000, "price_low": 260000, "price_type": "fixed", "property_type": "house", "size": 0, "size_type": "net", "summary": "Traditional four bedroom semi-detached house, close to amenities, w...", "thumb_height": 60, "thumb_url": "https://imgs.nestimg.com/medium/4_bedroom_semi_detached_house_for_sale_111717696941448511.jpg", "thumb_width": 80, "title": "Etsome Terrace, Somerton", "updated_in_days": 2, "updated_in_days_formatted": "first seen 2 days ago"}, {"bathroom_number": "", "bedroom_number": 4, "car_spaces": 0, "commission": 0, "construction_year": 0, "datasource_name": "NetHousePrices", "img_height": 300, "img_url": "https://imgs.nestimg.com/4_bedroom_detached_bungalow_111612987606694695.jpg", "img_width": 400, "keywords": "Detached, Garden, Fireplace, Kitchen, Bungalow", "latitude": 51.053097, "lister_url": "https://www.nestoria.co.uk/detail/0000000111612987606694695/title/5/92-7?serpUid=&pt=1&ot=1&l=somerset&did=90_high1&t_sec=9&t_or=45&t_pvid=null&utm_source=api&utm_medium=external", "listing_type": "buy", "location_accuracy": 9, "longitude": -2.4022098, "price": 325000, "price_currency": "\u00a3", "price_formatted": "\u00a3325,000", "price_high": 325000, "price_low": 325000, "price_type": "fixed", "property_type": "house", "size": 0, "size_type": "net", "summary": "Location: wincanton is a small somerset town lying just north of th...", "thumb_height": 60, "thumb_url": "https://imgs.nestimg.com/medium/4_bedroom_detached_bungalow_111612987606694695.jpg", "thumb_width": 80, "title": "Common Road, Wincanton, Somerset, BA9", "updated_in_days": 19, "updated_in_days_formatted": "first seen 2 weeks ago"}, {"bathroom_number": "", "bedroom_number": 1, "car_spaces": 0, "commission": 0, "construction_year": 0, "datasource_name": "NetHousePrices", "img_height": 300, "img_url": "https://imgs.nestimg.com/1_bedroom_flat_111587780200689151.jpg", "img_width": 400, "keywords": "Kitchen, Parking", "latitude": 51.05599, "lister_name": "Palmer Snell", "lister_url": "https://www.nestoria.co.uk/detail/0000000111587780200689151/title/5/92-8?serpUid=&pt=1&ot=1&l=somerset&did=90_high1&t_sec=9&t_or=45&t_pvid=null&utm_source=api&utm_medium=external", "listing_type": "buy", "location_accuracy": 9, "longitude": -2.41198, "price": 75000, "price_currency": "\u00a3", "price_formatted": "\u00a375,000", "price_high": 75000, "price_low": 75000, "price_type": "fixed", "property_type": "flat", "size": 0, "size_type": "net", "summary": "This individual, character flat is ly situated in a quiet close tha...", "thumb_height": 60, "thumb_url": "https://imgs.nestimg.com/medium/1_bedroom_flat_111587780200689151.jpg", "thumb_width": 80, "title": "Mill Street, Wincanton, Somerset, BA9", "updated_in_days": 23, "updated_in_days_formatted": "first seen 3 weeks ago"}, {"bathroom_number": "", "bedroom_number": 2, "car_spaces": 0, "commission": 0, "construction_year": 0, "datasource_name": "OnTheMarket.com", "img_height": 300, "img_url": "https://imgs.nestimg.com/2_bedroom_house_for_sale_111724139324416760.jpg", "img_width": 400, "keywords": "Grade II, Cottage, Listed", "latitude": 50.9497, "lister_name": "Greenslade Taylor Hunt", "lister_url": "https://www.nestoria.co.uk/detail/0000000111724139324416760/title/5/92-9?serpUid=&pt=1&ot=1&l=somerset&did=105_high1&t_sec=9&t_or=45&t_pvid=null&utm_source=api&utm_medium=external", "listing_type": "buy", "location_accuracy": 9, "longitude": -2.52204, "price": 180000, "price_currency": "\u00a3", "price_formatted": "\u00a3180,000", "price_high": 180000, "price_low": 180000, "price_type": "fixed", "property_type": "house", "size": 0, "size_type": "net", "summary": "A two bedroom grade ii listed character cottage in the heart of she...", "thumb_height": 60, "thumb_url": "https://imgs.nestimg.com/medium/2_bedroom_house_for_sale_111724139324416760.jpg", "thumb_width": 80, "title": "Acreman Street, Sherborne, DT9", "updated_in_days": 1, "updated_in_days_formatted": "New"}, {"bathroom_number": "", "bedroom_number": 3, "car_spaces": 0, "commission": 0, "construction_year": 0, "datasource_name": "NetHousePrices", "img_height": 300, "img_url": "https://imgs.nestimg.com/3_bedroom_bungalow_111538284941395540.jpg", "img_width": 400, "keywords": "Garden, Garage, Kitchen, Bungalow, Dishwasher, Gas Central Heating", "latitude": 51.057842, "lister_name": "Palmer Snell", "lister_url": "https://www.nestoria.co.uk/detail/0000000111538284941395540/title/5/92-10?serpUid=&pt=1&ot=1&l=somerset&did=90_high1&t_sec=9&t_or=45&t_pvid=null&utm_source=api&utm_medium=external", "listing_type": "buy", "location_accuracy": 9, "longitude": -2.4190736, "price": 260000, "price_currency": "\u00a3", "price_formatted": "\u00a3260,000", "price_high": 260000, "price_low": 260000, "price_type": "fixed", "property_type": "house", "size": 0, "size_type": "net", "summary": "This three bedroom bungalow is positioned within one of the most de...", "thumb_height": 60, "thumb_url": "https://imgs.nestimg.com/medium/3_bedroom_bungalow_111538284941395540.jpg", "thumb_width": 80, "title": "Springfield Road, Wincanton, Somerset, BA9", "updated_in_days": 31, "updated_in_days_formatted": "first seen over a month ago"}, {"bathroom_number": "", "bedroom_number": 4, "car_spaces": 0, "commission": 0, "construction_year": 0, "datasource_name": "OnTheMarket.com", "img_height": 300, "img_url": "https://imgs.nestimg.com/4_bedroom_semi_detached_house_for_sale_111717698708806048.jpg", "img_width": 400, "keywords": "Garden, Semi-Detached, En suite, Garage, Kitchen, Reception, Gas Central Heating", "latitude": 51.3098, "lister_name": "Hobbs & Webb", "lister_url": "https://www.nestoria.co.uk/detail/0000000111717698708806048/title/5/92-11?serpUid=&pt=1&ot=1&l=somerset&did=105_high1&t_sec=9&t_or=45&t_pvid=null&utm_source=api&utm_medium=external", "listing_type": "buy", "location_accuracy": 9, "longitude": -2.95602, "price": 400000, "price_currency": "\u00a3", "price_formatted": "\u00a3400,000", "price_high": 400000, "price_low": 400000, "price_type": "fixed", "property_type": "house", "size": 0, "size_type": "net", "summary": "Modernised & extended 4 bed semi in village, refitted kitchen, 3 re...", "thumb_height": 60, "thumb_url": "https://imgs.nestimg.com/medium/4_bedroom_semi_detached_house_for_sale_111717698708806048.jpg", "thumb_width": 80, "title": "Purn Way, Bleadon, Weston-super-Mare", "updated_in_days": 2, "updated_in_days_formatted": "first seen 2 days ago"}, {"bathroom_number": "", "bedroom_number": 2, "car_spaces": 0, "commission": 0, "construction_year": 0, "datasource_name": "NetHousePrices", "img_height": 300, "img_url": "https://imgs.nestimg.com/2_bedroom_flat_111532270320422992.jpg", "img_width": 400, "keywords": "Garden, Kitchen, Loft", "latitude": 51.054447, "lister_url": "https://www.nestoria.co.uk/detail/0000000111532270320422992/title/5/92-12?serpUid=&pt=1&ot=1&l=somerset&did=90_high1&t_sec=9&t_or=45&t_pvid=null&utm_source=api&utm_medium=external", "listing_type": "buy", "location_accuracy": 9, "longitude": -2.414934, "price": 105000, "price_currency": "\u00a3", "price_formatted": "\u00a3105,000", "price_high": 105000, "price_low": 105000, "price_type": "fixed", "property_type": "flat", "size": 0, "size_type": "net", "summary": "Location: wincanton is a small somerset town lying just north of th...", "thumb_height": 60, "thumb_url": "https://imgs.nestimg.com/medium/2_bedroom_flat_111532270320422992.jpg", "thumb_width": 80, "title": "Cavalier Way, Wincanton, Somerset, BA9", "updated_in_days": 32, "updated_in_days_formatted": "first seen over a month ago"}, {"bathroom_number": "", "bedroom_number": 3, "car_spaces": 0, "commission": 0, "construction_year": 0, "datasource_name": "OnTheMarket.com", "img_height": 300, "img_url": "https://imgs.nestimg.com/3_bedroom_detached_house_for_sale_111724142316770312.jpg", "img_width": 400, "keywords": "Detached, Garden, En suite, Double Bedroom, Parking", "latitude": 50.8217, "lister_url": "https://www.nestoria.co.uk/detail/0000000111724142316770312/title/5/92-13?serpUid=&pt=1&ot=1&l=somerset&did=105_high1&t_sec=9&t_or=45&t_pvid=null&utm_source=api&utm_medium=external", "listing_type": "buy", "location_accuracy": 9, "longitude": -3.48155, "price": 560000, "price_currency": "\u00a3", "price_formatted": "\u00a3560,000", "price_high": 560000, "price_low": 560000, "price_type": "fixed", "property_type": "house", "size": 0, "size_type": "net", "summary": "A , detached family home with three double-bedrooms, all en suite, ...", "thumb_height": 60, "thumb_url": "https://imgs.nestimg.com/medium/3_bedroom_detached_house_for_sale_111724142316770312.jpg", "thumb_width": 80, "title": "Old Butterleigh Road, Silverton", "updated_in_days": 1, "updated_in_days_formatted": "New"}, {"bathroom_number": "", "bedroom_number": 2, "car_spaces": 0, "commission": 0, "construction_year": 0, "datasource_name": "NetHousePrices", "img_height": 300, "img_url": "https://imgs.nestimg.com/2_bedroom_bungalow_111482738035940834.jpg", "img_width": 400, "keywords": "Garden, No Chain, Double Bedroom, Garage, Kitchen, Bungalow, Dishwasher, Reception, Gas Central Heating", "latitude": 51.058105, "lister_name": "Palmer Snell", "lister_url": "https://www.nestoria.co.uk/detail/0000000111482738035940834/title/5/92-14?serpUid=&pt=1&ot=1&l=somerset&did=90_high1&t_sec=9&t_or=45&t_pvid=null&utm_source=api&utm_medium=external", "listing_type": "buy", "location_accuracy": 9, "longitude": -2.4206028, "price": 220000, "price_currency": "\u00a3", "price_formatted": "\u00a3220,000", "price_high": 220000, "price_low": 220000, "price_type": "fixed", "property_type": "house", "size": 0, "size_type": "net", "summary": "This bungalow situated within close proximity of wincanton town cen...", "thumb_height": 60, "thumb_url": "https://imgs.nestimg.com/medium/2_bedroom_bungalow_111482738035940834.jpg", "thumb_width": 80, "title": "Springfield Road, Wincanton, Somerset, BA9", "updated_in_days": 40, "updated_in_days_formatted": "first seen over a month ago"}, {"bathroom_number": "", "bedroom_number": 2, "car_spaces": 0, "commission": 0, "construction_year": 0, "datasource_name": "NetHousePrices", "img_height": 300, "img_url": "https://imgs.nestimg.com/2_bedroom_flat_111519944196724514.jpg", "img_width": 400, "keywords": "Kitchen, Loft, Dishwasher", "latitude": 51.054447, "lister_url": "https://www.nestoria.co.uk/detail/0000000111519944196724514/title/5/92-15?serpUid=&pt=1&ot=1&l=somerset&did=90_high1&t_sec=9&t_or=45&t_pvid=null&utm_source=api&utm_medium=external", "listing_type": "buy", "location_accuracy": 9, "longitude": -2.414934, "price": 110000, "price_currency": "\u00a3", "price_formatted": "\u00a3110,000", "price_high": 110000, "price_low": 110000, "price_type": "fixed", "property_type": "flat", "size": 0, "size_type": "net", "summary": "Location: wincanton is a small somerset town lying just north of th...", "thumb_height": 60, "thumb_url": "https://imgs.nestimg.com/medium/2_bedroom_flat_111519944196724514.jpg", "thumb_width": 80, "title": "Cavalier Way, Wincanton, Somerset, BA9", "updated_in_days": 34, "updated_in_days_formatted": "first seen over a month ago"}], "locations": [{"center_lat": 51.080967, "center_long": -3.045432, "long_title": "Somerset, county", "place_name": "somerset", "title": "Somerset"}], "page": 92, "sort": "nestoria_rank", "status_code": "200", "status_text": "OK", "thanks": "For using the Nestoria API.", "total_pages": 410, "total_results": 6149, "_cu5t0mP434m_": "remove"}}