{"request": {"country": "uk", "language": "en", "location": "somerset", "num_res": "15", "offset": 1380, "output": "json_xs", "page": 93, "product_type": "realestate", "property_type": "property", "size_type": "net", "size_unit": "m2", "sort": "nestoria_rank", "listing_type": "buy"}, "response": {"application_response_code": "100", "application_response_text": "listings returned for one unambiguous location", "attribution": {"img_height": 22, "img_url": "https://resources.nestimg.com/nestoria/img/pbr_v1.png", "img_width": 183, "link_to_img": "http://www.nestoria.com"}, "created_http": "Tue, 18 Jun 2019 17:31:01 GMT", "created_unix": 1560879061, "link_to_url": "https://www.nestoria.co.uk/somerset/property/buy/93", "listings": [{"bathroom_number": "", "bedroom_number": "", "car_spaces": 0, "commission": 0, "construction_year": 0, "datasource_name": "Home.co.uk", "img_height": 300, "img_url": "https://imgs.nestimg.com/detached_house_111464255737334857.jpg", "img_width": 400, "keywords": "Detached", "latitude": 51.176137, "lister_name": "Carter Jonas", "lister_url": "https://www.nestoria.co.uk/detail/0000000111464255737334857/title/5/93-1?serpUid=&pt=1&ot=1&l=somerset&did=85_default&t_sec=9&t_or=45&t_pvid=null&utm_source=api&utm_medium=external", "listing_type": "buy", "location_accuracy": 10, "longitude": -2.438684, "price": 375000, "price_currency": "\u00a3", "price_formatted": "\u00a3375,000", "price_high": 375000, "price_low": 375000, "price_type": "fixed", "property_type": "house", "size": 0, "size_type": "net", "summary": "44.61 acres of productive arable and pasture land", "thumb_height": 60, "thumb_url": "https://imgs.nestimg.com/medium/detached_house_111464255737334857.jpg", "thumb_width": 80, "title": "Wanstrow, Shepton Mallet, Somerset, BA4", "updated_in_days": 43, "updated_in_days_formatted": "first seen over a month ago"}, {"bathroom_number": "", "bedroom_number": 5, "car_spaces": 0, "commission": 0, "construction_year": 0, "datasource_name": "Home.co.uk", "img_height": 300, "img_url": "https://imgs.nestimg.com/detached_house_111464254608439725.jpg", "img_width": 400, "keywords": "Detached, Freehold, Swimming Pool", "latitude": 51.08816, "lister_name": "Woolley & Wallis", "lister_url": "https://www.nestoria.co.uk/detail/0000000111464254608439725/title/5/93-2?serpUid=&pt=1&ot=1&l=somerset&did=85_default&t_sec=9&t_or=45&t_pvid=null&utm_source=api&utm_medium=external", "listing_type": "buy", "location_accuracy": 10, "longitude": -2.416006, "price": 875000, "price_currency": "\u00a3", "price_formatted": "\u00a3875,000", "price_high": 875000, "price_low": 875000, "price_type": "fixed", "property_type": "house", "size": 0, "size_type": "net", "summary": "Tenure: freehold a , four bedroom period property situated in a are...", "thumb_height": 60, "thumb_url": "https://imgs.nestimg.com/medium/detached_house_111464254608439725.jpg", "thumb_width": 80, "title": "Stoney Stoke, Wincanton, Somerset, BA9", "updated_in_days": 43, "updated_in_days_formatted": "first seen over a month ago"}, {"bathroom_number": "", "bedroom_number": 3, "car_spaces": 0, "commission": 0, "construction_year": 0, "datasource_name": "OnTheMarket.com", "img_height": 300, "img_url": "https://imgs.nestimg.com/3_bedroom_semi_detached_house_for_sale_111705544589813045.jpg", "img_width": 400, "keywords": "Garden, Semi-Detached, En suite, Double Bedroom, Garage, Kitchen", "latitude": 51.0288, "lister_name": "Robert Cooney", "lister_url": "https://www.nestoria.co.uk/detail/0000000111705544589813045/title/5/93-3?serpUid=&pt=1&ot=1&l=somerset&did=105_high1&t_sec=9&t_or=45&t_pvid=null&utm_source=api&utm_medium=external", "listing_type": "buy", "location_accuracy": 9, "longitude": -3.13643, "price": 245000, "price_currency": "\u00a3", "price_formatted": "\u00a3245,000", "price_high": 245000, "price_low": 245000, "price_type": "fixed", "property_type": "house", "size": 0, "size_type": "net", "summary": "Within this convenient location 2.5 miles from the centre of town i...", "thumb_height": 60, "thumb_url": "https://imgs.nestimg.com/medium/3_bedroom_semi_detached_house_for_sale_111705544589813045.jpg", "thumb_width": 80, "title": "House for sale, Collett Road - Garden", "updated_in_days": 4, "updated_in_days_formatted": "first seen 4 days ago"}, {"bathroom_number": "", "bedroom_number": 2, "car_spaces": 0, "commission": 0, "construction_year": 0, "datasource_name": "NetHousePrices", "img_height": 300, "img_url": "https://imgs.nestimg.com/2_bedroom_flat_111581643034860725.jpg", "img_width": 400, "keywords": "Shared Garden, No Chain, Balcony, Kitchen", "latitude": 51.28828, "lister_url": "https://www.nestoria.co.uk/detail/0000000111581643034860725/title/5/93-4?serpUid=&pt=1&ot=1&l=somerset&did=90_high1&t_sec=9&t_or=45&t_pvid=null&utm_source=api&utm_medium=external", "listing_type": "buy", "location_accuracy": 9, "longitude": -2.477754, "price": 129950, "price_currency": "\u00a3", "price_formatted": "\u00a3129,950", "price_high": 129950, "price_low": 129950, "price_type": "fixed", "property_type": "flat", "size": 0, "size_type": "net", "summary": "For sale with no onward chain is this first floor apartment forming...", "thumb_height": 60, "thumb_url": "https://imgs.nestimg.com/medium/2_bedroom_flat_111581643034860725.jpg", "thumb_width": 80, "title": "Rackvernal Court, Midsomer Norton, Radstock, Somerset, BA3", "updated_in_days": 24, "updated_in_days_formatted": "first seen 3 weeks ago"}, {"bathroom_number": "", "bedroom_number": 3, "car_spaces": 0, "commission": 0, "construction_year": 0, "datasource_name": "NetHousePrices", "img_height": 300, "img_url": "https://imgs.nestimg.com/2_bedroom_town_house_110784006264504291.jpg", "img_width": 400, "keywords": "Garden, Kitchen, Gas Central Heating", "latitude": 51.05422, "lister_url": "https://www.nestoria.co.uk/detail/0000000110784006264504291/title/5/93-5?serpUid=&pt=1&ot=1&l=somerset&did=90_high1&t_sec=9&t_or=45&t_pvid=null&utm_source=api&utm_medium=external", "listing_type": "buy", "location_accuracy": 9, "longitude": -2.4135194, "price": 189950, "price_currency": "\u00a3", "price_formatted": "\u00a3189,950", "price_high": 189950, "price_low": 189950, "price_type": "fixed", "property_type": "house", "size": 0, "size_type": "net", "summary": "Location: wincanton is a small somerset town lying just north of th...", "thumb_height": 60, "thumb_url": "https://imgs.nestimg.com/medium/2_bedroom_town_house_110784006264504291.jpg", "thumb_width": 80, "title": "Station Road, Wincanton, Somerset, BA9", "updated_in_days": 42, "updated_in_days_formatted": "first seen over a month ago"}, {"bathroom_number": "", "bedroom_number": 3, "car_spaces": 0, "commission": 0, "construction_year": 0, "datasource_name": "OnTheMarket.com", "img_height": 300, "img_url": "https://imgs.nestimg.com/3_bedroom_detached_bungalow_for_sale_111711523157124618.jpg", "img_width": 400, "keywords": "Detached, Bungalow", "latitude": 50.9777, "lister_name": "Gibbins Richards", "lister_url": "https://www.nestoria.co.uk/detail/0000000111711523157124618/title/5/93-6?serpUid=&pt=1&ot=1&l=somerset&did=105_high1&t_sec=9&t_or=45&t_pvid=null&utm_source=api&utm_medium=external", "listing_type": "buy", "location_accuracy": 9, "longitude": -3.17533, "price": 249950, "price_currency": "\u00a3", "price_formatted": "\u00a3249,950", "price_high": 249950, "price_low": 249950, "price_type": "fixed", "property_type": "house", "size": 0, "size_type": "net", "summary": "A three bedroom attached bungalow set in the village of west buckla...", "thumb_height": 60, "thumb_url": "https://imgs.nestimg.com/medium/3_bedroom_detached_bungalow_for_sale_111711523157124618.jpg", "thumb_width": 80, "title": "Dyers Close, Wellington - Detached", "updated_in_days": 3, "updated_in_days_formatted": "first seen 3 days ago"}, {"bathroom_number": "", "bedroom_number": 2, "car_spaces": 0, "commission": 0, "construction_year": 0, "datasource_name": "OnTheMarket.com", "img_height": 300, "img_url": "https://imgs.nestimg.com/2_bedroom_semi_detached_bungalow_for_sale_111717699035720861.jpg", "img_width": 400, "keywords": "Garden, Semi-Detached, Bungalow, Gas Central Heating", "latitude": 51.1574, "lister_url": "https://www.nestoria.co.uk/detail/0000000111717699035720861/title/5/93-7?serpUid=&pt=1&ot=1&l=somerset&did=105_high1&t_sec=9&t_or=45&t_pvid=null&utm_source=api&utm_medium=external", "listing_type": "buy", "location_accuracy": 9, "longitude": -2.71385, "price": 230000, "price_currency": "\u00a3", "price_formatted": "\u00a3230,000", "price_high": 230000, "price_low": 230000, "price_type": "fixed", "property_type": "house", "size": 0, "size_type": "net", "summary": "Extended two bedroom bungalow that has been well-maintained but req...", "thumb_height": 60, "thumb_url": "https://imgs.nestimg.com/medium/2_bedroom_semi_detached_bungalow_for_sale_111717699035720861.jpg", "thumb_width": 80, "title": "Ferryman Road, Glastonbury - Garden", "updated_in_days": 2, "updated_in_days_formatted": "first seen 2 days ago"}, {"bathroom_number": "", "bedroom_number": 3, "car_spaces": 0, "commission": 0, "construction_year": 0, "datasource_name": "OnTheMarket.com", "img_height": 300, "img_url": "https://imgs.nestimg.com/3_bedroom_semi_detached_house_for_sale_111656075845385459.jpg", "img_width": 400, "keywords": "Garden, Semi-Detached, No Chain, Refurbished, Garage, Kitchen", "latitude": 51.1341, "lister_name": "Gibbins Richards", "lister_url": "https://www.nestoria.co.uk/detail/0000000111656075845385459/title/5/93-8?serpUid=&pt=1&ot=1&l=somerset&did=105_high1&t_sec=9&t_or=45&t_pvid=null&utm_source=api&utm_medium=external", "listing_type": "buy", "location_accuracy": 9, "longitude": -2.97529, "price": 185000, "price_currency": "\u00a3", "price_formatted": "\u00a3185,000", "price_high": 185000, "price_low": 185000, "price_type": "fixed", "property_type": "house", "size": 0, "size_type": "net", "summary": "A well refurbished three bedroom semi detached house with garage, o...", "thumb_height": 60, "thumb_url": "https://imgs.nestimg.com/medium/3_bedroom_semi_detached_house_for_sale_111656075845385459.jpg", "thumb_width": 80, "title": "Leyton Drive, Bridgwater - No Chain", "updated_in_days": 4, "updated_in_days_formatted": "first seen 4 days ago"}, {"bathroom_number": "", "bedroom_number": 3, "car_spaces": 0, "commission": 0, "construction_year": 0, "datasource_name": "NetHousePrices", "img_height": 300, "img_url": "https://imgs.nestimg.com/3_bedroom_cottage_house_111563353790302031.jpg", "img_width": 400, "keywords": "Garden, Fireplace, Kitchen, Dishwasher, Cottage", "latitude": 50.988564, "lister_url": "https://www.nestoria.co.uk/detail/0000000111563353790302031/title/5/93-9?serpUid=&pt=1&ot=1&l=somerset&did=90_high1&t_sec=9&t_or=45&t_pvid=null&utm_source=api&utm_medium=external", "listing_type": "buy", "location_accuracy": 9, "longitude": -2.408775, "price": 387000, "price_currency": "\u00a3", "price_formatted": "\u00a3387,000", "price_high": 387000, "price_low": 387000, "price_type": "fixed", "property_type": "house", "size": 0, "size_type": "net", "summary": "Location: yenston lies in the rolling countryside to the east of th...", "thumb_height": 60, "thumb_url": "https://imgs.nestimg.com/medium/3_bedroom_cottage_house_111563353790302031.jpg", "thumb_width": 80, "title": "Chapel Lane, Yenston, Somerset, BA8", "updated_in_days": 27, "updated_in_days_formatted": "first seen 3 weeks ago"}, {"bathroom_number": "", "bedroom_number": 4, "car_spaces": 0, "commission": 0, "construction_year": 0, "datasource_name": "NetHousePrices", "img_height": 300, "img_url": "https://imgs.nestimg.com/4_bedroom_detached_house_111514262276342387.jpg", "img_width": 400, "keywords": "Detached, Garden, Fireplace, Garage, Kitchen, Dishwasher, Modern", "latitude": 51.055588, "lister_name": "Palmer Snell", "lister_url": "https://www.nestoria.co.uk/detail/0000000111514262276342387/title/5/93-10?serpUid=&pt=1&ot=1&l=somerset&did=90_high1&t_sec=9&t_or=45&t_pvid=null&utm_source=api&utm_medium=external", "listing_type": "buy", "location_accuracy": 9, "longitude": -2.4023883, "price": 317500, "price_currency": "\u00a3", "price_formatted": "\u00a3317,500", "price_high": 317500, "price_low": 317500, "price_type": "fixed", "property_type": "house", "size": 0, "size_type": "net", "summary": "A detached family home benefitting from , well presented accommodat...", "thumb_height": 60, "thumb_url": "https://imgs.nestimg.com/medium/4_bedroom_detached_house_111514262276342387.jpg", "thumb_width": 80, "title": "Greenway Close, Wincanton, Somerset, BA9", "updated_in_days": 35, "updated_in_days_formatted": "first seen over a month ago"}, {"bathroom_number": "", "bedroom_number": 4, "car_spaces": 0, "commission": 0, "construction_year": 0, "datasource_name": "NetHousePrices", "img_height": 300, "img_url": "https://imgs.nestimg.com/4_bedroom_detached_house_111155003565748577.jpg", "img_width": 400, "keywords": "Detached, Garden, En suite, Conversion, Fireplace, Garage, Kitchen, Dishwasher, Reception", "latitude": 51.055687, "lister_name": "Express", "lister_url": "https://www.nestoria.co.uk/detail/0000000111155003565748577/title/5/93-11?serpUid=&pt=1&ot=1&l=somerset&did=90_high1&t_sec=9&t_or=45&t_pvid=null&utm_source=api&utm_medium=external", "listing_type": "buy", "location_accuracy": 9, "longitude": -2.4048147, "price": 435000, "price_currency": "\u00a3", "price_formatted": "\u00a3435,000", "price_high": 435000, "price_low": 435000, "price_type": "fixed", "property_type": "house", "size": 0, "size_type": "net", "summary": "Four bedroom detached house all interest and offers are invited. Gu...", "thumb_height": 60, "thumb_url": "https://imgs.nestimg.com/medium/4_bedroom_detached_house_111155003565748577.jpg", "thumb_width": 80, "title": "Common Road, Wincanton, Somerset, BA9", "updated_in_days": 39, "updated_in_days_formatted": "first seen over a month ago"}, {"bathroom_number": "", "bedroom_number": 4, "car_spaces": 0, "commission": 0, "construction_year": 0, "datasource_name": "NetHousePrices", "img_height": 300, "img_url": "https://imgs.nestimg.com/4_bedroom_detached_house_111111781913810728.jpg", "img_width": 400, "keywords": "Detached, Garden, En suite, Fireplace, Double Bedroom, Garage, Kitchen, Dishwasher", "latitude": 51.056976, "lister_name": "Palmer Snell", "lister_url": "https://www.nestoria.co.uk/detail/0000000111111781913810728/title/5/93-12?serpUid=&pt=1&ot=1&l=somerset&did=90_high1&t_sec=9&t_or=45&t_pvid=null&utm_source=api&utm_medium=external", "listing_type": "buy", "location_accuracy": 9, "longitude": -2.4242308, "price": 375000, "price_currency": "\u00a3", "price_formatted": "\u00a3375,000", "price_high": 375000, "price_low": 375000, "price_type": "fixed", "property_type": "house", "size": 0, "size_type": "net", "summary": "A four bedroom detached family home situated on the dancing lane in...", "thumb_height": 60, "thumb_url": "https://imgs.nestimg.com/medium/4_bedroom_detached_house_111111781913810728.jpg", "thumb_width": 80, "title": "Dancing Lane, Wincanton, Somerset, BA9", "updated_in_days": 100, "updated_in_days_formatted": "first seen over a month ago"}, {"bathroom_number": "", "bedroom_number": 1, "car_spaces": 0, "commission": 0, "construction_year": 0, "datasource_name": "NetHousePrices", "img_height": 300, "img_url": "https://imgs.nestimg.com/1_bedroom_retirement_property_111099539435316647.jpg", "img_width": 400, "keywords": "Shared Garden, Kitchen", "latitude": 51.05725, "lister_url": "https://www.nestoria.co.uk/detail/0000000111099539435316647/title/5/93-13?serpUid=&pt=1&ot=1&l=somerset&did=90_high1&t_sec=9&t_or=45&t_pvid=null&utm_source=api&utm_medium=external", "listing_type": "buy", "location_accuracy": 9, "longitude": -2.4082384, "price": 59950, "price_currency": "\u00a3", "price_formatted": "\u00a359,950", "price_high": 59950, "price_low": 59950, "price_type": "fixed", "property_type": "property", "size": 0, "size_type": "net", "summary": "Location: wincanton is a small somerset town lying just north of th...", "thumb_height": 60, "thumb_url": "https://imgs.nestimg.com/medium/1_bedroom_retirement_property_111099539435316647.jpg", "thumb_width": 80, "title": "Carrington Way, Wincanton, Somerset, BA9", "updated_in_days": 45, "updated_in_days_formatted": "first seen over a month ago"}, {"bathroom_number": "", "bedroom_number": 1, "car_spaces": 0, "commission": 0, "construction_year": 0, "datasource_name": "NetHousePrices", "img_height": 300, "img_url": "https://imgs.nestimg.com/1_bedroom_flat_111365857288646904.jpg", "img_width": 400, "keywords": "Double Bedroom, Kitchen", "latitude": 51.054447, "lister_name": "Palmer Snell", "lister_url": "https://www.nestoria.co.uk/detail/0000000111365857288646904/title/5/93-14?serpUid=&pt=1&ot=1&l=somerset&did=90_high1&t_sec=9&t_or=45&t_pvid=null&utm_source=api&utm_medium=external", "listing_type": "buy", "location_accuracy": 9, "longitude": -2.414934, "price": 77500, "price_currency": "\u00a3", "price_formatted": "\u00a377,500", "price_high": 77500, "price_low": 77500, "price_type": "fixed", "property_type": "flat", "size": 0, "size_type": "net", "summary": "A one bedroom, ground floor flat situated within close proximity of...", "thumb_height": 60, "thumb_url": "https://imgs.nestimg.com/medium/1_bedroom_flat_111365857288646904.jpg", "thumb_width": 80, "title": "Cavalier Way, Wincanton, Somerset, BA9", "updated_in_days": 59, "updated_in_days_formatted": "first seen over a month ago"}, {"bathroom_number": "", "bedroom_number": 3, "car_spaces": 0, "commission": 0, "construction_year": 0, "datasource_name": "NetHousePrices", "img_height": 300, "img_url": "https://imgs.nestimg.com/3_bedroom_detached_house_111229449626167675.jpg", "img_width": 400, "keywords": "Detached, Garden, Conservatory, Terraced, Garage, Kitchen, Patio, Cul-de-Sac", "latitude": 51.24143, "lister_url": "https://www.nestoria.co.uk/detail/0000000111229449626167675/title/5/93-15?serpUid=&pt=1&ot=1&l=somerset&did=90_high1&t_sec=9&t_or=45&t_pvid=null&utm_source=api&utm_medium=external", "listing_type": "buy", "location_accuracy": 9, "longitude": -2.446297, "price": 224950, "price_currency": "\u00a3", "price_formatted": "\u00a3224,950", "price_high": 224950, "price_low": 224950, "price_type": "fixed", "property_type": "house", "size": 0, "size_type": "net", "summary": "Set in a quiet cul-de-sac location in the mendip village of colefor...", "thumb_height": 60, "thumb_url": "https://imgs.nestimg.com/medium/3_bedroom_detached_house_111229449626167675.jpg", "thumb_width": 80, "title": "Lawrence Road, Coleford, Radstock, Somerset, BA3", "updated_in_days": 34, "updated_in_days_formatted": "first seen over a month ago"}], "locations": [{"center_lat": 51.080967, "center_long": -3.045432, "long_title": "Somerset, county", "place_name": "somerset", "title": "Somerset"}], "page": 93, "sort": "nestoria_rank", "status_code": "200", "status_text": "OK", "thanks": "For using the Nestoria API.", "total_pages": 410, "total_results": 6149, "_cu5t0mP434m_": "remove"}}