{"request": {"country": "uk", "language": "en", "location": "somerset", "num_res": "15", "offset": 1395, "output": "json_xs", "page": 94, "product_type": "realestate", "property_type": "property", "size_type": "net", "size_unit": "m2", "sort": "nestoria_rank", "listing_type": "buy"}, "response": {"application_response_code": "100", "application_response_text": "listings returned for one unambiguous location", "attribution": {"img_height": 22, "img_url": "https://resources.nestimg.com/nestoria/img/pbr_v1.png", "img_width": 183, "link_to_img": "http://www.nestoria.com"}, "created_http": "Tue, 18 Jun 2019 17:31:02 GMT", "created_unix": 1560879062, "link_to_url": "https://www.nestoria.co.uk/somerset/property/buy/94", "listings": [{"bathroom_number": "", "bedroom_number": 2, "car_spaces": 0, "commission": 0, "construction_year": 0, "datasource_name": "OnTheMarket.com", "img_height": 300, "img_url": "https://imgs.nestimg.com/2_bedroom_semi_detached_bungalow_for_sale_111705541229154087.jpg", "img_width": 400, "keywords": "Semi-Detached, No Chain, Bungalow, Cul-de-Sac", "latitude": 51.0308, "lister_url": "https://www.nestoria.co.uk/detail/0000000111705541229154087/title/5/94-1?serpUid=&pt=1&ot=1&l=somerset&did=105_high1&t_sec=9&t_or=45&t_pvid=null&utm_source=api&utm_medium=external", "listing_type": "buy", "location_accuracy": 9, "longitude": -3.03887, "price": 217500, "price_currency": "\u00a3", "price_formatted": "\u00a3217,500", "price_high": 217500, "price_low": 217500, "price_type": "fixed", "property_type": "house", "size": 0, "size_type": "net", "summary": "Standing in a small cul de sac on the outskirts of creech st. Micha...", "thumb_height": 60, "thumb_url": "https://imgs.nestimg.com/medium/2_bedroom_semi_detached_bungalow_for_sale_111705541229154087.jpg", "thumb_width": 80, "title": "Cooks Close, Creech St. Michael, Taunton", "updated_in_days": 4, "updated_in_days_formatted": "first seen 4 days ago"}, {"bathroom_number": "", "bedroom_number": 4, "car_spaces": 0, "commission": 0, "construction_year": 0, "datasource_name": "NetHousePrices", "img_height": 300, "img_url": "https://imgs.nestimg.com/4_bedroom_detached_house_111093395435230241.jpg", "img_width": 400, "keywords": "Detached, Garden, Wood Floor, Kitchen, Dishwasher, Modern, Patio", "latitude": 51.055298, "lister_url": "https://www.nestoria.co.uk/detail/0000000111093395435230241/title/5/94-2?serpUid=&pt=1&ot=1&l=somerset&did=90_high1&t_sec=9&t_or=45&t_pvid=null&utm_source=api&utm_medium=external", "listing_type": "buy", "location_accuracy": 9, "longitude": -2.421362, "price": 475000, "price_currency": "\u00a3", "price_formatted": "\u00a3475,000", "price_high": 475000, "price_low": 475000, "price_type": "fixed", "property_type": "house", "size": 0, "size_type": "net", "summary": "Location: wincanton is a small somerset town lying just north of th...", "thumb_height": 60, "thumb_url": "https://imgs.nestimg.com/medium/4_bedroom_detached_house_111093395435230241.jpg", "thumb_width": 80, "title": "West Hill, Wincanton, Somerset, BA9", "updated_in_days": 103, "updated_in_days_formatted": "first seen over a month ago"}, {"bathroom_number": "", "bedroom_number": 5, "car_spaces": 0, "commission": 0, "construction_year": 0, "datasource_name": "NetHousePrices", "img_height": 300, "img_url": "https://imgs.nestimg.com/5_bedroom_property_111435288163876793.jpg", "img_width": 400, "keywords": "Fireplace, Lower Ground, Kitchen, Dishwasher, Modern", "latitude": 51.05696, "lister_url": "https://www.nestoria.co.uk/detail/0000000111435288163876793/title/5/94-3?serpUid=&pt=1&ot=1&l=somerset&did=90_high1&t_sec=9&t_or=45&t_pvid=null&utm_source=api&utm_medium=external", "listing_type": "buy", "location_accuracy": 9, "longitude": -2.4056818, "price": 495000, "price_currency": "\u00a3", "price_formatted": "\u00a3495,000", "price_high": 495000, "price_low": 495000, "price_type": "fixed", "property_type": "property", "size": 0, "size_type": "net", "summary": "Accommodation ground floor front door to: entrance hall: a hallway ...", "thumb_height": 60, "thumb_url": "https://imgs.nestimg.com/medium/5_bedroom_property_111435288163876793.jpg", "thumb_width": 80, "title": "Ireson Villas, Wincanton, Somerset, BA9", "updated_in_days": 47, "updated_in_days_formatted": "first seen over a month ago"}, {"bathroom_number": "", "bedroom_number": 5, "car_spaces": 0, "commission": 0, "construction_year": 0, "datasource_name": "NetHousePrices", "img_height": 300, "img_url": "https://imgs.nestimg.com/5_bedroom_property_111377720511205035.jpg", "img_width": 400, "keywords": "Garden, Kitchen", "latitude": 51.055458, "lister_url": "https://www.nestoria.co.uk/detail/0000000111377720511205035/title/5/94-4?serpUid=&pt=1&ot=1&l=somerset&did=90_high1&t_sec=9&t_or=45&t_pvid=null&utm_source=api&utm_medium=external", "listing_type": "buy", "location_accuracy": 9, "longitude": -2.4091501, "price": 275000, "price_currency": "\u00a3", "price_formatted": "\u00a3275,000", "price_high": 275000, "price_low": 275000, "price_type": "fixed", "property_type": "property", "size": 0, "size_type": "net", "summary": "Location: wincanton is a small somerset town lying just north of th...", "thumb_height": 60, "thumb_url": "https://imgs.nestimg.com/medium/5_bedroom_property_111377720511205035.jpg", "thumb_width": 80, "title": "Lansdowne Place, Wincanton, Somerset, BA9", "updated_in_days": 57, "updated_in_days_formatted": "first seen over a month ago"}, {"bathroom_number": "", "bedroom_number": 3, "car_spaces": 0, "commission": 0, "construction_year": 0, "datasource_name": "OnTheMarket.com", "img_height": 300, "img_url": "https://imgs.nestimg.com/3_bedroom_semi_detached_house_for_sale_111711536491245710.jpg", "img_width": 400, "keywords": "Semi-Detached, No Chain", "latitude": 51.2039, "lister_name": "Berryman's", "lister_url": "https://www.nestoria.co.uk/detail/0000000111711536491245710/title/5/94-5?serpUid=&pt=1&ot=1&l=somerset&did=105_high1&t_sec=9&t_or=45&t_pvid=null&utm_source=api&utm_medium=external", "listing_type": "buy", "location_accuracy": 9, "longitude": -2.98782, "price": 169950, "price_currency": "\u00a3", "price_formatted": "\u00a3169,950", "price_high": 169950, "price_low": 169950, "price_type": "fixed", "property_type": "house", "size": 0, "size_type": "net", "summary": "An opportunity to purchase a three bedroom semi detached house set ...", "thumb_height": 60, "thumb_url": "https://imgs.nestimg.com/medium/3_bedroom_semi_detached_house_for_sale_111711536491245710.jpg", "thumb_width": 80, "title": "Ringstone, West Huntspill, Highbridge", "updated_in_days": 3, "updated_in_days_formatted": "first seen 3 days ago"}, {"bathroom_number": "", "bedroom_number": 1, "car_spaces": 0, "commission": 0, "construction_year": 0, "datasource_name": "OnTheMarket.com", "img_height": 300, "img_url": "https://imgs.nestimg.com/1_bedroom_maisonette_for_sale_111705542272495876.jpg", "img_width": 400, "keywords": "Garden, En suite, Maisonette, Double Bedroom, Kitchen, Parking", "latitude": 51.0268, "lister_name": "Robert Cooney", "lister_url": "https://www.nestoria.co.uk/detail/0000000111705542272495876/title/5/94-6?serpUid=&pt=1&ot=1&l=somerset&did=105_high1&t_sec=9&t_or=45&t_pvid=null&utm_source=api&utm_medium=external", "listing_type": "buy", "location_accuracy": 9, "longitude": -3.10278, "price": 104995, "price_currency": "\u00a3", "price_formatted": "\u00a3104,995", "price_high": 104995, "price_low": 104995, "price_type": "fixed", "property_type": "flat", "size": 0, "size_type": "net", "summary": "Situated in this convenient location within easy reach of taunton t...", "thumb_height": 60, "thumb_url": "https://imgs.nestimg.com/medium/1_bedroom_maisonette_for_sale_111705542272495876.jpg", "thumb_width": 80, "title": "Flat for sale, Peter Street - Garden", "updated_in_days": 4, "updated_in_days_formatted": "first seen 4 days ago"}, {"bathroom_number": "", "bedroom_number": 2, "car_spaces": 0, "commission": 0, "construction_year": 0, "datasource_name": "NetHousePrices", "img_height": 300, "img_url": "https://imgs.nestimg.com/2_bedroom_detached_house_111328691607213100.jpg", "img_width": 400, "keywords": "Detached, Garden, Fireplace, Wood Floor, Kitchen", "latitude": 51.001812, "lister_url": "https://www.nestoria.co.uk/detail/0000000111328691607213100/title/5/94-7?serpUid=&pt=1&ot=1&l=somerset&did=90_high1&t_sec=9&t_or=45&t_pvid=null&utm_source=api&utm_medium=external", "listing_type": "buy", "location_accuracy": 9, "longitude": -2.4208057, "price": 235000, "price_currency": "\u00a3", "price_formatted": "\u00a3235,000", "price_high": 235000, "price_low": 235000, "price_type": "fixed", "property_type": "house", "size": 0, "size_type": "net", "summary": "Location: templecombe is situated in the somerset countryside. It h...", "thumb_height": 60, "thumb_url": "https://imgs.nestimg.com/medium/2_bedroom_detached_house_111328691607213100.jpg", "thumb_width": 80, "title": "Lily Lane, Templecombe, Somerset, BA8", "updated_in_days": 65, "updated_in_days_formatted": "first seen over a month ago"}, {"bathroom_number": "", "bedroom_number": 1, "car_spaces": 0, "commission": 0, "construction_year": 0, "datasource_name": "OnTheMarket.com", "img_height": 300, "img_url": "https://imgs.nestimg.com/1_bedroom_retirement_property_for_sale_110580088662822026.jpg", "img_width": 400, "keywords": "No Chain, Double Bedroom", "latitude": 51.1312, "lister_name": "Gibbins Richards", "lister_url": "https://www.nestoria.co.uk/detail/0000000110580088662822026/title/5/94-8?serpUid=&pt=1&ot=1&l=somerset&did=105_high1&t_sec=9&t_or=45&t_pvid=null&utm_source=api&utm_medium=external", "listing_type": "buy", "location_accuracy": 9, "longitude": -3.00802, "price": 88000, "price_currency": "\u00a3", "price_formatted": "\u00a388,000", "price_high": 88000, "price_low": 88000, "price_type": "fixed", "property_type": "property", "size": 0, "size_type": "net", "summary": "Situated within walking distance of bridgwater docks and the town c...", "thumb_height": 60, "thumb_url": "https://imgs.nestimg.com/medium/1_bedroom_retirement_property_for_sale_110580088662822026.jpg", "thumb_width": 80, "title": "Anson way, Bridgwater - No Chain", "updated_in_days": 4, "updated_in_days_formatted": "first seen 4 days ago"}, {"bathroom_number": "", "bedroom_number": 4, "car_spaces": 0, "commission": 0, "construction_year": 0, "datasource_name": "OnTheMarket.com", "img_height": 300, "img_url": "https://imgs.nestimg.com/4_bedroom_detached_house_for_sale_111711534338162035.jpg", "img_width": 400, "keywords": "Detached, Garden, No Chain, Parking", "latitude": 50.9288, "lister_url": "https://www.nestoria.co.uk/detail/0000000111711534338162035/title/5/94-9?serpUid=&pt=1&ot=1&l=somerset&did=105_high1&t_sec=9&t_or=45&t_pvid=null&utm_source=api&utm_medium=external", "listing_type": "buy", "location_accuracy": 9, "longitude": -2.96601, "price": 450000, "price_currency": "\u00a3", "price_formatted": "\u00a3450,000", "price_high": 450000, "price_low": 450000, "price_type": "fixed", "property_type": "house", "size": 0, "size_type": "net", "summary": "A detached four bedroom farmhouse retaining many character features...", "thumb_height": 60, "thumb_url": "https://imgs.nestimg.com/medium/4_bedroom_detached_house_for_sale_111711534338162035.jpg", "thumb_width": 80, "title": "Hanning Road, Horton - Garden", "updated_in_days": 3, "updated_in_days_formatted": "first seen 3 days ago"}, {"bathroom_number": "", "bedroom_number": 3, "car_spaces": 0, "commission": 0, "construction_year": 0, "datasource_name": "NetHousePrices", "img_height": 300, "img_url": "https://imgs.nestimg.com/3_bedroom_flat_111111780307414482.jpg", "img_width": 400, "keywords": "No Chain, Double Bedroom, Kitchen, Parking", "latitude": 51.054153, "lister_name": "Palmer Snell", "lister_url": "https://www.nestoria.co.uk/detail/0000000111111780307414482/title/5/94-10?serpUid=&pt=1&ot=1&l=somerset&did=90_high1&t_sec=9&t_or=45&t_pvid=null&utm_source=api&utm_medium=external", "listing_type": "buy", "location_accuracy": 9, "longitude": -2.4138756, "price": 150000, "price_currency": "\u00a3", "price_formatted": "\u00a3150,000", "price_high": 150000, "price_low": 150000, "price_type": "fixed", "property_type": "flat", "size": 0, "size_type": "net", "summary": "A rare opportunity to purchase this three bedroom top floor apartme...", "thumb_height": 60, "thumb_url": "https://imgs.nestimg.com/medium/3_bedroom_flat_111111780307414482.jpg", "thumb_width": 80, "title": "Pines Close, Wincanton, Somerset, BA9", "updated_in_days": 100, "updated_in_days_formatted": "first seen over a month ago"}, {"bathroom_number": "", "bedroom_number": 4, "car_spaces": 0, "commission": 0, "construction_year": 0, "datasource_name": "OnTheMarket.com", "img_height": 300, "img_url": "https://imgs.nestimg.com/4_bedroom_detached_bungalow_for_sale_111717699358132946.jpg", "img_width": 400, "keywords": "Detached, Garage, Bungalow", "latitude": 51.0593, "lister_name": "Cooper & Tanner", "lister_url": "https://www.nestoria.co.uk/detail/0000000111717699358132946/title/5/94-11?serpUid=&pt=1&ot=1&l=somerset&did=105_high1&t_sec=9&t_or=45&t_pvid=null&utm_source=api&utm_medium=external", "listing_type": "buy", "location_accuracy": 9, "longitude": -2.67511, "price": 360000, "price_currency": "\u00a3", "price_formatted": "\u00a3360,000", "price_high": 360000, "price_low": 360000, "price_type": "fixed", "property_type": "house", "size": 0, "size_type": "net", "summary": "An extended and well presented 3/4 bedroom detached bungalow situat...", "thumb_height": 60, "thumb_url": "https://imgs.nestimg.com/medium/4_bedroom_detached_bungalow_for_sale_111717699358132946.jpg", "thumb_width": 80, "title": "Somerton Lane, Charlton Mackrell", "updated_in_days": 2, "updated_in_days_formatted": "first seen 2 days ago"}, {"bathroom_number": "", "bedroom_number": 5, "car_spaces": 0, "commission": 0, "construction_year": 0, "datasource_name": "NetHousePrices", "img_height": 300, "img_url": "https://imgs.nestimg.com/5_bedroom_detached_house_111365859915290302.jpg", "img_width": 400, "keywords": "Detached, Garden, En suite, Conservatory, Fireplace, Double Bedroom, Kitchen, Dishwasher, Parking, Reception", "latitude": 51.05804, "lister_name": "Palmer Snell", "lister_url": "https://www.nestoria.co.uk/detail/0000000111365859915290302/title/5/94-12?serpUid=&pt=1&ot=1&l=somerset&did=90_high1&t_sec=9&t_or=45&t_pvid=null&utm_source=api&utm_medium=external", "listing_type": "buy", "location_accuracy": 9, "longitude": -2.4036367, "price": 400000, "price_currency": "\u00a3", "price_formatted": "\u00a3400,000", "price_high": 400000, "price_low": 400000, "price_type": "fixed", "property_type": "house", "size": 0, "size_type": "net", "summary": "A , detached five bedroom property situated in a desirable resident...", "thumb_height": 60, "thumb_url": "https://imgs.nestimg.com/medium/5_bedroom_detached_house_111365859915290302.jpg", "thumb_width": 80, "title": "Eastfield Road, Wincanton, Somerset, BA9", "updated_in_days": 59, "updated_in_days_formatted": "first seen over a month ago"}, {"bathroom_number": "", "bedroom_number": 4, "car_spaces": 0, "commission": 0, "construction_year": 0, "datasource_name": "NetHousePrices", "img_height": 300, "img_url": "https://imgs.nestimg.com/4_bedroom_semi_detached_house_109992649027387261.jpg", "img_width": 400, "keywords": "Garden, Semi-Detached, En suite, Conversion, Refurbished, Double Bedroom, Garage, Kitchen, Patio, Reception", "latitude": 51.333633, "lister_url": "https://www.nestoria.co.uk/detail/0000000109992649027387261/title/5/94-13?serpUid=&pt=1&ot=1&l=somerset&did=90_high1&t_sec=9&t_or=45&t_pvid=null&utm_source=api&utm_medium=external", "listing_type": "buy", "location_accuracy": 9, "longitude": -2.4386227, "price": 500000, "price_currency": "\u00a3", "price_formatted": "\u00a3500,000", "price_high": 500000, "price_low": 500000, "price_type": "fixed", "property_type": "house", "size": 0, "size_type": "net", "summary": "Hillview offers refurbished and extended accommodation over two flo...", "thumb_height": 60, "thumb_url": "https://imgs.nestimg.com/medium/4_bedroom_semi_detached_house_109992649027387261.jpg", "thumb_width": 80, "title": "Tunley, Bath, Somerset, BA2 - Patio", "updated_in_days": 12, "updated_in_days_formatted": "first seen last week"}, {"bathroom_number": "", "bedroom_number": 3, "car_spaces": 0, "commission": 0, "construction_year": 0, "datasource_name": "OnTheMarket.com", "img_height": 300, "img_url": "https://imgs.nestimg.com/3_bedroom_detached_bungalow_for_sale_111711533443642089.jpg", "img_width": 400, "keywords": "Detached, Garden, Garage, Bungalow", "latitude": 50.9191, "lister_name": "Wilkie May & Tuckwood", "lister_url": "https://www.nestoria.co.uk/detail/0000000111711533443642089/title/5/94-14?serpUid=&pt=1&ot=1&l=somerset&did=105_high1&t_sec=9&t_or=45&t_pvid=null&utm_source=api&utm_medium=external", "listing_type": "buy", "location_accuracy": 9, "longitude": -3.15144, "price": 445000, "price_currency": "\u00a3", "price_formatted": "\u00a3445,000", "price_high": 445000, "price_low": 445000, "price_type": "fixed", "property_type": "house", "size": 0, "size_type": "net", "summary": "This detached chalet style bungalow sits within the favoured hamlet...", "thumb_height": 60, "thumb_url": "https://imgs.nestimg.com/medium/3_bedroom_detached_bungalow_for_sale_111711533443642089.jpg", "thumb_width": 80, "title": "Stapley, Taunton - Garden, Bungalow", "updated_in_days": 3, "updated_in_days_formatted": "first seen 3 days ago"}, {"bathroom_number": "", "bedroom_number": 1, "car_spaces": 0, "commission": 0, "construction_year": 0, "datasource_name": "NetHousePrices", "img_height": 300, "img_url": "https://imgs.nestimg.com/1_bedroom_ground_flat_110629399551380452.jpg", "img_width": 400, "keywords": "Leasehold, Garden, Kitchen, Parking", "latitude": 51.054447, "lister_url": "https://www.nestoria.co.uk/detail/0000000110629399551380452/title/5/94-15?serpUid=&pt=1&ot=1&l=somerset&did=90_high1&t_sec=9&t_or=45&t_pvid=null&utm_source=api&utm_medium=external", "listing_type": "buy", "location_accuracy": 9, "longitude": -2.414934, "price": 55000, "price_currency": "\u00a3", "price_formatted": "\u00a355,000", "price_high": 55000, "price_low": 55000, "price_type": "fixed", "property_type": "flat", "size": 0, "size_type": "net", "summary": "Location: wincanton is a small somerset town lying just north of th...", "thumb_height": 60, "thumb_url": "https://imgs.nestimg.com/medium/1_bedroom_ground_flat_110629399551380452.jpg", "thumb_width": 80, "title": "Cavalier Way, Wincanton, Somerset, BA9", "updated_in_days": 178, "updated_in_days_formatted": "first seen over a month ago"}], "locations": [{"center_lat": 51.080967, "center_long": -3.045432, "long_title": "Somerset, county", "place_name": "somerset", "title": "Somerset"}], "page": 94, "sort": "nestoria_rank", "status_code": "200", "status_text": "OK", "thanks": "For using the Nestoria API.", "total_pages": 410, "total_results": 6149, "_cu5t0mP434m_": "remove"}}