{"request": {"country": "uk", "language": "en", "location": "somerset", "num_res": "15", "offset": 1410, "output": "json_xs", "page": 95, "product_type": "realestate", "property_type": "property", "size_type": "net", "size_unit": "m2", "sort": "nestoria_rank", "listing_type": "buy"}, "response": {"application_response_code": "100", "application_response_text": "listings returned for one unambiguous location", "attribution": {"img_height": 22, "img_url": "https://resources.nestimg.com/nestoria/img/pbr_v1.png", "img_width": 183, "link_to_img": "http://www.nestoria.com"}, "created_http": "Tue, 18 Jun 2019 17:31:03 GMT", "created_unix": 1560879063, "link_to_url": "https://www.nestoria.co.uk/somerset/property/buy/95", "listings": [{"bathroom_number": "", "bedroom_number": 5, "car_spaces": 0, "commission": 0, "construction_year": 0, "datasource_name": "NetHousePrices", "img_height": 300, "img_url": "https://imgs.nestimg.com/5_bedroom_detached_house_111043871667486919.jpg", "img_width": 400, "keywords": "Detached, Garden, En suite, Garage, Kitchen, Dishwasher", "latitude": 51.055737, "lister_url": "https://www.nestoria.co.uk/detail/0000000111043871667486919/title/5/95-1?serpUid=&pt=1&ot=1&l=somerset&did=90_high1&t_sec=9&t_or=45&t_pvid=null&utm_source=api&utm_medium=external", "listing_type": "buy", "location_accuracy": 9, "longitude": -2.406085, "price": 367500, "price_currency": "\u00a3", "price_formatted": "\u00a3367,500", "price_high": 367500, "price_low": 367500, "price_type": "fixed", "property_type": "house", "size": 0, "size_type": "net", "summary": "Accommodation canopy porch to front door with glazed insert. Entran...", "thumb_height": 60, "thumb_url": "https://imgs.nestimg.com/medium/5_bedroom_detached_house_111043871667486919.jpg", "thumb_width": 80, "title": "Manor Gardens, Wincanton, Somerset, BA9", "updated_in_days": 83, "updated_in_days_formatted": "first seen over a month ago"}, {"bathroom_number": "", "bedroom_number": 3, "car_spaces": 0, "commission": 0, "construction_year": 0, "datasource_name": "OnTheMarket.com", "img_height": 300, "img_url": "https://imgs.nestimg.com/3_bedroom_terraced_house_for_sale_111705544751442415.jpg", "img_width": 400, "keywords": "Garden, Terraced, Modern, Parking", "latitude": 51.1232, "lister_name": "Lees & Waters", "lister_url": "https://www.nestoria.co.uk/detail/0000000111705544751442415/title/5/95-2?serpUid=&pt=1&ot=1&l=somerset&did=105_high1&t_sec=9&t_or=45&t_pvid=null&utm_source=api&utm_medium=external", "listing_type": "buy", "location_accuracy": 9, "longitude": -2.99829, "price": 169950, "price_currency": "\u00a3", "price_formatted": "\u00a3169,950", "price_high": 169950, "price_low": 169950, "price_type": "fixed", "property_type": "house", "size": 0, "size_type": "net", "summary": "Well proportioned and well decorated three bedroom modern property ...", "thumb_height": 60, "thumb_url": "https://imgs.nestimg.com/medium/3_bedroom_terraced_house_for_sale_111705544751442415.jpg", "thumb_width": 80, "title": "Manley Gardens, Bridgwater - Modern", "updated_in_days": 4, "updated_in_days_formatted": "first seen 4 days ago"}, {"bathroom_number": "", "bedroom_number": 3, "car_spaces": 0, "commission": 0, "construction_year": 0, "datasource_name": "NetHousePrices", "img_height": 300, "img_url": "https://imgs.nestimg.com/3_bedroom_semi_detached_house_111111779555246884.jpg", "img_width": 400, "keywords": "Garden, Semi-Detached, En suite, Conservatory, Double Bedroom, Garage, Kitchen", "latitude": 50.997673, "lister_name": "Palmer Snell", "lister_url": "https://www.nestoria.co.uk/detail/0000000111111779555246884/title/5/95-3?serpUid=&pt=1&ot=1&l=somerset&did=90_high1&t_sec=9&t_or=45&t_pvid=null&utm_source=api&utm_medium=external", "listing_type": "buy", "location_accuracy": 9, "longitude": -2.4167924, "price": 240000, "price_currency": "\u00a3", "price_formatted": "\u00a3240,000", "price_high": 240000, "price_low": 240000, "price_type": "fixed", "property_type": "house", "size": 0, "size_type": "net", "summary": "A three bedroom, semi detached property, well positioned within the...", "thumb_height": 60, "thumb_url": "https://imgs.nestimg.com/medium/3_bedroom_semi_detached_house_111111779555246884.jpg", "thumb_width": 80, "title": "Casterbridge Place, Templecombe, Somerset, BA8", "updated_in_days": 100, "updated_in_days_formatted": "first seen over a month ago"}, {"bathroom_number": "", "bedroom_number": 3, "car_spaces": 0, "commission": 0, "construction_year": 0, "datasource_name": "NetHousePrices", "img_height": 300, "img_url": "https://imgs.nestimg.com/3_bedroom_detached_bungalow_111099541010100218.jpg", "img_width": 400, "keywords": "Detached, Garden, En suite, Conservatory, Wood Floor, Kitchen, Bungalow, Dishwasher", "latitude": 50.998142, "lister_url": "https://www.nestoria.co.uk/detail/0000000111099541010100218/title/5/95-4?serpUid=&pt=1&ot=1&l=somerset&did=90_high1&t_sec=9&t_or=45&t_pvid=null&utm_source=api&utm_medium=external", "listing_type": "buy", "location_accuracy": 9, "longitude": -2.4164405, "price": 300000, "price_currency": "\u00a3", "price_formatted": "\u00a3300,000", "price_high": 300000, "price_low": 300000, "price_type": "fixed", "property_type": "house", "size": 0, "size_type": "net", "summary": "Location: templecombe is situated in the somerset countryside. It h...", "thumb_height": 60, "thumb_url": "https://imgs.nestimg.com/medium/3_bedroom_detached_bungalow_111099541010100218.jpg", "thumb_width": 80, "title": "Kington View, Templecombe, Somerset, BA8", "updated_in_days": 102, "updated_in_days_formatted": "first seen over a month ago"}, {"bathroom_number": "", "bedroom_number": 4, "car_spaces": 0, "commission": 0, "construction_year": 0, "datasource_name": "OnTheMarket.com", "img_height": 300, "img_url": "https://imgs.nestimg.com/4_bedroom_detached_house_for_sale_111724140052863159.jpg", "img_width": 400, "keywords": "Detached, Garden, Kitchen, Parking, Reception", "latitude": 50.9508, "lister_name": "Stags", "lister_url": "https://www.nestoria.co.uk/detail/0000000111724140052863159/title/5/95-5?serpUid=&pt=1&ot=1&l=somerset&did=105_high1&t_sec=9&t_or=45&t_pvid=null&utm_source=api&utm_medium=external", "listing_type": "buy", "location_accuracy": 9, "longitude": -3.6372, "price": 495000, "price_currency": "\u00a3", "price_formatted": "\u00a3495,000", "price_high": 495000, "price_low": 495000, "price_type": "fixed", "property_type": "house", "size": 0, "size_type": "net", "summary": "A surprisingly 5 bedroom detached house located in the centre of th...", "thumb_height": 60, "thumb_url": "https://imgs.nestimg.com/medium/4_bedroom_detached_house_for_sale_111724140052863159.jpg", "thumb_width": 80, "title": "Rackenford, Rackenford, Tiverton, Devon, EX16", "updated_in_days": 1, "updated_in_days_formatted": "New"}, {"bathroom_number": "", "bedroom_number": 3, "car_spaces": 0, "commission": 0, "construction_year": 0, "datasource_name": "OnTheMarket.com", "img_height": 300, "img_url": "https://imgs.nestimg.com/3_bedroom_link_detached_house_for_sale_111717696836636642.jpg", "img_width": 400, "keywords": "Detached, Conservatory, Kitchen", "latitude": 50.8452, "lister_url": "https://www.nestoria.co.uk/detail/0000000111717696836636642/title/5/95-6?serpUid=&pt=1&ot=1&l=somerset&did=105_high1&t_sec=9&t_or=45&t_pvid=null&utm_source=api&utm_medium=external", "listing_type": "buy", "location_accuracy": 9, "longitude": -2.9529, "price": 280000, "price_currency": "\u00a3", "price_formatted": "\u00a3280,000", "price_high": 280000, "price_low": 280000, "price_type": "fixed", "property_type": "house", "size": 0, "size_type": "net", "summary": "A well presented three bedroom link detached family home located in...", "thumb_height": 60, "thumb_url": "https://imgs.nestimg.com/medium/3_bedroom_link_detached_house_for_sale_111717696836636642.jpg", "thumb_width": 80, "title": "Langdons Way, Tatworth - Detached", "updated_in_days": 2, "updated_in_days_formatted": "first seen 2 days ago"}, {"bathroom_number": "", "bedroom_number": 2, "car_spaces": 0, "commission": 0, "construction_year": 0, "datasource_name": "OnTheMarket.com", "img_height": 300, "img_url": "https://imgs.nestimg.com/2_bedroom_terraced_house_for_sale_111705538978762234.jpg", "img_width": 400, "keywords": "Terraced, Parking", "latitude": 51.0334, "lister_name": "Webbers", "lister_url": "https://www.nestoria.co.uk/detail/0000000111705538978762234/title/5/95-7?serpUid=&pt=1&ot=1&l=somerset&did=105_high1&t_sec=9&t_or=45&t_pvid=null&utm_source=api&utm_medium=external", "listing_type": "buy", "location_accuracy": 9, "longitude": -3.05461, "price": 190000, "price_currency": "\u00a3", "price_formatted": "\u00a3190,000", "price_high": 190000, "price_low": 190000, "price_type": "fixed", "property_type": "house", "size": 0, "size_type": "net", "summary": "Open house saturday 22nd june 2019 10.00am 11.00amrarely available ...", "thumb_height": 60, "thumb_url": "https://imgs.nestimg.com/medium/2_bedroom_terraced_house_for_sale_111705538978762234.jpg", "thumb_width": 80, "title": "Hardys Road, Bathpool - Terraced", "updated_in_days": 4, "updated_in_days_formatted": "first seen 4 days ago"}, {"bathroom_number": "", "bedroom_number": 2, "car_spaces": 0, "commission": 0, "construction_year": 0, "datasource_name": "OnTheMarket.com", "img_height": 300, "img_url": "https://imgs.nestimg.com/2_bedroom_detached_bungalow_for_sale_111711536726517304.jpg", "img_width": 400, "keywords": "Detached, Garden, Garage, Bungalow", "latitude": 51.1712, "lister_url": "https://www.nestoria.co.uk/detail/0000000111711536726517304/title/5/95-8?serpUid=&pt=1&ot=1&l=somerset&did=105_high1&t_sec=9&t_or=45&t_pvid=null&utm_source=api&utm_medium=external", "listing_type": "buy", "location_accuracy": 9, "longitude": -2.78232, "price": 240000, "price_currency": "\u00a3", "price_formatted": "\u00a3240,000", "price_high": 240000, "price_low": 240000, "price_type": "fixed", "property_type": "house", "size": 0, "size_type": "net", "summary": "An individual detached bungalow, set back from the road with ample ...", "thumb_height": 60, "thumb_url": "https://imgs.nestimg.com/medium/2_bedroom_detached_bungalow_for_sale_111711536726517304.jpg", "thumb_width": 80, "title": "St. Marys Road, Meare - Bungalow", "updated_in_days": 3, "updated_in_days_formatted": "first seen 3 days ago"}, {"bathroom_number": "", "bedroom_number": 4, "car_spaces": 0, "commission": 0, "construction_year": 0, "datasource_name": "NetHousePrices", "img_height": 300, "img_url": "https://imgs.nestimg.com/4_bedroom_property_111656029081463719.jpg", "img_width": 400, "keywords": "Garden, En suite, Conservatory, Fireplace, Double Bedroom, Kitchen, Off Street Parking, Dishwasher, Patio, Cellar, Reception", "latitude": 51.3335, "lister_url": "https://www.nestoria.co.uk/detail/0000000111656029081463719/title/5/95-9?serpUid=&pt=1&ot=1&l=somerset&did=90_high1&t_sec=9&t_or=45&t_pvid=null&utm_source=api&utm_medium=external", "listing_type": "buy", "location_accuracy": 9, "longitude": -2.40888, "price": 560000, "price_currency": "\u00a3", "price_formatted": "\u00a3560,000", "price_high": 560000, "price_low": 560000, "price_type": "fixed", "property_type": "house", "size": 0, "size_type": "net", "summary": "Forming the majority of what was once an old coaching inn, you may ...", "thumb_height": 60, "thumb_url": "https://imgs.nestimg.com/medium/4_bedroom_property_111656029081463719.jpg", "thumb_width": 80, "title": "Dunkerton, Bath, Somerset, BA2", "updated_in_days": 12, "updated_in_days_formatted": "first seen last week"}, {"bathroom_number": "", "bedroom_number": 3, "car_spaces": 0, "commission": 0, "construction_year": 0, "datasource_name": "OnTheMarket.com", "img_height": 300, "img_url": "https://imgs.nestimg.com/3_bedroom_semi_detached_house_for_sale_111705542370021951.jpg", "img_width": 400, "keywords": "Garden, Semi-Detached, Kitchen, Reception", "latitude": 51.0106, "lister_url": "https://www.nestoria.co.uk/detail/0000000111705542370021951/title/5/95-10?serpUid=&pt=1&ot=1&l=somerset&did=105_high1&t_sec=9&t_or=45&t_pvid=null&utm_source=api&utm_medium=external", "listing_type": "buy", "location_accuracy": 9, "longitude": -3.08548, "price": 169950, "price_currency": "\u00a3", "price_formatted": "\u00a3169,950", "price_high": 169950, "price_low": 169950, "price_type": "fixed", "property_type": "house", "size": 0, "size_type": "net", "summary": "This ally three bedroom semi-detached home is located in the are of...", "thumb_height": 60, "thumb_url": "https://imgs.nestimg.com/medium/3_bedroom_semi_detached_house_for_sale_111705542370021951.jpg", "thumb_width": 80, "title": "Holway Road, Taunton - Reception", "updated_in_days": 4, "updated_in_days_formatted": "first seen 4 days ago"}, {"bathroom_number": "", "bedroom_number": 2, "car_spaces": 0, "commission": 0, "construction_year": 0, "datasource_name": "OnTheMarket.com", "img_height": 300, "img_url": "https://imgs.nestimg.com/2_bedroom_bungalow_for_sale_111717688309865398.jpg", "img_width": 400, "keywords": "Garden, Semi-Detached, Garage, Kitchen, Bungalow", "latitude": 51.2816, "lister_url": "https://www.nestoria.co.uk/detail/0000000111717688309865398/title/5/95-11?serpUid=&pt=1&ot=1&l=somerset&did=105_high1&t_sec=9&t_or=45&t_pvid=null&utm_source=api&utm_medium=external", "listing_type": "buy", "location_accuracy": 9, "longitude": -2.77493, "price": 230000, "price_currency": "\u00a3", "price_formatted": "\u00a3230,000", "price_high": 230000, "price_low": 230000, "price_type": "fixed", "property_type": "house", "size": 0, "size_type": "net", "summary": "Semi-detached bungalow location nice views garage and parking for 2...", "thumb_height": 60, "thumb_url": "https://imgs.nestimg.com/medium/2_bedroom_bungalow_for_sale_111717688309865398.jpg", "thumb_width": 80, "title": "Birch Close, Cheddar - Semi-Detached", "updated_in_days": 2, "updated_in_days_formatted": "first seen 2 days ago"}, {"bathroom_number": "", "bedroom_number": 4, "car_spaces": 0, "commission": 0, "construction_year": 0, "datasource_name": "OnTheMarket.com", "img_height": 300, "img_url": "https://imgs.nestimg.com/4_bedroom_detached_house_for_sale_111711527833549620.jpg", "img_width": 400, "keywords": "Detached", "latitude": 51.2287, "lister_name": "Berryman's", "lister_url": "https://www.nestoria.co.uk/detail/0000000111711527833549620/title/5/95-12?serpUid=&pt=1&ot=1&l=somerset&did=105_high1&t_sec=9&t_or=45&t_pvid=null&utm_source=api&utm_medium=external", "listing_type": "buy", "location_accuracy": 9, "longitude": -2.99378, "price": 289950, "price_currency": "\u00a3", "price_formatted": "\u00a3289,950", "price_high": 289950, "price_low": 289950, "price_type": "fixed", "property_type": "house", "size": 0, "size_type": "net", "summary": "Draft details four bedroom detached house set in a prime corner plo...", "thumb_height": 60, "thumb_url": "https://imgs.nestimg.com/medium/4_bedroom_detached_house_for_sale_111711527833549620.jpg", "thumb_width": 80, "title": "Atlantic Crescent, Burnham-On-Sea", "updated_in_days": 3, "updated_in_days_formatted": "first seen 3 days ago"}, {"bathroom_number": "", "bedroom_number": 3, "car_spaces": 0, "commission": 0, "construction_year": 0, "datasource_name": "OnTheMarket.com", "img_height": 300, "img_url": "https://imgs.nestimg.com/3_bedroom_detached_house_for_sale_111705542808269898.jpg", "img_width": 400, "keywords": "Detached, Kitchen", "latitude": 51.014214, "lister_url": "https://www.nestoria.co.uk/detail/0000000111705542808269898/title/5/95-13?serpUid=&pt=1&ot=1&l=somerset&did=105_high1&t_sec=9&t_or=45&t_pvid=null&utm_source=api&utm_medium=external", "listing_type": "buy", "location_accuracy": 9, "longitude": -3.048739, "price": 325000, "price_currency": "\u00a3", "price_formatted": "\u00a3325,000", "price_high": 325000, "price_low": 325000, "price_type": "fixed", "property_type": "house", "size": 0, "size_type": "net", "summary": "A rare opportunity to purchase this detached family home in need of...", "thumb_height": 60, "thumb_url": "https://imgs.nestimg.com/medium/3_bedroom_detached_house_for_sale_111705542808269898.jpg", "thumb_width": 80, "title": "Bushy Cross Lane, Ruishton - Detached", "updated_in_days": 4, "updated_in_days_formatted": "first seen 4 days ago"}, {"bathroom_number": "", "bedroom_number": 3, "car_spaces": 0, "commission": 0, "construction_year": 0, "datasource_name": "OnTheMarket.com", "img_height": 300, "img_url": "https://imgs.nestimg.com/3_bedroom_house_for_sale_111717697591553664.jpg", "img_width": 400, "keywords": "Garden, Semi-Detached, Kitchen, Parking", "latitude": 51.2783, "lister_url": "https://www.nestoria.co.uk/detail/0000000111717697591553664/title/5/95-14?serpUid=&pt=1&ot=1&l=somerset&did=105_high1&t_sec=9&t_or=45&t_pvid=null&utm_source=api&utm_medium=external", "listing_type": "buy", "location_accuracy": 9, "longitude": -2.78527, "price": 220000, "price_currency": "\u00a3", "price_formatted": "\u00a3220,000", "price_high": 220000, "price_low": 220000, "price_type": "fixed", "property_type": "house", "size": 0, "size_type": "net", "summary": "Semi-detached house two bedrooms living room kitchen family bathroo...", "thumb_height": 60, "thumb_url": "https://imgs.nestimg.com/medium/3_bedroom_house_for_sale_111717697591553664.jpg", "thumb_width": 80, "title": "Gough Place, Cheddar - Garden", "updated_in_days": 2, "updated_in_days_formatted": "first seen 2 days ago"}, {"bathroom_number": "", "bedroom_number": 5, "car_spaces": 0, "commission": 0, "construction_year": 0, "datasource_name": "OnTheMarket.com", "img_height": 300, "img_url": "https://imgs.nestimg.com/5_bedroom_detached_house_for_sale_111705544487036415.jpg", "img_width": 400, "keywords": "Detached, Garden, Garage, Kitchen, Modern", "latitude": 51.0609, "lister_url": "https://www.nestoria.co.uk/detail/0000000111705544487036415/title/5/95-15?serpUid=&pt=1&ot=1&l=somerset&did=105_high1&t_sec=9&t_or=45&t_pvid=null&utm_source=api&utm_medium=external", "listing_type": "buy", "location_accuracy": 9, "longitude": -3.1879, "price": 559950, "price_currency": "\u00a3", "price_formatted": "\u00a3559,950", "price_high": 559950, "price_low": 559950, "price_type": "fixed", "property_type": "house", "size": 0, "size_type": "net", "summary": "A modern detached 5 bedroom house, ly presented and peacefully situ...", "thumb_height": 60, "thumb_url": "https://imgs.nestimg.com/medium/5_bedroom_detached_house_for_sale_111705544487036415.jpg", "thumb_width": 80, "title": "Church Street, Bishops Lydeard, Taunton", "updated_in_days": 4, "updated_in_days_formatted": "first seen 4 days ago"}], "locations": [{"center_lat": 51.080967, "center_long": -3.045432, "long_title": "Somerset, county", "place_name": "somerset", "title": "Somerset"}], "page": 95, "sort": "nestoria_rank", "status_code": "200", "status_text": "OK", "thanks": "For using the Nestoria API.", "total_pages": 410, "total_results": 6149, "_cu5t0mP434m_": "remove"}}