{"request": {"country": "uk", "language": "en", "location": "somerset", "num_res": "15", "offset": 1425, "output": "json_xs", "page": 96, "product_type": "realestate", "property_type": "property", "size_type": "net", "size_unit": "m2", "sort": "nestoria_rank", "listing_type": "buy"}, "response": {"application_response_code": "100", "application_response_text": "listings returned for one unambiguous location", "attribution": {"img_height": 22, "img_url": "https://resources.nestimg.com/nestoria/img/pbr_v1.png", "img_width": 183, "link_to_img": "http://www.nestoria.com"}, "created_http": "Tue, 18 Jun 2019 17:31:05 GMT", "created_unix": 1560879065, "link_to_url": "https://www.nestoria.co.uk/somerset/property/buy/96", "listings": [{"bathroom_number": "", "bedroom_number": 3, "car_spaces": 0, "commission": 0, "construction_year": 0, "datasource_name": "OnTheMarket.com", "img_height": 300, "img_url": "https://imgs.nestimg.com/3_bedroom_house_for_sale_111711526381188039.jpg", "img_width": 400, "keywords": "Garden, Terraced, Parking", "latitude": 50.9688, "lister_name": "Webbers", "lister_url": "https://www.nestoria.co.uk/detail/0000000111711526381188039/title/5/96-1?serpUid=&pt=1&ot=1&l=somerset&did=105_high1&t_sec=9&t_or=45&t_pvid=null&utm_source=api&utm_medium=external", "listing_type": "buy", "location_accuracy": 9, "longitude": -3.24698, "price": 210000, "price_currency": "\u00a3", "price_formatted": "\u00a3210,000", "price_high": 210000, "price_low": 210000, "price_type": "fixed", "property_type": "house", "size": 0, "size_type": "net", "summary": "A well-presented 3 bedroom end of terrace property situated on this...", "thumb_height": 60, "thumb_url": "https://imgs.nestimg.com/medium/3_bedroom_house_for_sale_111711526381188039.jpg", "thumb_width": 80, "title": "Barrington Way, Wellington - Garden", "updated_in_days": 3, "updated_in_days_formatted": "first seen 3 days ago"}, {"bathroom_number": "", "bedroom_number": 2, "car_spaces": 0, "commission": 0, "construction_year": 0, "datasource_name": "OnTheMarket.com", "img_height": 300, "img_url": "https://imgs.nestimg.com/2_bedroom_semi_detached_house_for_sale_111371191629847865.jpg", "img_width": 400, "keywords": "Garden, Semi-Detached, Double Bedroom, Parking", "latitude": 51.1642, "lister_url": "https://www.nestoria.co.uk/detail/0000000111371191629847865/title/5/96-2?serpUid=&pt=1&ot=1&l=somerset&did=105_high1&t_sec=9&t_or=45&t_pvid=null&utm_source=api&utm_medium=external", "listing_type": "buy", "location_accuracy": 9, "longitude": -3.31784, "price": 185000, "price_currency": "\u00a3", "price_formatted": "\u00a3185,000", "price_high": 185000, "price_low": 185000, "price_type": "fixed", "property_type": "house", "size": 0, "size_type": "net", "summary": "Well presented, extended and modernised 2 double bedroom semi detac...", "thumb_height": 60, "thumb_url": "https://imgs.nestimg.com/medium/2_bedroom_semi_detached_house_for_sale_111371191629847865.jpg", "thumb_width": 80, "title": "North Croft, Williton - Garden", "updated_in_days": 3, "updated_in_days_formatted": "first seen 3 days ago"}, {"bathroom_number": "", "bedroom_number": 3, "car_spaces": 0, "commission": 0, "construction_year": 0, "datasource_name": "OnTheMarket.com", "img_height": 300, "img_url": "https://imgs.nestimg.com/3_bedroom_terraced_house_for_sale_111717692114315297.jpg", "img_width": 400, "keywords": "Garden, No Chain, Terraced, Kitchen, Parking, Reception, Gas Central Heating", "latitude": 51.2027, "lister_name": "Webbers", "lister_url": "https://www.nestoria.co.uk/detail/0000000111717692114315297/title/5/96-3?serpUid=&pt=1&ot=1&l=somerset&did=105_high1&t_sec=9&t_or=45&t_pvid=null&utm_source=api&utm_medium=external", "listing_type": "buy", "location_accuracy": 9, "longitude": -3.49395, "price": 189950, "price_currency": "\u00a3", "price_formatted": "\u00a3189,950", "price_high": 189950, "price_low": 189950, "price_type": "fixed", "property_type": "house", "size": 0, "size_type": "net", "summary": "A gas centrally heated and double glazed mid terraced family home w...", "thumb_height": 60, "thumb_url": "https://imgs.nestimg.com/medium/3_bedroom_terraced_house_for_sale_111717692114315297.jpg", "thumb_width": 80, "title": "Periton Way, Minehead - Reception", "updated_in_days": 2, "updated_in_days_formatted": "first seen 2 days ago"}, {"bathroom_number": "", "bedroom_number": 3, "car_spaces": 0, "commission": 0, "construction_year": 0, "datasource_name": "OnTheMarket.com", "img_height": 300, "img_url": "https://imgs.nestimg.com/3_bedroom_cottage_for_sale_111105677965528949.jpg", "img_width": 400, "keywords": "Detached, No Chain, Conservatory, Parking, Cottage", "latitude": 51.0938, "lister_url": "https://www.nestoria.co.uk/detail/0000000111105677965528949/title/5/96-4?serpUid=&pt=1&ot=1&l=somerset&did=105_high1&t_sec=9&t_or=45&t_pvid=null&utm_source=api&utm_medium=external", "listing_type": "buy", "location_accuracy": 9, "longitude": -3.19854, "price": 240000, "price_currency": "\u00a3", "price_formatted": "\u00a3240,000", "price_high": 240000, "price_low": 240000, "price_type": "fixed", "property_type": "house", "size": 0, "size_type": "net", "summary": "A 3 bedroom semi detached cottage with a conservatory and off road ...", "thumb_height": 60, "thumb_url": "https://imgs.nestimg.com/medium/3_bedroom_cottage_for_sale_111105677965528949.jpg", "thumb_width": 80, "title": "West Bagborough - Conservatory", "updated_in_days": 4, "updated_in_days_formatted": "first seen 4 days ago"}, {"bathroom_number": "", "bedroom_number": 2, "car_spaces": 0, "commission": 0, "construction_year": 0, "datasource_name": "OnTheMarket.com", "img_height": 300, "img_url": "https://imgs.nestimg.com/2_bedroom_cottage_for_sale_111705545045510020.jpg", "img_width": 400, "keywords": "Cottage", "latitude": 51.1268, "lister_name": "Haart", "lister_url": "https://www.nestoria.co.uk/detail/0000000111705545045510020/title/5/96-5?serpUid=&pt=1&ot=1&l=somerset&did=105_high1&t_sec=9&t_or=45&t_pvid=null&utm_source=api&utm_medium=external", "listing_type": "buy", "location_accuracy": 9, "longitude": -3.09873, "price": 189000, "price_currency": "\u00a3", "price_formatted": "\u00a3189,000", "price_high": 189000, "price_low": 189000, "price_type": "fixed", "property_type": "house", "size": 0, "size_type": "net", "summary": "Cottage in this rural village of spaxton, near the quantock hills. ...", "thumb_height": 60, "thumb_url": "https://imgs.nestimg.com/medium/2_bedroom_cottage_for_sale_111705545045510020.jpg", "thumb_width": 80, "title": "Four Forks Lane, Spaxton - Cottage", "updated_in_days": 4, "updated_in_days_formatted": "first seen 4 days ago"}, {"bathroom_number": "", "bedroom_number": 3, "car_spaces": 0, "commission": 0, "construction_year": 0, "datasource_name": "OnTheMarket.com", "img_height": 300, "img_url": "https://imgs.nestimg.com/3_bedroom_detached_house_for_sale_111717699250631320.jpg", "img_width": 400, "keywords": "Detached, Garden, Modern", "latitude": 51.3231, "lister_name": "Westcoast", "lister_url": "https://www.nestoria.co.uk/detail/0000000111717699250631320/title/5/96-6?serpUid=&pt=1&ot=1&l=somerset&did=105_high1&t_sec=9&t_or=45&t_pvid=null&utm_source=api&utm_medium=external", "listing_type": "buy", "location_accuracy": 9, "longitude": -2.97616, "price": 359950, "price_currency": "\u00a3", "price_formatted": "\u00a3359,950", "price_high": 359950, "price_low": 359950, "price_type": "fixed", "property_type": "house", "size": 0, "size_type": "net", "summary": "Well presented 3/4 bedroom detached house offering a versatile and ...", "thumb_height": 60, "thumb_url": "https://imgs.nestimg.com/medium/3_bedroom_detached_house_for_sale_111717699250631320.jpg", "thumb_width": 80, "title": "THE HEART OF UPHILL VILLAGE - Garden", "updated_in_days": 2, "updated_in_days_formatted": "first seen 2 days ago"}, {"bathroom_number": "", "bedroom_number": 3, "car_spaces": 0, "commission": 0, "construction_year": 0, "datasource_name": "OnTheMarket.com", "img_height": 300, "img_url": "https://imgs.nestimg.com/3_bedroom_end_of_terrace_house_for_sale_111705541185761881.jpg", "img_width": 400, "keywords": "Garden, Terraced, Kitchen, Parking, Gas Central Heating", "latitude": 51.055706, "lister_url": "https://www.nestoria.co.uk/detail/0000000111705541185761881/title/5/96-7?serpUid=&pt=1&ot=1&l=somerset&did=105_high1&t_sec=9&t_or=45&t_pvid=null&utm_source=api&utm_medium=external", "listing_type": "buy", "location_accuracy": 9, "longitude": -3.197198, "price": 230000, "price_currency": "\u00a3", "price_formatted": "\u00a3230,000", "price_high": 230000, "price_low": 230000, "price_type": "fixed", "property_type": "house", "size": 0, "size_type": "net", "summary": "A ly recently renovated 3 bedroom family home, situated in a sought...", "thumb_height": 60, "thumb_url": "https://imgs.nestimg.com/medium/3_bedroom_end_of_terrace_house_for_sale_111705541185761881.jpg", "thumb_width": 80, "title": "Greenway, Bishop`s Lydeard - Garden", "updated_in_days": 4, "updated_in_days_formatted": "first seen 4 days ago"}, {"bathroom_number": "", "bedroom_number": 3, "car_spaces": 0, "commission": 0, "construction_year": 0, "datasource_name": "OnTheMarket.com", "img_height": 300, "img_url": "https://imgs.nestimg.com/3_bedroom_semi_detached_house_for_sale_111711532438196375.jpg", "img_width": 400, "keywords": "Garden, Semi-Detached, Detached Garage", "latitude": 50.8674, "lister_url": "https://www.nestoria.co.uk/detail/0000000111711532438196375/title/5/96-8?serpUid=&pt=1&ot=1&l=somerset&did=105_high1&t_sec=9&t_or=45&t_pvid=null&utm_source=api&utm_medium=external", "listing_type": "buy", "location_accuracy": 9, "longitude": -2.96152, "price": 180000, "price_currency": "\u00a3", "price_formatted": "\u00a3180,000", "price_high": 180000, "price_low": 180000, "price_type": "fixed", "property_type": "house", "size": 0, "size_type": "net", "summary": "A three bedroom semi detached house that requires modernising throu...", "thumb_height": 60, "thumb_url": "https://imgs.nestimg.com/medium/3_bedroom_semi_detached_house_for_sale_111711532438196375.jpg", "thumb_width": 80, "title": "King Alfred Drive, Chard - Garden", "updated_in_days": 3, "updated_in_days_formatted": "first seen 3 days ago"}, {"bathroom_number": "", "bedroom_number": 4, "car_spaces": 0, "commission": 0, "construction_year": 0, "datasource_name": "NetHousePrices", "img_height": 300, "img_url": "https://imgs.nestimg.com/4_bedroom_detached_house_111495023156288723.jpg", "img_width": 400, "keywords": "Detached, Garden, En suite, Fireplace, Double Bedroom, Garage, Kitchen, Patio, Cul-de-Sac, Gas Central Heating", "latitude": 51.31927, "lister_name": "Express", "lister_url": "https://www.nestoria.co.uk/detail/0000000111495023156288723/title/5/96-9?serpUid=&pt=1&ot=1&l=somerset&did=90_high1&t_sec=9&t_or=45&t_pvid=null&utm_source=api&utm_medium=external", "listing_type": "buy", "location_accuracy": 9, "longitude": -2.4149954, "price": 330000, "price_currency": "\u00a3", "price_formatted": "\u00a3330,000", "price_high": 330000, "price_low": 330000, "price_type": "fixed", "property_type": "house", "size": 0, "size_type": "net", "summary": "And well-presented four bedroom detached house which is situated wi...", "thumb_height": 60, "thumb_url": "https://imgs.nestimg.com/medium/4_bedroom_detached_house_111495023156288723.jpg", "thumb_width": 80, "title": "Under Knoll, Peasedown St. John, Bath, Somerset, BA2", "updated_in_days": 24, "updated_in_days_formatted": "first seen 3 weeks ago"}, {"bathroom_number": "", "bedroom_number": 1, "car_spaces": 0, "commission": 0, "construction_year": 0, "datasource_name": "OnTheMarket.com", "img_height": 300, "img_url": "https://imgs.nestimg.com/1_bedroom_park_home_for_sale_111457719846881688.jpg", "img_width": 400, "keywords": "Garage, Kitchen, Gas Central Heating", "latitude": 51.00569, "lister_url": "https://www.nestoria.co.uk/detail/0000000111457719846881688/title/5/96-10?serpUid=&pt=1&ot=1&l=somerset&did=105_high1&t_sec=9&t_or=45&t_pvid=null&utm_source=api&utm_medium=external", "listing_type": "buy", "location_accuracy": 9, "longitude": -2.7653992, "price": 65000, "price_currency": "\u00a3", "price_formatted": "\u00a365,000", "price_high": 65000, "price_low": 65000, "price_type": "fixed", "property_type": "property", "size": 0, "size_type": "net", "summary": "Located in the select village of long load which is a short distanc...", "thumb_height": 60, "thumb_url": "https://imgs.nestimg.com/medium/1_bedroom_park_home_for_sale_111457719846881688.jpg", "thumb_width": 80, "title": "College Close, Long Load, TA10", "updated_in_days": 3, "updated_in_days_formatted": "first seen 3 days ago"}, {"bathroom_number": "", "bedroom_number": 1, "car_spaces": 0, "commission": 0, "construction_year": 0, "datasource_name": "OnTheMarket.com", "img_height": 300, "img_url": "https://imgs.nestimg.com/1_bedroom_retirement_property_for_sale_110914523877708297.jpg", "img_width": 400, "keywords": "Shared Garden, No Chain", "latitude": 51.1244, "lister_name": "Cooper & Tanner", "lister_url": "https://www.nestoria.co.uk/detail/0000000110914523877708297/title/5/96-11?serpUid=&pt=1&ot=1&l=somerset&did=105_high1&t_sec=9&t_or=45&t_pvid=null&utm_source=api&utm_medium=external", "listing_type": "buy", "location_accuracy": 9, "longitude": -2.74516, "price": 85000, "price_currency": "\u00a3", "price_formatted": "\u00a385,000", "price_high": 85000, "price_low": 85000, "price_type": "fixed", "property_type": "property", "size": 0, "size_type": "net", "summary": "A well presented and naturally light second floor apartment within ...", "thumb_height": 60, "thumb_url": "https://imgs.nestimg.com/medium/1_bedroom_retirement_property_for_sale_110914523877708297.jpg", "thumb_width": 80, "title": "Oxendale, Street - Garden, No Chain", "updated_in_days": 3, "updated_in_days_formatted": "first seen 3 days ago"}, {"bathroom_number": "", "bedroom_number": 4, "car_spaces": 0, "commission": 0, "construction_year": 0, "datasource_name": "OnTheMarket.com", "img_height": 300, "img_url": "https://imgs.nestimg.com/4_bedroom_detached_bungalow_for_sale_111699713500159994.jpg", "img_width": 400, "keywords": "Detached, No Chain, Conservatory, Kitchen, Bungalow", "latitude": 51.0913, "lister_name": "Gibbins Richards", "lister_url": "https://www.nestoria.co.uk/detail/0000000111699713500159994/title/5/96-12?serpUid=&pt=1&ot=1&l=somerset&did=105_high1&t_sec=9&t_or=45&t_pvid=null&utm_source=api&utm_medium=external", "listing_type": "buy", "location_accuracy": 9, "longitude": -3.01397, "price": 435000, "price_currency": "\u00a3", "price_formatted": "\u00a3435,000", "price_high": 435000, "price_low": 435000, "price_type": "fixed", "property_type": "house", "size": 0, "size_type": "net", "summary": "A and highly four bedroom detached chalet bungalow with no onward c...", "thumb_height": 60, "thumb_url": "https://imgs.nestimg.com/medium/4_bedroom_detached_bungalow_for_sale_111699713500159994.jpg", "thumb_width": 80, "title": "North Petherton, Nr. Bridgwater", "updated_in_days": 5, "updated_in_days_formatted": "first seen 5 days ago"}, {"bathroom_number": "", "bedroom_number": 3, "car_spaces": 0, "commission": 0, "construction_year": 0, "datasource_name": "OnTheMarket.com", "img_height": 300, "img_url": "https://imgs.nestimg.com/3_bedroom_semi_detached_house_for_sale_111427150871472739.jpg", "img_width": 400, "keywords": "Garden, Semi-Detached, Fireplace, Double Bedroom, Kitchen, Dishwasher, Cottage, Reception", "latitude": 50.915497, "lister_url": "https://www.nestoria.co.uk/detail/0000000111427150871472739/title/5/96-13?serpUid=&pt=1&ot=1&l=somerset&did=105_high1&t_sec=9&t_or=45&t_pvid=null&utm_source=api&utm_medium=external", "listing_type": "buy", "location_accuracy": 9, "longitude": -2.7516136, "price": 225000, "price_currency": "\u00a3", "price_formatted": "\u00a3225,000", "price_high": 225000, "price_low": 225000, "price_type": "fixed", "property_type": "house", "size": 0, "size_type": "net", "summary": "Set in the somerset countryside this 3 double bedroom hamstone prop...", "thumb_height": 60, "thumb_url": "https://imgs.nestimg.com/medium/3_bedroom_semi_detached_house_for_sale_111427150871472739.jpg", "thumb_width": 80, "title": "Middle Chinnock, Crewkerne, TA18", "updated_in_days": 3, "updated_in_days_formatted": "first seen 3 days ago"}, {"bathroom_number": "", "bedroom_number": 1, "car_spaces": 0, "commission": 0, "construction_year": 0, "datasource_name": "OnTheMarket.com", "img_height": 300, "img_url": "https://imgs.nestimg.com/1_bedroom_semi_detached_house_for_sale_111705541451887416.jpg", "img_width": 400, "keywords": "Semi-Detached", "latitude": 51.0122, "lister_name": "Webbers", "lister_url": "https://www.nestoria.co.uk/detail/0000000111705541451887416/title/5/96-14?serpUid=&pt=1&ot=1&l=somerset&did=105_high1&t_sec=9&t_or=45&t_pvid=null&utm_source=api&utm_medium=external", "listing_type": "buy", "location_accuracy": 9, "longitude": -3.07391, "price": 137000, "price_currency": "\u00a3", "price_formatted": "\u00a3137,000", "price_high": 137000, "price_low": 137000, "price_type": "fixed", "property_type": "house", "size": 0, "size_type": "net", "summary": "Open house saturday 15th june 2019 10.00am 11.00amcatch it whilst i...", "thumb_height": 60, "thumb_url": "https://imgs.nestimg.com/medium/1_bedroom_semi_detached_house_for_sale_111705541451887416.jpg", "thumb_width": 80, "title": "Ashbourne Crescent, Taunton", "updated_in_days": 4, "updated_in_days_formatted": "first seen 4 days ago"}, {"bathroom_number": "", "bedroom_number": 7, "car_spaces": 0, "commission": 0, "construction_year": 0, "datasource_name": "OnTheMarket.com", "img_height": 300, "img_url": "https://imgs.nestimg.com/7_bedroom_detached_house_for_sale_111711527531978912.jpg", "img_width": 400, "keywords": "Detached, Kitchen, Swimming Pool, Cottage, Reception, Georgian", "latitude": 50.8924, "lister_name": "Stags", "lister_url": "https://www.nestoria.co.uk/detail/0000000111711527531978912/title/5/96-15?serpUid=&pt=1&ot=1&l=somerset&did=105_high1&t_sec=9&t_or=45&t_pvid=null&utm_source=api&utm_medium=external", "listing_type": "buy", "location_accuracy": 9, "longitude": -3.26665, "price": 1000000, "price_currency": "\u00a3", "price_formatted": "\u00a31,000,000", "price_high": 1000000, "price_low": 1000000, "price_type": "fixed", "property_type": "house", "size": 0, "size_type": "net", "summary": "A south facing late georgian country residence with three bed self ...", "thumb_height": 60, "thumb_url": "https://imgs.nestimg.com/medium/7_bedroom_detached_house_for_sale_111711527531978912.jpg", "thumb_width": 80, "title": "Blackborough, Blackborough, Cullompton, Devon, EX15", "updated_in_days": 3, "updated_in_days_formatted": "first seen 3 days ago"}], "locations": [{"center_lat": 51.080967, "center_long": -3.045432, "long_title": "Somerset, county", "place_name": "somerset", "title": "Somerset"}], "page": 96, "sort": "nestoria_rank", "status_code": "200", "status_text": "OK", "thanks": "For using the Nestoria API.", "total_pages": 410, "total_results": 6149, "_cu5t0mP434m_": "remove"}}