{"request": {"country": "uk", "language": "en", "location": "somerset", "num_res": "15", "offset": 1440, "output": "json_xs", "page": 97, "product_type": "realestate", "property_type": "property", "size_type": "net", "size_unit": "m2", "sort": "nestoria_rank", "listing_type": "buy"}, "response": {"application_response_code": "100", "application_response_text": "listings returned for one unambiguous location", "attribution": {"img_height": 22, "img_url": "https://resources.nestimg.com/nestoria/img/pbr_v1.png", "img_width": 183, "link_to_img": "http://www.nestoria.com"}, "created_http": "Tue, 18 Jun 2019 17:31:06 GMT", "created_unix": 1560879066, "link_to_url": "https://www.nestoria.co.uk/somerset/property/buy/97", "listings": [{"bathroom_number": "", "bedroom_number": 2, "car_spaces": 0, "commission": 0, "construction_year": 0, "datasource_name": "OnTheMarket.com", "img_height": 300, "img_url": "https://imgs.nestimg.com/2_bedroom_end_of_terrace_house_for_sale_111717699622433732.jpg", "img_width": 400, "keywords": "Garden, En suite, Terraced, Double Bedroom, Kitchen, Parking", "latitude": 50.95869, "lister_url": "https://www.nestoria.co.uk/detail/0000000111717699622433732/title/5/97-1?serpUid=&pt=1&ot=1&l=somerset&did=105_high1&t_sec=9&t_or=45&t_pvid=null&utm_source=api&utm_medium=external", "listing_type": "buy", "location_accuracy": 9, "longitude": -2.6017888, "price": 170000, "price_currency": "\u00a3", "price_formatted": "\u00a3170,000", "price_high": 170000, "price_low": 170000, "price_type": "fixed", "property_type": "house", "size": 0, "size_type": "net", "summary": "Hidden away this two double bedroom end of terrace property with tw...", "thumb_height": 60, "thumb_url": "https://imgs.nestimg.com/medium/2_bedroom_end_of_terrace_house_for_sale_111717699622433732.jpg", "thumb_width": 80, "title": "Great Mead, Yeovil, BA21 - Terraced", "updated_in_days": 2, "updated_in_days_formatted": "first seen 2 days ago"}, {"bathroom_number": "", "bedroom_number": 3, "car_spaces": 0, "commission": 0, "construction_year": 0, "datasource_name": "OnTheMarket.com", "img_height": 300, "img_url": "https://imgs.nestimg.com/3_bedroom_detached_house_for_sale_111445537351119730.jpg", "img_width": 400, "keywords": "Detached, Garage", "latitude": 51.1874, "lister_name": "Gibbins Richards", "lister_url": "https://www.nestoria.co.uk/detail/0000000111445537351119730/title/5/97-2?serpUid=&pt=1&ot=1&l=somerset&did=105_high1&t_sec=9&t_or=45&t_pvid=null&utm_source=api&utm_medium=external", "listing_type": "buy", "location_accuracy": 9, "longitude": -3.08334, "price": 359950, "price_currency": "\u00a3", "price_formatted": "\u00a3359,950", "price_high": 359950, "price_low": 359950, "price_type": "fixed", "property_type": "house", "size": 0, "size_type": "net", "summary": "Energy rating: d-64. A most and double fronted period home ly situa...", "thumb_height": 60, "thumb_url": "https://imgs.nestimg.com/medium/3_bedroom_detached_house_for_sale_111445537351119730.jpg", "thumb_width": 80, "title": "Stockland Bristol, Nr. Bridgwater", "updated_in_days": 4, "updated_in_days_formatted": "first seen 4 days ago"}, {"bathroom_number": "", "bedroom_number": 3, "car_spaces": 0, "commission": 0, "construction_year": 0, "datasource_name": "OnTheMarket.com", "img_height": 300, "img_url": "https://imgs.nestimg.com/3_bedroom_end_of_terrace_house_for_sale_111717698704980785.jpg", "img_width": 400, "keywords": "Terraced, Victorian, Double Bedroom", "latitude": 51.2029, "lister_url": "https://www.nestoria.co.uk/detail/0000000111717698704980785/title/5/97-3?serpUid=&pt=1&ot=1&l=somerset&did=105_high1&t_sec=9&t_or=45&t_pvid=null&utm_source=api&utm_medium=external", "listing_type": "buy", "location_accuracy": 9, "longitude": -2.65055, "price": 310000, "price_currency": "\u00a3", "price_formatted": "\u00a3310,000", "price_high": 310000, "price_low": 310000, "price_type": "fixed", "property_type": "house", "size": 0, "size_type": "net", "summary": "Victorian property with potential to develop the ground floor area ...", "thumb_height": 60, "thumb_url": "https://imgs.nestimg.com/medium/3_bedroom_end_of_terrace_house_for_sale_111717698704980785.jpg", "thumb_width": 80, "title": "Alfred Street, Wells - Victorian", "updated_in_days": 2, "updated_in_days_formatted": "first seen 2 days ago"}, {"bathroom_number": "", "bedroom_number": 3, "car_spaces": 0, "commission": 0, "construction_year": 0, "datasource_name": "OnTheMarket.com", "img_height": 300, "img_url": "https://imgs.nestimg.com/3_bedroom_house_for_sale_111717699187088547.jpg", "img_width": 400, "keywords": "Garden, Kitchen, Parking, Patio, Reception", "latitude": 50.947075, "lister_url": "https://www.nestoria.co.uk/detail/0000000111717699187088547/title/5/97-4?serpUid=&pt=1&ot=1&l=somerset&did=105_high1&t_sec=9&t_or=45&t_pvid=null&utm_source=api&utm_medium=external", "listing_type": "buy", "location_accuracy": 9, "longitude": -2.6234658, "price": 160000, "price_currency": "\u00a3", "price_formatted": "\u00a3160,000", "price_high": 160000, "price_low": 160000, "price_type": "fixed", "property_type": "house", "size": 0, "size_type": "net", "summary": "Well presented three bedroom family home benefiting from off road p...", "thumb_height": 60, "thumb_url": "https://imgs.nestimg.com/medium/3_bedroom_house_for_sale_111717699187088547.jpg", "thumb_width": 80, "title": "Grass Royal, Yeovil, BA21 - Garden", "updated_in_days": 2, "updated_in_days_formatted": "first seen 2 days ago"}, {"bathroom_number": "", "bedroom_number": 2, "car_spaces": 0, "commission": 0, "construction_year": 0, "datasource_name": "OnTheMarket.com", "img_height": 300, "img_url": "https://imgs.nestimg.com/2_bedroom_terraced_house_for_sale_111711529660952688.jpg", "img_width": 400, "keywords": "Garden, Terraced, Kitchen, Cottage", "latitude": 51.1442, "lister_name": "Tor Estates", "lister_url": "https://www.nestoria.co.uk/detail/0000000111711529660952688/title/5/97-5?serpUid=&pt=1&ot=1&l=somerset&did=105_high1&t_sec=9&t_or=45&t_pvid=null&utm_source=api&utm_medium=external", "listing_type": "buy", "location_accuracy": 9, "longitude": -2.71233, "price": 199950, "price_currency": "\u00a3", "price_formatted": "\u00a3199,950", "price_high": 199950, "price_low": 199950, "price_type": "fixed", "property_type": "house", "size": 0, "size_type": "net", "summary": "A two bedroom middle terrace cottage, with a sized rear garden, loc...", "thumb_height": 60, "thumb_url": "https://imgs.nestimg.com/medium/2_bedroom_terraced_house_for_sale_111711529660952688.jpg", "thumb_width": 80, "title": "Bere Lane, Glastonbury - Terraced", "updated_in_days": 3, "updated_in_days_formatted": "first seen 3 days ago"}, {"bathroom_number": "", "bedroom_number": 2, "car_spaces": 0, "commission": 0, "construction_year": 0, "datasource_name": "OnTheMarket.com", "img_height": 300, "img_url": "https://imgs.nestimg.com/2_bedroom_terraced_house_for_sale_111711535943788070.jpg", "img_width": 400, "keywords": "Garden, No Chain, Terraced, Double Bedroom, Parking, Cul-de-Sac, Gas Central Heating", "latitude": 50.9063, "lister_name": "Wilkie May & Tuckwood", "lister_url": "https://www.nestoria.co.uk/detail/0000000111711535943788070/title/5/97-6?serpUid=&pt=1&ot=1&l=somerset&did=105_high1&t_sec=9&t_or=45&t_pvid=null&utm_source=api&utm_medium=external", "listing_type": "buy", "location_accuracy": 9, "longitude": -3.33079, "price": 145000, "price_currency": "\u00a3", "price_formatted": "\u00a3145,000", "price_high": 145000, "price_low": 145000, "price_type": "fixed", "property_type": "house", "size": 0, "size_type": "net", "summary": "Situated in the sought after village of uffculme and close to uffcu...", "thumb_height": 60, "thumb_url": "https://imgs.nestimg.com/medium/2_bedroom_terraced_house_for_sale_111711535943788070.jpg", "thumb_width": 80, "title": "Highland Terrace, Uffculme, Cullompton EX15", "updated_in_days": 3, "updated_in_days_formatted": "first seen 3 days ago"}, {"bathroom_number": 2, "bedroom_number": 3, "car_spaces": 0, "commission": 0, "construction_year": 0, "datasource_name": "OnTheMarket.com", "img_height": 300, "img_url": "https://imgs.nestimg.com/3_bedroom_semi_detached_house_for_sale_111717698854665728.jpg", "img_width": 400, "keywords": "Garden, Semi-Detached, No Chain, Parking", "latitude": 50.91167, "lister_url": "https://www.nestoria.co.uk/detail/0000000111717698854665728/title/5/97-7?serpUid=&pt=1&ot=1&l=somerset&did=105_high1&t_sec=9&t_or=45&t_pvid=null&utm_source=api&utm_medium=external", "listing_type": "buy", "location_accuracy": 9, "longitude": -3.4973931, "price": 220000, "price_currency": "\u00a3", "price_formatted": "\u00a3220,000", "price_high": 220000, "price_low": 220000, "price_type": "fixed", "property_type": "house", "size": 0, "size_type": "net", "summary": "Nearly new semi detached house on the edge of tiverton, offering li...", "thumb_height": 60, "thumb_url": "https://imgs.nestimg.com/medium/3_bedroom_semi_detached_house_for_sale_111717698854665728.jpg", "thumb_width": 80, "title": "Elton Close, Tiverton - No Chain", "updated_in_days": 2, "updated_in_days_formatted": "first seen 2 days ago"}, {"bathroom_number": "", "bedroom_number": 2, "car_spaces": 0, "commission": 0, "construction_year": 0, "datasource_name": "OnTheMarket.com", "img_height": 300, "img_url": "https://imgs.nestimg.com/2_bedroom_apartment_for_sale_111711536476943678.jpg", "img_width": 400, "keywords": "Conversion, Kitchen", "latitude": 50.8763, "lister_url": "https://www.nestoria.co.uk/detail/0000000111711536476943678/title/5/97-8?serpUid=&pt=1&ot=1&l=somerset&did=105_high1&t_sec=9&t_or=45&t_pvid=null&utm_source=api&utm_medium=external", "listing_type": "buy", "location_accuracy": 9, "longitude": -2.97555, "price": 135000, "price_currency": "\u00a3", "price_formatted": "\u00a3135,000", "price_high": 135000, "price_low": 135000, "price_type": "fixed", "property_type": "flat", "size": 0, "size_type": "net", "summary": "A ly presented ground floor apartment located in a converted period...", "thumb_height": 60, "thumb_url": "https://imgs.nestimg.com/medium/2_bedroom_apartment_for_sale_111711536476943678.jpg", "thumb_width": 80, "title": "Rackclose Gardens, Chard - Conversion", "updated_in_days": 3, "updated_in_days_formatted": "first seen 3 days ago"}, {"bathroom_number": "", "bedroom_number": 2, "car_spaces": 0, "commission": 0, "construction_year": 0, "datasource_name": "NetHousePrices", "img_height": 300, "img_url": "https://imgs.nestimg.com/2_bedroom_terraced_house_110035823217042876.jpg", "img_width": 400, "keywords": "Garden, Fireplace, Refurbished, Terraced, Wood Floor, Double Bedroom, Kitchen, Parking, Reception", "latitude": 51.31862, "lister_url": "https://www.nestoria.co.uk/detail/0000000110035823217042876/title/5/97-9?serpUid=&pt=1&ot=1&l=somerset&did=90_high1&t_sec=9&t_or=45&t_pvid=null&utm_source=api&utm_medium=external", "listing_type": "buy", "location_accuracy": 9, "longitude": -2.4288082, "price": 230000, "price_currency": "\u00a3", "price_formatted": "\u00a3230,000", "price_high": 230000, "price_low": 230000, "price_type": "fixed", "property_type": "house", "size": 0, "size_type": "net", "summary": "This refurbished period home has been carefully renovated seamlessl...", "thumb_height": 60, "thumb_url": "https://imgs.nestimg.com/medium/2_bedroom_terraced_house_110035823217042876.jpg", "thumb_width": 80, "title": "Hillside View, Peasedown St. John, Bath, Somerset, BA2", "updated_in_days": 155, "updated_in_days_formatted": "first seen over a month ago"}, {"bathroom_number": "", "bedroom_number": 3, "car_spaces": 0, "commission": 0, "construction_year": 0, "datasource_name": "OnTheMarket.com", "img_height": 300, "img_url": "https://imgs.nestimg.com/3_bedroom_apartment_for_sale_111717697443976613.jpg", "img_width": 400, "keywords": "Shared Garden, Kitchen, Parking", "latitude": 50.940403, "lister_url": "https://www.nestoria.co.uk/detail/0000000111717697443976613/title/5/97-10?serpUid=&pt=1&ot=1&l=somerset&did=105_high1&t_sec=9&t_or=45&t_pvid=null&utm_source=api&utm_medium=external", "listing_type": "buy", "location_accuracy": 9, "longitude": -2.6343446, "price": 150000, "price_currency": "\u00a3", "price_formatted": "\u00a3150,000", "price_high": 150000, "price_low": 150000, "price_type": "fixed", "property_type": "flat", "size": 0, "size_type": "net", "summary": "Positioned in the heart of town and located in a building, this hug...", "thumb_height": 60, "thumb_url": "https://imgs.nestimg.com/medium/3_bedroom_apartment_for_sale_111717697443976613.jpg", "thumb_width": 80, "title": "Flowers House, Yeovil, BA20 - Garden", "updated_in_days": 2, "updated_in_days_formatted": "first seen 2 days ago"}, {"bathroom_number": "", "bedroom_number": 3, "car_spaces": 0, "commission": 0, "construction_year": 0, "datasource_name": "OnTheMarket.com", "img_height": 300, "img_url": "https://imgs.nestimg.com/3_bedroom_bungalow_for_sale_111359020702026988.jpg", "img_width": 400, "keywords": "Garden, Garage, Kitchen, Bungalow", "latitude": 50.8599, "lister_name": "Stags", "lister_url": "https://www.nestoria.co.uk/detail/0000000111359020702026988/title/5/97-11?serpUid=&pt=1&ot=1&l=somerset&did=105_high1&t_sec=9&t_or=45&t_pvid=null&utm_source=api&utm_medium=external", "listing_type": "buy", "location_accuracy": 9, "longitude": -3.12024, "price": 450000, "price_currency": "\u00a3", "price_formatted": "\u00a3450,000", "price_high": 450000, "price_low": 450000, "price_type": "fixed", "property_type": "house", "size": 0, "size_type": "net", "summary": "Extended individual bungalow with no near neighbours just outside t...", "thumb_height": 60, "thumb_url": "https://imgs.nestimg.com/medium/3_bedroom_bungalow_for_sale_111359020702026988.jpg", "thumb_width": 80, "title": "Sandys Lane, Upottery, Honiton, Devon, EX14", "updated_in_days": 3, "updated_in_days_formatted": "first seen 3 days ago"}, {"bathroom_number": "", "bedroom_number": 2, "car_spaces": 0, "commission": 0, "construction_year": 0, "datasource_name": "OnTheMarket.com", "img_height": 300, "img_url": "https://imgs.nestimg.com/2_bedroom_semi_detached_house_for_sale_111717693527033176.jpg", "img_width": 400, "keywords": "Semi-Detached", "latitude": 51.2129, "lister_name": "Roderick Thomas", "lister_url": "https://www.nestoria.co.uk/detail/0000000111717693527033176/title/5/97-12?serpUid=&pt=1&ot=1&l=somerset&did=105_high1&t_sec=9&t_or=45&t_pvid=null&utm_source=api&utm_medium=external", "listing_type": "buy", "location_accuracy": 9, "longitude": -2.63842, "price": 260000, "price_currency": "\u00a3", "price_formatted": "\u00a3260,000", "price_high": 260000, "price_low": 260000, "price_type": "fixed", "property_type": "house", "size": 0, "size_type": "net", "summary": "A period property with a separate studio building in an location on...", "thumb_height": 60, "thumb_url": "https://imgs.nestimg.com/medium/2_bedroom_semi_detached_house_for_sale_111717693527033176.jpg", "thumb_width": 80, "title": "St. Thomas Street, central Wells", "updated_in_days": 2, "updated_in_days_formatted": "first seen 2 days ago"}, {"bathroom_number": "", "bedroom_number": 3, "car_spaces": 0, "commission": 0, "construction_year": 0, "datasource_name": "OnTheMarket.com", "img_height": 300, "img_url": "https://imgs.nestimg.com/3_bedroom_semi_detached_house_for_sale_111711534404552795.jpg", "img_width": 400, "keywords": "Freehold, Semi-Detached, En suite, No Chain, Terraced, Kitchen", "latitude": 51.333767, "lister_name": "Westcoast", "lister_url": "https://www.nestoria.co.uk/detail/0000000111711534404552795/title/5/97-13?serpUid=&pt=1&ot=1&l=somerset&did=105_high1&t_sec=9&t_or=45&t_pvid=null&utm_source=api&utm_medium=external", "listing_type": "buy", "location_accuracy": 9, "longitude": -2.952138, "price": 219950, "price_currency": "\u00a3", "price_formatted": "\u00a3219,950", "price_high": 219950, "price_low": 219950, "price_type": "fixed", "property_type": "house", "size": 0, "size_type": "net", "summary": "Offered to the market with the benefit of no onward chain this well...", "thumb_height": 60, "thumb_url": "https://imgs.nestimg.com/medium/3_bedroom_semi_detached_house_for_sale_111711534404552795.jpg", "thumb_width": 80, "title": "HAYWOOD VILLAGE - Terraced, En Suite", "updated_in_days": 3, "updated_in_days_formatted": "first seen 3 days ago"}, {"bathroom_number": "", "bedroom_number": 4, "car_spaces": 0, "commission": 0, "construction_year": 0, "datasource_name": "OnTheMarket.com", "img_height": 300, "img_url": "https://imgs.nestimg.com/4_bedroom_terraced_house_for_sale_111711528698980539.jpg", "img_width": 400, "keywords": "Terraced", "latitude": 51.1509, "lister_name": "Cooper & Tanner", "lister_url": "https://www.nestoria.co.uk/detail/0000000111711528698980539/title/5/97-14?serpUid=&pt=1&ot=1&l=somerset&did=105_high1&t_sec=9&t_or=45&t_pvid=null&utm_source=api&utm_medium=external", "listing_type": "buy", "location_accuracy": 9, "longitude": -2.71716, "price": 285000, "price_currency": "\u00a3", "price_formatted": "\u00a3285,000", "price_high": 285000, "price_low": 285000, "price_type": "fixed", "property_type": "house", "size": 0, "size_type": "net", "summary": "Centrally located period home with plenty of potential and lots of ...", "thumb_height": 60, "thumb_url": "https://imgs.nestimg.com/medium/4_bedroom_terraced_house_for_sale_111711528698980539.jpg", "thumb_width": 80, "title": "Manor House Road, Glastonbury", "updated_in_days": 3, "updated_in_days_formatted": "first seen 3 days ago"}, {"bathroom_number": "", "bedroom_number": 4, "car_spaces": 0, "commission": 0, "construction_year": 0, "datasource_name": "OnTheMarket.com", "img_height": 300, "img_url": "https://imgs.nestimg.com/4_bedroom_semi_detached_house_for_sale_109751502654736955.jpg", "img_width": 400, "keywords": "Garden, Semi-Detached, Detached Garage, Kitchen, Cottage, Reception", "latitude": 51.2235, "lister_url": "https://www.nestoria.co.uk/detail/0000000109751502654736955/title/5/97-15?serpUid=&pt=1&ot=1&l=somerset&did=105_high1&t_sec=9&t_or=45&t_pvid=null&utm_source=api&utm_medium=external", "listing_type": "buy", "location_accuracy": 9, "longitude": -2.92035, "price": 380000, "price_currency": "\u00a3", "price_formatted": "\u00a3380,000", "price_high": 380000, "price_low": 380000, "price_type": "fixed", "property_type": "house", "size": 0, "size_type": "net", "summary": "A semi-detached cottage offering views of brent knoll, with drivewa...", "thumb_height": 60, "thumb_url": "https://imgs.nestimg.com/medium/4_bedroom_semi_detached_house_for_sale_109751502654736955.jpg", "thumb_width": 80, "title": "House for sale, The Causeway - Garden", "updated_in_days": 4, "updated_in_days_formatted": "first seen 4 days ago"}], "locations": [{"center_lat": 51.080967, "center_long": -3.045432, "long_title": "Somerset, county", "place_name": "somerset", "title": "Somerset"}], "page": 97, "sort": "nestoria_rank", "status_code": "200", "status_text": "OK", "thanks": "For using the Nestoria API.", "total_pages": 410, "total_results": 6149, "_cu5t0mP434m_": "remove"}}