{"request": {"country": "uk", "language": "en", "location": "somerset", "num_res": "15", "offset": 1455, "output": "json_xs", "page": 98, "product_type": "realestate", "property_type": "property", "size_type": "net", "size_unit": "m2", "sort": "nestoria_rank", "listing_type": "buy"}, "response": {"application_response_code": "100", "application_response_text": "listings returned for one unambiguous location", "attribution": {"img_height": 22, "img_url": "https://resources.nestimg.com/nestoria/img/pbr_v1.png", "img_width": 183, "link_to_img": "http://www.nestoria.com"}, "created_http": "Tue, 18 Jun 2019 17:31:08 GMT", "created_unix": 1560879068, "link_to_url": "https://www.nestoria.co.uk/somerset/property/buy/98", "listings": [{"bathroom_number": "", "bedroom_number": 5, "car_spaces": 0, "commission": 0, "construction_year": 0, "datasource_name": "OnTheMarket.com", "img_height": 300, "img_url": "https://imgs.nestimg.com/5_bedroom_semi_detached_house_for_sale_110709907743369985.jpg", "img_width": 400, "keywords": "Garden, Grade II, Cottage, Listed", "latitude": 51.1967, "lister_name": "Cooper & Tanner", "lister_url": "https://www.nestoria.co.uk/detail/0000000110709907743369985/title/5/98-1?serpUid=&pt=1&ot=1&l=somerset&did=105_high1&t_sec=9&t_or=45&t_pvid=null&utm_source=api&utm_medium=external", "listing_type": "buy", "location_accuracy": 9, "longitude": -2.58797, "price": 550000, "price_currency": "\u00a3", "price_formatted": "\u00a3550,000", "price_high": 550000, "price_low": 550000, "price_type": "fixed", "property_type": "house", "size": 0, "size_type": "net", "summary": "A grade ii listed character cottage set within the heart of croscom...", "thumb_height": 60, "thumb_url": "https://imgs.nestimg.com/medium/5_bedroom_semi_detached_house_for_sale_110709907743369985.jpg", "thumb_width": 80, "title": "Croscombe, Nr Wells - Grade II", "updated_in_days": 2, "updated_in_days_formatted": "first seen 2 days ago"}, {"bathroom_number": "", "bedroom_number": 3, "car_spaces": 0, "commission": 0, "construction_year": 0, "datasource_name": "OnTheMarket.com", "img_height": 300, "img_url": "https://imgs.nestimg.com/3_bedroom_house_for_sale_111569521011068273.jpg", "img_width": 400, "keywords": "Garage, Kitchen, Gas Central Heating", "latitude": 50.8789, "lister_url": "https://www.nestoria.co.uk/detail/0000000111569521011068273/title/5/98-2?serpUid=&pt=1&ot=1&l=somerset&did=105_high1&t_sec=9&t_or=45&t_pvid=null&utm_source=api&utm_medium=external", "listing_type": "buy", "location_accuracy": 9, "longitude": -2.78692, "price": 245000, "price_currency": "\u00a3", "price_formatted": "\u00a3245,000", "price_high": 245000, "price_low": 245000, "price_type": "fixed", "property_type": "house", "size": 0, "size_type": "net", "summary": "The property is set in an elevated position giving far reaching vie...", "thumb_height": 60, "thumb_url": "https://imgs.nestimg.com/medium/3_bedroom_house_for_sale_111569521011068273.jpg", "thumb_width": 80, "title": "Charlton Close, Crewkerne", "updated_in_days": 3, "updated_in_days_formatted": "first seen 3 days ago"}, {"bathroom_number": "", "bedroom_number": 4, "car_spaces": 0, "commission": 0, "construction_year": 0, "datasource_name": "OnTheMarket.com", "img_height": 300, "img_url": "https://imgs.nestimg.com/4_bedroom_detached_house_for_sale_111711526864005872.jpg", "img_width": 400, "keywords": "Detached, Garden, En suite, Conservatory, Garage, Kitchen, Modern, Gas Central Heating", "latitude": 51.3722, "lister_url": "https://www.nestoria.co.uk/detail/0000000111711526864005872/title/5/98-3?serpUid=&pt=1&ot=1&l=somerset&did=105_high1&t_sec=9&t_or=45&t_pvid=null&utm_source=api&utm_medium=external", "listing_type": "buy", "location_accuracy": 9, "longitude": -2.92061, "price": 350000, "price_currency": "\u00a3", "price_formatted": "\u00a3350,000", "price_high": 350000, "price_low": 350000, "price_type": "fixed", "property_type": "house", "size": 0, "size_type": "net", "summary": "A ly presented detached property located in the area of wick-st-law...", "thumb_height": 60, "thumb_url": "https://imgs.nestimg.com/medium/4_bedroom_detached_house_for_sale_111711526864005872.jpg", "thumb_width": 80, "title": "WICK ST LAWRENCE - Modern, Garden", "updated_in_days": 3, "updated_in_days_formatted": "first seen 3 days ago"}, {"bathroom_number": "", "bedroom_number": 2, "car_spaces": 0, "commission": 0, "construction_year": 0, "datasource_name": "OnTheMarket.com", "img_height": 300, "img_url": "https://imgs.nestimg.com/2_bedroom_apartment_for_sale_111563225469277274.jpg", "img_width": 400, "keywords": "Garden, Conversion", "latitude": 51.2163, "lister_name": "Cooper & Tanner", "lister_url": "https://www.nestoria.co.uk/detail/0000000111563225469277274/title/5/98-4?serpUid=&pt=1&ot=1&l=somerset&did=105_high1&t_sec=9&t_or=45&t_pvid=null&utm_source=api&utm_medium=external", "listing_type": "buy", "location_accuracy": 9, "longitude": -2.61692, "price": 220000, "price_currency": "\u00a3", "price_formatted": "\u00a3220,000", "price_high": 220000, "price_low": 220000, "price_type": "fixed", "property_type": "flat", "size": 0, "size_type": "net", "summary": "Originally converted in 1996 is this two bedroom apartment with con...", "thumb_height": 60, "thumb_url": "https://imgs.nestimg.com/medium/2_bedroom_apartment_for_sale_111563225469277274.jpg", "thumb_width": 80, "title": "South Horrington, Nr Wells - Garden", "updated_in_days": 2, "updated_in_days_formatted": "first seen 2 days ago"}, {"bathroom_number": "", "bedroom_number": 3, "car_spaces": 0, "commission": 0, "construction_year": 0, "datasource_name": "OnTheMarket.com", "img_height": 300, "img_url": "https://imgs.nestimg.com/3_bedroom_cottage_for_sale_111711534567508315.jpg", "img_width": 400, "keywords": "Grade II, Cottage, Listed", "latitude": 50.9618, "lister_url": "https://www.nestoria.co.uk/detail/0000000111711534567508315/title/5/98-5?serpUid=&pt=1&ot=1&l=somerset&did=105_high1&t_sec=9&t_or=45&t_pvid=null&utm_source=api&utm_medium=external", "listing_type": "buy", "location_accuracy": 9, "longitude": -3.343, "price": 275000, "price_currency": "\u00a3", "price_formatted": "\u00a3275,000", "price_high": 275000, "price_low": 275000, "price_type": "fixed", "property_type": "house", "size": 0, "size_type": "net", "summary": "This is a completely unique grade ii listed three bedroom cottage, ...", "thumb_height": 60, "thumb_url": "https://imgs.nestimg.com/medium/3_bedroom_cottage_for_sale_111711534567508315.jpg", "thumb_width": 80, "title": "QUIRKY CHARACTER CHARM - HOLCOMBE ROGUS", "updated_in_days": 3, "updated_in_days_formatted": "first seen 3 days ago"}, {"bathroom_number": "", "bedroom_number": 3, "car_spaces": 0, "commission": 0, "construction_year": 0, "datasource_name": "OnTheMarket.com", "img_height": 300, "img_url": "https://imgs.nestimg.com/3_bedroom_semi_detached_house_for_sale_111699714293202826.jpg", "img_width": 400, "keywords": "Semi-Detached, Garage, Modern", "latitude": 51.1073, "lister_name": "Lees & Waters", "lister_url": "https://www.nestoria.co.uk/detail/0000000111699714293202826/title/5/98-6?serpUid=&pt=1&ot=1&l=somerset&did=105_high1&t_sec=9&t_or=45&t_pvid=null&utm_source=api&utm_medium=external", "listing_type": "buy", "location_accuracy": 9, "longitude": -2.99662, "price": 194950, "price_currency": "\u00a3", "price_formatted": "\u00a3194,950", "price_high": 194950, "price_low": 194950, "price_type": "fixed", "property_type": "house", "size": 0, "size_type": "net", "summary": "Garage and large plot. This well presented three bedroom semi-detac...", "thumb_height": 60, "thumb_url": "https://imgs.nestimg.com/medium/3_bedroom_semi_detached_house_for_sale_111699714293202826.jpg", "thumb_width": 80, "title": "Romney Road, Bridgwater - Modern", "updated_in_days": 5, "updated_in_days_formatted": "first seen 5 days ago"}, {"bathroom_number": 2, "bedroom_number": 4, "car_spaces": 0, "commission": 0, "construction_year": 0, "datasource_name": "OnTheMarket.com", "img_height": 300, "img_url": "https://imgs.nestimg.com/4_bedroom_detached_bungalow_for_sale_111440826050253553.jpg", "img_width": 400, "keywords": "Detached, Garden, Double Bedroom, Garage, Kitchen, Bungalow", "latitude": 51.2233, "lister_url": "https://www.nestoria.co.uk/detail/0000000111440826050253553/title/5/98-7?serpUid=&pt=1&ot=1&l=somerset&did=105_high1&t_sec=9&t_or=45&t_pvid=null&utm_source=api&utm_medium=external", "listing_type": "buy", "location_accuracy": 9, "longitude": -2.81465, "price": 570000, "price_currency": "\u00a3", "price_formatted": "\u00a3570,000", "price_high": 570000, "price_low": 570000, "price_type": "fixed", "property_type": "house", "size": 0, "size_type": "net", "summary": "Set in a location, this detached bungalow has been finished to a hi...", "thumb_height": 60, "thumb_url": "https://imgs.nestimg.com/medium/4_bedroom_detached_bungalow_for_sale_111440826050253553.jpg", "thumb_width": 80, "title": "West End, Wedmore - Garden, Bungalow", "updated_in_days": 4, "updated_in_days_formatted": "first seen 4 days ago"}, {"bathroom_number": "", "bedroom_number": 4, "car_spaces": 0, "commission": 0, "construction_year": 0, "datasource_name": "OnTheMarket.com", "img_height": 300, "img_url": "https://imgs.nestimg.com/4_bedroom_detached_house_for_sale_111711526309587739.jpg", "img_width": 400, "keywords": "Detached, Garden, Conversion, Victorian", "latitude": 50.862, "lister_url": "https://www.nestoria.co.uk/detail/0000000111711526309587739/title/5/98-8?serpUid=&pt=1&ot=1&l=somerset&did=105_high1&t_sec=9&t_or=45&t_pvid=null&utm_source=api&utm_medium=external", "listing_type": "buy", "location_accuracy": 9, "longitude": -3.21919, "price": 650000, "price_currency": "\u00a3", "price_formatted": "\u00a3650,000", "price_high": 650000, "price_low": 650000, "price_type": "fixed", "property_type": "house", "size": 0, "size_type": "net", "summary": "A victorian former water mill with gardens and grounds including a ...", "thumb_height": 60, "thumb_url": "https://imgs.nestimg.com/medium/4_bedroom_detached_house_for_sale_111711526309587739.jpg", "thumb_width": 80, "title": "Dunkeswell, Honiton, Devon, EX14", "updated_in_days": 3, "updated_in_days_formatted": "first seen 3 days ago"}, {"bathroom_number": "", "bedroom_number": 4, "car_spaces": 0, "commission": 0, "construction_year": 0, "datasource_name": "OnTheMarket.com", "img_height": 300, "img_url": "https://imgs.nestimg.com/4_bedroom_link_detached_house_for_sale_111699715403142348.jpg", "img_width": 400, "keywords": "Detached, En suite, Garage, Kitchen, Gas Central Heating", "latitude": 51.0126, "lister_name": "Gibbins Richards", "lister_url": "https://www.nestoria.co.uk/detail/0000000111699715403142348/title/5/98-9?serpUid=&pt=1&ot=1&l=somerset&did=105_high1&t_sec=9&t_or=45&t_pvid=null&utm_source=api&utm_medium=external", "listing_type": "buy", "location_accuracy": 9, "longitude": -3.09048, "price": 280000, "price_currency": "\u00a3", "price_formatted": "\u00a3280,000", "price_high": 280000, "price_low": 280000, "price_type": "fixed", "property_type": "house", "size": 0, "size_type": "net", "summary": "A well presented 4 bedroom linked detached home located in a conven...", "thumb_height": 60, "thumb_url": "https://imgs.nestimg.com/medium/4_bedroom_link_detached_house_for_sale_111699715403142348.jpg", "thumb_width": 80, "title": "South Street, Taunton - Detached", "updated_in_days": 5, "updated_in_days_formatted": "first seen 5 days ago"}, {"bathroom_number": "", "bedroom_number": 3, "car_spaces": 0, "commission": 0, "construction_year": 0, "datasource_name": "OnTheMarket.com", "img_height": 300, "img_url": "https://imgs.nestimg.com/3_bedroom_semi_detached_house_for_sale_111699713447552710.jpg", "img_width": 400, "keywords": "Semi-Detached, No Chain, Conservatory, Kitchen", "latitude": 51.1259, "lister_name": "Gibbins Richards", "lister_url": "https://www.nestoria.co.uk/detail/0000000111699713447552710/title/5/98-10?serpUid=&pt=1&ot=1&l=somerset&did=105_high1&t_sec=9&t_or=45&t_pvid=null&utm_source=api&utm_medium=external", "listing_type": "buy", "location_accuracy": 9, "longitude": -3.02866, "price": 249950, "price_currency": "\u00a3", "price_formatted": "\u00a3249,950", "price_high": 249950, "price_low": 249950, "price_type": "fixed", "property_type": "house", "size": 0, "size_type": "net", "summary": "A large three bedroom semi detached house with no onward chain. The...", "thumb_height": 60, "thumb_url": "https://imgs.nestimg.com/medium/3_bedroom_semi_detached_house_for_sale_111699713447552710.jpg", "thumb_width": 80, "title": "Alfoxton Road, Bridgwater - No Chain", "updated_in_days": 5, "updated_in_days_formatted": "first seen 5 days ago"}, {"bathroom_number": "", "bedroom_number": 1, "car_spaces": 0, "commission": 0, "construction_year": 0, "datasource_name": "OnTheMarket.com", "img_height": 300, "img_url": "https://imgs.nestimg.com/1_bedroom_flat_for_sale_111699720985500032.jpg", "img_width": 400, "keywords": "Shared Garden, No Chain, Patio", "latitude": 51.131622, "lister_name": "Wilkie May & Tuckwood", "lister_url": "https://www.nestoria.co.uk/detail/0000000111699720985500032/title/5/98-11?serpUid=&pt=1&ot=1&l=somerset&did=105_high1&t_sec=9&t_or=45&t_pvid=null&utm_source=api&utm_medium=external", "listing_type": "buy", "location_accuracy": 9, "longitude": -3.0042562, "price": 179950, "price_currency": "\u00a3", "price_formatted": "\u00a3179,950", "price_high": 179950, "price_low": 179950, "price_type": "fixed", "property_type": "flat", "size": 0, "size_type": "net", "summary": "A superb, nearly new ground floor retirement apartment with french ...", "thumb_height": 60, "thumb_url": "https://imgs.nestimg.com/medium/1_bedroom_flat_for_sale_111699720985500032.jpg", "thumb_width": 80, "title": "Northgate, Bridgwater - Shared Garden", "updated_in_days": 5, "updated_in_days_formatted": "first seen 5 days ago"}, {"bathroom_number": "", "bedroom_number": 2, "car_spaces": 0, "commission": 0, "construction_year": 0, "datasource_name": "OnTheMarket.com", "img_height": 300, "img_url": "https://imgs.nestimg.com/2_bedroom_terraced_house_for_sale_111699714942045702.jpg", "img_width": 400, "keywords": "Garden, Terraced, Double Bedroom", "latitude": 51.1294, "lister_name": "Gibbins Richards", "lister_url": "https://www.nestoria.co.uk/detail/0000000111699714942045702/title/5/98-12?serpUid=&pt=1&ot=1&l=somerset&did=105_high1&t_sec=9&t_or=45&t_pvid=null&utm_source=api&utm_medium=external", "listing_type": "buy", "location_accuracy": 9, "longitude": -2.99419, "price": 123950, "price_currency": "\u00a3", "price_formatted": "\u00a3123,950", "price_high": 123950, "price_low": 123950, "price_type": "fixed", "property_type": "house", "size": 0, "size_type": "net", "summary": "Well maintained two double bedroom period terrace home close to tow...", "thumb_height": 60, "thumb_url": "https://imgs.nestimg.com/medium/2_bedroom_terraced_house_for_sale_111699714942045702.jpg", "thumb_width": 80, "title": "Polden Street, Bridgwater - Garden", "updated_in_days": 5, "updated_in_days_formatted": "first seen 5 days ago"}, {"bathroom_number": "", "bedroom_number": 2, "car_spaces": 0, "commission": 0, "construction_year": 0, "datasource_name": "OnTheMarket.com", "img_height": 300, "img_url": "https://imgs.nestimg.com/2_bedroom_house_for_sale_111532303453851388.jpg", "img_width": 400, "keywords": "Garden, Grade II, Kitchen, Parking, Cottage, Listed", "latitude": 50.951042, "lister_url": "https://www.nestoria.co.uk/detail/0000000111532303453851388/title/5/98-13?serpUid=&pt=1&ot=1&l=somerset&did=105_high1&t_sec=9&t_or=45&t_pvid=null&utm_source=api&utm_medium=external", "listing_type": "buy", "location_accuracy": 9, "longitude": -2.517692, "price": 320000, "price_currency": "\u00a3", "price_formatted": "\u00a3320,000", "price_high": 320000, "price_low": 320000, "price_type": "fixed", "property_type": "house", "size": 0, "size_type": "net", "summary": "A fully renovated cottage in the heart of sherborne town! Prestigio...", "thumb_height": 60, "thumb_url": "https://imgs.nestimg.com/medium/2_bedroom_house_for_sale_111532303453851388.jpg", "thumb_width": 80, "title": "Priestlands Lane, SHERBORNE, Dorset, DT9", "updated_in_days": 2, "updated_in_days_formatted": "first seen 2 days ago"}, {"bathroom_number": "", "bedroom_number": 3, "car_spaces": 0, "commission": 0, "construction_year": 0, "datasource_name": "OnTheMarket.com", "img_height": 300, "img_url": "https://imgs.nestimg.com/3_bedroom_detached_house_for_sale_111260125002535982.jpg", "img_width": 400, "keywords": "Detached, Grade II, Cottage, Listed", "latitude": 50.8394, "lister_url": "https://www.nestoria.co.uk/detail/0000000111260125002535982/title/5/98-14?serpUid=&pt=1&ot=1&l=somerset&did=105_high1&t_sec=9&t_or=45&t_pvid=null&utm_source=api&utm_medium=external", "listing_type": "buy", "location_accuracy": 9, "longitude": -3.16731, "price": 675000, "price_currency": "\u00a3", "price_formatted": "\u00a3675,000", "price_high": 675000, "price_low": 675000, "price_type": "fixed", "property_type": "house", "size": 0, "size_type": "net", "summary": "An intriguing period farmhouse, listed grade ii, with immense chara...", "thumb_height": 60, "thumb_url": "https://imgs.nestimg.com/medium/3_bedroom_detached_house_for_sale_111260125002535982.jpg", "thumb_width": 80, "title": "Beacon, Honiton, Devon, EX14 - Listed", "updated_in_days": 3, "updated_in_days_formatted": "first seen 3 days ago"}, {"bathroom_number": 2, "bedroom_number": 4, "car_spaces": 0, "commission": 0, "construction_year": 0, "datasource_name": "OnTheMarket.com", "img_height": 300, "img_url": "https://imgs.nestimg.com/4_bedroom_house_for_sale_111440828549788333.jpg", "img_width": 400, "keywords": "Detached, Garden, Double Garage, Conservatory, Kitchen, Modern, Cottage", "latitude": 51.0914, "lister_url": "https://www.nestoria.co.uk/detail/0000000111440828549788333/title/5/98-15?serpUid=&pt=1&ot=1&l=somerset&did=105_high1&t_sec=9&t_or=45&t_pvid=null&utm_source=api&utm_medium=external", "listing_type": "buy", "location_accuracy": 9, "longitude": -2.65733, "price": 499950, "price_currency": "\u00a3", "price_formatted": "\u00a3499,950", "price_high": 499950, "price_low": 499950, "price_type": "fixed", "property_type": "house", "size": 0, "size_type": "net", "summary": "A modern detached stone cottage situated in this peaceful rural loc...", "thumb_height": 60, "thumb_url": "https://imgs.nestimg.com/medium/4_bedroom_house_for_sale_111440828549788333.jpg", "thumb_width": 80, "title": "Silver Street, Barton St David", "updated_in_days": 4, "updated_in_days_formatted": "first seen 4 days ago"}], "locations": [{"center_lat": 51.080967, "center_long": -3.045432, "long_title": "Somerset, county", "place_name": "somerset", "title": "Somerset"}], "page": 98, "sort": "nestoria_rank", "status_code": "200", "status_text": "OK", "thanks": "For using the Nestoria API.", "total_pages": 410, "total_results": 6149, "_cu5t0mP434m_": "remove"}}