{"request": {"country": "uk", "language": "en", "location": "somerset", "num_res": "15", "offset": 1470, "output": "json_xs", "page": 99, "product_type": "realestate", "property_type": "property", "size_type": "net", "size_unit": "m2", "sort": "nestoria_rank", "listing_type": "buy"}, "response": {"application_response_code": "100", "application_response_text": "listings returned for one unambiguous location", "attribution": {"img_height": 22, "img_url": "https://resources.nestimg.com/nestoria/img/pbr_v1.png", "img_width": 183, "link_to_img": "http://www.nestoria.com"}, "created_http": "Tue, 18 Jun 2019 17:31:09 GMT", "created_unix": 1560879069, "link_to_url": "https://www.nestoria.co.uk/somerset/property/buy/99", "listings": [{"bathroom_number": "", "bedroom_number": 3, "car_spaces": 0, "commission": 0, "construction_year": 0, "datasource_name": "OnTheMarket.com", "img_height": 300, "img_url": "https://imgs.nestimg.com/3_bedroom_terraced_house_for_sale_111699718013666814.jpg", "img_width": 400, "keywords": "Garden, En suite, No Chain, Terraced, Kitchen", "latitude": 51.1347, "lister_url": "https://www.nestoria.co.uk/detail/0000000111699718013666814/title/5/99-1?serpUid=&pt=1&ot=1&l=somerset&did=105_high1&t_sec=9&t_or=45&t_pvid=null&utm_source=api&utm_medium=external", "listing_type": "buy", "location_accuracy": 9, "longitude": -3.00627, "price": 162500, "price_currency": "\u00a3", "price_formatted": "\u00a3162,500", "price_high": 162500, "price_low": 162500, "price_type": "fixed", "property_type": "house", "size": 0, "size_type": "net", "summary": "A three bedroom extended property located on the west side of bridg...", "thumb_height": 60, "thumb_url": "https://imgs.nestimg.com/medium/3_bedroom_terraced_house_for_sale_111699718013666814.jpg", "thumb_width": 80, "title": "Berrydale Avenue, Bridgwater - Garden", "updated_in_days": 5, "updated_in_days_formatted": "first seen 5 days ago"}, {"bathroom_number": "", "bedroom_number": 2, "car_spaces": 0, "commission": 0, "construction_year": 0, "datasource_name": "OnTheMarket.com", "img_height": 300, "img_url": "https://imgs.nestimg.com/2_bedroom_terraced_house_for_sale_111402761671930644.jpg", "img_width": 400, "keywords": "Terraced, Kitchen, Cottage", "latitude": 50.8444, "lister_url": "https://www.nestoria.co.uk/detail/0000000111402761671930644/title/5/99-2?serpUid=&pt=1&ot=1&l=somerset&did=105_high1&t_sec=9&t_or=45&t_pvid=null&utm_source=api&utm_medium=external", "listing_type": "buy", "location_accuracy": 9, "longitude": -2.94073, "price": 190000, "price_currency": "\u00a3", "price_formatted": "\u00a3190,000", "price_high": 190000, "price_low": 190000, "price_type": "fixed", "property_type": "house", "size": 0, "size_type": "net", "summary": "A ly presented two bedroom cottage which has been renovated through...", "thumb_height": 60, "thumb_url": "https://imgs.nestimg.com/medium/2_bedroom_terraced_house_for_sale_111402761671930644.jpg", "thumb_width": 80, "title": "Chard Junction, Chard - Cottage", "updated_in_days": 3, "updated_in_days_formatted": "first seen 3 days ago"}, {"bathroom_number": "", "bedroom_number": 3, "car_spaces": 0, "commission": 0, "construction_year": 0, "datasource_name": "OnTheMarket.com", "img_height": 300, "img_url": "https://imgs.nestimg.com/3_bedroom_townhouse_for_sale_111711536062440111.jpg", "img_width": 400, "keywords": "Garden, En suite, Balcony, Garage, Kitchen", "latitude": 51.3339, "lister_url": "https://www.nestoria.co.uk/detail/0000000111711536062440111/title/5/99-3?serpUid=&pt=1&ot=1&l=somerset&did=105_high1&t_sec=9&t_or=45&t_pvid=null&utm_source=api&utm_medium=external", "listing_type": "buy", "location_accuracy": 9, "longitude": -2.98393, "price": 325000, "price_currency": "\u00a3", "price_formatted": "\u00a3325,000", "price_high": 325000, "price_low": 325000, "price_type": "fixed", "property_type": "house", "size": 0, "size_type": "net", "summary": "Three story town house to the market which backs onto weston golf a...", "thumb_height": 60, "thumb_url": "https://imgs.nestimg.com/medium/3_bedroom_townhouse_for_sale_111711536062440111.jpg", "thumb_width": 80, "title": "Royal Sands, BS23 - En Suite, Garden", "updated_in_days": 3, "updated_in_days_formatted": "first seen 3 days ago"}, {"bathroom_number": "", "bedroom_number": 3, "car_spaces": 0, "commission": 0, "construction_year": 0, "datasource_name": "OnTheMarket.com", "img_height": 300, "img_url": "https://imgs.nestimg.com/3_bedroom_semi_detached_house_for_sale_111440827733354741.jpg", "img_width": 400, "keywords": "Semi-Detached", "latitude": 51.3611, "lister_url": "https://www.nestoria.co.uk/detail/0000000111440827733354741/title/5/99-4?serpUid=&pt=1&ot=1&l=somerset&did=105_high1&t_sec=9&t_or=45&t_pvid=null&utm_source=api&utm_medium=external", "listing_type": "buy", "location_accuracy": 9, "longitude": -2.95607, "price": 279000, "price_currency": "\u00a3", "price_formatted": "\u00a3279,000", "price_high": 279000, "price_low": 279000, "price_type": "fixed", "property_type": "house", "size": 0, "size_type": "net", "summary": "A opportunity to purchase this unique 3 bedroom semi detached prope...", "thumb_height": 60, "thumb_url": "https://imgs.nestimg.com/medium/3_bedroom_semi_detached_house_for_sale_111440827733354741.jpg", "thumb_width": 80, "title": "St. Davids Close, Weston-super-Mare", "updated_in_days": 2, "updated_in_days_formatted": "first seen 2 days ago"}, {"bathroom_number": "", "bedroom_number": 3, "car_spaces": 0, "commission": 0, "construction_year": 0, "datasource_name": "OnTheMarket.com", "img_height": 300, "img_url": "https://imgs.nestimg.com/3_bedroom_house_for_sale_111440830717302734.jpg", "img_width": 400, "keywords": "Garden, Conservatory, Terraced, Modern, Parking, Shared Ownership", "latitude": 51.0126, "lister_url": "https://www.nestoria.co.uk/detail/0000000111440830717302734/title/5/99-5?serpUid=&pt=1&ot=1&l=somerset&did=105_high1&t_sec=9&t_or=45&t_pvid=null&utm_source=api&utm_medium=external", "listing_type": "buy", "location_accuracy": 9, "longitude": -3.09048, "price": 97500, "price_currency": "\u00a3", "price_formatted": "\u00a397,500", "price_high": 97500, "price_low": 97500, "price_type": "fixed", "property_type": "house", "size": 0, "size_type": "net", "summary": "Shared ownership a rare opportunity to purchase a 50% share of this...", "thumb_height": 60, "thumb_url": "https://imgs.nestimg.com/medium/3_bedroom_house_for_sale_111440830717302734.jpg", "thumb_width": 80, "title": "South Street, Taunton - Conservatory", "updated_in_days": 5, "updated_in_days_formatted": "first seen 5 days ago"}, {"bathroom_number": "", "bedroom_number": 5, "car_spaces": 0, "commission": 0, "construction_year": 0, "datasource_name": "OnTheMarket.com", "img_height": 300, "img_url": "https://imgs.nestimg.com/5_bedroom_house_for_sale_111711528245543493.jpg", "img_width": 400, "keywords": "Detached, Garden, Kitchen, Cottage, Reception", "latitude": 50.7964, "lister_name": "Greenslade Taylor Hunt", "lister_url": "https://www.nestoria.co.uk/detail/0000000111711528245543493/title/5/99-6?serpUid=&pt=1&ot=1&l=somerset&did=105_high1&t_sec=9&t_or=45&t_pvid=null&utm_source=api&utm_medium=external", "listing_type": "buy", "location_accuracy": 9, "longitude": -3.07622, "price": 595000, "price_currency": "\u00a3", "price_formatted": "\u00a3595,000", "price_high": 595000, "price_low": 595000, "price_type": "fixed", "property_type": "house", "size": 0, "size_type": "net", "summary": "A detached period cottage peacefully located on the edge of this so...", "thumb_height": 60, "thumb_url": "https://imgs.nestimg.com/medium/5_bedroom_house_for_sale_111711528245543493.jpg", "thumb_width": 80, "title": "Dalwood, Axminster, Devon, EX13", "updated_in_days": 3, "updated_in_days_formatted": "first seen 3 days ago"}, {"bathroom_number": "", "bedroom_number": 4, "car_spaces": 0, "commission": 0, "construction_year": 0, "datasource_name": "OnTheMarket.com", "img_height": 300, "img_url": "https://imgs.nestimg.com/4_bedroom_detached_house_for_sale_111717698565540578.jpg", "img_width": 400, "keywords": "Detached, Garden, Double Garage, Double Bedroom, Reception", "latitude": 51.3841, "lister_url": "https://www.nestoria.co.uk/detail/0000000111717698565540578/title/5/99-7?serpUid=&pt=1&ot=1&l=somerset&did=105_high1&t_sec=9&t_or=45&t_pvid=null&utm_source=api&utm_medium=external", "listing_type": "buy", "location_accuracy": 9, "longitude": -3.33976, "price": 365000, "price_currency": "\u00a3", "price_formatted": "\u00a3365,000", "price_high": 365000, "price_low": 365000, "price_type": "fixed", "property_type": "house", "size": 0, "size_type": "net", "summary": "4 double bedrooms; 3 receptions; private garden; double garage situ...", "thumb_height": 60, "thumb_url": "https://imgs.nestimg.com/medium/4_bedroom_detached_house_for_sale_111717698565540578.jpg", "thumb_width": 80, "title": "Cilgant Y Meillion, Rhoose Point", "updated_in_days": 2, "updated_in_days_formatted": "first seen 2 days ago"}, {"bathroom_number": "", "bedroom_number": 2, "car_spaces": 0, "commission": 0, "construction_year": 0, "datasource_name": "OnTheMarket.com", "img_height": 300, "img_url": "https://imgs.nestimg.com/2_bedroom_apartment_for_sale_111699713348067514.jpg", "img_width": 400, "keywords": "Balcony, Kitchen", "latitude": 51.1329, "lister_url": "https://www.nestoria.co.uk/detail/0000000111699713348067514/title/5/99-8?serpUid=&pt=1&ot=1&l=somerset&did=105_high1&t_sec=9&t_or=45&t_pvid=null&utm_source=api&utm_medium=external", "listing_type": "buy", "location_accuracy": 9, "longitude": -3.00715, "price": 145000, "price_currency": "\u00a3", "price_formatted": "\u00a3145,000", "price_high": 145000, "price_low": 145000, "price_type": "fixed", "property_type": "flat", "size": 0, "size_type": "net", "summary": "A two bedroom top floor apartment commanding superb uninterrupted v...", "thumb_height": 60, "thumb_url": "https://imgs.nestimg.com/medium/2_bedroom_apartment_for_sale_111699713348067514.jpg", "thumb_width": 80, "title": "Waverley Wharf, Bridgwater - Balcony", "updated_in_days": 5, "updated_in_days_formatted": "first seen 5 days ago"}, {"bathroom_number": "", "bedroom_number": 1, "car_spaces": 0, "commission": 0, "construction_year": 0, "datasource_name": "OnTheMarket.com", "img_height": 300, "img_url": "https://imgs.nestimg.com/1_bedroom_terraced_house_for_sale_111359020771812562.jpg", "img_width": 400, "keywords": "Garden, Conservatory, Terraced, Double Bedroom, Kitchen, Off Street Parking, Cul-de-Sac", "latitude": 51.3693, "lister_url": "https://www.nestoria.co.uk/detail/0000000111359020771812562/title/5/99-9?serpUid=&pt=1&ot=1&l=somerset&did=105_high1&t_sec=9&t_or=45&t_pvid=null&utm_source=api&utm_medium=external", "listing_type": "buy", "location_accuracy": 9, "longitude": -2.91515, "price": 147495, "price_currency": "\u00a3", "price_formatted": "\u00a3147,495", "price_high": 147495, "price_low": 147495, "price_type": "fixed", "property_type": "house", "size": 0, "size_type": "net", "summary": "An extended one bedroom house with off street parking and a private...", "thumb_height": 60, "thumb_url": "https://imgs.nestimg.com/medium/1_bedroom_terraced_house_for_sale_111359020771812562.jpg", "thumb_width": 80, "title": "Millers Rise, Weston-Super-Mare, BS22", "updated_in_days": 3, "updated_in_days_formatted": "first seen 3 days ago"}, {"bathroom_number": "", "bedroom_number": 2, "car_spaces": 0, "commission": 0, "construction_year": 0, "datasource_name": "OnTheMarket.com", "img_height": 300, "img_url": "https://imgs.nestimg.com/2_bedroom_semi_detached_house_for_sale_111717697078865560.jpg", "img_width": 400, "keywords": "Semi-Detached, Grade II, Listed", "latitude": 50.8099, "lister_url": "https://www.nestoria.co.uk/detail/0000000111717697078865560/title/5/99-10?serpUid=&pt=1&ot=1&l=somerset&did=105_high1&t_sec=9&t_or=45&t_pvid=null&utm_source=api&utm_medium=external", "listing_type": "buy", "location_accuracy": 9, "longitude": -2.73831, "price": 339950, "price_currency": "\u00a3", "price_formatted": "\u00a3339,950", "price_high": 339950, "price_low": 339950, "price_type": "fixed", "property_type": "house", "size": 0, "size_type": "net", "summary": "This grade ii listed former chapel built of natural stone under a s...", "thumb_height": 60, "thumb_url": "https://imgs.nestimg.com/medium/2_bedroom_semi_detached_house_for_sale_111717697078865560.jpg", "thumb_width": 80, "title": "Fleet Street, Beaminster - Listed", "updated_in_days": 2, "updated_in_days_formatted": "first seen 2 days ago"}, {"bathroom_number": "", "bedroom_number": 3, "car_spaces": 0, "commission": 0, "construction_year": 0, "datasource_name": "OnTheMarket.com", "img_height": 300, "img_url": "https://imgs.nestimg.com/3_bedroom_detached_house_for_sale_111705544444718769.jpg", "img_width": 400, "keywords": "Detached, Garden, No Chain, Garage, Cul-de-Sac, Gas Central Heating", "latitude": 51.1447, "lister_name": "Tor Estates", "lister_url": "https://www.nestoria.co.uk/detail/0000000111705544444718769/title/5/99-11?serpUid=&pt=1&ot=1&l=somerset&did=105_high1&t_sec=9&t_or=45&t_pvid=null&utm_source=api&utm_medium=external", "listing_type": "buy", "location_accuracy": 9, "longitude": -2.72184, "price": 259950, "price_currency": "\u00a3", "price_formatted": "\u00a3259,950", "price_high": 259950, "price_low": 259950, "price_type": "fixed", "property_type": "house", "size": 0, "size_type": "net", "summary": "Well located within a quiet cul-de-sac on the palmers green develop...", "thumb_height": 60, "thumb_url": "https://imgs.nestimg.com/medium/3_bedroom_detached_house_for_sale_111705544444718769.jpg", "thumb_width": 80, "title": "Circus Field Road, Glastonbury", "updated_in_days": 4, "updated_in_days_formatted": "first seen 4 days ago"}, {"bathroom_number": "", "bedroom_number": 3, "car_spaces": 0, "commission": 0, "construction_year": 0, "datasource_name": "OnTheMarket.com", "img_height": 300, "img_url": "https://imgs.nestimg.com/3_bedroom_terraced_house_for_sale_110981938657272496.jpg", "img_width": 400, "keywords": "No Chain, Terraced", "latitude": 51.1287, "lister_name": "Lees & Waters", "lister_url": "https://www.nestoria.co.uk/detail/0000000110981938657272496/title/5/99-12?serpUid=&pt=1&ot=1&l=somerset&did=105_high1&t_sec=9&t_or=45&t_pvid=null&utm_source=api&utm_medium=external", "listing_type": "buy", "location_accuracy": 9, "longitude": -3.01433, "price": 164950, "price_currency": "\u00a3", "price_formatted": "\u00a3164,950", "price_high": 164950, "price_low": 164950, "price_type": "fixed", "property_type": "house", "size": 0, "size_type": "net", "summary": "Ly presented three bedroom property situated close to the town cent...", "thumb_height": 60, "thumb_url": "https://imgs.nestimg.com/medium/3_bedroom_terraced_house_for_sale_110981938657272496.jpg", "thumb_width": 80, "title": "Provident Place - NO CHAIN and VERY well decorated", "updated_in_days": 5, "updated_in_days_formatted": "first seen 5 days ago"}, {"bathroom_number": "", "bedroom_number": 2, "car_spaces": 0, "commission": 0, "construction_year": 0, "datasource_name": "OnTheMarket.com", "img_height": 300, "img_url": "https://imgs.nestimg.com/2_bedroom_bungalow_for_sale_111699717138299281.jpg", "img_width": 400, "keywords": "Detached, No Chain, Conservatory, Garage, Bungalow", "latitude": 51.0046, "lister_name": "Wilkie May & Tuckwood", "lister_url": "https://www.nestoria.co.uk/detail/0000000111699717138299281/title/5/99-13?serpUid=&pt=1&ot=1&l=somerset&did=105_high1&t_sec=9&t_or=45&t_pvid=null&utm_source=api&utm_medium=external", "listing_type": "buy", "location_accuracy": 9, "longitude": -3.13264, "price": 285000, "price_currency": "\u00a3", "price_formatted": "\u00a3285,000", "price_high": 285000, "price_low": 285000, "price_type": "fixed", "property_type": "house", "size": 0, "size_type": "net", "summary": "A well presented, two bedroom link detached bungalow with a large c...", "thumb_height": 60, "thumb_url": "https://imgs.nestimg.com/medium/2_bedroom_bungalow_for_sale_111699717138299281.jpg", "thumb_width": 80, "title": "Queensway, Taunton TA1 - Conservatory", "updated_in_days": 5, "updated_in_days_formatted": "first seen 5 days ago"}, {"bathroom_number": "", "bedroom_number": 3, "car_spaces": 0, "commission": 0, "construction_year": 0, "datasource_name": "OnTheMarket.com", "img_height": 300, "img_url": "https://imgs.nestimg.com/3_bedroom_terraced_house_for_sale_111711524820130656.jpg", "img_width": 400, "keywords": "No Chain, Terraced, Victorian", "latitude": 51.3474, "lister_name": "Westcoast", "lister_url": "https://www.nestoria.co.uk/detail/0000000111711524820130656/title/5/99-14?serpUid=&pt=1&ot=1&l=somerset&did=105_high1&t_sec=9&t_or=45&t_pvid=null&utm_source=api&utm_medium=external", "listing_type": "buy", "location_accuracy": 9, "longitude": -2.96667, "price": 189950, "price_currency": "\u00a3", "price_formatted": "\u00a3189,950", "price_high": 189950, "price_low": 189950, "price_type": "fixed", "property_type": "house", "size": 0, "size_type": "net", "summary": "3 bedroom terraced victorian property situated conveniently positio...", "thumb_height": 60, "thumb_url": "https://imgs.nestimg.com/medium/3_bedroom_terraced_house_for_sale_111711524820130656.jpg", "thumb_width": 80, "title": "CLOSE TO WESTON TOWN CENTRE", "updated_in_days": 3, "updated_in_days_formatted": "first seen 3 days ago"}, {"bathroom_number": "", "bedroom_number": 3, "car_spaces": 0, "commission": 0, "construction_year": 0, "datasource_name": "OnTheMarket.com", "img_height": 300, "img_url": "https://imgs.nestimg.com/3_bedroom_terraced_house_for_sale_111334256380049577.jpg", "img_width": 400, "keywords": "Garden, Terraced, Kitchen, Cottage", "latitude": 50.9941, "lister_name": "Gibbins Richards", "lister_url": "https://www.nestoria.co.uk/detail/0000000111334256380049577/title/5/99-15?serpUid=&pt=1&ot=1&l=somerset&did=105_high1&t_sec=9&t_or=45&t_pvid=null&utm_source=api&utm_medium=external", "listing_type": "buy", "location_accuracy": 9, "longitude": -3.11876, "price": 240000, "price_currency": "\u00a3", "price_formatted": "\u00a3240,000", "price_high": 240000, "price_low": 240000, "price_type": "fixed", "property_type": "house", "size": 0, "size_type": "net", "summary": "This period cottage boasts character features and a position in the...", "thumb_height": 60, "thumb_url": "https://imgs.nestimg.com/medium/3_bedroom_terraced_house_for_sale_111334256380049577.jpg", "thumb_width": 80, "title": "House for sale, TRULL - Garden", "updated_in_days": 5, "updated_in_days_formatted": "first seen 5 days ago"}], "locations": [{"center_lat": 51.080967, "center_long": -3.045432, "long_title": "Somerset, county", "place_name": "somerset", "title": "Somerset"}], "page": 99, "sort": "nestoria_rank", "status_code": "200", "status_text": "OK", "thanks": "For using the Nestoria API.", "total_pages": 410, "total_results": 6149, "_cu5t0mP434m_": "remove"}}