{"request": {"country": "uk", "language": "en", "location": "somerset", "num_res": "15", "offset": 120, "output": "json_xs", "page": 9, "product_type": "realestate", "property_type": "property", "size_type": "net", "size_unit": "m2", "sort": "nestoria_rank", "listing_type": "buy"}, "response": {"application_response_code": "100", "application_response_text": "listings returned for one unambiguous location", "attribution": {"img_height": 22, "img_url": "https://resources.nestimg.com/nestoria/img/pbr_v1.png", "img_width": 183, "link_to_img": "http://www.nestoria.com"}, "created_http": "Tue, 18 Jun 2019 17:28:46 GMT", "created_unix": 1560878926, "link_to_url": "https://www.nestoria.co.uk/somerset/property/buy/9", "listings": [{"bathroom_number": "", "bedroom_number": 4, "car_spaces": 0, "commission": 0, "construction_year": 0, "datasource_name": "OnTheMarket.com", "img_height": 300, "img_url": "https://imgs.nestimg.com/4_bedroom_detached_house_for_sale_111229512392200287.jpg", "img_width": 400, "keywords": "Detached, Freehold, Garden, Garage, Modern", "latitude": 51.147, "lister_name": "Greenslade Taylor Hunt", "lister_url": "https://www.nestoria.co.uk/detail/0000000111229512392200287/title/5/9-1?serpUid=&pt=1&ot=1&l=somerset&did=105_high1&t_sec=9&t_or=45&t_pvid=null&utm_source=api&utm_medium=external", "listing_type": "buy", "location_accuracy": 9, "longitude": -2.98469, "price": 275000, "price_currency": "\u00a3", "price_formatted": "\u00a3275,000", "price_high": 275000, "price_low": 275000, "price_type": "fixed", "property_type": "house", "size": 0, "size_type": "net", "summary": "A well-presented detached residence built by david wilson homes to ...", "thumb_height": 60, "thumb_url": "https://imgs.nestimg.com/medium/4_bedroom_detached_house_for_sale_111229512392200287.jpg", "thumb_width": 80, "title": "Westminster Way, Bridgwater, Somerset, TA6", "updated_in_days": 25, "updated_in_days_formatted": "first seen 3 weeks ago"}, {"bathroom_number": "", "bedroom_number": 2, "car_spaces": 0, "commission": 0, "construction_year": 0, "datasource_name": "OnTheMarket.com", "img_height": 300, "img_url": "https://imgs.nestimg.com/2_bedroom_semi_detached_bungalow_for_sale_111699714351454966.jpg", "img_width": 400, "keywords": "Garden, Semi-Detached, Garage, Bungalow", "latitude": 50.9562, "lister_name": "Greenslade Taylor Hunt", "lister_url": "https://www.nestoria.co.uk/detail/0000000111699714351454966/title/5/9-2?serpUid=&pt=1&ot=1&l=somerset&did=105_high1&t_sec=9&t_or=45&t_pvid=null&utm_source=api&utm_medium=external", "listing_type": "buy", "location_accuracy": 9, "longitude": -2.61817, "price": 200000, "price_currency": "\u00a3", "price_formatted": "\u00a3200,000", "price_high": 200000, "price_low": 200000, "price_type": "fixed", "property_type": "house", "size": 0, "size_type": "net", "summary": "A large, two bedroom, semi-detached bungalow located in a convenien...", "thumb_height": 60, "thumb_url": "https://imgs.nestimg.com/medium/2_bedroom_semi_detached_bungalow_for_sale_111699714351454966.jpg", "thumb_width": 80, "title": "Rivers Road, Yeovil, Somerset, BA21", "updated_in_days": 5, "updated_in_days_formatted": "first seen 5 days ago"}, {"bathroom_number": "", "bedroom_number": 3, "car_spaces": 0, "commission": 0, "construction_year": 0, "datasource_name": "OnTheMarket.com", "img_height": 300, "img_url": "https://imgs.nestimg.com/3_bedroom_semi_detached_house_for_sale_111693434194205505.jpg", "img_width": 400, "keywords": "Garden, Semi-Detached, Garage", "latitude": 51.1794, "lister_name": "Wilkie May & Tuckwood", "lister_url": "https://www.nestoria.co.uk/detail/0000000111693434194205505/title/5/9-3?serpUid=&pt=1&ot=1&l=somerset&did=105_high1&t_sec=9&t_or=45&t_pvid=null&utm_source=api&utm_medium=external", "listing_type": "buy", "location_accuracy": 9, "longitude": -3.32594, "price": 279950, "price_currency": "\u00a3", "price_formatted": "\u00a3279,950", "price_high": 279950, "price_low": 279950, "price_type": "fixed", "property_type": "house", "size": 0, "size_type": "net", "summary": "Viewings highly recommended a tastefully modernised and incredibly ...", "thumb_height": 60, "thumb_url": "https://imgs.nestimg.com/medium/3_bedroom_semi_detached_house_for_sale_111693434194205505.jpg", "thumb_width": 80, "title": "Liddymore Road, Watchet, Somerset TA23", "updated_in_days": 6, "updated_in_days_formatted": "first seen 6 days ago"}, {"bathroom_number": "", "bedroom_number": 4, "car_spaces": 0, "commission": 0, "construction_year": 0, "datasource_name": "OnTheMarket.com", "img_height": 300, "img_url": "https://imgs.nestimg.com/4_bedroom_detached_house_for_sale_111130813332311417.jpg", "img_width": 400, "keywords": "Detached, Garden, En suite, No Chain, Kitchen, Cottage, Reception", "latitude": 51.0935, "lister_name": "Stags", "lister_url": "https://www.nestoria.co.uk/detail/0000000111130813332311417/title/5/9-4?serpUid=&pt=1&ot=1&l=somerset&did=105_high1&t_sec=9&t_or=45&t_pvid=null&utm_source=api&utm_medium=external", "listing_type": "buy", "location_accuracy": 9, "longitude": -3.18489, "price": 470000, "price_currency": "\u00a3", "price_formatted": "\u00a3470,000", "price_high": 470000, "price_low": 470000, "price_type": "fixed", "property_type": "house", "size": 0, "size_type": "net", "summary": "An individual period cottage of immense charm situated in the centr...", "thumb_height": 60, "thumb_url": "https://imgs.nestimg.com/medium/4_bedroom_detached_house_for_sale_111130813332311417.jpg", "thumb_width": 80, "title": "West Bagborough, Taunton, Somerset, TA4", "updated_in_days": 44, "updated_in_days_formatted": "first seen over a month ago"}, {"bathroom_number": "", "bedroom_number": 5, "car_spaces": 0, "commission": 0, "construction_year": 0, "datasource_name": "OnTheMarket.com", "img_height": 300, "img_url": "https://imgs.nestimg.com/5_bedroom_detached_house_for_sale_110715983550640604.jpg", "img_width": 400, "keywords": "Detached, Freehold, Listed", "latitude": 51.0324, "lister_name": "Greenslade Taylor Hunt", "lister_url": "https://www.nestoria.co.uk/detail/0000000110715983550640604/title/5/9-5?serpUid=&pt=1&ot=1&l=somerset&did=105_high1&t_sec=9&t_or=45&t_pvid=null&utm_source=api&utm_medium=external", "listing_type": "buy", "location_accuracy": 9, "longitude": -3.10911, "price": 475000, "price_currency": "\u00a3", "price_formatted": "\u00a3475,000", "price_high": 475000, "price_low": 475000, "price_type": "fixed", "property_type": "house", "size": 0, "size_type": "net", "summary": "A most 5 bedroomed character grade ll listed somerset longhouse, no...", "thumb_height": 60, "thumb_url": "https://imgs.nestimg.com/medium/5_bedroom_detached_house_for_sale_110715983550640604.jpg", "thumb_width": 80, "title": "Kingston Road, Taunton, Somerset, TA2", "updated_in_days": 18, "updated_in_days_formatted": "first seen 2 weeks ago"}, {"bathroom_number": "", "bedroom_number": 3, "car_spaces": 0, "commission": 0, "construction_year": 0, "datasource_name": "OnTheMarket.com", "img_height": 300, "img_url": "https://imgs.nestimg.com/3_bedroom_semi_detached_house_for_sale_111705545027224069.jpg", "img_width": 400, "keywords": "Needs Modernisation, Semi-Detached, No Chain, Parking", "latitude": 51.0165, "lister_name": "Greenslade Taylor Hunt", "lister_url": "https://www.nestoria.co.uk/detail/0000000111705545027224069/title/5/9-6?serpUid=&pt=1&ot=1&l=somerset&did=105_high1&t_sec=9&t_or=45&t_pvid=null&utm_source=api&utm_medium=external", "listing_type": "buy", "location_accuracy": 9, "longitude": -2.43571, "price": 235000, "price_currency": "\u00a3", "price_formatted": "\u00a3235,000", "price_high": 235000, "price_low": 235000, "price_type": "fixed", "property_type": "house", "size": 0, "size_type": "net", "summary": "A most three bedroom semi detached home in need of modernisation, o...", "thumb_height": 60, "thumb_url": "https://imgs.nestimg.com/medium/3_bedroom_semi_detached_house_for_sale_111705545027224069.jpg", "thumb_width": 80, "title": "Tower View, Horsington, Templecombe, Somerset, BA8", "updated_in_days": 4, "updated_in_days_formatted": "first seen 4 days ago"}, {"bathroom_number": "", "bedroom_number": 6, "car_spaces": 0, "commission": 0, "construction_year": 0, "datasource_name": "OnTheMarket.com", "img_height": 300, "img_url": "https://imgs.nestimg.com/6_bedroom_semi_detached_house_for_sale_111532301316605344.jpg", "img_width": 400, "keywords": "Garden, Semi-Detached, Grade II, Double Garage, Double Bedroom, Kitchen, Reception, Listed", "latitude": 51.0608, "lister_name": "Stags", "lister_url": "https://www.nestoria.co.uk/detail/0000000111532301316605344/title/5/9-7?serpUid=&pt=1&ot=1&l=somerset&did=105_high1&t_sec=9&t_or=45&t_pvid=null&utm_source=api&utm_medium=external", "listing_type": "buy", "location_accuracy": 9, "longitude": -2.85771, "price": 725000, "price_currency": "\u00a3", "price_formatted": "\u00a3725,000", "price_high": 725000, "price_low": 725000, "price_type": "fixed", "property_type": "house", "size": 0, "size_type": "net", "summary": "An grade ii listed former rectory with gardens. The property compri...", "thumb_height": 60, "thumb_url": "https://imgs.nestimg.com/medium/6_bedroom_semi_detached_house_for_sale_111532301316605344.jpg", "thumb_width": 80, "title": "Aller, Langport, Somerset, TA10", "updated_in_days": 32, "updated_in_days_formatted": "first seen over a month ago"}, {"bathroom_number": "", "bedroom_number": 3, "car_spaces": 0, "commission": 0, "construction_year": 0, "datasource_name": "OnTheMarket.com", "img_height": 300, "img_url": "https://imgs.nestimg.com/3_bedroom_semi_detached_house_for_sale_111624982103745012.jpg", "img_width": 400, "keywords": "Freehold, Garden, Semi-Detached, Garage", "latitude": 51.1481, "lister_name": "Greenslade Taylor Hunt", "lister_url": "https://www.nestoria.co.uk/detail/0000000111624982103745012/title/5/9-8?serpUid=&pt=1&ot=1&l=somerset&did=105_high1&t_sec=9&t_or=45&t_pvid=null&utm_source=api&utm_medium=external", "listing_type": "buy", "location_accuracy": 9, "longitude": -2.98197, "price": 215000, "price_currency": "\u00a3", "price_formatted": "\u00a3215,000", "price_high": 215000, "price_low": 215000, "price_type": "fixed", "property_type": "house", "size": 0, "size_type": "net", "summary": "A ly presented semi-detached town house built by barratt homes in 2...", "thumb_height": 60, "thumb_url": "https://imgs.nestimg.com/medium/3_bedroom_semi_detached_house_for_sale_111624982103745012.jpg", "thumb_width": 80, "title": "Hampstead Drive, Bridgwater, Somerset, TA6", "updated_in_days": 17, "updated_in_days_formatted": "first seen 2 weeks ago"}, {"bathroom_number": "", "bedroom_number": 3, "car_spaces": 0, "commission": 0, "construction_year": 0, "datasource_name": "OnTheMarket.com", "img_height": 300, "img_url": "https://imgs.nestimg.com/3_bedroom_bungalow_for_sale_111241503943882451.jpg", "img_width": 400, "keywords": "Detached, Garden, Conservatory, Refurbished, Kitchen, Bungalow, Parking, Cul-de-Sac", "latitude": 51.0081, "lister_name": "Stags", "lister_url": "https://www.nestoria.co.uk/detail/0000000111241503943882451/title/5/9-9?serpUid=&pt=1&ot=1&l=somerset&did=105_high1&t_sec=9&t_or=45&t_pvid=null&utm_source=api&utm_medium=external", "listing_type": "buy", "location_accuracy": 9, "longitude": -3.11207, "price": 350000, "price_currency": "\u00a3", "price_formatted": "\u00a3350,000", "price_high": 350000, "price_low": 350000, "price_type": "fixed", "property_type": "house", "size": 0, "size_type": "net", "summary": "A refurbished detached bungalow situated in a small cul-de-sac clos...", "thumb_height": 60, "thumb_url": "https://imgs.nestimg.com/medium/3_bedroom_bungalow_for_sale_111241503943882451.jpg", "thumb_width": 80, "title": "Wheatleigh Close, Taunton, Somerset, TA1", "updated_in_days": 79, "updated_in_days_formatted": "first seen over a month ago"}, {"bathroom_number": "", "bedroom_number": 2, "car_spaces": 0, "commission": 0, "construction_year": 0, "datasource_name": "OnTheMarket.com", "img_height": 300, "img_url": "https://imgs.nestimg.com/2_bedroom_end_of_terrace_house_for_sale_110846738506244961.jpg", "img_width": 400, "keywords": "Freehold, Garden, Terraced, Parking, Cottage", "latitude": 51.1268, "lister_name": "Greenslade Taylor Hunt", "lister_url": "https://www.nestoria.co.uk/detail/0000000110846738506244961/title/5/9-10?serpUid=&pt=1&ot=1&l=somerset&did=105_high1&t_sec=9&t_or=45&t_pvid=null&utm_source=api&utm_medium=external", "listing_type": "buy", "location_accuracy": 9, "longitude": -3.09873, "price": 189000, "price_currency": "\u00a3", "price_formatted": "\u00a3189,000", "price_high": 189000, "price_low": 189000, "price_type": "fixed", "property_type": "house", "size": 0, "size_type": "net", "summary": "A 2 bed end of terrace cottage with parking, garden and potential t...", "thumb_height": 60, "thumb_url": "https://imgs.nestimg.com/medium/2_bedroom_end_of_terrace_house_for_sale_110846738506244961.jpg", "thumb_width": 80, "title": "Four Forks Lane, Spaxton, Bridgwater, Somerset, TA5", "updated_in_days": 63, "updated_in_days_formatted": "first seen over a month ago"}, {"bathroom_number": "", "bedroom_number": 2, "car_spaces": 0, "commission": 0, "construction_year": 0, "datasource_name": "OnTheMarket.com", "img_height": 300, "img_url": "https://imgs.nestimg.com/2_bedroom_terraced_house_for_sale_110846737775245993.jpg", "img_width": 400, "keywords": "Freehold, Garden, Terraced, Parking", "latitude": 51.1268, "lister_name": "Greenslade Taylor Hunt", "lister_url": "https://www.nestoria.co.uk/detail/0000000110846737775245993/title/5/9-11?serpUid=&pt=1&ot=1&l=somerset&did=105_high1&t_sec=9&t_or=45&t_pvid=null&utm_source=api&utm_medium=external", "listing_type": "buy", "location_accuracy": 9, "longitude": -3.09873, "price": 189000, "price_currency": "\u00a3", "price_formatted": "\u00a3189,000", "price_high": 189000, "price_low": 189000, "price_type": "fixed", "property_type": "house", "size": 0, "size_type": "net", "summary": "A 2 bed mid-terrace property located in an period setting within th...", "thumb_height": 60, "thumb_url": "https://imgs.nestimg.com/medium/2_bedroom_terraced_house_for_sale_110846737775245993.jpg", "thumb_width": 80, "title": "Four Forks Lane, Spaxton, Bridgwater, Somerset, TA5", "updated_in_days": 63, "updated_in_days_formatted": "first seen over a month ago"}, {"bathroom_number": "", "bedroom_number": 2, "car_spaces": 0, "commission": 0, "construction_year": 0, "datasource_name": "OnTheMarket.com", "img_height": 300, "img_url": "https://imgs.nestimg.com/2_bedroom_end_of_terrace_house_for_sale_111631122889098150.jpg", "img_width": 400, "keywords": "Terraced, Kitchen, Cul-de-Sac", "latitude": 50.9997, "lister_name": "Newton King", "lister_url": "https://www.nestoria.co.uk/detail/0000000111631122889098150/title/5/9-12?serpUid=&pt=1&ot=1&l=somerset&did=105_high1&t_sec=9&t_or=45&t_pvid=null&utm_source=api&utm_medium=external", "listing_type": "buy", "location_accuracy": 9, "longitude": -3.08455, "price": 174995, "price_currency": "\u00a3", "price_formatted": "\u00a3174,995", "price_high": 174995, "price_low": 174995, "price_type": "fixed", "property_type": "house", "size": 0, "size_type": "net", "summary": "2 bedroom end terrace house situated in a quiet cul-de-sac location...", "thumb_height": 60, "thumb_url": "https://imgs.nestimg.com/medium/2_bedroom_end_of_terrace_house_for_sale_111631122889098150.jpg", "thumb_width": 80, "title": "Bilberry Grove, Taunton, Somerset", "updated_in_days": 16, "updated_in_days_formatted": "first seen 2 weeks ago"}, {"bathroom_number": "", "bedroom_number": 2, "car_spaces": 0, "commission": 0, "construction_year": 0, "datasource_name": "OnTheMarket.com", "img_height": 300, "img_url": "https://imgs.nestimg.com/2_bedroom_semi_detached_house_for_sale_111334258505063468.jpg", "img_width": 400, "keywords": "Share of Freehold, Garden, Semi-Detached, Parking, Shared Ownership", "latitude": 51.133, "lister_name": "Greenslade Taylor Hunt", "lister_url": "https://www.nestoria.co.uk/detail/0000000111334258505063468/title/5/9-13?serpUid=&pt=1&ot=1&l=somerset&did=105_high1&t_sec=9&t_or=45&t_pvid=null&utm_source=api&utm_medium=external", "listing_type": "buy", "location_accuracy": 9, "longitude": -2.97451, "price": 72500, "price_currency": "\u00a3", "price_formatted": "\u00a372,500", "price_high": 72500, "price_low": 72500, "price_type": "fixed", "property_type": "house", "size": 0, "size_type": "net", "summary": "A semi-detached 50/50 shared ownership property. With garden and dr...", "thumb_height": 60, "thumb_url": "https://imgs.nestimg.com/medium/2_bedroom_semi_detached_house_for_sale_111334258505063468.jpg", "thumb_width": 80, "title": "Larch Close, Bridgwater, Somerset, TA6", "updated_in_days": 64, "updated_in_days_formatted": "first seen over a month ago"}, {"bathroom_number": "", "bedroom_number": 3, "car_spaces": 0, "commission": 0, "construction_year": 0, "datasource_name": "OnTheMarket.com", "img_height": 300, "img_url": "https://imgs.nestimg.com/3_bedroom_semi_detached_house_for_sale_111284647553928944.jpg", "img_width": 400, "keywords": "Garden, Semi-Detached, Off Street Parking, Reception", "latitude": 51.0275, "lister_name": "Greenslade Taylor Hunt", "lister_url": "https://www.nestoria.co.uk/detail/0000000111284647553928944/title/5/9-14?serpUid=&pt=1&ot=1&l=somerset&did=105_high1&t_sec=9&t_or=45&t_pvid=null&utm_source=api&utm_medium=external", "listing_type": "buy", "location_accuracy": 9, "longitude": -3.1024, "price": 224950, "price_currency": "\u00a3", "price_formatted": "\u00a3224,950", "price_high": 224950, "price_low": 224950, "price_type": "fixed", "property_type": "house", "size": 0, "size_type": "net", "summary": "A recently renovated semi detached 1950s property offering 3 bedroo...", "thumb_height": 60, "thumb_url": "https://imgs.nestimg.com/medium/3_bedroom_semi_detached_house_for_sale_111284647553928944.jpg", "thumb_width": 80, "title": "George Street, Taunton, Somerset, TA2", "updated_in_days": 47, "updated_in_days_formatted": "first seen over a month ago"}, {"bathroom_number": "", "bedroom_number": 4, "car_spaces": 0, "commission": 0, "construction_year": 0, "datasource_name": "OnTheMarket.com", "img_height": 300, "img_url": "https://imgs.nestimg.com/4_bedroom_semi_detached_house_for_sale_110981939939067669.jpg", "img_width": 400, "keywords": "Freehold, Garden, Semi-Detached, Grade II, Garage, Basement, Listed", "latitude": 51.0279, "lister_name": "Greenslade Taylor Hunt", "lister_url": "https://www.nestoria.co.uk/detail/0000000110981939939067669/title/5/9-15?serpUid=&pt=1&ot=1&l=somerset&did=105_high1&t_sec=9&t_or=45&t_pvid=null&utm_source=api&utm_medium=external", "listing_type": "buy", "location_accuracy": 9, "longitude": -3.25856, "price": 450000, "price_currency": "\u00a3", "price_formatted": "\u00a3450,000", "price_high": 450000, "price_low": 450000, "price_type": "fixed", "property_type": "house", "size": 0, "size_type": "net", "summary": "A grade ii listed four bedroom village house with useful basement r...", "thumb_height": 60, "thumb_url": "https://imgs.nestimg.com/medium/4_bedroom_semi_detached_house_for_sale_110981939939067669.jpg", "thumb_width": 80, "title": "Wood Street, Milverton, Taunton, Somerset, TA4", "updated_in_days": 12, "updated_in_days_formatted": "first seen last week"}], "locations": [{"center_lat": 51.080967, "center_long": -3.045432, "long_title": "Somerset, county", "place_name": "somerset", "title": "Somerset"}], "page": 9, "sort": "nestoria_rank", "status_code": "200", "status_text": "OK", "thanks": "For using the Nestoria API.", "total_pages": 410, "total_results": 6149, "_cu5t0mP434m_": "remove"}}